what,kind,bundleId,bundleVersion,description,time
activated,workbench,org.eclipse.ui.workbench,3.7.1.v20120104-1859,"",1364443719211
deactivated,workbench,org.eclipse.ui.workbench,3.7.1.v20120104-1859,"",1364443719636
activated,workbench,org.eclipse.ui.workbench,3.7.1.v20120104-1859,"",1364443721174
executed,command,org.eclipse.ui.workbench.texteditor,3.7.0.v20110928-1504,"org.eclipse.ui.edit.text.select.lineStart",1364443721719
executed,command,org.eclipse.ui,3.7.0.v20110928-1505,"org.eclipse.ui.edit.paste",1364443722006
executed,command,org.eclipse.ui,3.7.0.v20110928-1505,"org.eclipse.ui.file.save",1364443722476
deactivated,workbench,org.eclipse.ui.workbench,3.7.1.v20120104-1859,"",1364443724162
activated,workbench,org.eclipse.ui.workbench,3.7.1.v20120104-1859,"",1364443725154
executed,command,org.eclipse.ui.workbench.texteditor,3.7.0.v20110928-1504,"org.eclipse.ui.edit.text.select.lineStart",1364443725758
executed,command,org.eclipse.ui,3.7.0.v20110928-1505,"org.eclipse.ui.edit.cut",1364443726149
executed,command,org.eclipse.ui.workbench.texteditor,3.7.0.v20110928-1504,"org.eclipse.ui.edit.text.goto.lineEnd",1364443729558
executed,command,org.eclipse.ui,3.7.0.v20110928-1505,"org.eclipse.ui.edit.text.contentAssist.proposals",1364443735529
executed,command,org.eclipse.ui,3.7.0.v20110928-1505,"org.eclipse.ui.edit.text.contentAssist.proposals",1364443744268
executed,command,org.eclipse.ui,3.7.0.v20110928-1505,"org.eclipse.ui.edit.paste",1364443749698
executed,command,org.eclipse.ui,3.7.0.v20110928-1505,"org.eclipse.ui.edit.undo",1364443750438
executed,command,org.eclipse.ui,3.7.0.v20110928-1505,"org.eclipse.ui.file.save",1364443750989
deactivated,workbench,org.eclipse.ui.workbench,3.7.1.v20120104-1859,"",1364443751441
activated,workbench,org.eclipse.ui.workbench,3.7.1.v20120104-1859,"",1364443752567
executed,command,org.eclipse.ui,3.7.0.v20110928-1505,"org.eclipse.ui.edit.paste",1364443754115
executed,command,org.eclipse.ui,3.7.0.v20110928-1505,"org.eclipse.ui.file.save",1364443755225
deactivated,workbench,org.eclipse.ui.workbench,3.7.1.v20120104-1859,"",1364443755529
activated,workbench,org.eclipse.ui.workbench,3.7.1.v20120104-1859,"",1364443756061
executed,command,org.eclipse.ui.workbench.texteditor,3.7.0.v20110928-1504,"org.eclipse.ui.edit.text.select.lineStart",1364443756675
executed,command,org.eclipse.ui,3.7.0.v20110928-1505,"org.eclipse.ui.edit.copy",1364443756957
executed,command,org.eclipse.ui.workbench.texteditor,3.7.0.v20110928-1504,"org.eclipse.ui.edit.text.goto.lineEnd",1364443757908
executed,command,org.eclipse.ui,3.7.0.v20110928-1505,"org.eclipse.ui.edit.paste",1364443758419
executed,command,org.eclipse.ui,3.7.0.v20110928-1505,"org.eclipse.ui.file.save",1364443760374
deactivated,workbench,org.eclipse.ui.workbench,3.7.1.v20120104-1859,"",1364443760666
activated,workbench,org.eclipse.ui.workbench,3.7.1.v20120104-1859,"",1364443762159
executed,command,org.eclipse.ui,3.7.0.v20110928-1505,"org.eclipse.ui.edit.undo",1364443763487
executed,command,org.eclipse.ui,3.7.0.v20110928-1505,"org.eclipse.ui.edit.undo",1364443763827
executed,command,org.eclipse.ui.workbench.texteditor,3.7.0.v20110928-1504,"org.eclipse.ui.edit.text.goto.lineEnd",1364443764549
executed,command,org.eclipse.ui.workbench.texteditor,3.7.0.v20110928-1504,"org.eclipse.ui.edit.text.select.lineStart",1364443764898
executed,command,org.eclipse.ui,3.7.0.v20110928-1505,"org.eclipse.ui.edit.undo",1364443765140
executed,command,org.eclipse.ui.workbench.texteditor,3.7.0.v20110928-1504,"org.eclipse.ui.edit.text.select.lineEnd",1364443766086
executed,command,org.eclipse.ui,3.7.0.v20110928-1505,"org.eclipse.ui.edit.cut",1364443766438
executed,command,org.eclipse.ui,3.7.0.v20110928-1505,"org.eclipse.ui.edit.undo",1364443767741
executed,command,org.eclipse.ui.workbench.texteditor,3.7.0.v20110928-1504,"org.eclipse.ui.edit.text.select.lineEnd",1364443769438
executed,command,org.eclipse.ui,3.7.0.v20110928-1505,"org.eclipse.ui.edit.cut",1364443769904
executed,command,org.eclipse.ui,3.7.0.v20110928-1505,"org.eclipse.ui.edit.undo",1364443770135
executed,command,org.eclipse.ui,3.7.0.v20110928-1505,"org.eclipse.ui.edit.cut",1364443771426
executed,command,org.eclipse.ui,3.7.0.v20110928-1505,"org.eclipse.ui.edit.undo",1364443771495
executed,command,org.eclipse.ui,3.7.0.v20110928-1505,"org.eclipse.ui.edit.cut",1364443772946
executed,command,org.eclipse.ui.workbench.texteditor,3.7.0.v20110928-1504,"org.eclipse.ui.edit.text.goto.lineEnd",1364443773853
executed,command,org.eclipse.ui,3.7.0.v20110928-1505,"org.eclipse.ui.edit.paste",1364443774433
executed,command,org.eclipse.ui,3.7.0.v20110928-1505,"org.eclipse.ui.file.save",1364443774807
deactivated,workbench,org.eclipse.ui.workbench,3.7.1.v20120104-1859,"",1364443775250
activated,workbench,org.eclipse.ui.workbench,3.7.1.v20120104-1859,"",1364443777692
executed,command,org.eclipse.ui,3.7.0.v20110928-1505,"org.eclipse.ui.file.save",1364443780838
deactivated,workbench,org.eclipse.ui.workbench,3.7.1.v20120104-1859,"",1364443781117
activated,workbench,org.eclipse.ui.workbench,3.7.1.v20120104-1859,"",1364443781742
executed,command,org.eclipse.ui,3.7.0.v20110928-1505,"org.eclipse.ui.file.save",1364443783370
deactivated,workbench,org.eclipse.ui.workbench,3.7.1.v20120104-1859,"",1364443783683
activated,workbench,org.eclipse.ui.workbench,3.7.1.v20120104-1859,"",1364443784193
executed,command,org.eclipse.ui,3.7.0.v20110928-1505,"org.eclipse.ui.file.save",1364443785743
deactivated,workbench,org.eclipse.ui.workbench,3.7.1.v20120104-1859,"",1364443786036
activated,workbench,org.eclipse.ui.workbench,3.7.1.v20120104-1859,"",1364443787522
deactivated,workbench,org.eclipse.ui.workbench,3.7.1.v20120104-1859,"",1364443788067
activated,workbench,org.eclipse.ui.workbench,3.7.1.v20120104-1859,"",1364443788466
executed,command,org.eclipse.ui,3.7.0.v20110928-1505,"org.eclipse.ui.file.save",1364443789686
deactivated,workbench,org.eclipse.ui.workbench,3.7.1.v20120104-1859,"",1364443789929
activated,workbench,org.eclipse.ui.workbench,3.7.1.v20120104-1859,"",1364443791354
executed,command,org.eclipse.ui,3.7.0.v20110928-1505,"org.eclipse.ui.file.save",1364443792829
deactivated,workbench,org.eclipse.ui.workbench,3.7.1.v20120104-1859,"",1364443793078
activated,workbench,org.eclipse.ui.workbench,3.7.1.v20120104-1859,"",1364443795023
executed,command,org.eclipse.ui,3.7.0.v20110928-1505,"org.eclipse.ui.file.save",1364443796570
deactivated,workbench,org.eclipse.ui.workbench,3.7.1.v20120104-1859,"",1364443796860
activated,workbench,org.eclipse.ui.workbench,3.7.1.v20120104-1859,"",1364443801347
executed,command,org.eclipse.ui,3.7.0.v20110928-1505,"org.eclipse.ui.file.save",1364443805100
deactivated,workbench,org.eclipse.ui.workbench,3.7.1.v20120104-1859,"",1364443805361
activated,workbench,org.eclipse.ui.workbench,3.7.1.v20120104-1859,"",1364443806741
executed,command,org.eclipse.ui,3.7.0.v20110928-1505,"org.eclipse.ui.file.save",1364443808123
deactivated,workbench,org.eclipse.ui.workbench,3.7.1.v20120104-1859,"",1364443808390
activated,workbench,org.eclipse.ui.workbench,3.7.1.v20120104-1859,"",1364443810709
executed,command,org.eclipse.ui,3.7.0.v20110928-1505,"org.eclipse.ui.file.save",1364443824205
deactivated,workbench,org.eclipse.ui.workbench,3.7.1.v20120104-1859,"",1364443824468
activated,workbench,org.eclipse.ui.workbench,3.7.1.v20120104-1859,"",1364443828533
executed,command,org.eclipse.ui,3.7.0.v20110928-1505,"org.eclipse.ui.file.save",1364443838653
deactivated,workbench,org.eclipse.ui.workbench,3.7.1.v20120104-1859,"",1364443838905
activated,workbench,org.eclipse.ui.workbench,3.7.1.v20120104-1859,"",1364444375904
activated,view,org.eclipse.ui.console,3.5.100.v20111007_r372,"org.eclipse.ui.console.ConsoleView",1364444376592
deactivated,workbench,org.eclipse.ui.workbench,3.7.1.v20120104-1859,"",1364444384447
activated,workbench,org.eclipse.ui.workbench,3.7.1.v20120104-1859,"",1364444447642
deactivated,workbench,org.eclipse.ui.workbench,3.7.1.v20120104-1859,"",1364444451016
activated,workbench,org.eclipse.ui.workbench,3.7.1.v20120104-1859,"",1364444567731
deactivated,workbench,org.eclipse.ui.workbench,3.7.1.v20120104-1859,"",1364444571524
activated,workbench,org.eclipse.ui.workbench,3.7.1.v20120104-1859,"",1364444572806
activated,editor,org.eclipse.jdt.ui,3.7.2.v20120109-1427,"org.eclipse.jdt.ui.CompilationUnitEditor",1364444573189
deactivated,workbench,org.eclipse.ui.workbench,3.7.1.v20120104-1859,"",1364444576109
activated,workbench,org.eclipse.ui.workbench,3.7.1.v20120104-1859,"",1364444682426
deactivated,workbench,org.eclipse.ui.workbench,3.7.1.v20120104-1859,"",1364444684673
activated,workbench,org.eclipse.ui.workbench,3.7.1.v20120104-1859,"",1364444824836
deactivated,workbench,org.eclipse.ui.workbench,3.7.1.v20120104-1859,"",1364444828968
activated,workbench,org.eclipse.ui.workbench,3.7.1.v20120104-1859,"",1364444868087
deactivated,workbench,org.eclipse.ui.workbench,3.7.1.v20120104-1859,"",1364444870876
activated,workbench,org.eclipse.ui.workbench,3.7.1.v20120104-1859,"",1364444876304
activated,editor,org.eclipse.jdt.ui,3.7.2.v20120109-1427,"org.eclipse.jdt.ui.CompilationUnitEditor",1364444876488
executed,command,org.eclipse.ui.ide,3.7.0.v20110928-1505,"org.eclipse.ui.navigate.openResource",1364444876491
activated,view,org.eclipse.jdt.ui,3.7.2.v20120109-1427,"org.eclipse.jdt.ui.TypeHierarchy",1364444881460
executed,command,org.eclipse.jdt.ui,3.7.2.v20120109-1427,"org.eclipse.jdt.ui.edit.text.java.open.type.hierarchy",1364444881570
deactivated,workbench,org.eclipse.ui.workbench,3.7.1.v20120104-1859,"",1364444884704
activated,workbench,org.eclipse.ui.workbench,3.7.1.v20120104-1859,"",1364444890966
deactivated,workbench,org.eclipse.ui.workbench,3.7.1.v20120104-1859,"",1364444891619
activated,workbench,org.eclipse.ui.workbench,3.7.1.v20120104-1859,"",1364444892079
opened,editor,org.eclipse.jdt.ui,3.7.2.v20120109-1427,"org.eclipse.jdt.ui.ClassFileEditor",1364444892849
activated,view,org.eclipse.ui.views,3.6.0.v20110928-1505,"org.eclipse.ui.views.ContentOutline",1364444895615
no handler,command,org.eclipse.ui,3.7.0.v20110928-1505,"org.eclipse.ui.edit.rename",1364444895827
deactivated,workbench,org.eclipse.ui.workbench,3.7.1.v20120104-1859,"",1364444896593
activated,workbench,org.eclipse.ui.workbench,3.7.1.v20120104-1859,"",1364445013151
activated,editor,org.eclipse.jdt.ui,3.7.2.v20120109-1427,"org.eclipse.jdt.ui.CompilationUnitEditor",1364445015934
activated,view,org.eclipse.ui.views,3.6.0.v20110928-1505,"org.eclipse.ui.views.ContentOutline",1364445019928
activated,editor,org.eclipse.jdt.ui,3.7.2.v20120109-1427,"org.eclipse.jdt.ui.CompilationUnitEditor",1364445035858
executed,command,org.eclipse.ui,3.7.0.v20110928-1505,"org.eclipse.ui.edit.copy",1364445036520
executed,command,org.eclipse.ui,3.7.0.v20110928-1505,"org.eclipse.ui.edit.paste",1364445040285
deactivated,workbench,org.eclipse.ui.workbench,3.7.1.v20120104-1859,"",1364445048261
activated,workbench,org.eclipse.ui.workbench,3.7.1.v20120104-1859,"",1364445130096
deactivated,workbench,org.eclipse.ui.workbench,3.7.1.v20120104-1859,"",1364445133131
executed,command,org.eclipse.ui.workbench.texteditor,3.7.0.v20110928-1504,"org.eclipse.ui.edit.text.showInformation",1364445133171
activated,workbench,org.eclipse.ui.workbench,3.7.1.v20120104-1859,"",1364445133755
opened,editor,org.eclipse.jdt.ui,3.7.2.v20120109-1427,"org.eclipse.jdt.ui.ClassFileEditor",1364445134368
activated,editor,org.eclipse.jdt.ui,3.7.2.v20120109-1427,"org.eclipse.jdt.ui.ClassFileEditor",1364445134564
executed,command,org.eclipse.jdt.ui,3.7.2.v20120109-1427,"org.eclipse.jdt.ui.edit.text.java.open.editor",1364445134583
activated,editor,org.eclipse.jdt.ui,3.7.2.v20120109-1427,"org.eclipse.jdt.ui.CompilationUnitEditor",1364445136390
activated,editor,org.eclipse.jdt.ui,3.7.2.v20120109-1427,"org.eclipse.jdt.ui.ClassFileEditor",1364445137171
executed,command,org.eclipse.jdt.ui,3.7.2.v20120109-1427,"org.eclipse.jdt.ui.edit.text.java.open.editor",1364445137185
activated,editor,org.eclipse.jdt.ui,3.7.2.v20120109-1427,"org.eclipse.jdt.ui.CompilationUnitEditor",1364445138758
activated,view,org.eclipse.jdt.ui,3.7.2.v20120109-1427,"org.eclipse.jdt.ui.TypeHierarchy",1364445140071
executed,command,org.eclipse.jdt.ui,3.7.2.v20120109-1427,"org.eclipse.jdt.ui.edit.text.java.open.type.hierarchy",1364445140198
deactivated,workbench,org.eclipse.ui.workbench,3.7.1.v20120104-1859,"",1364445143163
activated,workbench,org.eclipse.ui.workbench,3.7.1.v20120104-1859,"",1364445150100
activated,editor,org.eclipse.jdt.ui,3.7.2.v20120109-1427,"org.eclipse.jdt.ui.CompilationUnitEditor",1364445150897
executed,command,org.eclipse.ui,3.7.0.v20110928-1505,"org.eclipse.ui.edit.text.contentAssist.proposals",1364445151789
executed,command,org.eclipse.ui,3.7.0.v20110928-1505,"org.eclipse.ui.edit.text.contentAssist.proposals",1364445153160
executed,command,org.eclipse.ui,3.7.0.v20110928-1505,"org.eclipse.ui.edit.undo",1364445157476
executed,command,org.eclipse.ui,3.7.0.v20110928-1505,"org.eclipse.ui.edit.undo",1364445157727
executed,command,org.eclipse.ui,3.7.0.v20110928-1505,"org.eclipse.ui.edit.undo",1364445157805
executed,command,org.eclipse.ui,3.7.0.v20110928-1505,"org.eclipse.ui.edit.undo",1364445157853
executed,command,org.eclipse.ui,3.7.0.v20110928-1505,"org.eclipse.ui.edit.undo",1364445157947
executed,command,org.eclipse.ui,3.7.0.v20110928-1505,"org.eclipse.ui.edit.undo",1364445158037
executed,command,org.eclipse.ui,3.7.0.v20110928-1505,"org.eclipse.ui.edit.undo",1364445158084
executed,command,org.eclipse.ui.workbench.texteditor,3.7.0.v20110928-1504,"org.eclipse.ui.edit.text.select.lineStart",1364445159061
executed,command,org.eclipse.ui.workbench.texteditor,3.7.0.v20110928-1504,"org.eclipse.ui.edit.text.select.lineStart",1364445160042
executed,command,org.eclipse.ui.workbench.texteditor,3.7.0.v20110928-1504,"org.eclipse.ui.edit.text.goto.lineEnd",1364445161044
executed,command,org.eclipse.ui,3.7.0.v20110928-1505,"org.eclipse.ui.edit.undo",1364445163693
executed,command,org.eclipse.ui.workbench.texteditor,3.7.0.v20110928-1504,"org.eclipse.ui.edit.text.select.lineStart",1364445164404
executed,command,org.eclipse.ui,3.7.0.v20110928-1505,"org.eclipse.ui.edit.text.contentAssist.proposals",1364445166244
executed,command,org.eclipse.ui,3.7.0.v20110928-1505,"org.eclipse.ui.edit.text.contentAssist.proposals",1364445167472
deactivated,workbench,org.eclipse.ui.workbench,3.7.1.v20120104-1859,"",1364445181131
activated,workbench,org.eclipse.ui.workbench,3.7.1.v20120104-1859,"",1364445186376
opened,editor,org.eclipse.jdt.ui,3.7.2.v20120109-1427,"org.eclipse.jdt.ui.CompilationUnitEditor",1364445186609
activated,editor,org.eclipse.jdt.ui,3.7.2.v20120109-1427,"org.eclipse.jdt.ui.CompilationUnitEditor",1364445186769
executed,command,org.eclipse.ui.ide,3.7.0.v20110928-1505,"org.eclipse.ui.navigate.openResource",1364445186779
executed,command,org.eclipse.ui.workbench.texteditor,3.7.0.v20110928-1504,"org.eclipse.ui.edit.text.goto.lineEnd",1364445196923
executed,command,org.eclipse.ui.workbench.texteditor,3.7.0.v20110928-1504,"org.eclipse.ui.edit.text.goto.lineEnd",1364445197964
executed,command,org.eclipse.ui,3.7.0.v20110928-1505,"org.eclipse.ui.edit.text.contentAssist.proposals",1364445200287
executed,command,org.eclipse.ui,3.7.0.v20110928-1505,"org.eclipse.ui.edit.text.contentAssist.proposals",1364445205395
executed,command,org.eclipse.ui.workbench.texteditor,3.7.0.v20110928-1504,"org.eclipse.ui.edit.text.select.lineEnd",1364445211252
executed,command,org.eclipse.ui,3.7.0.v20110928-1505,"org.eclipse.ui.edit.text.contentAssist.proposals",1364445213438
executed,command,org.eclipse.ui,3.7.0.v20110928-1505,"org.eclipse.ui.edit.text.contentAssist.proposals",1364445233390
deactivated,workbench,org.eclipse.ui.workbench,3.7.1.v20120104-1859,"",1364445253816
activated,workbench,org.eclipse.ui.workbench,3.7.1.v20120104-1859,"",1364445255825
opened,editor,org.eclipse.jdt.ui,3.7.2.v20120109-1427,"org.eclipse.jdt.ui.CompilationUnitEditor",1364445256059
activated,editor,org.eclipse.jdt.ui,3.7.2.v20120109-1427,"org.eclipse.jdt.ui.CompilationUnitEditor",1364445256219
executed,command,org.eclipse.ui.ide,3.7.0.v20110928-1505,"org.eclipse.ui.navigate.openResource",1364445256227
activated,editor,org.eclipse.jdt.ui,3.7.2.v20120109-1427,"org.eclipse.jdt.ui.CompilationUnitEditor",1364445274258
executed,command,org.eclipse.ui,3.7.0.v20110928-1505,"org.eclipse.ui.file.save",1364445275873
deactivated,workbench,org.eclipse.ui.workbench,3.7.1.v20120104-1859,"",1364445276520
activated,workbench,org.eclipse.ui.workbench,3.7.1.v20120104-1859,"",1364445279886
activated,editor,org.eclipse.jdt.ui,3.7.2.v20120109-1427,"org.eclipse.jdt.ui.CompilationUnitEditor",1364445283383
activated,editor,org.eclipse.jdt.ui,3.7.2.v20120109-1427,"org.eclipse.jdt.ui.CompilationUnitEditor",1364445285160
deactivated,workbench,org.eclipse.ui.workbench,3.7.1.v20120104-1859,"",1364445285677
activated,workbench,org.eclipse.ui.workbench,3.7.1.v20120104-1859,"",1364445288349
activated,editor,org.eclipse.jdt.ui,3.7.2.v20120109-1427,"org.eclipse.jdt.ui.CompilationUnitEditor",1364445288519
executed,command,org.eclipse.ui.ide,3.7.0.v20110928-1505,"org.eclipse.ui.navigate.openResource",1364445288531
executed,command,org.eclipse.jdt.ui,3.7.2.v20120109-1427,"org.eclipse.jdt.ui.edit.text.java.toggle.comment",1364445292242
activated,editor,org.eclipse.jdt.ui,3.7.2.v20120109-1427,"org.eclipse.jdt.ui.CompilationUnitEditor",1364445293688
executed,command,org.eclipse.jdt.ui,3.7.2.v20120109-1427,"org.eclipse.jdt.ui.edit.text.java.open.editor",1364445293689
activated,editor,org.eclipse.jdt.ui,3.7.2.v20120109-1427,"org.eclipse.jdt.ui.CompilationUnitEditor",1364445304704
executed,command,org.eclipse.ui,3.7.0.v20110928-1505,"org.eclipse.ui.edit.undo",1364445306643
activated,editor,org.eclipse.jdt.ui,3.7.2.v20120109-1427,"org.eclipse.jdt.ui.CompilationUnitEditor",1364445308874
activated,editor,org.eclipse.jdt.ui,3.7.2.v20120109-1427,"org.eclipse.jdt.ui.CompilationUnitEditor",1364445310010
deactivated,workbench,org.eclipse.ui.workbench,3.7.1.v20120104-1859,"",1364445312858
activated,workbench,org.eclipse.ui.workbench,3.7.1.v20120104-1859,"",1364445315214
executed,command,org.eclipse.ui,3.7.0.v20110928-1505,"org.eclipse.ui.edit.text.contentAssist.proposals",1364445321188
executed,command,org.eclipse.ui,3.7.0.v20110928-1505,"org.eclipse.ui.edit.text.contentAssist.proposals",1364445328322
executed,command,org.eclipse.ui,3.7.0.v20110928-1505,"org.eclipse.ui.edit.copy",1364445339562
deactivated,workbench,org.eclipse.ui.workbench,3.7.1.v20120104-1859,"",1364445340459
activated,view,org.eclipse.search,3.7.0.v20110928-1504,"org.eclipse.search.ui.views.SearchView",1364445342292
activated,workbench,org.eclipse.ui.workbench,3.7.1.v20120104-1859,"",1364445342465
executed,command,org.eclipse.search,3.7.0.v20110928-1504,"org.eclipse.search.ui.openSearchDialog",1364445345036
deactivated,workbench,org.eclipse.ui.workbench,3.7.1.v20120104-1859,"",1364445345886
activated,workbench,org.eclipse.ui.workbench,3.7.1.v20120104-1859,"",1364445349715
activated,editor,org.eclipse.jdt.ui,3.7.2.v20120109-1427,"org.eclipse.jdt.ui.CompilationUnitEditor",1364445353733
activated,view,org.eclipse.search,3.7.0.v20110928-1504,"org.eclipse.search.ui.views.SearchView",1364445355305
opened,editor,org.eclipse.jdt.ui,3.7.2.v20120109-1427,"org.eclipse.jdt.ui.CompilationUnitEditor",1364445355651
activated,editor,org.eclipse.jdt.ui,3.7.2.v20120109-1427,"org.eclipse.jdt.ui.CompilationUnitEditor",1364445358775
executed,command,org.eclipse.ui,3.7.0.v20110928-1505,"org.eclipse.ui.edit.copy",1364445361021
activated,editor,org.eclipse.jdt.ui,3.7.2.v20120109-1427,"org.eclipse.jdt.ui.CompilationUnitEditor",1364445362548
executed,command,org.eclipse.ui,3.7.0.v20110928-1505,"org.eclipse.ui.edit.undo",1364445363601
executed,command,org.eclipse.ui,3.7.0.v20110928-1505,"org.eclipse.ui.file.save",1364445365523
activated,editor,org.eclipse.jdt.ui,3.7.2.v20120109-1427,"org.eclipse.jdt.ui.CompilationUnitEditor",1364445366528
executed,command,org.eclipse.ui,3.7.0.v20110928-1505,"org.eclipse.ui.edit.paste",1364445368695
executed,command,org.eclipse.ui,3.7.0.v20110928-1505,"org.eclipse.ui.file.save",1364445370586
activated,view,org.eclipse.debug.ui,3.7.102.v20111129-1423_r372,"org.eclipse.debug.ui.DebugView",1364445372020
executed,command,org.eclipse.debug.ui,3.7.102.v20111129-1423_r372,"org.eclipse.debug.ui.commands.Terminate",1364445373662
deactivated,workbench,org.eclipse.ui.workbench,3.7.1.v20120104-1859,"",1364445377324
activated,workbench,org.eclipse.ui.workbench,3.7.1.v20120104-1859,"",1364445390657
activated,editor,org.eclipse.jdt.ui,3.7.2.v20120109-1427,"org.eclipse.jdt.ui.CompilationUnitEditor",1364445392679
executed,command,org.eclipse.ui.workbench.texteditor,3.7.0.v20110928-1504,"org.eclipse.ui.edit.text.goto.lineEnd",1364445395579
activated,editor,org.eclipse.jdt.ui,3.7.2.v20120109-1427,"org.eclipse.jdt.ui.CompilationUnitEditor",1364445397266
executed,command,org.eclipse.ui.workbench.texteditor,3.7.0.v20110928-1504,"org.eclipse.ui.edit.text.select.lineStart",1364445399883
executed,command,org.eclipse.ui,3.7.0.v20110928-1505,"org.eclipse.ui.edit.copy",1364445400223
activated,editor,org.eclipse.jdt.ui,3.7.2.v20120109-1427,"org.eclipse.jdt.ui.CompilationUnitEditor",1364445401188
activated,editor,org.eclipse.jdt.ui,3.7.2.v20120109-1427,"org.eclipse.jdt.ui.CompilationUnitEditor",1364445401967
executed,command,org.eclipse.ui,3.7.0.v20110928-1505,"org.eclipse.ui.edit.paste",1364445403947
executed,command,org.eclipse.ui,3.7.0.v20110928-1505,"org.eclipse.ui.edit.selectAll",1364445405317
executed,command,org.eclipse.jdt.ui,3.7.2.v20120109-1427,"org.eclipse.jdt.ui.edit.text.java.indent",1364445405584
executed,command,org.eclipse.ui,3.7.0.v20110928-1505,"org.eclipse.ui.file.save",1364445410575
deactivated,workbench,org.eclipse.ui.workbench,3.7.1.v20120104-1859,"",1364445411008
activated,workbench,org.eclipse.ui.workbench,3.7.1.v20120104-1859,"",1364445411743
deactivated,workbench,org.eclipse.ui.workbench,3.7.1.v20120104-1859,"",1364445420599
activated,workbench,org.eclipse.ui.workbench,3.7.1.v20120104-1859,"",1364445423515
executed,command,org.eclipse.ui,3.7.0.v20110928-1505,"org.eclipse.ui.file.save",1364445424002
deactivated,workbench,org.eclipse.ui.workbench,3.7.1.v20120104-1859,"",1364445424333
activated,workbench,org.eclipse.ui.workbench,3.7.1.v20120104-1859,"",1364445425275
deactivated,workbench,org.eclipse.ui.workbench,3.7.1.v20120104-1859,"",1364445427267
activated,workbench,org.eclipse.ui.workbench,3.7.1.v20120104-1859,"",1364445434597
executed,command,org.eclipse.ui,3.7.0.v20110928-1505,"org.eclipse.ui.file.save",1364445438095
deactivated,workbench,org.eclipse.ui.workbench,3.7.1.v20120104-1859,"",1364445438382
activated,workbench,org.eclipse.ui.workbench,3.7.1.v20120104-1859,"",1364445439678
deactivated,workbench,org.eclipse.ui.workbench,3.7.1.v20120104-1859,"",1364445440060
activated,workbench,org.eclipse.ui.workbench,3.7.1.v20120104-1859,"",1364445440704
executed,command,org.eclipse.jdt.ui,3.7.2.v20120109-1427,"org.eclipse.jdt.ui.edit.text.java.toggle.comment",1364445441894
executed,command,org.eclipse.ui,3.7.0.v20110928-1505,"org.eclipse.ui.edit.undo",1364445443100
executed,command,org.eclipse.jdt.ui,3.7.2.v20120109-1427,"org.eclipse.jdt.ui.edit.text.java.toggle.comment",1364445443708
executed,command,org.eclipse.ui,3.7.0.v20110928-1505,"org.eclipse.ui.file.save",1364445443936
deactivated,workbench,org.eclipse.ui.workbench,3.7.1.v20120104-1859,"",1364445444211
activated,workbench,org.eclipse.ui.workbench,3.7.1.v20120104-1859,"",1364445445124
executed,command,org.eclipse.jdt.ui,3.7.2.v20120109-1427,"org.eclipse.jdt.ui.edit.text.java.toggle.comment",1364445446188
executed,command,org.eclipse.ui,3.7.0.v20110928-1505,"org.eclipse.ui.file.save",1364445446626
deactivated,workbench,org.eclipse.ui.workbench,3.7.1.v20120104-1859,"",1364445446962
activated,workbench,org.eclipse.ui.workbench,3.7.1.v20120104-1859,"",1364445449812
executed,command,org.eclipse.ui.workbench.texteditor,3.7.0.v20110928-1504,"org.eclipse.ui.edit.text.goto.lineEnd",1364445451525
executed,command,org.eclipse.ui,3.7.0.v20110928-1505,"org.eclipse.ui.edit.text.contentAssist.proposals",1364445452741
executed,command,org.eclipse.ui,3.7.0.v20110928-1505,"org.eclipse.ui.file.save",1364445457713
deactivated,workbench,org.eclipse.ui.workbench,3.7.1.v20120104-1859,"",1364445457965
activated,workbench,org.eclipse.ui.workbench,3.7.1.v20120104-1859,"",1364445459328
executed,command,org.eclipse.ui,3.7.0.v20110928-1505,"org.eclipse.ui.file.save",1364445461774
deactivated,workbench,org.eclipse.ui.workbench,3.7.1.v20120104-1859,"",1364445462049
activated,workbench,org.eclipse.ui.workbench,3.7.1.v20120104-1859,"",1364445466233
deactivated,workbench,org.eclipse.ui.workbench,3.7.1.v20120104-1859,"",1364445466842
activated,workbench,org.eclipse.ui.workbench,3.7.1.v20120104-1859,"",1364445467490
deactivated,workbench,org.eclipse.ui.workbench,3.7.1.v20120104-1859,"",1364445469118
activated,workbench,org.eclipse.ui.workbench,3.7.1.v20120104-1859,"",1364445533024
executed,command,org.eclipse.ui.workbench.texteditor,3.7.0.v20110928-1504,"org.eclipse.ui.edit.text.goto.lineEnd",1364445534631
deactivated,workbench,org.eclipse.ui.workbench,3.7.1.v20120104-1859,"",1364445537988
activated,workbench,org.eclipse.ui.workbench,3.7.1.v20120104-1859,"",1364445540363
deactivated,workbench,org.eclipse.ui.workbench,3.7.1.v20120104-1859,"",1364445545049
activated,workbench,org.eclipse.ui.workbench,3.7.1.v20120104-1859,"",1364445546674
executed,command,org.eclipse.ui,3.7.0.v20110928-1505,"org.eclipse.ui.edit.undo",1364445547284
executed,command,org.eclipse.ui,3.7.0.v20110928-1505,"org.eclipse.ui.edit.text.contentAssist.proposals",1364445548315
deactivated,workbench,org.eclipse.ui.workbench,3.7.1.v20120104-1859,"",1364445550618
activated,workbench,org.eclipse.ui.workbench,3.7.1.v20120104-1859,"",1364445570581
executed,command,org.eclipse.ui.workbench.texteditor,3.7.0.v20110928-1504,"org.eclipse.ui.edit.text.select.lineStart",1364445571671
executed,command,org.eclipse.ui,3.7.0.v20110928-1505,"org.eclipse.ui.edit.paste",1364445571970
executed,command,org.eclipse.ui,3.7.0.v20110928-1505,"org.eclipse.ui.edit.copy",1364445575054
executed,command,org.eclipse.ui,3.7.0.v20110928-1505,"org.eclipse.ui.edit.paste",1364445576436
executed,command,org.eclipse.ui.workbench.texteditor,3.7.0.v20110928-1504,"org.eclipse.ui.edit.text.select.lineEnd",1364445582078
executed,command,org.eclipse.ui,3.7.0.v20110928-1505,"org.eclipse.ui.edit.text.contentAssist.proposals",1364445583415
no handler,command,org.eclipse.ui.workbench.texteditor,3.7.0.v20110928-1504,"org.eclipse.ui.edit.text.goto.lineEnd",1364445584525
no handler,command,org.eclipse.ui.workbench.texteditor,3.7.0.v20110928-1504,"org.eclipse.ui.edit.text.goto.lineEnd",1364445584525
executed,command,org.eclipse.ui,3.7.0.v20110928-1505,"org.eclipse.ui.edit.text.contentAssist.proposals",1364445585747
deactivated,workbench,org.eclipse.ui.workbench,3.7.1.v20120104-1859,"",1364445587576
activated,workbench,org.eclipse.ui.workbench,3.7.1.v20120104-1859,"",1364445612028
executed,command,org.eclipse.ui.workbench.texteditor,3.7.0.v20110928-1504,"org.eclipse.ui.edit.text.select.lineEnd",1364445613902
