what,kind,bundleId,bundleVersion,description,time
activated,view,org.eclipse.debug.ui,3.7.102.v20111129-1423_r372,"org.eclipse.debug.ui.DebugView",1363063826830
executed,command,org.eclipse.debug.ui,3.7.102.v20111129-1423_r372,"org.eclipse.debug.ui.commands.Resume",1363063826936
deactivated,workbench,org.eclipse.ui.workbench,3.7.1.v20120104-1859,"",1363063829327
activated,workbench,org.eclipse.ui.workbench,3.7.1.v20120104-1859,"",1363063831356
activated,editor,org.eclipse.jdt.ui,3.7.2.v20120109-1427,"org.eclipse.jdt.ui.CompilationUnitEditor",1363063833216
executed,command,,,"AUTOGEN:::org.eclipse.jdt.debug.CompilationUnitEditor.BreakpointRulerActions/org.eclipse.jdt.debug.ui.actions.ManageBreakpointRulerAction",1363063833383
executed,command,,,"AUTOGEN:::org.eclipse.jdt.debug.CompilationUnitEditor.BreakpointRulerActions/org.eclipse.jdt.debug.ui.actions.ManageBreakpointRulerAction",1363063841434
activated,view,org.eclipse.debug.ui,3.7.102.v20111129-1423_r372,"org.eclipse.debug.ui.DebugView",1363063843536
executed,command,org.eclipse.debug.ui,3.7.102.v20111129-1423_r372,"org.eclipse.debug.ui.commands.Resume",1363063843634
deactivated,workbench,org.eclipse.ui.workbench,3.7.1.v20120104-1859,"",1363063846182
activated,workbench,org.eclipse.ui.workbench,3.7.1.v20120104-1859,"",1363063847200
activated,editor,org.eclipse.jdt.ui,3.7.2.v20120109-1427,"org.eclipse.jdt.ui.CompilationUnitEditor",1363063849478
executed,command,,,"AUTOGEN:::org.eclipse.jdt.debug.CompilationUnitEditor.BreakpointRulerActions/org.eclipse.jdt.debug.ui.actions.ManageBreakpointRulerAction",1363063849636
activated,view,org.eclipse.debug.ui,3.7.102.v20111129-1423_r372,"org.eclipse.debug.ui.DebugView",1363063851447
executed,command,org.eclipse.debug.ui,3.7.102.v20111129-1423_r372,"org.eclipse.debug.ui.commands.Resume",1363063851542
executed,command,org.eclipse.debug.ui,3.7.102.v20111129-1423_r372,"org.eclipse.debug.ui.commands.Resume",1363063852841
activated,editor,org.eclipse.jdt.ui,3.7.2.v20120109-1427,"org.eclipse.jdt.ui.CompilationUnitEditor",1363063854625
executed,command,,,"AUTOGEN:::org.eclipse.jdt.debug.CompilationUnitEditor.BreakpointRulerActions/org.eclipse.jdt.debug.ui.actions.ManageBreakpointRulerAction",1363063854758
activated,view,org.eclipse.debug.ui,3.7.102.v20111129-1423_r372,"org.eclipse.debug.ui.DebugView",1363063855955
executed,command,org.eclipse.debug.ui,3.7.102.v20111129-1423_r372,"org.eclipse.debug.ui.commands.Resume",1363063856045
deactivated,workbench,org.eclipse.ui.workbench,3.7.1.v20120104-1859,"",1363063857740
activated,workbench,org.eclipse.ui.workbench,3.7.1.v20120104-1859,"",1363063892994
deactivated,workbench,org.eclipse.ui.workbench,3.7.1.v20120104-1859,"",1363063929362
activated,workbench,org.eclipse.ui.workbench,3.7.1.v20120104-1859,"",1363063933904
activated,editor,org.eclipse.jdt.ui,3.7.2.v20120109-1427,"org.eclipse.jdt.ui.CompilationUnitEditor",1363063934418
deactivated,workbench,org.eclipse.ui.workbench,3.7.1.v20120104-1859,"",1363063935036
activated,workbench,org.eclipse.ui.workbench,3.7.1.v20120104-1859,"",1363063940851
activated,editor,org.eclipse.jdt.ui,3.7.2.v20120109-1427,"org.eclipse.jdt.ui.CompilationUnitEditor",1363063941020
executed,command,org.eclipse.ui.ide,3.7.0.v20110928-1505,"org.eclipse.ui.navigate.openResource",1363063941022
executed,command,org.eclipse.ui,3.7.0.v20110928-1505,"org.eclipse.ui.edit.copy",1363063960272
activated,perspective,org.eclipse.jdt.ui,3.7.2.v20120109-1427,"org.eclipse.jdt.ui.JavaPerspective",1363063961951
deactivated,workbench,org.eclipse.ui.workbench,3.7.1.v20120104-1859,"",1363063962910
activated,workbench,org.eclipse.ui.workbench,3.7.1.v20120104-1859,"",1363063967017
activated,editor,org.eclipse.jdt.ui,3.7.2.v20120109-1427,"org.eclipse.jdt.ui.CompilationUnitEditor",1363063967195
executed,command,org.eclipse.ui.ide,3.7.0.v20110928-1505,"org.eclipse.ui.navigate.openResource",1363063967197
deactivated,workbench,org.eclipse.ui.workbench,3.7.1.v20120104-1859,"",1363063967908
activated,workbench,org.eclipse.ui.workbench,3.7.1.v20120104-1859,"",1363063980890
opened,editor,org.eclipse.jdt.ui,3.7.2.v20120109-1427,"org.eclipse.jdt.ui.CompilationUnitEditor",1363063981133
activated,editor,org.eclipse.jdt.ui,3.7.2.v20120109-1427,"org.eclipse.jdt.ui.CompilationUnitEditor",1363063981333
executed,command,org.eclipse.ui.ide,3.7.0.v20110928-1505,"org.eclipse.ui.navigate.openResource",1363063981336
opened,editor,org.eclipse.jdt.ui,3.7.2.v20120109-1427,"org.eclipse.jdt.ui.CompilationUnitEditor",1363063987377
activated,editor,org.eclipse.jdt.ui,3.7.2.v20120109-1427,"org.eclipse.jdt.ui.CompilationUnitEditor",1363063987519
activated,editor,org.eclipse.jdt.ui,3.7.2.v20120109-1427,"org.eclipse.jdt.ui.ClassFileEditor",1363063989655
activated,editor,org.eclipse.jdt.ui,3.7.2.v20120109-1427,"org.eclipse.jdt.ui.CompilationUnitEditor",1363063991629
executed,command,org.eclipse.ui,3.7.0.v20110928-1505,"org.eclipse.ui.navigate.backwardHistory",1363063991658
executed,command,org.eclipse.ui,3.7.0.v20110928-1505,"org.eclipse.ui.edit.copy",1363063996253
executed,command,org.eclipse.ui,3.7.0.v20110928-1505,"org.eclipse.ui.edit.copy",1363063997963
deactivated,workbench,org.eclipse.ui.workbench,3.7.1.v20120104-1859,"",1363063998364
activated,workbench,org.eclipse.ui.workbench,3.7.1.v20120104-1859,"",1363064004881
opened,editor,org.eclipse.jdt.ui,3.7.2.v20120109-1427,"org.eclipse.jdt.ui.CompilationUnitEditor",1363064005115
activated,editor,org.eclipse.jdt.ui,3.7.2.v20120109-1427,"org.eclipse.jdt.ui.CompilationUnitEditor",1363064005270
executed,command,org.eclipse.ui.ide,3.7.0.v20110928-1505,"org.eclipse.ui.navigate.openResource",1363064005273
activated,editor,org.eclipse.jdt.ui,3.7.2.v20120109-1427,"org.eclipse.jdt.ui.CompilationUnitEditor",1363064009038
opened,editor,org.eclipse.jdt.ui,3.7.2.v20120109-1427,"org.eclipse.jdt.ui.CompilationUnitEditor",1363064013967
activated,editor,org.eclipse.jdt.ui,3.7.2.v20120109-1427,"org.eclipse.jdt.ui.CompilationUnitEditor",1363064014116
executed,command,org.eclipse.ui,3.7.0.v20110928-1505,"org.eclipse.ui.edit.copy",1363064020246
deactivated,workbench,org.eclipse.ui.workbench,3.7.1.v20120104-1859,"",1363064020770
executed,command,org.eclipse.ui,3.7.0.v20110928-1505,"org.eclipse.ui.edit.paste",1363064021119
activated,workbench,org.eclipse.ui.workbench,3.7.1.v20120104-1859,"",1363064023959
opened,editor,org.eclipse.jdt.ui,3.7.2.v20120109-1427,"org.eclipse.jdt.ui.CompilationUnitEditor",1363064024183
activated,editor,org.eclipse.jdt.ui,3.7.2.v20120109-1427,"org.eclipse.jdt.ui.CompilationUnitEditor",1363064024327
executed,command,org.eclipse.ui.ide,3.7.0.v20110928-1505,"org.eclipse.ui.navigate.openResource",1363064024329
activated,editor,org.eclipse.jdt.ui,3.7.2.v20120109-1427,"org.eclipse.jdt.ui.CompilationUnitEditor",1363064026650
executed,command,org.eclipse.ui,3.7.0.v20110928-1505,"org.eclipse.ui.navigate.backwardHistory",1363064026671
deactivated,workbench,org.eclipse.ui.workbench,3.7.1.v20120104-1859,"",1363064027867
activated,workbench,org.eclipse.ui.workbench,3.7.1.v20120104-1859,"",1363064036252
opened,editor,org.eclipse.jdt.ui,3.7.2.v20120109-1427,"org.eclipse.jdt.ui.CompilationUnitEditor",1363064036582
activated,editor,org.eclipse.jdt.ui,3.7.2.v20120109-1427,"org.eclipse.jdt.ui.CompilationUnitEditor",1363064036731
executed,command,org.eclipse.ui.ide,3.7.0.v20110928-1505,"org.eclipse.ui.navigate.openResource",1363064036734
executed,command,org.eclipse.ui.workbench.texteditor,3.7.0.v20110928-1504,"org.eclipse.ui.edit.text.goto.lineEnd",1363064040604
executed,command,org.eclipse.ui.workbench.texteditor,3.7.0.v20110928-1504,"org.eclipse.ui.edit.text.select.lineStart",1363064041330
executed,command,org.eclipse.ui,3.7.0.v20110928-1505,"org.eclipse.ui.edit.copy",1363064041694
activated,editor,org.eclipse.jdt.ui,3.7.2.v20120109-1427,"org.eclipse.jdt.ui.CompilationUnitEditor",1363064045245
opened,editor,org.eclipse.jdt.ui,3.7.2.v20120109-1427,"org.eclipse.jdt.ui.CompilationUnitEditor",1363064048154
activated,editor,org.eclipse.jdt.ui,3.7.2.v20120109-1427,"org.eclipse.jdt.ui.CompilationUnitEditor",1363064048309
deactivated,workbench,org.eclipse.ui.workbench,3.7.1.v20120104-1859,"",1363064054779
activated,workbench,org.eclipse.ui.workbench,3.7.1.v20120104-1859,"",1363064058491
opened,editor,org.eclipse.jdt.ui,3.7.2.v20120109-1427,"org.eclipse.jdt.ui.CompilationUnitEditor",1363064058832
activated,editor,org.eclipse.jdt.ui,3.7.2.v20120109-1427,"org.eclipse.jdt.ui.CompilationUnitEditor",1363064058988
executed,command,org.eclipse.ui.ide,3.7.0.v20110928-1505,"org.eclipse.ui.navigate.openResource",1363064058991
activated,editor,org.eclipse.jdt.ui,3.7.2.v20120109-1427,"org.eclipse.jdt.ui.CompilationUnitEditor",1363064062102
activated,editor,org.eclipse.jdt.ui,3.7.2.v20120109-1427,"org.eclipse.jdt.ui.CompilationUnitEditor",1363064068014
activated,editor,org.eclipse.jdt.ui,3.7.2.v20120109-1427,"org.eclipse.jdt.ui.CompilationUnitEditor",1363064071489
executed,command,org.eclipse.ui,3.7.0.v20110928-1505,"org.eclipse.ui.navigate.backwardHistory",1363064071509
executed,command,org.eclipse.ui.workbench.texteditor,3.7.0.v20110928-1504,"org.eclipse.ui.edit.text.select.lineEnd",1363064073396
executed,command,org.eclipse.ui,3.7.0.v20110928-1505,"org.eclipse.ui.edit.copy",1363064073849
deactivated,workbench,org.eclipse.ui.workbench,3.7.1.v20120104-1859,"",1363064074473
activated,workbench,org.eclipse.ui.workbench,3.7.1.v20120104-1859,"",1363064078155
activated,editor,org.eclipse.jdt.ui,3.7.2.v20120109-1427,"org.eclipse.jdt.ui.CompilationUnitEditor",1363064078450
executed,command,org.eclipse.ui.ide,3.7.0.v20110928-1505,"org.eclipse.ui.navigate.openResource",1363064078453
executed,command,org.eclipse.ui.workbench.texteditor,3.7.0.v20110928-1504,"org.eclipse.ui.edit.text.goto.lineEnd",1363064081458
executed,command,org.eclipse.ui,3.7.0.v20110928-1505,"org.eclipse.ui.edit.paste",1363064082456
executed,command,org.eclipse.ui,3.7.0.v20110928-1505,"org.eclipse.ui.edit.undo",1363064088410
executed,command,org.eclipse.ui,3.7.0.v20110928-1505,"org.eclipse.ui.edit.undo",1363064088946
deactivated,workbench,org.eclipse.ui.workbench,3.7.1.v20120104-1859,"",1363064227620
activated,workbench,org.eclipse.ui.workbench,3.7.1.v20120104-1859,"",1363064235334
deactivated,workbench,org.eclipse.ui.workbench,3.7.1.v20120104-1859,"",1363064237313
activated,workbench,org.eclipse.ui.workbench,3.7.1.v20120104-1859,"",1363064254661
deactivated,workbench,org.eclipse.ui.workbench,3.7.1.v20120104-1859,"",1363064256841
activated,workbench,org.eclipse.ui.workbench,3.7.1.v20120104-1859,"",1363064455311
deactivated,workbench,org.eclipse.ui.workbench,3.7.1.v20120104-1859,"",1363064458152
activated,workbench,org.eclipse.ui.workbench,3.7.1.v20120104-1859,"",1363064463395
executed,command,org.eclipse.ui.ide,3.7.0.v20110928-1505,"org.eclipse.ui.navigate.openResource",1363064463478
activated,view,org.eclipse.jdt.ui,3.7.2.v20120109-1427,"org.eclipse.jdt.ui.PackageExplorer",1363064465860
activated,editor,org.eclipse.jdt.ui,3.7.2.v20120109-1427,"org.eclipse.jdt.ui.CompilationUnitEditor",1363064466303
executed,command,,,"AUTOGEN:::org.eclipse.jdt.debug.CompilationUnitEditor.BreakpointRulerActions/org.eclipse.jdt.debug.ui.actions.ManageBreakpointRulerAction",1363064469488
deactivated,workbench,org.eclipse.ui.workbench,3.7.1.v20120104-1859,"",1363064469952
activated,workbench,org.eclipse.ui.workbench,3.7.1.v20120104-1859,"",1363064476593
activated,editor,org.eclipse.jdt.ui,3.7.2.v20120109-1427,"org.eclipse.jdt.ui.CompilationUnitEditor",1363064478182
executed,command,org.eclipse.ui,3.7.0.v20110928-1505,"org.eclipse.ui.edit.copy",1363064484480
deactivated,workbench,org.eclipse.ui.workbench,3.7.1.v20120104-1859,"",1363064484777
activated,workbench,org.eclipse.ui.workbench,3.7.1.v20120104-1859,"",1363064551230
deactivated,workbench,org.eclipse.ui.workbench,3.7.1.v20120104-1859,"",1363064552976
activated,workbench,org.eclipse.ui.workbench,3.7.1.v20120104-1859,"",1363064553917
executed,command,org.eclipse.ui,3.7.0.v20110928-1505,"org.eclipse.ui.window.switchToEditor",1363064553982
deactivated,workbench,org.eclipse.ui.workbench,3.7.1.v20120104-1859,"",1363064554100
activated,workbench,org.eclipse.ui.workbench,3.7.1.v20120104-1859,"",1363064559883
activated,editor,org.eclipse.jdt.ui,3.7.2.v20120109-1427,"org.eclipse.jdt.ui.CompilationUnitEditor",1363064560082
executed,command,org.eclipse.ui.ide,3.7.0.v20110928-1505,"org.eclipse.ui.navigate.openResource",1363064560083
deactivated,workbench,org.eclipse.ui.workbench,3.7.1.v20120104-1859,"",1363064564451
activated,workbench,org.eclipse.ui.workbench,3.7.1.v20120104-1859,"",1363064566913
deactivated,workbench,org.eclipse.ui.workbench,3.7.1.v20120104-1859,"",1363064569018
activated,workbench,org.eclipse.ui.workbench,3.7.1.v20120104-1859,"",1363064576976
deactivated,workbench,org.eclipse.ui.workbench,3.7.1.v20120104-1859,"",1363064578342
activated,workbench,org.eclipse.ui.workbench,3.7.1.v20120104-1859,"",1363064584107
opened,editor,org.eclipse.jdt.ui,3.7.2.v20120109-1427,"org.eclipse.jdt.ui.ClassFileEditor",1363064585570
activated,editor,org.eclipse.jdt.ui,3.7.2.v20120109-1427,"org.eclipse.jdt.ui.ClassFileEditor",1363064585754
activated,editor,org.eclipse.jdt.ui,3.7.2.v20120109-1427,"org.eclipse.jdt.ui.CompilationUnitEditor",1363064587801
executed,command,org.eclipse.ui,3.7.0.v20110928-1505,"org.eclipse.ui.navigate.backwardHistory",1363064587826
deactivated,workbench,org.eclipse.ui.workbench,3.7.1.v20120104-1859,"",1363064588323
activated,workbench,org.eclipse.ui.workbench,3.7.1.v20120104-1859,"",1363064590162
deactivated,workbench,org.eclipse.ui.workbench,3.7.1.v20120104-1859,"",1363064592094
activated,workbench,org.eclipse.ui.workbench,3.7.1.v20120104-1859,"",1363064596899
deactivated,workbench,org.eclipse.ui.workbench,3.7.1.v20120104-1859,"",1363064597732
activated,workbench,org.eclipse.ui.workbench,3.7.1.v20120104-1859,"",1363064600115
executed,command,org.eclipse.ui,3.7.0.v20110928-1505,"org.eclipse.ui.edit.text.contentAssist.proposals",1363064602295
deactivated,workbench,org.eclipse.ui.workbench,3.7.1.v20120104-1859,"",1363064604293
activated,workbench,org.eclipse.ui.workbench,3.7.1.v20120104-1859,"",1363064607435
executed,command,org.eclipse.ui,3.7.0.v20110928-1505,"org.eclipse.ui.edit.text.contentAssist.proposals",1363064607806
executed,command,org.eclipse.ui,3.7.0.v20110928-1505,"org.eclipse.ui.edit.cut",1363064617395
deactivated,workbench,org.eclipse.ui.workbench,3.7.1.v20120104-1859,"",1363064620284
activated,workbench,org.eclipse.ui.workbench,3.7.1.v20120104-1859,"",1363064621429
deactivated,workbench,org.eclipse.ui.workbench,3.7.1.v20120104-1859,"",1363064623645
activated,workbench,org.eclipse.ui.workbench,3.7.1.v20120104-1859,"",1363064624817
executed,command,org.eclipse.ui,3.7.0.v20110928-1505,"org.eclipse.ui.edit.text.contentAssist.proposals",1363064627206
deactivated,workbench,org.eclipse.ui.workbench,3.7.1.v20120104-1859,"",1363064628912
activated,workbench,org.eclipse.ui.workbench,3.7.1.v20120104-1859,"",1363064630139
executed,command,org.eclipse.ui,3.7.0.v20110928-1505,"org.eclipse.ui.edit.text.contentAssist.proposals",1363064630547
deactivated,workbench,org.eclipse.ui.workbench,3.7.1.v20120104-1859,"",1363064635973
activated,workbench,org.eclipse.ui.workbench,3.7.1.v20120104-1859,"",1363064637836
executed,command,org.eclipse.ui,3.7.0.v20110928-1505,"org.eclipse.ui.edit.text.contentAssist.proposals",1363064638201
deactivated,workbench,org.eclipse.ui.workbench,3.7.1.v20120104-1859,"",1363064641054
activated,workbench,org.eclipse.ui.workbench,3.7.1.v20120104-1859,"",1363064642603
deactivated,workbench,org.eclipse.ui.workbench,3.7.1.v20120104-1859,"",1363064644784
activated,workbench,org.eclipse.ui.workbench,3.7.1.v20120104-1859,"",1363064646354
executed,command,org.eclipse.ui,3.7.0.v20110928-1505,"org.eclipse.ui.edit.text.contentAssist.proposals",1363064650075
deactivated,workbench,org.eclipse.ui.workbench,3.7.1.v20120104-1859,"",1363064653567
activated,workbench,org.eclipse.ui.workbench,3.7.1.v20120104-1859,"",1363064654795
deactivated,workbench,org.eclipse.ui.workbench,3.7.1.v20120104-1859,"",1363064655800
activated,workbench,org.eclipse.ui.workbench,3.7.1.v20120104-1859,"",1363064657584
executed,command,org.eclipse.ui,3.7.0.v20110928-1505,"org.eclipse.ui.edit.text.contentAssist.proposals",1363064663374
deactivated,workbench,org.eclipse.ui.workbench,3.7.1.v20120104-1859,"",1363064666281
activated,workbench,org.eclipse.ui.workbench,3.7.1.v20120104-1859,"",1363064679937
deactivated,workbench,org.eclipse.ui.workbench,3.7.1.v20120104-1859,"",1363064683930
activated,workbench,org.eclipse.ui.workbench,3.7.1.v20120104-1859,"",1363064783302
executed,command,org.eclipse.ui,3.7.0.v20110928-1505,"org.eclipse.ui.edit.text.contentAssist.proposals",1363064783818
executed,command,org.eclipse.ui,3.7.0.v20110928-1505,"org.eclipse.ui.edit.text.contentAssist.proposals",1363064785422
deactivated,workbench,org.eclipse.ui.workbench,3.7.1.v20120104-1859,"",1363064788644
activated,workbench,org.eclipse.ui.workbench,3.7.1.v20120104-1859,"",1363064803868
executed,command,org.eclipse.ui,3.7.0.v20110928-1505,"org.eclipse.ui.edit.paste",1363064806043
executed,command,org.eclipse.ui,3.7.0.v20110928-1505,"org.eclipse.ui.edit.text.contentAssist.proposals",1363064806742
executed,command,org.eclipse.ui,3.7.0.v20110928-1505,"org.eclipse.ui.edit.text.contentAssist.proposals",1363064809622
deactivated,workbench,org.eclipse.ui.workbench,3.7.1.v20120104-1859,"",1363064811927
activated,workbench,org.eclipse.ui.workbench,3.7.1.v20120104-1859,"",1363064815676
executed,command,org.eclipse.ui,3.7.0.v20110928-1505,"org.eclipse.ui.edit.copy",1363064817799
executed,command,org.eclipse.ui,3.7.0.v20110928-1505,"org.eclipse.ui.edit.paste",1363064819362
executed,command,org.eclipse.ui,3.7.0.v20110928-1505,"org.eclipse.ui.edit.text.contentAssist.proposals",1363064822570
executed,command,org.eclipse.ui.workbench.texteditor,3.7.0.v20110928-1504,"org.eclipse.ui.edit.text.select.lineEnd",1363064826335
executed,command,org.eclipse.ui,3.7.0.v20110928-1505,"org.eclipse.ui.edit.text.contentAssist.proposals",1363064829229
deactivated,workbench,org.eclipse.ui.workbench,3.7.1.v20120104-1859,"",1363064830221
activated,workbench,org.eclipse.ui.workbench,3.7.1.v20120104-1859,"",1363064834207
deactivated,workbench,org.eclipse.ui.workbench,3.7.1.v20120104-1859,"",1363064836383
activated,workbench,org.eclipse.ui.workbench,3.7.1.v20120104-1859,"",1363064840589
executed,command,org.eclipse.ui,3.7.0.v20110928-1505,"org.eclipse.ui.edit.text.contentAssist.proposals",1363064844562
executed,command,org.eclipse.ui,3.7.0.v20110928-1505,"org.eclipse.ui.edit.text.contentAssist.proposals",1363064847913
executed,command,org.eclipse.ui,3.7.0.v20110928-1505,"org.eclipse.ui.edit.text.contentAssist.proposals",1363064851697
deactivated,workbench,org.eclipse.ui.workbench,3.7.1.v20120104-1859,"",1363064854747
activated,workbench,org.eclipse.ui.workbench,3.7.1.v20120104-1859,"",1363064858854
executed,command,org.eclipse.ui.ide,3.7.0.v20110928-1505,"org.eclipse.ui.navigate.openResource",1363064858936
executed,command,org.eclipse.jdt.ui,3.7.2.v20120109-1427,"org.eclipse.jdt.ui.edit.text.java.toggle.comment",1363064859385
executed,command,org.eclipse.ui.workbench.texteditor,3.7.0.v20110928-1504,"org.eclipse.ui.edit.text.goto.lineEnd",1363064862005
executed,command,org.eclipse.ui,3.7.0.v20110928-1505,"org.eclipse.ui.file.save",1363064865089
deactivated,workbench,org.eclipse.ui.workbench,3.7.1.v20120104-1859,"",1363064916624
activated,workbench,org.eclipse.ui.workbench,3.7.1.v20120104-1859,"",1363064918086
deactivated,workbench,org.eclipse.ui.workbench,3.7.1.v20120104-1859,"",1363064918215
activated,workbench,org.eclipse.ui.workbench,3.7.1.v20120104-1859,"",1363064964151
activated,view,org.eclipse.jdt.ui,3.7.2.v20120109-1427,"org.eclipse.jdt.ui.PackageExplorer",1363064988895
opened,editor,org.eclipse.jdt.ui,3.7.2.v20120109-1427,"org.eclipse.jdt.ui.CompilationUnitEditor",1363064989338
activated,editor,org.eclipse.jdt.ui,3.7.2.v20120109-1427,"org.eclipse.jdt.ui.CompilationUnitEditor",1363064989490
activated,editor,org.eclipse.jdt.ui,3.7.2.v20120109-1427,"org.eclipse.jdt.ui.CompilationUnitEditor",1363064993528
executed,command,org.eclipse.ui,3.7.0.v20110928-1505,"org.eclipse.ui.navigate.backwardHistory",1363064993553
deactivated,workbench,org.eclipse.ui.workbench,3.7.1.v20120104-1859,"",1363065006084
activated,workbench,org.eclipse.ui.workbench,3.7.1.v20120104-1859,"",1363065008188
deactivated,workbench,org.eclipse.ui.workbench,3.7.1.v20120104-1859,"",1363065008280
activated,workbench,org.eclipse.ui.workbench,3.7.1.v20120104-1859,"",1363065009079
deactivated,workbench,org.eclipse.ui.workbench,3.7.1.v20120104-1859,"",1363065009832
activated,workbench,org.eclipse.ui.workbench,3.7.1.v20120104-1859,"",1363065013473
deactivated,workbench,org.eclipse.ui.workbench,3.7.1.v20120104-1859,"",1363065013656
activated,workbench,org.eclipse.ui.workbench,3.7.1.v20120104-1859,"",1363065837258
activated,view,org.eclipse.jdt.ui,3.7.2.v20120109-1427,"org.eclipse.jdt.ui.PackageExplorer",1363065840057
deactivated,workbench,org.eclipse.ui.workbench,3.7.1.v20120104-1859,"",1363065920943
activated,workbench,org.eclipse.ui.workbench,3.7.1.v20120104-1859,"",1363065937204
deactivated,workbench,org.eclipse.ui.workbench,3.7.1.v20120104-1859,"",1363065939643
activated,workbench,org.eclipse.ui.workbench,3.7.1.v20120104-1859,"",1363071794984
deactivated,workbench,org.eclipse.ui.workbench,3.7.1.v20120104-1859,"",1363071795167
activated,workbench,org.eclipse.ui.workbench,3.7.1.v20120104-1859,"",1363071838501
deactivated,workbench,org.eclipse.ui.workbench,3.7.1.v20120104-1859,"",1363071841645
activated,perspective,org.eclipse.debug.ui,3.7.102.v20111129-1423_r372,"org.eclipse.debug.ui.DebugPerspective",1363071931267
activated,editor,org.eclipse.jdt.ui,3.7.2.v20120109-1427,"org.eclipse.jdt.ui.CompilationUnitEditor",1363071931293
activated,workbench,org.eclipse.ui.workbench,3.7.1.v20120104-1859,"",1363071932061
activated,editor,org.eclipse.jdt.ui,3.7.2.v20120109-1427,"org.eclipse.jdt.ui.CompilationUnitEditor",1363071932820
executed,command,,,"AUTOGEN:::org.eclipse.jdt.debug.CompilationUnitEditor.BreakpointRulerActions/org.eclipse.jdt.debug.ui.actions.ManageBreakpointRulerAction",1363071934355
activated,view,org.eclipse.debug.ui,3.7.102.v20111129-1423_r372,"org.eclipse.debug.ui.DebugView",1363071935826
executed,command,org.eclipse.debug.ui,3.7.102.v20111129-1423_r372,"org.eclipse.debug.ui.commands.Resume",1363071935940
deactivated,workbench,org.eclipse.ui.workbench,3.7.1.v20120104-1859,"",1363071936828
activated,workbench,org.eclipse.ui.workbench,3.7.1.v20120104-1859,"",1363071963683
deactivated,workbench,org.eclipse.ui.workbench,3.7.1.v20120104-1859,"",1363071965926
activated,workbench,org.eclipse.ui.workbench,3.7.1.v20120104-1859,"",1363071971193
opened,editor,org.eclipse.jdt.ui,3.7.2.v20120109-1427,"org.eclipse.jdt.ui.CompilationUnitEditor",1363071971561
activated,editor,org.eclipse.jdt.ui,3.7.2.v20120109-1427,"org.eclipse.jdt.ui.CompilationUnitEditor",1363071971798
executed,command,org.eclipse.ui.ide,3.7.0.v20110928-1505,"org.eclipse.ui.navigate.openResource",1363071971820
deactivated,workbench,org.eclipse.ui.workbench,3.7.1.v20120104-1859,"",1363071972636
activated,workbench,org.eclipse.ui.workbench,3.7.1.v20120104-1859,"",1363071972975
deactivated,workbench,org.eclipse.ui.workbench,3.7.1.v20120104-1859,"",1363071973229
activated,workbench,org.eclipse.ui.workbench,3.7.1.v20120104-1859,"",1363071974081
deactivated,workbench,org.eclipse.ui.workbench,3.7.1.v20120104-1859,"",1363071976733
activated,workbench,org.eclipse.ui.workbench,3.7.1.v20120104-1859,"",1363071984728
activated,editor,org.eclipse.jdt.ui,3.7.2.v20120109-1427,"org.eclipse.jdt.ui.CompilationUnitEditor",1363071985618
executed,command,,,"AUTOGEN:::org.eclipse.jdt.debug.CompilationUnitEditor.BreakpointRulerActions/org.eclipse.jdt.debug.ui.actions.ManageBreakpointRulerAction",1363071986987
activated,view,org.eclipse.debug.ui,3.7.102.v20111129-1423_r372,"org.eclipse.debug.ui.DebugView",1363071988376
executed,command,org.eclipse.debug.ui,3.7.102.v20111129-1423_r372,"org.eclipse.debug.ui.commands.Resume",1363071988494
deactivated,workbench,org.eclipse.ui.workbench,3.7.1.v20120104-1859,"",1363071990955
activated,workbench,org.eclipse.ui.workbench,3.7.1.v20120104-1859,"",1363072052520
activated,editor,org.eclipse.jdt.ui,3.7.2.v20120109-1427,"org.eclipse.jdt.ui.CompilationUnitEditor",1363072056240
deactivated,workbench,org.eclipse.ui.workbench,3.7.1.v20120104-1859,"",1363072063858
activated,workbench,org.eclipse.ui.workbench,3.7.1.v20120104-1859,"",1363098057076
deactivated,workbench,org.eclipse.ui.workbench,3.7.1.v20120104-1859,"",1363098059062
activated,workbench,org.eclipse.ui.workbench,3.7.1.v20120104-1859,"",1363113134057
started,bundle,org.eclipse.epp.usagedata.ui,1.3.1.R201106061540,"org.eclipse.epp.usagedata.ui",1363113134134
deactivated,workbench,org.eclipse.ui.workbench,3.7.1.v20120104-1859,"",1363113134213
