what,kind,bundleId,bundleVersion,description,time
activated,editor,org.eclipse.jdt.ui,3.7.2.v20120109-1427,"org.eclipse.jdt.ui.CompilationUnitEditor",1352550441827
executed,command,org.eclipse.ui.workbench.texteditor,3.7.0.v20110928-1504,"org.eclipse.ui.edit.text.select.lineStart",1352550444887
executed,command,org.eclipse.ui,3.7.0.v20110928-1505,"org.eclipse.ui.file.save",1352550456955
deactivated,workbench,org.eclipse.ui.workbench,3.7.1.v20120104-1859,"",1352550457375
activated,workbench,org.eclipse.ui.workbench,3.7.1.v20120104-1859,"",1352550467094
deactivated,workbench,org.eclipse.ui.workbench,3.7.1.v20120104-1859,"",1352550469008
activated,workbench,org.eclipse.ui.workbench,3.7.1.v20120104-1859,"",1352550496388
activated,editor,org.eclipse.jdt.ui,3.7.2.v20120109-1427,"org.eclipse.jdt.ui.CompilationUnitEditor",1352550497387
executed,command,org.eclipse.ui,3.7.0.v20110928-1505,"org.eclipse.ui.navigate.backwardHistory",1352550497395
deactivated,workbench,org.eclipse.ui.workbench,3.7.1.v20120104-1859,"",1352550499942
activated,workbench,org.eclipse.ui.workbench,3.7.1.v20120104-1859,"",1352550505056
deactivated,workbench,org.eclipse.ui.workbench,3.7.1.v20120104-1859,"",1352550509636
activated,workbench,org.eclipse.ui.workbench,3.7.1.v20120104-1859,"",1352550552812
executed,command,,,"AUTOGEN:::org.eclipse.jdt.debug.CompilationUnitEditor.BreakpointRulerActions/org.eclipse.jdt.debug.ui.actions.ManageBreakpointRulerAction",1352550553133
deactivated,workbench,org.eclipse.ui.workbench,3.7.1.v20120104-1859,"",1352550553780
activated,workbench,org.eclipse.ui.workbench,3.7.1.v20120104-1859,"",1352550558542
activated,view,org.eclipse.debug.ui,3.7.102.v20111129-1423_r372,"org.eclipse.debug.ui.VariableView",1352550560715
activated,editor,org.eclipse.jdt.ui,3.7.2.v20120109-1427,"org.eclipse.jdt.ui.CompilationUnitEditor",1352550613358
executed,command,org.eclipse.ui,3.7.0.v20110928-1505,"org.eclipse.ui.edit.copy",1352550616273
deactivated,workbench,org.eclipse.ui.workbench,3.7.1.v20120104-1859,"",1352550617910
activated,workbench,org.eclipse.ui.workbench,3.7.1.v20120104-1859,"",1352550872505
deactivated,workbench,org.eclipse.ui.workbench,3.7.1.v20120104-1859,"",1352550876736
activated,workbench,org.eclipse.ui.workbench,3.7.1.v20120104-1859,"",1352550958479
activated,view,org.eclipse.debug.ui,3.7.102.v20111129-1423_r372,"org.eclipse.debug.ui.VariableView",1352550963735
deactivated,workbench,org.eclipse.ui.workbench,3.7.1.v20120104-1859,"",1352550968848
activated,workbench,org.eclipse.ui.workbench,3.7.1.v20120104-1859,"",1352550969637
deactivated,workbench,org.eclipse.ui.workbench,3.7.1.v20120104-1859,"",1352550972018
activated,workbench,org.eclipse.ui.workbench,3.7.1.v20120104-1859,"",1352551011018
deactivated,workbench,org.eclipse.ui.workbench,3.7.1.v20120104-1859,"",1352551019959
activated,workbench,org.eclipse.ui.workbench,3.7.1.v20120104-1859,"",1352551020783
deactivated,workbench,org.eclipse.ui.workbench,3.7.1.v20120104-1859,"",1352551025109
activated,workbench,org.eclipse.ui.workbench,3.7.1.v20120104-1859,"",1352551026508
deactivated,workbench,org.eclipse.ui.workbench,3.7.1.v20120104-1859,"",1352551027670
activated,workbench,org.eclipse.ui.workbench,3.7.1.v20120104-1859,"",1352551120447
activated,view,org.eclipse.debug.ui,3.7.102.v20111129-1423_r372,"org.eclipse.debug.ui.DebugView",1352551122917
executed,command,org.eclipse.debug.ui,3.7.102.v20111129-1423_r372,"org.eclipse.debug.ui.commands.Terminate",1352551123590
deactivated,workbench,org.eclipse.ui.workbench,3.7.1.v20120104-1859,"",1352551126468
activated,workbench,org.eclipse.ui.workbench,3.7.1.v20120104-1859,"",1352551178877
activated,perspective,org.eclipse.jdt.ui,3.7.2.v20120109-1427,"org.eclipse.jdt.ui.JavaPerspective",1352551180496
activated,editor,org.eclipse.jdt.ui,3.7.2.v20120109-1427,"org.eclipse.jdt.ui.CompilationUnitEditor",1352551180516
deactivated,workbench,org.eclipse.ui.workbench,3.7.1.v20120104-1859,"",1352551184317
activated,workbench,org.eclipse.ui.workbench,3.7.1.v20120104-1859,"",1352551222008
executed,command,org.eclipse.ui.workbench.texteditor,3.7.0.v20110928-1504,"org.eclipse.ui.edit.text.goto.lineEnd",1352551235357
executed,command,org.eclipse.ui,3.7.0.v20110928-1505,"org.eclipse.ui.edit.text.contentAssist.proposals",1352551236637
executed,command,org.eclipse.ui,3.7.0.v20110928-1505,"org.eclipse.ui.edit.text.contentAssist.proposals",1352551238966
executed,command,org.eclipse.ui.workbench.texteditor,3.7.0.v20110928-1504,"org.eclipse.ui.edit.text.select.lineStart",1352551248257
executed,command,org.eclipse.ui,3.7.0.v20110928-1505,"org.eclipse.ui.edit.undo",1352551250252
executed,command,org.eclipse.ui,3.7.0.v20110928-1505,"org.eclipse.ui.edit.undo",1352551250565
executed,command,org.eclipse.ui,3.7.0.v20110928-1505,"org.eclipse.ui.edit.undo",1352551250821
activated,view,org.eclipse.jdt.ui,3.7.2.v20120109-1427,"org.eclipse.jdt.ui.PackageExplorer",1352551255685
deactivated,workbench,org.eclipse.ui.workbench,3.7.1.v20120104-1859,"",1352551600661
activated,workbench,org.eclipse.ui.workbench,3.7.1.v20120104-1859,"",1352551607097
opened,editor,org.eclipse.jdt.ui,3.7.2.v20120109-1427,"org.eclipse.jdt.ui.CompilationUnitEditor",1352551610598
activated,editor,org.eclipse.jdt.ui,3.7.2.v20120109-1427,"org.eclipse.jdt.ui.CompilationUnitEditor",1352551618876
deactivated,workbench,org.eclipse.ui.workbench,3.7.1.v20120104-1859,"",1352551625524
activated,workbench,org.eclipse.ui.workbench,3.7.1.v20120104-1859,"",1352551639422
deactivated,workbench,org.eclipse.ui.workbench,3.7.1.v20120104-1859,"",1352551651231
activated,workbench,org.eclipse.ui.workbench,3.7.1.v20120104-1859,"",1352551655932
activated,view,org.eclipse.jdt.ui,3.7.2.v20120109-1427,"org.eclipse.jdt.ui.PackageExplorer",1352551661901
activated,editor,org.eclipse.jdt.ui,3.7.2.v20120109-1427,"org.eclipse.jdt.ui.CompilationUnitEditor",1352551668471
executed,command,org.eclipse.ui,3.7.0.v20110928-1505,"org.eclipse.ui.edit.copy",1352551669038
executed,command,org.eclipse.ui,3.7.0.v20110928-1505,"org.eclipse.ui.edit.paste",1352551671207
executed,command,org.eclipse.ui.workbench.texteditor,3.7.0.v20110928-1504,"org.eclipse.ui.edit.text.select.lineStart",1352551673148
deactivated,workbench,org.eclipse.ui.workbench,3.7.1.v20120104-1859,"",1352551673751
activated,workbench,org.eclipse.ui.workbench,3.7.1.v20120104-1859,"",1352551674338
executed,command,org.eclipse.ui,3.7.0.v20110928-1505,"org.eclipse.ui.edit.paste",1352551674639
executed,command,org.eclipse.ui,3.7.0.v20110928-1505,"org.eclipse.ui.edit.text.contentAssist.proposals",1352551682178
executed,command,org.eclipse.ui,3.7.0.v20110928-1505,"org.eclipse.ui.edit.copy",1352551686523
executed,command,org.eclipse.ui.workbench.texteditor,3.7.0.v20110928-1504,"org.eclipse.ui.edit.text.select.lineEnd",1352551694693
executed,command,org.eclipse.ui.workbench.texteditor,3.7.0.v20110928-1504,"org.eclipse.ui.edit.text.smartEnter",1352551706485
executed,command,org.eclipse.ui,3.7.0.v20110928-1505,"org.eclipse.ui.edit.undo",1352551707481
executed,command,org.eclipse.ui,3.7.0.v20110928-1505,"org.eclipse.ui.edit.undo",1352551707795
executed,command,org.eclipse.ui.workbench.texteditor,3.7.0.v20110928-1504,"org.eclipse.ui.edit.text.goto.lineEnd",1352551710163
executed,command,org.eclipse.ui,3.7.0.v20110928-1505,"org.eclipse.ui.file.save",1352551710923
activated,perspective,org.eclipse.debug.ui,3.7.102.v20111129-1423_r372,"org.eclipse.debug.ui.DebugPerspective",1352551712719
deactivated,workbench,org.eclipse.ui.workbench,3.7.1.v20120104-1859,"",1352551716804
activated,workbench,org.eclipse.ui.workbench,3.7.1.v20120104-1859,"",1352551718126
deactivated,workbench,org.eclipse.ui.workbench,3.7.1.v20120104-1859,"",1352551721182
activated,workbench,org.eclipse.ui.workbench,3.7.1.v20120104-1859,"",1352551721804
deactivated,workbench,org.eclipse.ui.workbench,3.7.1.v20120104-1859,"",1352551727495
activated,workbench,org.eclipse.ui.workbench,3.7.1.v20120104-1859,"",1352551728855
activated,view,org.eclipse.ui.console,3.5.100.v20111007_r372,"org.eclipse.ui.console.ConsoleView",1352551729766
activated,editor,org.eclipse.jdt.ui,3.7.2.v20120109-1427,"org.eclipse.jdt.ui.CompilationUnitEditor",1352551733696
executed,command,org.eclipse.ui,3.7.0.v20110928-1505,"org.eclipse.ui.edit.cut",1352551745169
executed,command,org.eclipse.ui,3.7.0.v20110928-1505,"org.eclipse.ui.file.save",1352551745998
activated,perspective,org.eclipse.jdt.ui,3.7.2.v20120109-1427,"org.eclipse.jdt.ui.JavaPerspective",1352551747491
activated,view,org.eclipse.jdt.ui,3.7.2.v20120109-1427,"org.eclipse.jdt.ui.PackageExplorer",1352551749339
activated,editor,org.eclipse.jdt.ui,3.7.2.v20120109-1427,"org.eclipse.jdt.ui.CompilationUnitEditor",1352551754643
executed,command,org.eclipse.ui,3.7.0.v20110928-1505,"org.eclipse.ui.edit.paste",1352551763170
executed,command,org.eclipse.ui,3.7.0.v20110928-1505,"org.eclipse.ui.edit.selectAll",1352551771099
executed,command,org.eclipse.jdt.ui,3.7.2.v20120109-1427,"org.eclipse.jdt.ui.edit.text.java.indent",1352551771375
executed,command,org.eclipse.ui,3.7.0.v20110928-1505,"org.eclipse.ui.file.save",1352551772594
deactivated,workbench,org.eclipse.ui.workbench,3.7.1.v20120104-1859,"",1352551776423
activated,workbench,org.eclipse.ui.workbench,3.7.1.v20120104-1859,"",1352551777727
activated,view,org.eclipse.ui.console,3.5.100.v20111007_r372,"org.eclipse.ui.console.ConsoleView",1352551779277
activated,editor,org.eclipse.jdt.ui,3.7.2.v20120109-1427,"org.eclipse.jdt.ui.CompilationUnitEditor",1352551781979
activated,view,org.eclipse.jdt.ui,3.7.2.v20120109-1427,"org.eclipse.jdt.ui.PackageExplorer",1352551783946
activated,editor,org.eclipse.jdt.ui,3.7.2.v20120109-1427,"org.eclipse.jdt.ui.CompilationUnitEditor",1352551787921
executed,command,org.eclipse.ui,3.7.0.v20110928-1505,"org.eclipse.ui.edit.cut",1352551790479
executed,command,org.eclipse.ui,3.7.0.v20110928-1505,"org.eclipse.ui.file.save",1352551790995
activated,view,org.eclipse.jdt.ui,3.7.2.v20120109-1427,"org.eclipse.jdt.ui.PackageExplorer",1352551791391
activated,editor,org.eclipse.jdt.ui,3.7.2.v20120109-1427,"org.eclipse.jdt.ui.CompilationUnitEditor",1352551793086
executed,command,org.eclipse.ui.workbench.texteditor,3.7.0.v20110928-1504,"org.eclipse.ui.edit.text.goto.lineEnd",1352551794489
executed,command,org.eclipse.ui,3.7.0.v20110928-1505,"org.eclipse.ui.edit.paste",1352551795694
deactivated,workbench,org.eclipse.ui.workbench,3.7.1.v20120104-1859,"",1352551798430
activated,workbench,org.eclipse.ui.workbench,3.7.1.v20120104-1859,"",1352551799607
deactivated,workbench,org.eclipse.ui.workbench,3.7.1.v20120104-1859,"",1352551801260
activated,workbench,org.eclipse.ui.workbench,3.7.1.v20120104-1859,"",1352551808445
deactivated,workbench,org.eclipse.ui.workbench,3.7.1.v20120104-1859,"",1352551811049
activated,perspective,org.eclipse.debug.ui,3.7.102.v20111129-1423_r372,"org.eclipse.debug.ui.DebugPerspective",1352551814314
activated,workbench,org.eclipse.ui.workbench,3.7.1.v20120104-1859,"",1352551814528
activated,editor,org.eclipse.jdt.ui,3.7.2.v20120109-1427,"org.eclipse.jdt.ui.CompilationUnitEditor",1352551814904
executed,command,,,"AUTOGEN:::org.eclipse.jdt.debug.CompilationUnitEditor.BreakpointRulerActions/org.eclipse.jdt.debug.ui.actions.ManageBreakpointRulerAction",1352551817344
activated,view,org.eclipse.debug.ui,3.7.102.v20111129-1423_r372,"org.eclipse.debug.ui.DebugView",1352551818719
executed,command,org.eclipse.debug.ui,3.7.102.v20111129-1423_r372,"org.eclipse.debug.ui.commands.Resume",1352551818863
deactivated,workbench,org.eclipse.ui.workbench,3.7.1.v20120104-1859,"",1352551819642
activated,workbench,org.eclipse.ui.workbench,3.7.1.v20120104-1859,"",1352551825930
activated,perspective,org.eclipse.jdt.ui,3.7.2.v20120109-1427,"org.eclipse.jdt.ui.JavaPerspective",1352551827485
activated,editor,org.eclipse.jdt.ui,3.7.2.v20120109-1427,"org.eclipse.jdt.ui.CompilationUnitEditor",1352551827512
deactivated,workbench,org.eclipse.ui.workbench,3.7.1.v20120104-1859,"",1352551828789
activated,workbench,org.eclipse.ui.workbench,3.7.1.v20120104-1859,"",1352551833943
activated,view,org.eclipse.jdt.ui,3.7.2.v20120109-1427,"org.eclipse.jdt.ui.PackageExplorer",1352551837352
activated,editor,org.eclipse.jdt.ui,3.7.2.v20120109-1427,"org.eclipse.jdt.ui.CompilationUnitEditor",1352551843232
executed,command,org.eclipse.ui,3.7.0.v20110928-1505,"org.eclipse.ui.edit.copy",1352551844440
executed,command,org.eclipse.ui,3.7.0.v20110928-1505,"org.eclipse.ui.edit.paste",1352551845909
executed,command,org.eclipse.ui.workbench.texteditor,3.7.0.v20110928-1504,"org.eclipse.ui.edit.text.select.lineStart",1352551854102
executed,command,,,"AUTOGEN:::org.eclipse.jdt.debug.CompilationUnitEditor.BreakpointRulerActions/org.eclipse.jdt.debug.ui.actions.ManageBreakpointRulerAction",1352551861546
deactivated,workbench,org.eclipse.ui.workbench,3.7.1.v20120104-1859,"",1352551861866
activated,workbench,org.eclipse.ui.workbench,3.7.1.v20120104-1859,"",1352551863600
executed,command,org.eclipse.ui,3.7.0.v20110928-1505,"org.eclipse.ui.edit.cut",1352551866272
executed,command,org.eclipse.ui,3.7.0.v20110928-1505,"org.eclipse.ui.file.save",1352551866569
activated,view,org.eclipse.jdt.ui,3.7.2.v20120109-1427,"org.eclipse.jdt.ui.PackageExplorer",1352551867959
activated,editor,org.eclipse.jdt.ui,3.7.2.v20120109-1427,"org.eclipse.jdt.ui.CompilationUnitEditor",1352551870192
executed,command,org.eclipse.ui,3.7.0.v20110928-1505,"org.eclipse.ui.edit.copy",1352551882086
deactivated,workbench,org.eclipse.ui.workbench,3.7.1.v20120104-1859,"",1352551882568
executed,command,org.eclipse.ui,3.7.0.v20110928-1505,"org.eclipse.ui.edit.paste",1352551882846
activated,workbench,org.eclipse.ui.workbench,3.7.1.v20120104-1859,"",1352551884594
activated,editor,org.eclipse.jdt.ui,3.7.2.v20120109-1427,"org.eclipse.jdt.ui.CompilationUnitEditor",1352551884736
executed,command,org.eclipse.ui.ide,3.7.0.v20110928-1505,"org.eclipse.ui.navigate.openResource",1352551884747
activated,view,org.eclipse.jdt.ui,3.7.2.v20120109-1427,"org.eclipse.jdt.callhierarchy.view",1352551907180
executed,command,org.eclipse.jdt.ui,3.7.2.v20120109-1427,"org.eclipse.jdt.ui.edit.text.java.open.call.hierarchy",1352551907197
opened,editor,org.eclipse.jdt.ui,3.7.2.v20120109-1427,"org.eclipse.jdt.ui.ClassFileEditor",1352551909300
activated,editor,org.eclipse.jdt.ui,3.7.2.v20120109-1427,"org.eclipse.jdt.ui.ClassFileEditor",1352551909412
activated,view,org.eclipse.jdt.ui,3.7.2.v20120109-1427,"org.eclipse.jdt.callhierarchy.view",1352551926323
executed,command,org.eclipse.jdt.ui,3.7.2.v20120109-1427,"org.eclipse.jdt.ui.edit.text.java.open.call.hierarchy",1352551926350
opened,editor,org.eclipse.jdt.ui,3.7.2.v20120109-1427,"org.eclipse.jdt.ui.ClassFileEditor",1352551928303
activated,editor,org.eclipse.jdt.ui,3.7.2.v20120109-1427,"org.eclipse.jdt.ui.ClassFileEditor",1352551928503
activated,view,org.eclipse.jdt.ui,3.7.2.v20120109-1427,"org.eclipse.jdt.callhierarchy.view",1352551931055
activated,editor,org.eclipse.jdt.ui,3.7.2.v20120109-1427,"org.eclipse.jdt.ui.ClassFileEditor",1352551931376
activated,view,org.eclipse.jdt.ui,3.7.2.v20120109-1427,"org.eclipse.jdt.ui.PackageExplorer",1352551956915
activated,editor,org.eclipse.jdt.ui,3.7.2.v20120109-1427,"org.eclipse.jdt.ui.CompilationUnitEditor",1352552519604
deactivated,workbench,org.eclipse.ui.workbench,3.7.1.v20120104-1859,"",1352552520538
activated,workbench,org.eclipse.ui.workbench,3.7.1.v20120104-1859,"",1352552523386
opened,editor,org.eclipse.jdt.ui,3.7.2.v20120109-1427,"org.eclipse.jdt.ui.CompilationUnitEditor",1352552527169
activated,editor,org.eclipse.jdt.ui,3.7.2.v20120109-1427,"org.eclipse.jdt.ui.CompilationUnitEditor",1352552527262
activated,view,org.eclipse.jdt.ui,3.7.2.v20120109-1427,"org.eclipse.jdt.ui.PackageExplorer",1352552535913
activated,editor,org.eclipse.jdt.ui,3.7.2.v20120109-1427,"org.eclipse.jdt.ui.CompilationUnitEditor",1352552538905
executed,command,org.eclipse.ui,3.7.0.v20110928-1505,"org.eclipse.ui.edit.paste",1352552541785
executed,command,org.eclipse.ui,3.7.0.v20110928-1505,"org.eclipse.ui.edit.undo",1352552542636
activated,view,org.eclipse.jdt.ui,3.7.2.v20120109-1427,"org.eclipse.jdt.ui.PackageExplorer",1352552544027
activated,editor,org.eclipse.jdt.ui,3.7.2.v20120109-1427,"org.eclipse.jdt.ui.CompilationUnitEditor",1352552547627
executed,command,org.eclipse.ui,3.7.0.v20110928-1505,"org.eclipse.ui.edit.copy",1352552550226
executed,command,org.eclipse.ui,3.7.0.v20110928-1505,"org.eclipse.ui.edit.paste",1352552551233
executed,command,org.eclipse.ui.workbench.texteditor,3.7.0.v20110928-1504,"org.eclipse.ui.edit.text.select.lineStart",1352552554730
activated,view,org.eclipse.jdt.ui,3.7.2.v20120109-1427,"org.eclipse.jdt.ui.PackageExplorer",1352552558700
activated,editor,org.eclipse.jdt.ui,3.7.2.v20120109-1427,"org.eclipse.jdt.ui.CompilationUnitEditor",1352552561739
executed,command,org.eclipse.ui,3.7.0.v20110928-1505,"org.eclipse.ui.edit.copy",1352552562694
activated,view,org.eclipse.jdt.ui,3.7.2.v20120109-1427,"org.eclipse.jdt.callhierarchy.view",1352552569415
executed,command,org.eclipse.jdt.ui,3.7.2.v20120109-1427,"org.eclipse.jdt.ui.edit.text.java.open.call.hierarchy",1352552569517
activated,editor,org.eclipse.jdt.ui,3.7.2.v20120109-1427,"org.eclipse.jdt.ui.CompilationUnitEditor",1352552572758
executed,command,org.eclipse.ui.workbench.texteditor,3.7.0.v20110928-1504,"org.eclipse.ui.edit.text.select.lineStart",1352552579177
executed,command,org.eclipse.ui,3.7.0.v20110928-1505,"org.eclipse.ui.edit.text.contentAssist.proposals",1352552601670
executed,command,org.eclipse.ui,3.7.0.v20110928-1505,"org.eclipse.ui.file.save",1352552613585
executed,command,,,"AUTOGEN:::org.eclipse.jdt.debug.CompilationUnitEditor.BreakpointRulerActions/org.eclipse.jdt.debug.ui.actions.ManageBreakpointRulerAction",1352552615201
activated,perspective,org.eclipse.debug.ui,3.7.102.v20111129-1423_r372,"org.eclipse.debug.ui.DebugPerspective",1352552616900
activated,view,org.eclipse.debug.ui,3.7.102.v20111129-1423_r372,"org.eclipse.debug.ui.DebugView",1352552617890
executed,command,org.eclipse.debug.ui,3.7.102.v20111129-1423_r372,"org.eclipse.debug.ui.commands.Terminate",1352552618015
deactivated,workbench,org.eclipse.ui.workbench,3.7.1.v20120104-1859,"",1352552619363
activated,workbench,org.eclipse.ui.workbench,3.7.1.v20120104-1859,"",1352552620965
deactivated,workbench,org.eclipse.ui.workbench,3.7.1.v20120104-1859,"",1352552622787
activated,workbench,org.eclipse.ui.workbench,3.7.1.v20120104-1859,"",1352552624182
activated,view,org.eclipse.ui.console,3.5.100.v20111007_r372,"org.eclipse.ui.console.ConsoleView",1352552628314
activated,editor,org.eclipse.jdt.ui,3.7.2.v20120109-1427,"org.eclipse.jdt.ui.CompilationUnitEditor",1352552633859
executed,command,org.eclipse.ui.workbench.texteditor,3.7.0.v20110928-1504,"org.eclipse.ui.edit.text.select.lineStart",1352552637225
executed,command,org.eclipse.ui,3.7.0.v20110928-1505,"org.eclipse.ui.edit.copy",1352552637584
executed,command,org.eclipse.ui,3.7.0.v20110928-1505,"org.eclipse.ui.edit.paste",1352552638287
executed,command,org.eclipse.ui,3.7.0.v20110928-1505,"org.eclipse.ui.edit.undo",1352552638994
executed,command,org.eclipse.ui,3.7.0.v20110928-1505,"org.eclipse.ui.edit.paste",1352552640202
executed,command,org.eclipse.ui,3.7.0.v20110928-1505,"org.eclipse.ui.edit.paste",1352552644793
executed,command,org.eclipse.ui,3.7.0.v20110928-1505,"org.eclipse.ui.file.save",1352552686289
deactivated,workbench,org.eclipse.ui.workbench,3.7.1.v20120104-1859,"",1352552689604
activated,workbench,org.eclipse.ui.workbench,3.7.1.v20120104-1859,"",1352552697158
executed,command,org.eclipse.ui,3.7.0.v20110928-1505,"org.eclipse.ui.edit.text.contentAssist.proposals",1352552708790
executed,command,org.eclipse.ui.workbench.texteditor,3.7.0.v20110928-1504,"org.eclipse.ui.edit.text.select.lineEnd",1352552717469
executed,command,,,"AUTOGEN:::org.eclipse.jdt.debug.CompilationUnitEditor.BreakpointRulerActions/org.eclipse.jdt.debug.ui.actions.ManageBreakpointRulerAction",1352552720461
executed,command,,,"AUTOGEN:::org.eclipse.jdt.debug.CompilationUnitEditor.BreakpointRulerActions/org.eclipse.jdt.debug.ui.actions.ManageBreakpointRulerAction",1352552721343
executed,command,,,"AUTOGEN:::org.eclipse.jdt.debug.CompilationUnitEditor.BreakpointRulerActions/org.eclipse.jdt.debug.ui.actions.ManageBreakpointRulerAction",1352552722337
executed,command,,,"AUTOGEN:::org.eclipse.jdt.debug.CompilationUnitEditor.BreakpointRulerActions/org.eclipse.jdt.debug.ui.actions.ManageBreakpointRulerAction",1352552723100
executed,command,,,"AUTOGEN:::org.eclipse.jdt.debug.CompilationUnitEditor.BreakpointRulerActions/org.eclipse.jdt.debug.ui.actions.ManageBreakpointRulerAction",1352552723773
opened,editor,org.eclipse.jdt.ui,3.7.2.v20120109-1427,"org.eclipse.jdt.ui.ClassFileEditor",1352552724281
activated,editor,org.eclipse.jdt.ui,3.7.2.v20120109-1427,"org.eclipse.jdt.ui.ClassFileEditor",1352552724367
executed,command,,,"AUTOGEN:::org.eclipse.jdt.internal.ui.CompilationUnitEditor.ruler.actions/org.eclipse.jdt.internal.ui.javaeditor.JavaSelectRulerAction",1352552724402
activated,editor,org.eclipse.jdt.ui,3.7.2.v20120109-1427,"org.eclipse.jdt.ui.CompilationUnitEditor",1352552726166
executed,command,org.eclipse.ui,3.7.0.v20110928-1505,"org.eclipse.ui.navigate.backwardHistory",1352552726176
executed,command,,,"AUTOGEN:::org.eclipse.jdt.debug.CompilationUnitEditor.BreakpointRulerActions/org.eclipse.jdt.debug.ui.actions.ManageBreakpointRulerAction",1352552727542
activated,view,org.eclipse.debug.ui,3.7.102.v20111129-1423_r372,"org.eclipse.debug.ui.DebugView",1352552728620
executed,command,org.eclipse.debug.ui,3.7.102.v20111129-1423_r372,"org.eclipse.debug.ui.commands.Terminate",1352552729191
deactivated,workbench,org.eclipse.ui.workbench,3.7.1.v20120104-1859,"",1352552730286
activated,workbench,org.eclipse.ui.workbench,3.7.1.v20120104-1859,"",1352552731757
deactivated,workbench,org.eclipse.ui.workbench,3.7.1.v20120104-1859,"",1352552733560
activated,workbench,org.eclipse.ui.workbench,3.7.1.v20120104-1859,"",1352552734510
executed,command,org.eclipse.debug.ui,3.7.102.v20111129-1423_r372,"org.eclipse.debug.ui.commands.Resume",1352552736993
executed,command,org.eclipse.debug.ui,3.7.102.v20111129-1423_r372,"org.eclipse.debug.ui.commands.Resume",1352552738937
activated,editor,org.eclipse.jdt.ui,3.7.2.v20120109-1427,"org.eclipse.jdt.ui.CompilationUnitEditor",1352552740592
executed,command,org.eclipse.ui,3.7.0.v20110928-1505,"org.eclipse.ui.edit.cut",1352552743545
executed,command,org.eclipse.ui.workbench.texteditor,3.7.0.v20110928-1504,"org.eclipse.ui.edit.text.select.lineStart",1352552745980
executed,command,org.eclipse.ui,3.7.0.v20110928-1505,"org.eclipse.ui.edit.paste",1352552746430
executed,command,org.eclipse.ui,3.7.0.v20110928-1505,"org.eclipse.ui.file.save",1352552747639
deactivated,workbench,org.eclipse.ui.workbench,3.7.1.v20120104-1859,"",1352552748514
activated,workbench,org.eclipse.ui.workbench,3.7.1.v20120104-1859,"",1352552749017
activated,view,org.eclipse.debug.ui,3.7.102.v20111129-1423_r372,"org.eclipse.debug.ui.DebugView",1352552750030
executed,command,org.eclipse.debug.ui,3.7.102.v20111129-1423_r372,"org.eclipse.debug.ui.commands.Terminate",1352552750179
deactivated,workbench,org.eclipse.ui.workbench,3.7.1.v20120104-1859,"",1352552752828
activated,workbench,org.eclipse.ui.workbench,3.7.1.v20120104-1859,"",1352552753060
activated,editor,org.eclipse.jdt.ui,3.7.2.v20120109-1427,"org.eclipse.jdt.ui.CompilationUnitEditor",1352552753657
executed,command,org.eclipse.ui,3.7.0.v20110928-1505,"org.eclipse.ui.file.save",1352552755196
activated,view,org.eclipse.debug.ui,3.7.102.v20111129-1423_r372,"org.eclipse.debug.ui.DebugView",1352552757728
executed,command,org.eclipse.debug.ui,3.7.102.v20111129-1423_r372,"org.eclipse.debug.ui.commands.Resume",1352552758408
deactivated,workbench,org.eclipse.ui.workbench,3.7.1.v20120104-1859,"",1352552759051
activated,workbench,org.eclipse.ui.workbench,3.7.1.v20120104-1859,"",1352552760669
executed,command,org.eclipse.debug.ui,3.7.102.v20111129-1423_r372,"org.eclipse.debug.ui.commands.Resume",1352552760773
activated,editor,org.eclipse.jdt.ui,3.7.2.v20120109-1427,"org.eclipse.jdt.ui.CompilationUnitEditor",1352552761755
executed,command,,,"AUTOGEN:::org.eclipse.jdt.debug.CompilationUnitEditor.BreakpointRulerActions/org.eclipse.jdt.debug.ui.actions.ManageBreakpointRulerAction",1352552762033
deactivated,workbench,org.eclipse.ui.workbench,3.7.1.v20120104-1859,"",1352552762343
activated,workbench,org.eclipse.ui.workbench,3.7.1.v20120104-1859,"",1352552765460
executed,command,org.eclipse.ui.workbench.texteditor,3.7.0.v20110928-1504,"org.eclipse.ui.edit.text.select.lineEnd",1352552766652
executed,command,org.eclipse.ui,3.7.0.v20110928-1505,"org.eclipse.ui.edit.cut",1352552767181
executed,command,org.eclipse.ui,3.7.0.v20110928-1505,"org.eclipse.ui.file.save",1352552768342
executed,command,org.eclipse.ui,3.7.0.v20110928-1505,"org.eclipse.ui.file.save",1352552782750
deactivated,workbench,org.eclipse.ui.workbench,3.7.1.v20120104-1859,"",1352552783403
activated,workbench,org.eclipse.ui.workbench,3.7.1.v20120104-1859,"",1352552784802
executed,command,org.eclipse.debug.ui,3.7.102.v20111129-1423_r372,"org.eclipse.debug.ui.commands.Terminate",1352552784910
deactivated,workbench,org.eclipse.ui.workbench,3.7.1.v20120104-1859,"",1352552787702
activated,workbench,org.eclipse.ui.workbench,3.7.1.v20120104-1859,"",1352552787982
executed,command,org.eclipse.ui,3.7.0.v20110928-1505,"org.eclipse.ui.edit.selectAll",1352552788198
executed,command,org.eclipse.jdt.ui,3.7.2.v20120109-1427,"org.eclipse.jdt.ui.edit.text.java.indent",1352552788591
executed,command,org.eclipse.ui,3.7.0.v20110928-1505,"org.eclipse.ui.file.save",1352552789427
deactivated,workbench,org.eclipse.ui.workbench,3.7.1.v20120104-1859,"",1352552789976
activated,workbench,org.eclipse.ui.workbench,3.7.1.v20120104-1859,"",1352552791349
executed,command,org.eclipse.debug.ui,3.7.102.v20111129-1423_r372,"org.eclipse.debug.ui.commands.Resume",1352552791497
