what,kind,bundleId,bundleVersion,description,time
activated,workbench,org.eclipse.ui.workbench,3.7.1.v20120104-1859,"",1350976190658
deactivated,workbench,org.eclipse.ui.workbench,3.7.1.v20120104-1859,"",1350976198813
activated,workbench,org.eclipse.ui.workbench,3.7.1.v20120104-1859,"",1350976220462
deactivated,workbench,org.eclipse.ui.workbench,3.7.1.v20120104-1859,"",1350976220920
activated,workbench,org.eclipse.ui.workbench,3.7.1.v20120104-1859,"",1350976224060
deactivated,workbench,org.eclipse.ui.workbench,3.7.1.v20120104-1859,"",1350976229581
executed,command,org.eclipse.ui,3.7.0.v20110928-1505,"org.eclipse.ui.edit.paste",1350976230937
activated,view,org.eclipse.search,3.7.0.v20110928-1504,"org.eclipse.search.ui.views.SearchView",1350976231471
activated,workbench,org.eclipse.ui.workbench,3.7.1.v20120104-1859,"",1350976231578
executed,command,org.eclipse.search,3.7.0.v20110928-1504,"org.eclipse.search.ui.openSearchDialog",1350976231659
deactivated,workbench,org.eclipse.ui.workbench,3.7.1.v20120104-1859,"",1350976232205
activated,workbench,org.eclipse.ui.workbench,3.7.1.v20120104-1859,"",1350976234310
deactivated,workbench,org.eclipse.ui.workbench,3.7.1.v20120104-1859,"",1350976235732
executed,command,org.eclipse.ui,3.7.0.v20110928-1505,"org.eclipse.ui.edit.selectAll",1350976240703
executed,command,org.eclipse.ui,3.7.0.v20110928-1505,"org.eclipse.ui.edit.paste",1350976241880
activated,workbench,org.eclipse.ui.workbench,3.7.1.v20120104-1859,"",1350976243058
executed,command,org.eclipse.search,3.7.0.v20110928-1504,"org.eclipse.search.ui.openSearchDialog",1350976243122
deactivated,workbench,org.eclipse.ui.workbench,3.7.1.v20120104-1859,"",1350976243836
activated,workbench,org.eclipse.ui.workbench,3.7.1.v20120104-1859,"",1350976245417
activated,editor,org.eclipse.jdt.ui,3.7.2.v20120109-1427,"org.eclipse.jdt.ui.CompilationUnitEditor",1350976247924
deactivated,workbench,org.eclipse.ui.workbench,3.7.1.v20120104-1859,"",1350976256339
activated,workbench,org.eclipse.ui.workbench,3.7.1.v20120104-1859,"",1350976259543
deactivated,workbench,org.eclipse.ui.workbench,3.7.1.v20120104-1859,"",1350976264396
activated,workbench,org.eclipse.ui.workbench,3.7.1.v20120104-1859,"",1350976267252
executed,command,org.eclipse.ui,3.7.0.v20110928-1505,"org.eclipse.ui.edit.copy",1350976270019
activated,view,org.eclipse.jdt.ui,3.7.2.v20120109-1427,"org.eclipse.jdt.ui.PackageExplorer",1350976277502
activated,editor,org.eclipse.jdt.ui,3.7.2.v20120109-1427,"org.eclipse.jdt.ui.CompilationUnitEditor",1350976279217
activated,editor,org.eclipse.jdt.ui,3.7.2.v20120109-1427,"org.eclipse.jdt.ui.CompilationUnitEditor",1350976279409
executed,command,org.eclipse.ui,3.7.0.v20110928-1505,"org.eclipse.ui.edit.copy",1350976285200
deactivated,workbench,org.eclipse.ui.workbench,3.7.1.v20120104-1859,"",1350976286154
executed,command,org.eclipse.ui,3.7.0.v20110928-1505,"org.eclipse.ui.edit.paste",1350976286984
activated,workbench,org.eclipse.ui.workbench,3.7.1.v20120104-1859,"",1350976288589
activated,editor,org.eclipse.jdt.ui,3.7.2.v20120109-1427,"org.eclipse.jdt.ui.CompilationUnitEditor",1350976288717
executed,command,org.eclipse.ui.ide,3.7.0.v20110928-1505,"org.eclipse.ui.navigate.openResource",1350976288731
activated,view,org.eclipse.ui.views,3.6.0.v20110928-1505,"org.eclipse.ui.views.ContentOutline",1350976290837
deactivated,workbench,org.eclipse.ui.workbench,3.7.1.v20120104-1859,"",1350976294921
activated,workbench,org.eclipse.ui.workbench,3.7.1.v20120104-1859,"",1350976297002
activated,editor,org.eclipse.jdt.ui,3.7.2.v20120109-1427,"org.eclipse.jdt.ui.CompilationUnitEditor",1350976299523
deactivated,workbench,org.eclipse.ui.workbench,3.7.1.v20120104-1859,"",1350976300115
executed,command,org.eclipse.ui,3.7.0.v20110928-1505,"org.eclipse.ui.edit.findReplace",1350976300174
executed,command,org.eclipse.ui,3.7.0.v20110928-1505,"org.eclipse.ui.edit.paste",1350976300400
activated,workbench,org.eclipse.ui.workbench,3.7.1.v20120104-1859,"",1350976304022
executed,command,org.eclipse.ui,3.7.0.v20110928-1505,"org.eclipse.ui.navigate.backwardHistory",1350976312943
executed,command,org.eclipse.ui,3.7.0.v20110928-1505,"org.eclipse.ui.navigate.backwardHistory",1350976313725
executed,command,org.eclipse.ui,3.7.0.v20110928-1505,"org.eclipse.ui.navigate.backwardHistory",1350976315316
executed,command,org.eclipse.ui,3.7.0.v20110928-1505,"org.eclipse.ui.navigate.backwardHistory",1350976316204
executed,command,org.eclipse.ui,3.7.0.v20110928-1505,"org.eclipse.ui.navigate.backwardHistory",1350976317344
executed,command,org.eclipse.ui,3.7.0.v20110928-1505,"org.eclipse.ui.navigate.backwardHistory",1350976318552
deactivated,workbench,org.eclipse.ui.workbench,3.7.1.v20120104-1859,"",1350976324162
executed,command,org.eclipse.ui,3.7.0.v20110928-1505,"org.eclipse.ui.edit.findReplace",1350976324215
executed,command,org.eclipse.ui,3.7.0.v20110928-1505,"org.eclipse.ui.edit.paste",1350976324472
activated,workbench,org.eclipse.ui.workbench,3.7.1.v20120104-1859,"",1350976328145
activated,view,org.eclipse.search,3.7.0.v20110928-1504,"org.eclipse.search.ui.views.SearchView",1350976328181
activated,editor,org.eclipse.jdt.ui,3.7.2.v20120109-1427,"org.eclipse.jdt.ui.CompilationUnitEditor",1350976328941
activated,view,org.eclipse.search,3.7.0.v20110928-1504,"org.eclipse.search.ui.views.SearchView",1350976329078
opened,editor,org.eclipse.jdt.ui,3.7.2.v20120109-1427,"org.eclipse.jdt.ui.CompilationUnitEditor",1350976356254
activated,editor,org.eclipse.jdt.ui,3.7.2.v20120109-1427,"org.eclipse.jdt.ui.CompilationUnitEditor",1350976356345
activated,view,org.eclipse.search,3.7.0.v20110928-1504,"org.eclipse.search.ui.views.SearchView",1350976358841
activated,editor,org.eclipse.jdt.ui,3.7.2.v20120109-1427,"org.eclipse.jdt.ui.CompilationUnitEditor",1350976363718
activated,editor,org.eclipse.jdt.ui,3.7.2.v20120109-1427,"org.eclipse.jdt.ui.CompilationUnitEditor",1350976363910
deactivated,workbench,org.eclipse.ui.workbench,3.7.1.v20120104-1859,"",1350976366503
executed,command,org.eclipse.ui,3.7.0.v20110928-1505,"org.eclipse.ui.edit.findReplace",1350976366563
executed,command,org.eclipse.ui,3.7.0.v20110928-1505,"org.eclipse.ui.edit.paste",1350976366927
activated,workbench,org.eclipse.ui.workbench,3.7.1.v20120104-1859,"",1350976422658
deactivated,workbench,org.eclipse.ui.workbench,3.7.1.v20120104-1859,"",1350976423535
activated,workbench,org.eclipse.ui.workbench,3.7.1.v20120104-1859,"",1350976429682
activated,editor,org.eclipse.jdt.ui,3.7.2.v20120109-1427,"org.eclipse.jdt.ui.CompilationUnitEditor",1350976429712
executed,command,org.eclipse.ui.ide,3.7.0.v20110928-1505,"org.eclipse.ui.navigate.openResource",1350976429715
activated,view,org.eclipse.ui.views,3.6.0.v20110928-1505,"org.eclipse.ui.views.ContentOutline",1350976433990
activated,editor,org.eclipse.jdt.ui,3.7.2.v20120109-1427,"org.eclipse.jdt.ui.CompilationUnitEditor",1350976436344
executed,command,org.eclipse.ui,3.7.0.v20110928-1505,"org.eclipse.ui.edit.paste",1350976437245
executed,command,org.eclipse.jdt.ui,3.7.2.v20120109-1427,"org.eclipse.jdt.ui.edit.text.java.organize.imports",1350976441915
executed,command,org.eclipse.ui,3.7.0.v20110928-1505,"org.eclipse.ui.edit.text.contentAssist.proposals",1350976447013
executed,command,org.eclipse.ui.workbench.texteditor,3.7.0.v20110928-1504,"org.eclipse.ui.edit.text.select.lineStart",1350976451675
deactivated,workbench,org.eclipse.ui.workbench,3.7.1.v20120104-1859,"",1350976452875
activated,workbench,org.eclipse.ui.workbench,3.7.1.v20120104-1859,"",1350976462611
executed,command,org.eclipse.ui,3.7.0.v20110928-1505,"org.eclipse.ui.edit.paste",1350976463455
deactivated,workbench,org.eclipse.ui.workbench,3.7.1.v20120104-1859,"",1350976466944
activated,workbench,org.eclipse.ui.workbench,3.7.1.v20120104-1859,"",1350976467753
executed,command,org.eclipse.ui,3.7.0.v20110928-1505,"org.eclipse.ui.edit.undo",1350976468082
deactivated,workbench,org.eclipse.ui.workbench,3.7.1.v20120104-1859,"",1350976472908
activated,workbench,org.eclipse.ui.workbench,3.7.1.v20120104-1859,"",1350976477958
deactivated,workbench,org.eclipse.ui.workbench,3.7.1.v20120104-1859,"",1350976479335
activated,workbench,org.eclipse.ui.workbench,3.7.1.v20120104-1859,"",1350976484144
activated,editor,org.eclipse.jdt.ui,3.7.2.v20120109-1427,"org.eclipse.jdt.ui.CompilationUnitEditor",1350976484173
executed,command,org.eclipse.ui.ide,3.7.0.v20110928-1505,"org.eclipse.ui.navigate.openResource",1350976484175
activated,editor,org.eclipse.jdt.ui,3.7.2.v20120109-1427,"org.eclipse.jdt.ui.CompilationUnitEditor",1350976488320
activated,editor,org.eclipse.jdt.ui,3.7.2.v20120109-1427,"org.eclipse.jdt.ui.CompilationUnitEditor",1350976491077
executed,command,org.eclipse.ui,3.7.0.v20110928-1505,"org.eclipse.ui.navigate.backwardHistory",1350976491089
opened,editor,org.eclipse.jdt.ui,3.7.2.v20120109-1427,"org.eclipse.jdt.ui.CompilationUnitEditor",1350976492874
activated,editor,org.eclipse.jdt.ui,3.7.2.v20120109-1427,"org.eclipse.jdt.ui.CompilationUnitEditor",1350976492940
activated,editor,org.eclipse.jdt.ui,3.7.2.v20120109-1427,"org.eclipse.jdt.ui.CompilationUnitEditor",1350976495205
executed,command,org.eclipse.ui,3.7.0.v20110928-1505,"org.eclipse.ui.navigate.backwardHistory",1350976495217
deactivated,workbench,org.eclipse.ui.workbench,3.7.1.v20120104-1859,"",1350976497394
activated,workbench,org.eclipse.ui.workbench,3.7.1.v20120104-1859,"",1350976498040
executed,command,org.eclipse.ui,3.7.0.v20110928-1505,"org.eclipse.ui.edit.copy",1350976500865
deactivated,workbench,org.eclipse.ui.workbench,3.7.1.v20120104-1859,"",1350976501146
executed,command,org.eclipse.ui,3.7.0.v20110928-1505,"org.eclipse.ui.edit.findReplace",1350976501179
executed,command,org.eclipse.ui,3.7.0.v20110928-1505,"org.eclipse.ui.edit.paste",1350976501455
activated,workbench,org.eclipse.ui.workbench,3.7.1.v20120104-1859,"",1350976503635
deactivated,workbench,org.eclipse.ui.workbench,3.7.1.v20120104-1859,"",1350976530325
activated,workbench,org.eclipse.ui.workbench,3.7.1.v20120104-1859,"",1350976589352
deactivated,workbench,org.eclipse.ui.workbench,3.7.1.v20120104-1859,"",1350976591706
activated,workbench,org.eclipse.ui.workbench,3.7.1.v20120104-1859,"",1350976594151
activated,editor,org.eclipse.jdt.ui,3.7.2.v20120109-1427,"org.eclipse.jdt.ui.CompilationUnitEditor",1350976594225
activated,editor,org.eclipse.jdt.ui,3.7.2.v20120109-1427,"org.eclipse.jdt.ui.CompilationUnitEditor",1350976597125
executed,command,org.eclipse.ui,3.7.0.v20110928-1505,"org.eclipse.ui.edit.paste",1350976601842
executed,command,org.eclipse.ui.workbench.texteditor,3.7.0.v20110928-1504,"org.eclipse.ui.edit.text.select.lineStart",1350976604405
deactivated,workbench,org.eclipse.ui.workbench,3.7.1.v20120104-1859,"",1350976605204
activated,workbench,org.eclipse.ui.workbench,3.7.1.v20120104-1859,"",1350976612525
executed,command,org.eclipse.ui,3.7.0.v20110928-1505,"org.eclipse.ui.edit.paste",1350976613895
executed,command,org.eclipse.ui,3.7.0.v20110928-1505,"org.eclipse.ui.edit.undo",1350976615546
deactivated,workbench,org.eclipse.ui.workbench,3.7.1.v20120104-1859,"",1350976616191
activated,workbench,org.eclipse.ui.workbench,3.7.1.v20120104-1859,"",1350976698687
activated,view,org.eclipse.jdt.ui,3.7.2.v20120109-1427,"org.eclipse.jdt.ui.PackageExplorer",1350976712027
activated,editor,org.eclipse.jdt.ui,3.7.2.v20120109-1427,"org.eclipse.jdt.ui.CompilationUnitEditor",1350976727844
executed,command,,,"AUTOGEN:::org.eclipse.jdt.debug.CompilationUnitEditor.BreakpointRulerActions/org.eclipse.jdt.debug.ui.actions.ManageBreakpointRulerAction",1350976728522
deactivated,workbench,org.eclipse.ui.workbench,3.7.1.v20120104-1859,"",1350976731268
activated,workbench,org.eclipse.ui.workbench,3.7.1.v20120104-1859,"",1350976733722
deactivated,workbench,org.eclipse.ui.workbench,3.7.1.v20120104-1859,"",1350976735490
activated,perspective,org.eclipse.debug.ui,3.7.102.v20111129-1423_r372,"org.eclipse.debug.ui.DebugPerspective",1350976737143
activated,workbench,org.eclipse.ui.workbench,3.7.1.v20120104-1859,"",1350976737376
activated,editor,org.eclipse.jdt.ui,3.7.2.v20120109-1427,"org.eclipse.jdt.ui.CompilationUnitEditor",1350976737744
activated,view,org.eclipse.debug.ui,3.7.102.v20111129-1423_r372,"org.eclipse.debug.ui.DebugView",1350976739651
executed,command,org.eclipse.debug.ui,3.7.102.v20111129-1423_r372,"org.eclipse.debug.ui.commands.Resume",1350976739772
deactivated,workbench,org.eclipse.ui.workbench,3.7.1.v20120104-1859,"",1350976742209
activated,workbench,org.eclipse.ui.workbench,3.7.1.v20120104-1859,"",1350976750668
executed,command,org.eclipse.debug.ui,3.7.102.v20111129-1423_r372,"org.eclipse.debug.ui.commands.Terminate",1350976750774
executed,command,org.eclipse.debug.ui,3.7.102.v20111129-1423_r372,"org.eclipse.debug.ui.commands.Terminate",1350976754188
deactivated,workbench,org.eclipse.ui.workbench,3.7.1.v20120104-1859,"",1350976757416
activated,workbench,org.eclipse.ui.workbench,3.7.1.v20120104-1859,"",1350976759032
activated,editor,org.eclipse.jdt.ui,3.7.2.v20120109-1427,"org.eclipse.jdt.ui.CompilationUnitEditor",1350976760843
activated,view,org.eclipse.debug.ui,3.7.102.v20111129-1423_r372,"org.eclipse.debug.ui.VariableView",1350976765296
activated,view,org.eclipse.debug.ui,3.7.102.v20111129-1423_r372,"org.eclipse.debug.ui.DebugView",1350976771159
executed,command,org.eclipse.debug.ui,3.7.102.v20111129-1423_r372,"org.eclipse.debug.ui.commands.Resume",1350976771296
deactivated,workbench,org.eclipse.ui.workbench,3.7.1.v20120104-1859,"",1350976771997
activated,workbench,org.eclipse.ui.workbench,3.7.1.v20120104-1859,"",1350976773306
activated,editor,org.eclipse.jdt.ui,3.7.2.v20120109-1427,"org.eclipse.jdt.ui.CompilationUnitEditor",1350976774259
executed,command,org.eclipse.ui,3.7.0.v20110928-1505,"org.eclipse.ui.edit.copy",1350976774926
executed,command,org.eclipse.ui,3.7.0.v20110928-1505,"org.eclipse.ui.edit.paste",1350976779201
executed,command,org.eclipse.ui,3.7.0.v20110928-1505,"org.eclipse.ui.edit.copy",1350976789959
deactivated,workbench,org.eclipse.ui.workbench,3.7.1.v20120104-1859,"",1350976790807
activated,workbench,org.eclipse.ui.workbench,3.7.1.v20120104-1859,"",1350976793292
deactivated,workbench,org.eclipse.ui.workbench,3.7.1.v20120104-1859,"",1350976794885
activated,view,org.eclipse.search,3.7.0.v20110928-1504,"org.eclipse.search.ui.views.SearchView",1350976796862
activated,workbench,org.eclipse.ui.workbench,3.7.1.v20120104-1859,"",1350976796980
executed,command,org.eclipse.search,3.7.0.v20110928-1504,"org.eclipse.search.ui.openSearchDialog",1350976797079
deactivated,workbench,org.eclipse.ui.workbench,3.7.1.v20120104-1859,"",1350976797610
activated,workbench,org.eclipse.ui.workbench,3.7.1.v20120104-1859,"",1350976799525
activated,editor,org.eclipse.jdt.ui,3.7.2.v20120109-1427,"org.eclipse.jdt.ui.CompilationUnitEditor",1350976804711
executed,command,org.eclipse.ui,3.7.0.v20110928-1505,"org.eclipse.ui.edit.undo",1350976815050
executed,command,org.eclipse.ui,3.7.0.v20110928-1505,"org.eclipse.ui.edit.undo",1350976815429
executed,command,org.eclipse.ui,3.7.0.v20110928-1505,"org.eclipse.ui.edit.undo",1350976815693
executed,command,org.eclipse.ui,3.7.0.v20110928-1505,"org.eclipse.ui.edit.undo",1350976816126
executed,command,org.eclipse.ui,3.7.0.v20110928-1505,"org.eclipse.ui.edit.undo",1350976816581
activated,perspective,org.eclipse.jdt.ui,3.7.2.v20120109-1427,"org.eclipse.jdt.ui.JavaPerspective",1350976819686
activated,view,org.eclipse.jdt.ui,3.7.2.v20120109-1427,"org.eclipse.jdt.ui.PackageExplorer",1350976827870
activated,editor,org.eclipse.jdt.ui,3.7.2.v20120109-1427,"org.eclipse.jdt.ui.CompilationUnitEditor",1350976848338
executed,command,,,"AUTOGEN:::org.eclipse.jdt.debug.CompilationUnitEditor.BreakpointRulerActions/org.eclipse.jdt.debug.ui.actions.ManageBreakpointRulerAction",1350976848908
executed,command,,,"AUTOGEN:::org.eclipse.jdt.debug.CompilationUnitEditor.BreakpointRulerActions/org.eclipse.jdt.debug.ui.actions.ManageBreakpointRulerAction",1350976850123
deactivated,workbench,org.eclipse.ui.workbench,3.7.1.v20120104-1859,"",1350976853378
activated,perspective,org.eclipse.debug.ui,3.7.102.v20111129-1423_r372,"org.eclipse.debug.ui.DebugPerspective",1350976855036
activated,workbench,org.eclipse.ui.workbench,3.7.1.v20120104-1859,"",1350976855266
activated,editor,org.eclipse.jdt.ui,3.7.2.v20120109-1427,"org.eclipse.jdt.ui.CompilationUnitEditor",1350976855781
activated,view,org.eclipse.debug.ui,3.7.102.v20111129-1423_r372,"org.eclipse.debug.ui.DebugView",1350976857458
executed,command,org.eclipse.debug.ui,3.7.102.v20111129-1423_r372,"org.eclipse.debug.ui.commands.Resume",1350976857568
executed,command,org.eclipse.debug.ui,3.7.102.v20111129-1423_r372,"org.eclipse.debug.ui.commands.Resume",1350976865849
executed,command,org.eclipse.debug.ui,3.7.102.v20111129-1423_r372,"org.eclipse.debug.ui.commands.Resume",1350976867908
activated,editor,org.eclipse.jdt.ui,3.7.2.v20120109-1427,"org.eclipse.jdt.ui.CompilationUnitEditor",1350976872007
executed,command,org.eclipse.ui,3.7.0.v20110928-1505,"org.eclipse.ui.navigate.backwardHistory",1350976872029
activated,editor,org.eclipse.jdt.ui,3.7.2.v20120109-1427,"org.eclipse.jdt.ui.CompilationUnitEditor",1350976872796
executed,command,org.eclipse.ui,3.7.0.v20110928-1505,"org.eclipse.ui.navigate.backwardHistory",1350976872802
activated,editor,org.eclipse.jdt.ui,3.7.2.v20120109-1427,"org.eclipse.jdt.ui.CompilationUnitEditor",1350976874024
executed,command,org.eclipse.ui,3.7.0.v20110928-1505,"org.eclipse.ui.navigate.backwardHistory",1350976874063
activated,editor,org.eclipse.jdt.ui,3.7.2.v20120109-1427,"org.eclipse.jdt.ui.CompilationUnitEditor",1350976875617
executed,command,org.eclipse.ui,3.7.0.v20110928-1505,"org.eclipse.ui.navigate.backwardHistory",1350976875624
activated,perspective,org.eclipse.jdt.ui,3.7.2.v20120109-1427,"org.eclipse.jdt.ui.JavaPerspective",1350976878155
activated,view,org.eclipse.jdt.ui,3.7.2.v20120109-1427,"org.eclipse.jdt.ui.PackageExplorer",1350976880278
activated,editor,org.eclipse.jdt.ui,3.7.2.v20120109-1427,"org.eclipse.jdt.ui.CompilationUnitEditor",1350976881972
executed,command,org.eclipse.ui,3.7.0.v20110928-1505,"org.eclipse.ui.file.save",1350976883433
deactivated,workbench,org.eclipse.ui.workbench,3.7.1.v20120104-1859,"",1350976887405
activated,workbench,org.eclipse.ui.workbench,3.7.1.v20120104-1859,"",1350976888267
activated,perspective,org.eclipse.debug.ui,3.7.102.v20111129-1423_r372,"org.eclipse.debug.ui.DebugPerspective",1350976889162
activated,editor,org.eclipse.jdt.ui,3.7.2.v20120109-1427,"org.eclipse.jdt.ui.CompilationUnitEditor",1350976889734
deactivated,workbench,org.eclipse.ui.workbench,3.7.1.v20120104-1859,"",1350976891021
activated,workbench,org.eclipse.ui.workbench,3.7.1.v20120104-1859,"",1350976892009
executed,command,org.eclipse.debug.ui,3.7.102.v20111129-1423_r372,"org.eclipse.debug.ui.commands.Terminate",1350976892129
activated,view,org.eclipse.debug.ui,3.7.102.v20111129-1423_r372,"org.eclipse.debug.ui.DebugView",1350976894664
executed,command,org.eclipse.debug.ui,3.7.102.v20111129-1423_r372,"org.eclipse.debug.ui.commands.Terminate",1350976895587
executed,command,org.eclipse.debug.ui,3.7.102.v20111129-1423_r372,"org.eclipse.debug.ui.commands.Terminate",1350976898521
activated,editor,org.eclipse.jdt.ui,3.7.2.v20120109-1427,"org.eclipse.jdt.ui.CompilationUnitEditor",1350976905953
activated,editor,org.eclipse.jdt.ui,3.7.2.v20120109-1427,"org.eclipse.jdt.ui.CompilationUnitEditor",1350976907302
executed,command,org.eclipse.ui,3.7.0.v20110928-1505,"org.eclipse.ui.navigate.backwardHistory",1350976907348
activated,editor,org.eclipse.jdt.ui,3.7.2.v20120109-1427,"org.eclipse.jdt.ui.CompilationUnitEditor",1350976908187
executed,command,org.eclipse.ui,3.7.0.v20110928-1505,"org.eclipse.ui.navigate.backwardHistory",1350976908200
activated,editor,org.eclipse.jdt.ui,3.7.2.v20120109-1427,"org.eclipse.jdt.ui.CompilationUnitEditor",1350976909445
executed,command,org.eclipse.ui,3.7.0.v20110928-1505,"org.eclipse.ui.navigate.forwardHistory",1350976909452
executed,command,org.eclipse.ui,3.7.0.v20110928-1505,"org.eclipse.ui.file.save",1350976912715
activated,editor,org.eclipse.jdt.ui,3.7.2.v20120109-1427,"org.eclipse.jdt.ui.CompilationUnitEditor",1350976914929
deactivated,workbench,org.eclipse.ui.workbench,3.7.1.v20120104-1859,"",1350976923202
activated,workbench,org.eclipse.ui.workbench,3.7.1.v20120104-1859,"",1350992326822
activated,editor,org.eclipse.jdt.ui,3.7.2.v20120109-1427,"org.eclipse.jdt.ui.CompilationUnitEditor",1350992330746
activated,editor,org.eclipse.jdt.ui,3.7.2.v20120109-1427,"org.eclipse.jdt.ui.CompilationUnitEditor",1350992332153
activated,editor,org.eclipse.jdt.ui,3.7.2.v20120109-1427,"org.eclipse.jdt.ui.CompilationUnitEditor",1350992333160
activated,editor,org.eclipse.jdt.ui,3.7.2.v20120109-1427,"org.eclipse.jdt.ui.CompilationUnitEditor",1350992334830
activated,editor,org.eclipse.jdt.ui,3.7.2.v20120109-1427,"org.eclipse.jdt.ui.CompilationUnitEditor",1350992335970
deactivated,workbench,org.eclipse.ui.workbench,3.7.1.v20120104-1859,"",1350992338669
activated,workbench,org.eclipse.ui.workbench,3.7.1.v20120104-1859,"",1350992341182
activated,editor,org.eclipse.jdt.ui,3.7.2.v20120109-1427,"org.eclipse.jdt.ui.CompilationUnitEditor",1350992341300
executed,command,org.eclipse.ui.ide,3.7.0.v20110928-1505,"org.eclipse.ui.navigate.openResource",1350992341302
executed,command,org.eclipse.ui,3.7.0.v20110928-1505,"org.eclipse.ui.edit.copy",1350992343269
deactivated,workbench,org.eclipse.ui.workbench,3.7.1.v20120104-1859,"",1350992346401
activated,workbench,org.eclipse.ui.workbench,3.7.1.v20120104-1859,"",1350992347140
deactivated,workbench,org.eclipse.ui.workbench,3.7.1.v20120104-1859,"",1350992350712
activated,workbench,org.eclipse.ui.workbench,3.7.1.v20120104-1859,"",1350992448449
deactivated,workbench,org.eclipse.ui.workbench,3.7.1.v20120104-1859,"",1350992449526
activated,workbench,org.eclipse.ui.workbench,3.7.1.v20120104-1859,"",1350992451738
opened,editor,org.eclipse.jdt.ui,3.7.2.v20120109-1427,"org.eclipse.jdt.ui.CompilationUnitEditor",1350992451938
activated,editor,org.eclipse.jdt.ui,3.7.2.v20120109-1427,"org.eclipse.jdt.ui.CompilationUnitEditor",1350992452058
executed,command,org.eclipse.ui.ide,3.7.0.v20110928-1505,"org.eclipse.ui.navigate.openResource",1350992452070
deactivated,workbench,org.eclipse.ui.workbench,3.7.1.v20120104-1859,"",1350992452908
activated,workbench,org.eclipse.ui.workbench,3.7.1.v20120104-1859,"",1350992457539
activated,editor,org.eclipse.jdt.ui,3.7.2.v20120109-1427,"org.eclipse.jdt.ui.CompilationUnitEditor",1350992457688
executed,command,org.eclipse.ui.ide,3.7.0.v20110928-1505,"org.eclipse.ui.navigate.openResource",1350992457690
executed,command,org.eclipse.ui,3.7.0.v20110928-1505,"org.eclipse.ui.edit.paste",1350992460227
executed,command,org.eclipse.ui,3.7.0.v20110928-1505,"org.eclipse.ui.file.save",1350992472058
deactivated,workbench,org.eclipse.ui.workbench,3.7.1.v20120104-1859,"",1350992472913
activated,workbench,org.eclipse.ui.workbench,3.7.1.v20120104-1859,"",1350992484929
activated,view,org.eclipse.jdt.ui,3.7.2.v20120109-1427,"org.eclipse.jdt.ui.TypeHierarchy",1350992489648
executed,command,org.eclipse.jdt.ui,3.7.2.v20120109-1427,"org.eclipse.jdt.ui.edit.text.java.open.type.hierarchy",1350992489732
deactivated,workbench,org.eclipse.ui.workbench,3.7.1.v20120104-1859,"",1350992494343
activated,view,org.eclipse.debug.ui,3.7.102.v20111129-1423_r372,"org.eclipse.debug.ui.DebugView",1350992496258
activated,workbench,org.eclipse.ui.workbench,3.7.1.v20120104-1859,"",1350992496323
executed,command,org.eclipse.debug.ui,3.7.102.v20111129-1423_r372,"org.eclipse.debug.ui.commands.Resume",1350992499135
executed,command,org.eclipse.debug.ui,3.7.102.v20111129-1423_r372,"org.eclipse.debug.ui.commands.Resume",1350992501335
executed,command,org.eclipse.debug.ui,3.7.102.v20111129-1423_r372,"org.eclipse.debug.ui.commands.Resume",1350992503888
activated,editor,org.eclipse.jdt.ui,3.7.2.v20120109-1427,"org.eclipse.jdt.ui.CompilationUnitEditor",1350992510298
deactivated,workbench,org.eclipse.ui.workbench,3.7.1.v20120104-1859,"",1350992514235
activated,workbench,org.eclipse.ui.workbench,3.7.1.v20120104-1859,"",1350992515962
activated,perspective,org.eclipse.jdt.ui,3.7.2.v20120109-1427,"org.eclipse.jdt.ui.JavaPerspective",1350992518282
activated,editor,org.eclipse.jdt.ui,3.7.2.v20120109-1427,"org.eclipse.jdt.ui.CompilationUnitEditor",1350992522586
executed,command,,,"AUTOGEN:::org.eclipse.jdt.debug.CompilationUnitEditor.BreakpointRulerActions/org.eclipse.jdt.debug.ui.actions.ManageBreakpointRulerAction",1350992530868
deactivated,workbench,org.eclipse.ui.workbench,3.7.1.v20120104-1859,"",1350992531428
activated,workbench,org.eclipse.ui.workbench,3.7.1.v20120104-1859,"",1350992533404
deactivated,workbench,org.eclipse.ui.workbench,3.7.1.v20120104-1859,"",1350992537150
activated,perspective,org.eclipse.debug.ui,3.7.102.v20111129-1423_r372,"org.eclipse.debug.ui.DebugPerspective",1350992538971
activated,workbench,org.eclipse.ui.workbench,3.7.1.v20120104-1859,"",1350992539203
activated,editor,org.eclipse.jdt.ui,3.7.2.v20120109-1427,"org.eclipse.jdt.ui.CompilationUnitEditor",1350992539668
activated,view,org.eclipse.debug.ui,3.7.102.v20111129-1423_r372,"org.eclipse.debug.ui.DebugView",1350992542803
executed,command,org.eclipse.debug.ui,3.7.102.v20111129-1423_r372,"org.eclipse.debug.ui.commands.Resume",1350992542963
