what,kind,bundleId,bundleVersion,description,time
opened,editor,org.eclipse.jdt.ui,3.7.2.v20120109-1427,"org.eclipse.jdt.ui.CompilationUnitEditor",1356749037206
opened,editor,org.eclipse.jdt.ui,3.7.2.v20120109-1427,"org.eclipse.jdt.ui.CompilationUnitEditor",1356749038646
activated,editor,org.eclipse.jdt.ui,3.7.2.v20120109-1427,"org.eclipse.jdt.ui.CompilationUnitEditor",1356749041638
executed,command,org.eclipse.ui,3.7.0.v20110928-1505,"org.eclipse.ui.edit.copy",1356749044955
executed,command,org.eclipse.ui,3.7.0.v20110928-1505,"org.eclipse.ui.edit.copy",1356749051230
executed,command,org.eclipse.ui,3.7.0.v20110928-1505,"org.eclipse.ui.edit.copy",1356749055303
deactivated,workbench,org.eclipse.ui.workbench,3.7.1.v20120104-1859,"",1356749061484
activated,view,org.eclipse.jdt.ui,3.7.2.v20120109-1427,"org.eclipse.jdt.ui.PackageExplorer",1356749081022
activated,workbench,org.eclipse.ui.workbench,3.7.1.v20120104-1859,"",1356749081144
opened,editor,org.eclipse.jdt.ui,3.7.2.v20120109-1427,"org.eclipse.jdt.ui.CompilationUnitEditor",1356749081351
deactivated,workbench,org.eclipse.ui.workbench,3.7.1.v20120104-1859,"",1356749098195
activated,workbench,org.eclipse.ui.workbench,3.7.1.v20120104-1859,"",1356749099214
activated,editor,org.eclipse.jdt.ui,3.7.2.v20120109-1427,"org.eclipse.jdt.ui.CompilationUnitEditor",1356749105659
executed,command,org.eclipse.ui,3.7.0.v20110928-1505,"org.eclipse.ui.edit.copy",1356749106285
executed,command,org.eclipse.ui,3.7.0.v20110928-1505,"org.eclipse.ui.edit.cut",1356749109711
executed,command,org.eclipse.ui,3.7.0.v20110928-1505,"org.eclipse.ui.file.save",1356749110881
opened,editor,org.eclipse.jdt.ui,3.7.2.v20120109-1427,"org.eclipse.jdt.ui.CompilationUnitEditor",1356749112264
activated,editor,org.eclipse.jdt.ui,3.7.2.v20120109-1427,"org.eclipse.jdt.ui.CompilationUnitEditor",1356749112423
executed,command,org.eclipse.ui,3.7.0.v20110928-1505,"org.eclipse.ui.edit.copy",1356749123997
activated,view,org.eclipse.jdt.ui,3.7.2.v20120109-1427,"org.eclipse.jdt.ui.PackageExplorer",1356749130788
activated,editor,org.eclipse.jdt.ui,3.7.2.v20120109-1427,"org.eclipse.jdt.ui.CompilationUnitEditor",1356749136310
executed,command,org.eclipse.ui.workbench.texteditor,3.7.0.v20110928-1504,"org.eclipse.ui.edit.text.select.lineEnd",1356749137534
executed,command,org.eclipse.ui,3.7.0.v20110928-1505,"org.eclipse.ui.edit.copy",1356749137735
executed,command,org.eclipse.ui.workbench.texteditor,3.7.0.v20110928-1504,"org.eclipse.ui.edit.text.goto.lineEnd",1356749141719
executed,command,org.eclipse.ui,3.7.0.v20110928-1505,"org.eclipse.ui.edit.paste",1356749142333
executed,command,org.eclipse.ui,3.7.0.v20110928-1505,"org.eclipse.ui.edit.copy",1356749148207
executed,command,org.eclipse.ui,3.7.0.v20110928-1505,"org.eclipse.ui.edit.paste",1356749151059
deactivated,workbench,org.eclipse.ui.workbench,3.7.1.v20120104-1859,"",1356749155306
activated,workbench,org.eclipse.ui.workbench,3.7.1.v20120104-1859,"",1356749160317
executed,command,org.eclipse.ui,3.7.0.v20110928-1505,"org.eclipse.ui.edit.copy",1356749163451
executed,command,org.eclipse.ui,3.7.0.v20110928-1505,"org.eclipse.ui.edit.copy",1356749169799
executed,command,org.eclipse.ui,3.7.0.v20110928-1505,"org.eclipse.ui.edit.paste",1356749171413
deactivated,workbench,org.eclipse.ui.workbench,3.7.1.v20120104-1859,"",1356749171753
activated,workbench,org.eclipse.ui.workbench,3.7.1.v20120104-1859,"",1356749365377
deactivated,workbench,org.eclipse.ui.workbench,3.7.1.v20120104-1859,"",1356749370291
activated,workbench,org.eclipse.ui.workbench,3.7.1.v20120104-1859,"",1356749371821
deactivated,workbench,org.eclipse.ui.workbench,3.7.1.v20120104-1859,"",1356749377192
activated,workbench,org.eclipse.ui.workbench,3.7.1.v20120104-1859,"",1356749378464
executed,command,org.eclipse.ui,3.7.0.v20110928-1505,"org.eclipse.ui.edit.copy",1356749380511
deactivated,workbench,org.eclipse.ui.workbench,3.7.1.v20120104-1859,"",1356749384234
activated,workbench,org.eclipse.ui.workbench,3.7.1.v20120104-1859,"",1356749385515
activated,editor,org.eclipse.jdt.ui,3.7.2.v20120109-1427,"org.eclipse.jdt.ui.CompilationUnitEditor",1356749388992
executed,command,org.eclipse.ui,3.7.0.v20110928-1505,"org.eclipse.ui.edit.copy",1356749394191
activated,editor,org.eclipse.jdt.ui,3.7.2.v20120109-1427,"org.eclipse.jdt.ui.CompilationUnitEditor",1356749395311
executed,command,org.eclipse.ui,3.7.0.v20110928-1505,"org.eclipse.ui.navigate.backwardHistory",1356749395321
executed,command,org.eclipse.ui,3.7.0.v20110928-1505,"org.eclipse.ui.edit.paste",1356749396815
deactivated,workbench,org.eclipse.ui.workbench,3.7.1.v20120104-1859,"",1356749397206
activated,workbench,org.eclipse.ui.workbench,3.7.1.v20120104-1859,"",1356749399415
executed,command,org.eclipse.ui,3.7.0.v20110928-1505,"org.eclipse.ui.edit.copy",1356749404580
executed,command,org.eclipse.ui,3.7.0.v20110928-1505,"org.eclipse.ui.edit.paste",1356749405448
executed,command,org.eclipse.jdt.ui,3.7.2.v20120109-1427,"org.eclipse.jdt.ui.edit.text.java.organize.imports",1356749407053
executed,command,org.eclipse.jdt.ui,3.7.2.v20120109-1427,"org.eclipse.jdt.ui.edit.text.java.organize.imports",1356749413230
deactivated,workbench,org.eclipse.ui.workbench,3.7.1.v20120104-1859,"",1356749418330
activated,workbench,org.eclipse.ui.workbench,3.7.1.v20120104-1859,"",1356749450078
executed,command,org.eclipse.ui,3.7.0.v20110928-1505,"org.eclipse.ui.edit.copy",1356749452512
executed,command,org.eclipse.ui,3.7.0.v20110928-1505,"org.eclipse.ui.edit.copy",1356749455869
deactivated,workbench,org.eclipse.ui.workbench,3.7.1.v20120104-1859,"",1356749456126
activated,workbench,org.eclipse.ui.workbench,3.7.1.v20120104-1859,"",1356749458963
executed,command,org.eclipse.ui,3.7.0.v20110928-1505,"org.eclipse.ui.edit.copy",1356749462630
executed,command,org.eclipse.ui,3.7.0.v20110928-1505,"org.eclipse.ui.edit.text.contentAssist.proposals",1356749467997
executed,command,org.eclipse.ui,3.7.0.v20110928-1505,"org.eclipse.ui.edit.paste",1356749470573
executed,command,org.eclipse.ui.workbench.texteditor,3.7.0.v20110928-1504,"org.eclipse.ui.edit.text.goto.lineEnd",1356749471821
deactivated,workbench,org.eclipse.ui.workbench,3.7.1.v20120104-1859,"",1356749472538
activated,workbench,org.eclipse.ui.workbench,3.7.1.v20120104-1859,"",1356749498467
executed,command,org.eclipse.ui,3.7.0.v20110928-1505,"org.eclipse.ui.file.save",1356749499047
deactivated,workbench,org.eclipse.ui.workbench,3.7.1.v20120104-1859,"",1356749499320
activated,workbench,org.eclipse.ui.workbench,3.7.1.v20120104-1859,"",1356749500014
deactivated,workbench,org.eclipse.ui.workbench,3.7.1.v20120104-1859,"",1356749500556
activated,workbench,org.eclipse.ui.workbench,3.7.1.v20120104-1859,"",1356749501088
deactivated,workbench,org.eclipse.ui.workbench,3.7.1.v20120104-1859,"",1356749503366
activated,workbench,org.eclipse.ui.workbench,3.7.1.v20120104-1859,"",1356749504508
deactivated,workbench,org.eclipse.ui.workbench,3.7.1.v20120104-1859,"",1356749508287
activated,workbench,org.eclipse.ui.workbench,3.7.1.v20120104-1859,"",1356749518970
activated,view,org.eclipse.ui.console,3.5.100.v20111007_r372,"org.eclipse.ui.console.ConsoleView",1356749519741
opened,editor,org.eclipse.jdt.ui,3.7.2.v20120109-1427,"org.eclipse.jdt.ui.CompilationUnitEditor",1356749526026
activated,editor,org.eclipse.jdt.ui,3.7.2.v20120109-1427,"org.eclipse.jdt.ui.CompilationUnitEditor",1356749526199
executed,command,org.eclipse.ui,3.7.0.v20110928-1505,"org.eclipse.ui.edit.copy",1356749529207
executed,command,org.eclipse.ui,3.7.0.v20110928-1505,"org.eclipse.ui.edit.paste",1356749530466
executed,command,org.eclipse.ui,3.7.0.v20110928-1505,"org.eclipse.ui.edit.text.contentAssist.proposals",1356749535771
executed,command,org.eclipse.ui,3.7.0.v20110928-1505,"org.eclipse.ui.edit.text.contentAssist.proposals",1356749537481
executed,command,org.eclipse.ui,3.7.0.v20110928-1505,"org.eclipse.ui.edit.text.contentAssist.proposals",1356749544638
executed,command,org.eclipse.ui,3.7.0.v20110928-1505,"org.eclipse.ui.edit.text.contentAssist.proposals",1356749547144
deactivated,workbench,org.eclipse.ui.workbench,3.7.1.v20120104-1859,"",1356749555641
activated,workbench,org.eclipse.ui.workbench,3.7.1.v20120104-1859,"",1356749583872
deactivated,workbench,org.eclipse.ui.workbench,3.7.1.v20120104-1859,"",1356749584681
activated,workbench,org.eclipse.ui.workbench,3.7.1.v20120104-1859,"",1356749586464
activated,view,org.eclipse.ui.console,3.5.100.v20111007_r372,"org.eclipse.ui.console.ConsoleView",1356749587431
deactivated,workbench,org.eclipse.ui.workbench,3.7.1.v20120104-1859,"",1356749589432
activated,workbench,org.eclipse.ui.workbench,3.7.1.v20120104-1859,"",1356749590856
deactivated,workbench,org.eclipse.ui.workbench,3.7.1.v20120104-1859,"",1356749592378
activated,workbench,org.eclipse.ui.workbench,3.7.1.v20120104-1859,"",1356749621062
deactivated,workbench,org.eclipse.ui.workbench,3.7.1.v20120104-1859,"",1356749621869
activated,workbench,org.eclipse.ui.workbench,3.7.1.v20120104-1859,"",1356749636827
deactivated,workbench,org.eclipse.ui.workbench,3.7.1.v20120104-1859,"",1356749637303
activated,workbench,org.eclipse.ui.workbench,3.7.1.v20120104-1859,"",1356749638331
activated,editor,org.eclipse.jdt.ui,3.7.2.v20120109-1427,"org.eclipse.jdt.ui.CompilationUnitEditor",1356749639837
activated,editor,org.eclipse.jdt.ui,3.7.2.v20120109-1427,"org.eclipse.jdt.ui.CompilationUnitEditor",1356749642079
deactivated,workbench,org.eclipse.ui.workbench,3.7.1.v20120104-1859,"",1356749642529
activated,workbench,org.eclipse.ui.workbench,3.7.1.v20120104-1859,"",1356749659967
executed,command,org.eclipse.ui,3.7.0.v20110928-1505,"org.eclipse.ui.edit.copy",1356749664318
deactivated,workbench,org.eclipse.ui.workbench,3.7.1.v20120104-1859,"",1356749664796
executed,command,org.eclipse.ui,3.7.0.v20110928-1505,"org.eclipse.ui.edit.paste",1356749664996
activated,workbench,org.eclipse.ui.workbench,3.7.1.v20120104-1859,"",1356749666055
activated,editor,org.eclipse.jdt.ui,3.7.2.v20120109-1427,"org.eclipse.jdt.ui.CompilationUnitEditor",1356749666226
executed,command,org.eclipse.ui.ide,3.7.0.v20110928-1505,"org.eclipse.ui.navigate.openResource",1356749666238
executed,command,,,"AUTOGEN:::org.eclipse.jdt.debug.CompilationUnitEditor.BreakpointRulerActions/org.eclipse.jdt.debug.ui.actions.ManageBreakpointRulerAction",1356749667926
deactivated,workbench,org.eclipse.ui.workbench,3.7.1.v20120104-1859,"",1356749668426
activated,workbench,org.eclipse.ui.workbench,3.7.1.v20120104-1859,"",1356749681115
activated,editor,org.eclipse.jdt.ui,3.7.2.v20120109-1427,"org.eclipse.jdt.ui.CompilationUnitEditor",1356749682962
deactivated,workbench,org.eclipse.ui.workbench,3.7.1.v20120104-1859,"",1356749684218
activated,workbench,org.eclipse.ui.workbench,3.7.1.v20120104-1859,"",1356749688108
executed,command,org.eclipse.ui,3.7.0.v20110928-1505,"org.eclipse.ui.edit.copy",1356749696559
executed,command,,,"AUTOGEN:::org.eclipse.jdt.debug.CompilationUnitEditor.BreakpointRulerActions/org.eclipse.jdt.debug.ui.actions.ManageBreakpointRulerAction",1356749699408
deactivated,workbench,org.eclipse.ui.workbench,3.7.1.v20120104-1859,"",1356749699705
activated,perspective,org.eclipse.debug.ui,3.7.102.v20111129-1423_r372,"org.eclipse.debug.ui.DebugPerspective",1356749702171
activated,workbench,org.eclipse.ui.workbench,3.7.1.v20120104-1859,"",1356749702451
deactivated,workbench,org.eclipse.ui.workbench,3.7.1.v20120104-1859,"",1356749702666
activated,workbench,org.eclipse.ui.workbench,3.7.1.v20120104-1859,"",1356749703725
activated,view,org.eclipse.debug.ui,3.7.102.v20111129-1423_r372,"org.eclipse.debug.ui.DebugView",1356749704899
executed,command,org.eclipse.debug.ui,3.7.102.v20111129-1423_r372,"org.eclipse.debug.ui.commands.StepOver",1356749705025
executed,command,org.eclipse.debug.ui,3.7.102.v20111129-1423_r372,"org.eclipse.debug.ui.commands.StepOver",1356749705764
executed,command,org.eclipse.debug.ui,3.7.102.v20111129-1423_r372,"org.eclipse.debug.ui.commands.StepOver",1356749706437
executed,command,org.eclipse.debug.ui,3.7.102.v20111129-1423_r372,"org.eclipse.debug.ui.commands.StepOver",1356749707131
executed,command,org.eclipse.debug.ui,3.7.102.v20111129-1423_r372,"org.eclipse.debug.ui.commands.StepOver",1356749707740
executed,command,org.eclipse.debug.ui,3.7.102.v20111129-1423_r372,"org.eclipse.debug.ui.commands.Resume",1356749723161
activated,editor,org.eclipse.jdt.ui,3.7.2.v20120109-1427,"org.eclipse.jdt.ui.CompilationUnitEditor",1356749724489
executed,command,,,"AUTOGEN:::org.eclipse.jdt.debug.CompilationUnitEditor.BreakpointRulerActions/org.eclipse.jdt.debug.ui.actions.ManageBreakpointRulerAction",1356749724745
executed,command,,,"AUTOGEN:::org.eclipse.jdt.debug.CompilationUnitEditor.BreakpointRulerActions/org.eclipse.jdt.debug.ui.actions.ManageBreakpointRulerAction",1356749725682
deactivated,workbench,org.eclipse.ui.workbench,3.7.1.v20120104-1859,"",1356749726125
activated,workbench,org.eclipse.ui.workbench,3.7.1.v20120104-1859,"",1356749727541
activated,view,org.eclipse.debug.ui,3.7.102.v20111129-1423_r372,"org.eclipse.debug.ui.DebugView",1356749729248
executed,command,org.eclipse.debug.ui,3.7.102.v20111129-1423_r372,"org.eclipse.debug.ui.commands.StepOver",1356749729360
executed,command,org.eclipse.debug.ui,3.7.102.v20111129-1423_r372,"org.eclipse.debug.ui.commands.StepOver",1356749729952
executed,command,org.eclipse.debug.ui,3.7.102.v20111129-1423_r372,"org.eclipse.debug.ui.commands.StepOver",1356749730622
executed,command,org.eclipse.debug.ui,3.7.102.v20111129-1423_r372,"org.eclipse.debug.ui.commands.StepOver",1356749731285
executed,command,org.eclipse.debug.ui,3.7.102.v20111129-1423_r372,"org.eclipse.debug.ui.commands.StepOver",1356749732023
executed,command,org.eclipse.debug.ui,3.7.102.v20111129-1423_r372,"org.eclipse.debug.ui.commands.Resume",1356749740421
deactivated,workbench,org.eclipse.ui.workbench,3.7.1.v20120104-1859,"",1356749742640
activated,workbench,org.eclipse.ui.workbench,3.7.1.v20120104-1859,"",1356749762826
activated,perspective,org.eclipse.jdt.ui,3.7.2.v20120109-1427,"org.eclipse.jdt.ui.JavaPerspective",1356749763579
activated,editor,org.eclipse.jdt.ui,3.7.2.v20120109-1427,"org.eclipse.jdt.ui.CompilationUnitEditor",1356749763597
executed,command,org.eclipse.ui,3.7.0.v20110928-1505,"org.eclipse.ui.edit.copy",1356749768644
activated,editor,org.eclipse.jdt.ui,3.7.2.v20120109-1427,"org.eclipse.jdt.ui.CompilationUnitEditor",1356749771506
executed,command,org.eclipse.ui,3.7.0.v20110928-1505,"org.eclipse.ui.edit.copy",1356749773923
activated,editor,org.eclipse.jdt.ui,3.7.2.v20120109-1427,"org.eclipse.jdt.ui.CompilationUnitEditor",1356749775518
activated,editor,org.eclipse.jdt.ui,3.7.2.v20120109-1427,"org.eclipse.jdt.ui.CompilationUnitEditor",1356749778685
executed,command,org.eclipse.ui,3.7.0.v20110928-1505,"org.eclipse.ui.navigate.backwardHistory",1356749778693
executed,command,org.eclipse.ui,3.7.0.v20110928-1505,"org.eclipse.ui.edit.copy",1356749782828
executed,command,org.eclipse.ui,3.7.0.v20110928-1505,"org.eclipse.ui.edit.copy",1356749784498
deactivated,workbench,org.eclipse.ui.workbench,3.7.1.v20120104-1859,"",1356749784924
executed,command,org.eclipse.ui,3.7.0.v20110928-1505,"org.eclipse.ui.edit.paste",1356749785292
activated,workbench,org.eclipse.ui.workbench,3.7.1.v20120104-1859,"",1356749785852
executed,command,org.eclipse.ui.ide,3.7.0.v20110928-1505,"org.eclipse.ui.navigate.openResource",1356749785932
activated,view,org.eclipse.jdt.ui,3.7.2.v20120109-1427,"org.eclipse.jdt.ui.PackageExplorer",1356749789627
activated,editor,org.eclipse.jdt.ui,3.7.2.v20120109-1427,"org.eclipse.jdt.ui.CompilationUnitEditor",1356749804667
executed,command,,,"AUTOGEN:::org.eclipse.jdt.debug.CompilationUnitEditor.BreakpointRulerActions/org.eclipse.jdt.debug.ui.actions.ManageBreakpointRulerAction",1356749808494
deactivated,workbench,org.eclipse.ui.workbench,3.7.1.v20120104-1859,"",1356749810581
activated,perspective,org.eclipse.debug.ui,3.7.102.v20111129-1423_r372,"org.eclipse.debug.ui.DebugPerspective",1356749825212
activated,workbench,org.eclipse.ui.workbench,3.7.1.v20120104-1859,"",1356749825498
activated,editor,org.eclipse.jdt.ui,3.7.2.v20120109-1427,"org.eclipse.jdt.ui.CompilationUnitEditor",1356749825834
activated,view,org.eclipse.debug.ui,3.7.102.v20111129-1423_r372,"org.eclipse.debug.ui.DebugView",1356749827655
executed,command,org.eclipse.debug.ui,3.7.102.v20111129-1423_r372,"org.eclipse.debug.ui.commands.Resume",1356749827768
executed,command,org.eclipse.debug.ui,3.7.102.v20111129-1423_r372,"org.eclipse.debug.ui.commands.StepOver",1356749829992
executed,command,org.eclipse.debug.ui,3.7.102.v20111129-1423_r372,"org.eclipse.debug.ui.commands.StepOver",1356749831047
activated,editor,org.eclipse.jdt.ui,3.7.2.v20120109-1427,"org.eclipse.jdt.ui.CompilationUnitEditor",1356749833815
activated,editor,org.eclipse.jdt.ui,3.7.2.v20120109-1427,"org.eclipse.jdt.ui.CompilationUnitEditor",1356749834708
activated,view,org.eclipse.debug.ui,3.7.102.v20111129-1423_r372,"org.eclipse.debug.ui.DebugView",1356749839692
executed,command,org.eclipse.debug.ui,3.7.102.v20111129-1423_r372,"org.eclipse.debug.ui.commands.Resume",1356749839815
activated,editor,org.eclipse.jdt.ui,3.7.2.v20120109-1427,"org.eclipse.jdt.ui.CompilationUnitEditor",1356749841484
executed,command,org.eclipse.ui,3.7.0.v20110928-1505,"org.eclipse.ui.navigate.backwardHistory",1356749841511
activated,editor,org.eclipse.jdt.ui,3.7.2.v20120109-1427,"org.eclipse.jdt.ui.CompilationUnitEditor",1356749843374
deactivated,workbench,org.eclipse.ui.workbench,3.7.1.v20120104-1859,"",1356749844581
activated,workbench,org.eclipse.ui.workbench,3.7.1.v20120104-1859,"",1356749847741
activated,editor,org.eclipse.jdt.ui,3.7.2.v20120109-1427,"org.eclipse.jdt.ui.CompilationUnitEditor",1356749851162
executed,command,org.eclipse.ui,3.7.0.v20110928-1505,"org.eclipse.ui.edit.copy",1356749852922
activated,editor,org.eclipse.jdt.ui,3.7.2.v20120109-1427,"org.eclipse.jdt.ui.CompilationUnitEditor",1356749853736
deactivated,workbench,org.eclipse.ui.workbench,3.7.1.v20120104-1859,"",1356749855062
executed,command,org.eclipse.ui,3.7.0.v20110928-1505,"org.eclipse.ui.edit.paste",1356749855442
activated,workbench,org.eclipse.ui.workbench,3.7.1.v20120104-1859,"",1356749858436
activated,editor,org.eclipse.jdt.ui,3.7.2.v20120109-1427,"org.eclipse.jdt.ui.CompilationUnitEditor",1356749858606
executed,command,org.eclipse.ui.ide,3.7.0.v20110928-1505,"org.eclipse.ui.navigate.openResource",1356749858608
activated,editor,org.eclipse.jdt.ui,3.7.2.v20120109-1427,"org.eclipse.jdt.ui.CompilationUnitEditor",1356749862953
executed,command,org.eclipse.ui,3.7.0.v20110928-1505,"org.eclipse.ui.edit.copy",1356749866908
activated,editor,org.eclipse.jdt.ui,3.7.2.v20120109-1427,"org.eclipse.jdt.ui.CompilationUnitEditor",1356749868067
executed,command,org.eclipse.ui.workbench.texteditor,3.7.0.v20110928-1504,"org.eclipse.ui.edit.text.gotoLastEditPosition",1356749868076
activated,editor,org.eclipse.jdt.ui,3.7.2.v20120109-1427,"org.eclipse.jdt.ui.CompilationUnitEditor",1356749870852
executed,command,org.eclipse.ui,3.7.0.v20110928-1505,"org.eclipse.ui.navigate.backwardHistory",1356749870860
activated,editor,org.eclipse.jdt.ui,3.7.2.v20120109-1427,"org.eclipse.jdt.ui.CompilationUnitEditor",1356749874613
activated,editor,org.eclipse.jdt.ui,3.7.2.v20120109-1427,"org.eclipse.jdt.ui.CompilationUnitEditor",1356749877013
executed,command,org.eclipse.ui,3.7.0.v20110928-1505,"org.eclipse.ui.edit.copy",1356749878798
activated,editor,org.eclipse.jdt.ui,3.7.2.v20120109-1427,"org.eclipse.jdt.ui.CompilationUnitEditor",1356749879773
activated,editor,org.eclipse.jdt.ui,3.7.2.v20120109-1427,"org.eclipse.jdt.ui.CompilationUnitEditor",1356749881558
executed,command,org.eclipse.ui.workbench.texteditor,3.7.0.v20110928-1504,"org.eclipse.ui.edit.text.goto.lineEnd",1356749886351
executed,command,org.eclipse.ui,3.7.0.v20110928-1505,"org.eclipse.ui.file.save",1356749886690
deactivated,workbench,org.eclipse.ui.workbench,3.7.1.v20120104-1859,"",1356749887010
activated,workbench,org.eclipse.ui.workbench,3.7.1.v20120104-1859,"",1356749888750
deactivated,workbench,org.eclipse.ui.workbench,3.7.1.v20120104-1859,"",1356749897610
activated,workbench,org.eclipse.ui.workbench,3.7.1.v20120104-1859,"",1356749900583
opened,editor,org.eclipse.jdt.ui,3.7.2.v20120109-1427,"org.eclipse.jdt.ui.CompilationUnitEditor",1356749900771
activated,editor,org.eclipse.jdt.ui,3.7.2.v20120109-1427,"org.eclipse.jdt.ui.CompilationUnitEditor",1356749900900
executed,command,org.eclipse.ui.ide,3.7.0.v20110928-1505,"org.eclipse.ui.navigate.openResource",1356749900907
executed,command,org.eclipse.ui,3.7.0.v20110928-1505,"org.eclipse.ui.edit.copy",1356749917695
executed,command,org.eclipse.ui,3.7.0.v20110928-1505,"org.eclipse.ui.edit.copy",1356749924564
activated,editor,org.eclipse.jdt.ui,3.7.2.v20120109-1427,"org.eclipse.jdt.ui.CompilationUnitEditor",1356749931236
executed,command,org.eclipse.ui,3.7.0.v20110928-1505,"org.eclipse.ui.navigate.backwardHistory",1356749931246
executed,command,org.eclipse.ui,3.7.0.v20110928-1505,"org.eclipse.ui.edit.paste",1356749932565
executed,command,org.eclipse.ui,3.7.0.v20110928-1505,"org.eclipse.ui.file.save",1356749935087
deactivated,workbench,org.eclipse.ui.workbench,3.7.1.v20120104-1859,"",1356749938212
activated,workbench,org.eclipse.ui.workbench,3.7.1.v20120104-1859,"",1356749964808
activated,editor,org.eclipse.jdt.ui,3.7.2.v20120109-1427,"org.eclipse.jdt.ui.CompilationUnitEditor",1356749965336
executed,command,,,"AUTOGEN:::org.eclipse.jdt.debug.CompilationUnitEditor.BreakpointRulerActions/org.eclipse.jdt.debug.ui.actions.ManageBreakpointRulerAction",1356749966816
activated,view,org.eclipse.debug.ui,3.7.102.v20111129-1423_r372,"org.eclipse.debug.ui.DebugView",1356749967963
executed,command,org.eclipse.debug.ui,3.7.102.v20111129-1423_r372,"org.eclipse.debug.ui.commands.Resume",1356749968068
activated,editor,org.eclipse.jdt.ui,3.7.2.v20120109-1427,"org.eclipse.jdt.ui.CompilationUnitEditor",1356749969636
executed,command,,,"AUTOGEN:::org.eclipse.jdt.debug.CompilationUnitEditor.BreakpointRulerActions/org.eclipse.jdt.debug.ui.actions.ManageBreakpointRulerAction",1356749970034
activated,view,org.eclipse.debug.ui,3.7.102.v20111129-1423_r372,"org.eclipse.debug.ui.DebugView",1356749970919
executed,command,org.eclipse.debug.ui,3.7.102.v20111129-1423_r372,"org.eclipse.debug.ui.commands.Resume",1356749971494
activated,editor,org.eclipse.jdt.ui,3.7.2.v20120109-1427,"org.eclipse.jdt.ui.CompilationUnitEditor",1356749973813
executed,command,,,"AUTOGEN:::org.eclipse.jdt.debug.CompilationUnitEditor.BreakpointRulerActions/org.eclipse.jdt.debug.ui.actions.ManageBreakpointRulerAction",1356749974059
activated,view,org.eclipse.debug.ui,3.7.102.v20111129-1423_r372,"org.eclipse.debug.ui.DebugView",1356749975091
executed,command,org.eclipse.debug.ui,3.7.102.v20111129-1423_r372,"org.eclipse.debug.ui.commands.Resume",1356749975210
deactivated,workbench,org.eclipse.ui.workbench,3.7.1.v20120104-1859,"",1356749975881
activated,workbench,org.eclipse.ui.workbench,3.7.1.v20120104-1859,"",1356750004871
activated,editor,org.eclipse.jdt.ui,3.7.2.v20120109-1427,"org.eclipse.jdt.ui.CompilationUnitEditor",1356750007179
executed,command,org.eclipse.ui,3.7.0.v20110928-1505,"org.eclipse.ui.file.save",1356750009848
deactivated,workbench,org.eclipse.ui.workbench,3.7.1.v20120104-1859,"",1356750010079
activated,workbench,org.eclipse.ui.workbench,3.7.1.v20120104-1859,"",1356750012373
deactivated,workbench,org.eclipse.ui.workbench,3.7.1.v20120104-1859,"",1356750014542
activated,workbench,org.eclipse.ui.workbench,3.7.1.v20120104-1859,"",1356750031853
activated,editor,org.eclipse.jdt.ui,3.7.2.v20120109-1427,"org.eclipse.jdt.ui.CompilationUnitEditor",1356750034048
activated,editor,org.eclipse.jdt.ui,3.7.2.v20120109-1427,"org.eclipse.jdt.ui.CompilationUnitEditor",1356750035456
activated,editor,org.eclipse.jdt.ui,3.7.2.v20120109-1427,"org.eclipse.jdt.ui.CompilationUnitEditor",1356750037380
activated,editor,org.eclipse.jdt.ui,3.7.2.v20120109-1427,"org.eclipse.jdt.ui.CompilationUnitEditor",1356750041958
activated,editor,org.eclipse.jdt.ui,3.7.2.v20120109-1427,"org.eclipse.jdt.ui.CompilationUnitEditor",1356750043630
executed,command,org.eclipse.ui,3.7.0.v20110928-1505,"org.eclipse.ui.edit.copy",1356750046771
activated,editor,org.eclipse.jdt.ui,3.7.2.v20120109-1427,"org.eclipse.jdt.ui.CompilationUnitEditor",1356750047588
executed,command,org.eclipse.ui,3.7.0.v20110928-1505,"org.eclipse.ui.navigate.backwardHistory",1356750047595
activated,editor,org.eclipse.jdt.ui,3.7.2.v20120109-1427,"org.eclipse.jdt.ui.CompilationUnitEditor",1356750049981
executed,command,org.eclipse.ui.workbench.texteditor,3.7.0.v20110928-1504,"org.eclipse.ui.edit.text.select.lineEnd",1356750053954
executed,command,org.eclipse.ui,3.7.0.v20110928-1505,"org.eclipse.ui.edit.paste",1356750055006
deactivated,workbench,org.eclipse.ui.workbench,3.7.1.v20120104-1859,"",1356750056906
activated,workbench,org.eclipse.ui.workbench,3.7.1.v20120104-1859,"",1356750143102
deactivated,workbench,org.eclipse.ui.workbench,3.7.1.v20120104-1859,"",1356750145567
activated,workbench,org.eclipse.ui.workbench,3.7.1.v20120104-1859,"",1356750149935
activated,perspective,org.eclipse.jdt.ui,3.7.2.v20120109-1427,"org.eclipse.jdt.ui.JavaPerspective",1356750151958
deactivated,workbench,org.eclipse.ui.workbench,3.7.1.v20120104-1859,"",1356750152616
activated,workbench,org.eclipse.ui.workbench,3.7.1.v20120104-1859,"",1356750159412
activated,editor,org.eclipse.jdt.ui,3.7.2.v20120109-1427,"org.eclipse.jdt.ui.CompilationUnitEditor",1356750162571
deactivated,workbench,org.eclipse.ui.workbench,3.7.1.v20120104-1859,"",1356750167819
activated,workbench,org.eclipse.ui.workbench,3.7.1.v20120104-1859,"",1356750169576
