what,kind,bundleId,bundleVersion,description,time
deactivated,workbench,org.eclipse.ui.workbench,3.7.1.v20120104-1859,"",1360390769315
activated,workbench,org.eclipse.ui.workbench,3.7.1.v20120104-1859,"",1360390770037
activated,view,org.eclipse.debug.ui,3.7.102.v20111129-1423_r372,"org.eclipse.debug.ui.DebugView",1360390771676
executed,command,org.eclipse.debug.ui,3.7.102.v20111129-1423_r372,"org.eclipse.debug.ui.commands.Resume",1360390771754
activated,view,org.eclipse.debug.ui,3.7.102.v20111129-1423_r372,"org.eclipse.debug.ui.VariableView",1360390773487
executed,command,org.eclipse.ui,3.7.0.v20110928-1505,"org.eclipse.ui.edit.selectAll",1360390774780
executed,command,org.eclipse.ui,3.7.0.v20110928-1505,"org.eclipse.ui.edit.copy",1360390774995
deactivated,workbench,org.eclipse.ui.workbench,3.7.1.v20120104-1859,"",1360390775260
activated,workbench,org.eclipse.ui.workbench,3.7.1.v20120104-1859,"",1360390791966
activated,editor,org.eclipse.jdt.ui,3.7.2.v20120109-1427,"org.eclipse.jdt.ui.CompilationUnitEditor",1360390793213
deactivated,workbench,org.eclipse.ui.workbench,3.7.1.v20120104-1859,"",1360390794048
activated,workbench,org.eclipse.ui.workbench,3.7.1.v20120104-1859,"",1360390796402
executed,command,org.eclipse.ui.workbench.texteditor,3.7.0.v20110928-1504,"org.eclipse.ui.edit.text.goto.lineEnd",1360390798182
deactivated,workbench,org.eclipse.ui.workbench,3.7.1.v20120104-1859,"",1360390800938
activated,workbench,org.eclipse.ui.workbench,3.7.1.v20120104-1859,"",1360390802170
executed,command,org.eclipse.ui,3.7.0.v20110928-1505,"org.eclipse.ui.edit.text.contentAssist.proposals",1360390806631
deactivated,workbench,org.eclipse.ui.workbench,3.7.1.v20120104-1859,"",1360390845986
activated,workbench,org.eclipse.ui.workbench,3.7.1.v20120104-1859,"",1360390847511
activated,view,org.eclipse.debug.ui,3.7.102.v20111129-1423_r372,"org.eclipse.debug.ui.DebugView",1360390848935
activated,editor,org.eclipse.jdt.ui,3.7.2.v20120109-1427,"org.eclipse.jdt.ui.CompilationUnitEditor",1360390850252
executed,command,org.eclipse.ui,3.7.0.v20110928-1505,"org.eclipse.ui.file.save",1360390851521
activated,view,org.eclipse.debug.ui,3.7.102.v20111129-1423_r372,"org.eclipse.debug.ui.DebugView",1360390852735
executed,command,org.eclipse.debug.ui,3.7.102.v20111129-1423_r372,"org.eclipse.debug.ui.commands.Resume",1360390852818
activated,view,org.eclipse.debug.ui,3.7.102.v20111129-1423_r372,"org.eclipse.debug.ui.VariableView",1360390854828
executed,command,org.eclipse.ui,3.7.0.v20110928-1505,"org.eclipse.ui.edit.selectAll",1360390856009
executed,command,org.eclipse.ui,3.7.0.v20110928-1505,"org.eclipse.ui.edit.copy",1360390857016
deactivated,workbench,org.eclipse.ui.workbench,3.7.1.v20120104-1859,"",1360390857293
activated,workbench,org.eclipse.ui.workbench,3.7.1.v20120104-1859,"",1360390857848
deactivated,workbench,org.eclipse.ui.workbench,3.7.1.v20120104-1859,"",1360390858170
activated,workbench,org.eclipse.ui.workbench,3.7.1.v20120104-1859,"",1360390867455
activated,editor,org.eclipse.jdt.ui,3.7.2.v20120109-1427,"org.eclipse.jdt.ui.CompilationUnitEditor",1360390874102
executed,command,org.eclipse.ui,3.7.0.v20110928-1505,"org.eclipse.ui.edit.cut",1360390876087
deactivated,workbench,org.eclipse.ui.workbench,3.7.1.v20120104-1859,"",1360390876560
activated,workbench,org.eclipse.ui.workbench,3.7.1.v20120104-1859,"",1360390886477
executed,command,org.eclipse.ui,3.7.0.v20110928-1505,"org.eclipse.ui.edit.undo",1360390887657
deactivated,workbench,org.eclipse.ui.workbench,3.7.1.v20120104-1859,"",1360390889140
activated,workbench,org.eclipse.ui.workbench,3.7.1.v20120104-1859,"",1360390892108
executed,command,org.eclipse.ui,3.7.0.v20110928-1505,"org.eclipse.ui.edit.text.contentAssist.proposals",1360390902271
executed,command,org.eclipse.ui,3.7.0.v20110928-1505,"org.eclipse.ui.edit.text.contentAssist.proposals",1360390906984
activated,editor,org.eclipse.jdt.ui,3.7.2.v20120109-1427,"org.eclipse.jdt.ui.CompilationUnitEditor",1360390910542
activated,editor,org.eclipse.jdt.ui,3.7.2.v20120109-1427,"org.eclipse.jdt.ui.CompilationUnitEditor",1360390912725
executed,command,org.eclipse.ui,3.7.0.v20110928-1505,"org.eclipse.ui.navigate.backwardHistory",1360390912732
executed,command,org.eclipse.ui,3.7.0.v20110928-1505,"org.eclipse.ui.edit.copy",1360390916729
executed,command,org.eclipse.ui,3.7.0.v20110928-1505,"org.eclipse.ui.edit.paste",1360390928987
executed,command,org.eclipse.ui,3.7.0.v20110928-1505,"org.eclipse.ui.file.save",1360390932893
executed,command,org.eclipse.ui,3.7.0.v20110928-1505,"org.eclipse.ui.file.save",1360390939737
activated,view,org.eclipse.debug.ui,3.7.102.v20111129-1423_r372,"org.eclipse.debug.ui.DebugView",1360390941639
executed,command,org.eclipse.debug.ui,3.7.102.v20111129-1423_r372,"org.eclipse.debug.ui.commands.Resume",1360390941719
activated,view,org.eclipse.debug.ui,3.7.102.v20111129-1423_r372,"org.eclipse.debug.ui.VariableView",1360390943281
executed,command,org.eclipse.ui,3.7.0.v20110928-1505,"org.eclipse.ui.edit.selectAll",1360390945382
executed,command,org.eclipse.ui,3.7.0.v20110928-1505,"org.eclipse.ui.edit.copy",1360390945581
deactivated,workbench,org.eclipse.ui.workbench,3.7.1.v20120104-1859,"",1360390945856
activated,workbench,org.eclipse.ui.workbench,3.7.1.v20120104-1859,"",1360390946458
deactivated,workbench,org.eclipse.ui.workbench,3.7.1.v20120104-1859,"",1360390947303
activated,workbench,org.eclipse.ui.workbench,3.7.1.v20120104-1859,"",1360390960231
activated,editor,org.eclipse.jdt.ui,3.7.2.v20120109-1427,"org.eclipse.jdt.ui.CompilationUnitEditor",1360390961301
executed,command,org.eclipse.ui.workbench.texteditor,3.7.0.v20110928-1504,"org.eclipse.ui.edit.text.goto.lineEnd",1360390962725
executed,command,org.eclipse.ui.workbench.texteditor,3.7.0.v20110928-1504,"org.eclipse.ui.edit.text.goto.lineEnd",1360390964144
executed,command,org.eclipse.ui,3.7.0.v20110928-1505,"org.eclipse.ui.file.save",1360390969868
activated,view,org.eclipse.debug.ui,3.7.102.v20111129-1423_r372,"org.eclipse.debug.ui.DebugView",1360390971189
executed,command,org.eclipse.debug.ui,3.7.102.v20111129-1423_r372,"org.eclipse.debug.ui.commands.Resume",1360390971269
activated,view,org.eclipse.debug.ui,3.7.102.v20111129-1423_r372,"org.eclipse.debug.ui.VariableView",1360390973030
executed,command,org.eclipse.ui,3.7.0.v20110928-1505,"org.eclipse.ui.edit.selectAll",1360390974326
executed,command,org.eclipse.ui,3.7.0.v20110928-1505,"org.eclipse.ui.edit.copy",1360390974541
deactivated,workbench,org.eclipse.ui.workbench,3.7.1.v20120104-1859,"",1360390974798
activated,workbench,org.eclipse.ui.workbench,3.7.1.v20120104-1859,"",1360390986254
activated,editor,org.eclipse.jdt.ui,3.7.2.v20120109-1427,"org.eclipse.jdt.ui.CompilationUnitEditor",1360390987995
executed,command,org.eclipse.ui,3.7.0.v20110928-1505,"org.eclipse.ui.edit.copy",1360390999286
executed,command,org.eclipse.ui.workbench.texteditor,3.7.0.v20110928-1504,"org.eclipse.ui.edit.text.goto.lineEnd",1360390999716
deactivated,workbench,org.eclipse.ui.workbench,3.7.1.v20120104-1859,"",1360391009085
activated,workbench,org.eclipse.ui.workbench,3.7.1.v20120104-1859,"",1360391011833
executed,command,org.eclipse.ui,3.7.0.v20110928-1505,"org.eclipse.ui.edit.paste",1360391012863
executed,command,org.eclipse.ui,3.7.0.v20110928-1505,"org.eclipse.ui.edit.undo",1360391013608
executed,command,org.eclipse.ui,3.7.0.v20110928-1505,"org.eclipse.ui.edit.paste",1360391020896
executed,command,org.eclipse.ui.workbench.texteditor,3.7.0.v20110928-1504,"org.eclipse.ui.edit.text.goto.lineEnd",1360391025123
deactivated,workbench,org.eclipse.ui.workbench,3.7.1.v20120104-1859,"",1360391027514
activated,workbench,org.eclipse.ui.workbench,3.7.1.v20120104-1859,"",1360391030035
executed,command,org.eclipse.ui,3.7.0.v20110928-1505,"org.eclipse.ui.edit.paste",1360391033462
executed,command,org.eclipse.ui,3.7.0.v20110928-1505,"org.eclipse.ui.file.save",1360391036447
activated,view,org.eclipse.debug.ui,3.7.102.v20111129-1423_r372,"org.eclipse.debug.ui.DebugView",1360391038004
executed,command,org.eclipse.debug.ui,3.7.102.v20111129-1423_r372,"org.eclipse.debug.ui.commands.Resume",1360391038076
activated,view,org.eclipse.debug.ui,3.7.102.v20111129-1423_r372,"org.eclipse.debug.ui.VariableView",1360391039860
executed,command,org.eclipse.ui,3.7.0.v20110928-1505,"org.eclipse.ui.edit.selectAll",1360391040982
executed,command,org.eclipse.ui,3.7.0.v20110928-1505,"org.eclipse.ui.edit.copy",1360391041278
deactivated,workbench,org.eclipse.ui.workbench,3.7.1.v20120104-1859,"",1360391041532
activated,workbench,org.eclipse.ui.workbench,3.7.1.v20120104-1859,"",1360391053955
activated,editor,org.eclipse.jdt.ui,3.7.2.v20120109-1427,"org.eclipse.jdt.ui.CompilationUnitEditor",1360391056101
executed,command,org.eclipse.ui.workbench.texteditor,3.7.0.v20110928-1504,"org.eclipse.ui.edit.text.goto.lineEnd",1360391057025
executed,command,org.eclipse.ui,3.7.0.v20110928-1505,"org.eclipse.ui.edit.text.contentAssist.proposals",1360391061429
executed,command,org.eclipse.ui,3.7.0.v20110928-1505,"org.eclipse.ui.file.save",1360391064602
activated,view,org.eclipse.debug.ui,3.7.102.v20111129-1423_r372,"org.eclipse.debug.ui.DebugView",1360391065908
executed,command,org.eclipse.debug.ui,3.7.102.v20111129-1423_r372,"org.eclipse.debug.ui.commands.Resume",1360391065984
activated,view,org.eclipse.debug.ui,3.7.102.v20111129-1423_r372,"org.eclipse.debug.ui.VariableView",1360391067498
executed,command,org.eclipse.ui,3.7.0.v20110928-1505,"org.eclipse.ui.edit.selectAll",1360391068383
executed,command,org.eclipse.ui,3.7.0.v20110928-1505,"org.eclipse.ui.edit.copy",1360391068566
deactivated,workbench,org.eclipse.ui.workbench,3.7.1.v20120104-1859,"",1360391068819
activated,workbench,org.eclipse.ui.workbench,3.7.1.v20120104-1859,"",1360391083007
activated,editor,org.eclipse.jdt.ui,3.7.2.v20120109-1427,"org.eclipse.jdt.ui.CompilationUnitEditor",1360391084117
executed,command,org.eclipse.ui.workbench.texteditor,3.7.0.v20110928-1504,"org.eclipse.ui.edit.text.goto.lineEnd",1360391084943
deactivated,workbench,org.eclipse.ui.workbench,3.7.1.v20120104-1859,"",1360391090353
activated,workbench,org.eclipse.ui.workbench,3.7.1.v20120104-1859,"",1360391093679
executed,command,org.eclipse.ui,3.7.0.v20110928-1505,"org.eclipse.ui.edit.text.contentAssist.proposals",1360391097831
executed,command,org.eclipse.ui,3.7.0.v20110928-1505,"org.eclipse.ui.edit.text.contentAssist.proposals",1360391101750
executed,command,org.eclipse.ui,3.7.0.v20110928-1505,"org.eclipse.ui.file.save",1360391105298
deactivated,workbench,org.eclipse.ui.workbench,3.7.1.v20120104-1859,"",1360391106429
activated,workbench,org.eclipse.ui.workbench,3.7.1.v20120104-1859,"",1360391107319
deactivated,workbench,org.eclipse.ui.workbench,3.7.1.v20120104-1859,"",1360391109196
activated,workbench,org.eclipse.ui.workbench,3.7.1.v20120104-1859,"",1360391134032
executed,command,org.eclipse.ui.workbench.texteditor,3.7.0.v20110928-1504,"org.eclipse.ui.edit.text.goto.lineEnd",1360391136197
executed,command,org.eclipse.ui,3.7.0.v20110928-1505,"org.eclipse.ui.file.save",1360391140960
activated,view,org.eclipse.debug.ui,3.7.102.v20111129-1423_r372,"org.eclipse.debug.ui.DebugView",1360391142152
executed,command,org.eclipse.debug.ui,3.7.102.v20111129-1423_r372,"org.eclipse.debug.ui.commands.Resume",1360391142222
activated,view,org.eclipse.debug.ui,3.7.102.v20111129-1423_r372,"org.eclipse.debug.ui.VariableView",1360391144019
executed,command,org.eclipse.ui,3.7.0.v20110928-1505,"org.eclipse.ui.edit.selectAll",1360391145037
executed,command,org.eclipse.ui,3.7.0.v20110928-1505,"org.eclipse.ui.edit.copy",1360391145260
deactivated,workbench,org.eclipse.ui.workbench,3.7.1.v20120104-1859,"",1360391145552
activated,workbench,org.eclipse.ui.workbench,3.7.1.v20120104-1859,"",1360391152418
activated,editor,org.eclipse.jdt.ui,3.7.2.v20120109-1427,"org.eclipse.jdt.ui.CompilationUnitEditor",1360391153235
executed,command,org.eclipse.ui.workbench.texteditor,3.7.0.v20110928-1504,"org.eclipse.ui.edit.text.goto.lineEnd",1360391153602
executed,command,org.eclipse.ui,3.7.0.v20110928-1505,"org.eclipse.ui.edit.text.contentAssist.proposals",1360391158521
executed,command,org.eclipse.ui,3.7.0.v20110928-1505,"org.eclipse.ui.file.save",1360391161772
activated,view,org.eclipse.debug.ui,3.7.102.v20111129-1423_r372,"org.eclipse.debug.ui.DebugView",1360391162912
executed,command,org.eclipse.debug.ui,3.7.102.v20111129-1423_r372,"org.eclipse.debug.ui.commands.Resume",1360391162998
activated,view,org.eclipse.debug.ui,3.7.102.v20111129-1423_r372,"org.eclipse.debug.ui.VariableView",1360391164843
executed,command,org.eclipse.ui,3.7.0.v20110928-1505,"org.eclipse.ui.edit.selectAll",1360391166189
executed,command,org.eclipse.ui,3.7.0.v20110928-1505,"org.eclipse.ui.edit.copy",1360391166387
deactivated,workbench,org.eclipse.ui.workbench,3.7.1.v20120104-1859,"",1360391166661
activated,workbench,org.eclipse.ui.workbench,3.7.1.v20120104-1859,"",1360391222038
activated,editor,org.eclipse.jdt.ui,3.7.2.v20120109-1427,"org.eclipse.jdt.ui.CompilationUnitEditor",1360391223541
deactivated,workbench,org.eclipse.ui.workbench,3.7.1.v20120104-1859,"",1360391231009
activated,workbench,org.eclipse.ui.workbench,3.7.1.v20120104-1859,"",1360391232679
executed,command,org.eclipse.ui.workbench.texteditor,3.7.0.v20110928-1504,"org.eclipse.ui.edit.text.goto.lineEnd",1360391233219
executed,command,org.eclipse.ui,3.7.0.v20110928-1505,"org.eclipse.ui.file.save",1360391240975
activated,view,org.eclipse.debug.ui,3.7.102.v20111129-1423_r372,"org.eclipse.debug.ui.DebugView",1360391243371
executed,command,org.eclipse.debug.ui,3.7.102.v20111129-1423_r372,"org.eclipse.debug.ui.commands.Resume",1360391243435
activated,view,org.eclipse.debug.ui,3.7.102.v20111129-1423_r372,"org.eclipse.debug.ui.VariableView",1360391244889
executed,command,org.eclipse.ui,3.7.0.v20110928-1505,"org.eclipse.ui.edit.selectAll",1360391247003
executed,command,org.eclipse.ui,3.7.0.v20110928-1505,"org.eclipse.ui.edit.copy",1360391247194
deactivated,workbench,org.eclipse.ui.workbench,3.7.1.v20120104-1859,"",1360391247453
activated,workbench,org.eclipse.ui.workbench,3.7.1.v20120104-1859,"",1360391259526
deactivated,workbench,org.eclipse.ui.workbench,3.7.1.v20120104-1859,"",1360391262660
activated,workbench,org.eclipse.ui.workbench,3.7.1.v20120104-1859,"",1360391264698
opened,editor,org.eclipse.jdt.ui,3.7.2.v20120109-1427,"org.eclipse.jdt.ui.CompilationUnitEditor",1360391264945
activated,editor,org.eclipse.jdt.ui,3.7.2.v20120109-1427,"org.eclipse.jdt.ui.CompilationUnitEditor",1360391265030
executed,command,org.eclipse.ui.ide,3.7.0.v20110928-1505,"org.eclipse.ui.navigate.openResource",1360391265038
executed,command,org.eclipse.ui.workbench.texteditor,3.7.0.v20110928-1504,"org.eclipse.ui.edit.text.goto.lineEnd",1360391289179
executed,command,org.eclipse.ui,3.7.0.v20110928-1505,"org.eclipse.ui.edit.copy",1360391293322
executed,command,org.eclipse.ui.workbench.texteditor,3.7.0.v20110928-1504,"org.eclipse.ui.edit.text.select.lineEnd",1360391294320
executed,command,org.eclipse.ui,3.7.0.v20110928-1505,"org.eclipse.ui.edit.paste",1360391294586
deactivated,workbench,org.eclipse.ui.workbench,3.7.1.v20120104-1859,"",1360391295282
activated,workbench,org.eclipse.ui.workbench,3.7.1.v20120104-1859,"",1360391296670
executed,command,org.eclipse.ui,3.7.0.v20110928-1505,"org.eclipse.ui.edit.text.contentAssist.proposals",1360391299371
executed,command,org.eclipse.ui,3.7.0.v20110928-1505,"org.eclipse.ui.edit.text.contentAssist.proposals",1360391302770
deactivated,workbench,org.eclipse.ui.workbench,3.7.1.v20120104-1859,"",1360391304291
activated,workbench,org.eclipse.ui.workbench,3.7.1.v20120104-1859,"",1360391305414
executed,command,org.eclipse.ui.workbench.texteditor,3.7.0.v20110928-1504,"org.eclipse.ui.edit.text.goto.lineEnd",1360391309264
executed,command,org.eclipse.ui.workbench.texteditor,3.7.0.v20110928-1504,"org.eclipse.ui.edit.text.select.lineStart",1360391309561
executed,command,org.eclipse.ui.workbench.texteditor,3.7.0.v20110928-1504,"org.eclipse.ui.edit.text.goto.lineEnd",1360391313953
executed,command,org.eclipse.ui,3.7.0.v20110928-1505,"org.eclipse.ui.edit.copy",1360391314954
executed,command,org.eclipse.ui.workbench.texteditor,3.7.0.v20110928-1504,"org.eclipse.ui.edit.text.goto.lineEnd",1360391315809
executed,command,org.eclipse.ui,3.7.0.v20110928-1505,"org.eclipse.ui.edit.paste",1360391316471
deactivated,workbench,org.eclipse.ui.workbench,3.7.1.v20120104-1859,"",1360391317138
activated,workbench,org.eclipse.ui.workbench,3.7.1.v20120104-1859,"",1360391317804
executed,command,org.eclipse.ui,3.7.0.v20110928-1505,"org.eclipse.ui.edit.copy",1360391320736
executed,command,org.eclipse.ui,3.7.0.v20110928-1505,"org.eclipse.ui.edit.undo",1360391323651
executed,command,org.eclipse.ui,3.7.0.v20110928-1505,"org.eclipse.ui.edit.redo",1360391324156
executed,command,org.eclipse.ui,3.7.0.v20110928-1505,"org.eclipse.ui.edit.paste",1360391325456
deactivated,workbench,org.eclipse.ui.workbench,3.7.1.v20120104-1859,"",1360391325855
activated,workbench,org.eclipse.ui.workbench,3.7.1.v20120104-1859,"",1360391326703
executed,command,org.eclipse.ui,3.7.0.v20110928-1505,"org.eclipse.ui.edit.paste",1360391328796
executed,command,org.eclipse.ui.workbench.texteditor,3.7.0.v20110928-1504,"org.eclipse.ui.edit.text.goto.lineEnd",1360391329824
executed,command,org.eclipse.ui.workbench.texteditor,3.7.0.v20110928-1504,"org.eclipse.ui.edit.text.select.lineStart",1360391330256
deactivated,workbench,org.eclipse.ui.workbench,3.7.1.v20120104-1859,"",1360391330689
activated,workbench,org.eclipse.ui.workbench,3.7.1.v20120104-1859,"",1360391334528
executed,command,org.eclipse.ui.workbench.texteditor,3.7.0.v20110928-1504,"org.eclipse.ui.edit.text.select.lineEnd",1360391336592
executed,command,org.eclipse.ui,3.7.0.v20110928-1505,"org.eclipse.ui.edit.copy",1360391336853
executed,command,org.eclipse.ui,3.7.0.v20110928-1505,"org.eclipse.ui.edit.paste",1360391337857
deactivated,workbench,org.eclipse.ui.workbench,3.7.1.v20120104-1859,"",1360391338162
activated,workbench,org.eclipse.ui.workbench,3.7.1.v20120104-1859,"",1360391338932
executed,command,org.eclipse.ui,3.7.0.v20110928-1505,"org.eclipse.ui.edit.paste",1360391341396
executed,command,org.eclipse.ui,3.7.0.v20110928-1505,"org.eclipse.ui.file.save",1360391342834
activated,view,org.eclipse.debug.ui,3.7.102.v20111129-1423_r372,"org.eclipse.debug.ui.DebugView",1360391344617
executed,command,org.eclipse.debug.ui,3.7.102.v20111129-1423_r372,"org.eclipse.debug.ui.commands.Resume",1360391344686
executed,command,org.eclipse.debug.ui,3.7.102.v20111129-1423_r372,"org.eclipse.debug.ui.commands.Resume",1360391345317
deactivated,workbench,org.eclipse.ui.workbench,3.7.1.v20120104-1859,"",1360391351634
activated,workbench,org.eclipse.ui.workbench,3.7.1.v20120104-1859,"",1360391352250
deactivated,workbench,org.eclipse.ui.workbench,3.7.1.v20120104-1859,"",1360391356045
activated,workbench,org.eclipse.ui.workbench,3.7.1.v20120104-1859,"",1360391400039
activated,view,org.eclipse.ui.console,3.5.100.v20111007_r372,"org.eclipse.ui.console.ConsoleView",1360391416940
deactivated,workbench,org.eclipse.ui.workbench,3.7.1.v20120104-1859,"",1360391425177
activated,workbench,org.eclipse.ui.workbench,3.7.1.v20120104-1859,"",1360391437514
activated,editor,org.eclipse.jdt.ui,3.7.2.v20120109-1427,"org.eclipse.jdt.ui.CompilationUnitEditor",1360391440093
deactivated,workbench,org.eclipse.ui.workbench,3.7.1.v20120104-1859,"",1360391466228
activated,workbench,org.eclipse.ui.workbench,3.7.1.v20120104-1859,"",1360391471247
activated,view,org.eclipse.ui.console,3.5.100.v20111007_r372,"org.eclipse.ui.console.ConsoleView",1360391472508
activated,editor,org.eclipse.jdt.ui,3.7.2.v20120109-1427,"org.eclipse.jdt.ui.CompilationUnitEditor",1360391507393
activated,editor,org.eclipse.jdt.ui,3.7.2.v20120109-1427,"org.eclipse.jdt.ui.CompilationUnitEditor",1360391514542
executed,command,org.eclipse.ui,3.7.0.v20110928-1505,"org.eclipse.ui.edit.copy",1360391528414
executed,command,org.eclipse.ui,3.7.0.v20110928-1505,"org.eclipse.ui.edit.copy",1360391539918
executed,command,org.eclipse.ui,3.7.0.v20110928-1505,"org.eclipse.ui.edit.paste",1360391546339
executed,command,org.eclipse.ui,3.7.0.v20110928-1505,"org.eclipse.ui.edit.paste",1360391552921
deactivated,workbench,org.eclipse.ui.workbench,3.7.1.v20120104-1859,"",1360391560398
activated,workbench,org.eclipse.ui.workbench,3.7.1.v20120104-1859,"",1360391566400
executed,command,org.eclipse.debug.ui,3.7.102.v20111129-1423_r372,"org.eclipse.debug.ui.commands.Terminate",1360391566482
deactivated,workbench,org.eclipse.ui.workbench,3.7.1.v20120104-1859,"",1360391568005
activated,workbench,org.eclipse.ui.workbench,3.7.1.v20120104-1859,"",1360391569844
deactivated,workbench,org.eclipse.ui.workbench,3.7.1.v20120104-1859,"",1360391573172
activated,workbench,org.eclipse.ui.workbench,3.7.1.v20120104-1859,"",1360391694460
activated,editor,org.eclipse.jdt.ui,3.7.2.v20120109-1427,"org.eclipse.jdt.ui.CompilationUnitEditor",1360391696277
executed,command,org.eclipse.ui.workbench.texteditor,3.7.0.v20110928-1504,"org.eclipse.ui.edit.text.goto.lineEnd",1360391698036
executed,command,org.eclipse.ui,3.7.0.v20110928-1505,"org.eclipse.ui.edit.cut",1360391699823
executed,command,org.eclipse.ui.workbench.texteditor,3.7.0.v20110928-1504,"org.eclipse.ui.edit.text.goto.lineEnd",1360391700573
executed,command,org.eclipse.ui,3.7.0.v20110928-1505,"org.eclipse.ui.edit.paste",1360391701095
executed,command,org.eclipse.ui,3.7.0.v20110928-1505,"org.eclipse.ui.file.save",1360391702936
deactivated,workbench,org.eclipse.ui.workbench,3.7.1.v20120104-1859,"",1360391703347
activated,workbench,org.eclipse.ui.workbench,3.7.1.v20120104-1859,"",1360391709699
executed,command,,,"AUTOGEN:::org.eclipse.jdt.debug.CompilationUnitEditor.BreakpointRulerActions/org.eclipse.jdt.debug.ui.actions.ManageBreakpointRulerAction",1360391714074
activated,view,org.eclipse.debug.ui,3.7.102.v20111129-1423_r372,"org.eclipse.debug.ui.DebugView",1360391715832
executed,command,org.eclipse.debug.ui,3.7.102.v20111129-1423_r372,"org.eclipse.debug.ui.commands.Resume",1360391715911
deactivated,workbench,org.eclipse.ui.workbench,3.7.1.v20120104-1859,"",1360391727034
activated,workbench,org.eclipse.ui.workbench,3.7.1.v20120104-1859,"",1360391743377
activated,view,org.eclipse.ui.console,3.5.100.v20111007_r372,"org.eclipse.ui.console.ConsoleView",1360391754532
executed,command,org.eclipse.ui,3.7.0.v20110928-1505,"org.eclipse.ui.edit.copy",1360391756492
deactivated,workbench,org.eclipse.ui.workbench,3.7.1.v20120104-1859,"",1360391758710
activated,workbench,org.eclipse.ui.workbench,3.7.1.v20120104-1859,"",1360391769591
deactivated,workbench,org.eclipse.ui.workbench,3.7.1.v20120104-1859,"",1360391770744
activated,workbench,org.eclipse.ui.workbench,3.7.1.v20120104-1859,"",1360391771822
executed,command,org.eclipse.ui,3.7.0.v20110928-1505,"org.eclipse.ui.edit.copy",1360391775339
deactivated,workbench,org.eclipse.ui.workbench,3.7.1.v20120104-1859,"",1360391777138
activated,workbench,org.eclipse.ui.workbench,3.7.1.v20120104-1859,"",1360391778525
deactivated,workbench,org.eclipse.ui.workbench,3.7.1.v20120104-1859,"",1360391778632
activated,workbench,org.eclipse.ui.workbench,3.7.1.v20120104-1859,"",1360391781839
deactivated,workbench,org.eclipse.ui.workbench,3.7.1.v20120104-1859,"",1360391790852
activated,workbench,org.eclipse.ui.workbench,3.7.1.v20120104-1859,"",1360391793315
opened,editor,org.eclipse.jdt.ui,3.7.2.v20120109-1427,"org.eclipse.jdt.ui.CompilationUnitEditor",1360391793474
activated,editor,org.eclipse.jdt.ui,3.7.2.v20120109-1427,"org.eclipse.jdt.ui.CompilationUnitEditor",1360391793566
executed,command,org.eclipse.ui.ide,3.7.0.v20110928-1505,"org.eclipse.ui.navigate.openResource",1360391793574
executed,command,,,"AUTOGEN:::org.eclipse.jdt.debug.CompilationUnitEditor.BreakpointRulerActions/org.eclipse.jdt.debug.ui.actions.ManageBreakpointRulerAction",1360391806465
executed,command,,,"AUTOGEN:::org.eclipse.jdt.debug.CompilationUnitEditor.BreakpointRulerActions/org.eclipse.jdt.debug.ui.actions.ManageBreakpointRulerAction",1360391807794
executed,command,,,"AUTOGEN:::org.eclipse.jdt.debug.CompilationUnitEditor.BreakpointRulerActions/org.eclipse.jdt.debug.ui.actions.ManageBreakpointRulerAction",1360391808566
deactivated,workbench,org.eclipse.ui.workbench,3.7.1.v20120104-1859,"",1360391809234
activated,workbench,org.eclipse.ui.workbench,3.7.1.v20120104-1859,"",1360391812488
executed,command,org.eclipse.debug.ui,3.7.102.v20111129-1423_r372,"org.eclipse.debug.ui.commands.Terminate",1360391812570
deactivated,workbench,org.eclipse.ui.workbench,3.7.1.v20120104-1859,"",1360391815882
activated,workbench,org.eclipse.ui.workbench,3.7.1.v20120104-1859,"",1360391869356
deactivated,workbench,org.eclipse.ui.workbench,3.7.1.v20120104-1859,"",1360391871556
activated,workbench,org.eclipse.ui.workbench,3.7.1.v20120104-1859,"",1360391877317
activated,view,org.eclipse.debug.ui,3.7.102.v20111129-1423_r372,"org.eclipse.debug.ui.DebugView",1360391880091
executed,command,org.eclipse.debug.ui,3.7.102.v20111129-1423_r372,"org.eclipse.debug.ui.commands.StepOver",1360391880178
executed,command,org.eclipse.debug.ui,3.7.102.v20111129-1423_r372,"org.eclipse.debug.ui.commands.StepOver",1360391880689
