what,kind,bundleId,bundleVersion,description,time
deactivated,workbench,org.eclipse.ui.workbench,3.7.1.v20120104-1859,"",1354346552596
activated,workbench,org.eclipse.ui.workbench,3.7.1.v20120104-1859,"",1354346558877
activated,view,org.eclipse.jdt.ui,3.7.2.v20120109-1427,"org.eclipse.jdt.ui.PackageExplorer",1354346560290
opened,editor,org.eclipse.pde.ui,3.6.100.v20120103_r372,"org.eclipse.pde.ui.manifestEditor",1354346560851
activated,editor,org.eclipse.pde.ui,3.6.100.v20120103_r372,"org.eclipse.pde.ui.manifestEditor",1354346561058
deactivated,workbench,org.eclipse.ui.workbench,3.7.1.v20120104-1859,"",1354346565935
executed,command,org.eclipse.ui,3.7.0.v20110928-1505,"org.eclipse.ui.edit.paste",1354346566330
activated,workbench,org.eclipse.ui.workbench,3.7.1.v20120104-1859,"",1354346569303
deactivated,workbench,org.eclipse.ui.workbench,3.7.1.v20120104-1859,"",1354346574324
activated,workbench,org.eclipse.ui.workbench,3.7.1.v20120104-1859,"",1354346575850
deactivated,workbench,org.eclipse.ui.workbench,3.7.1.v20120104-1859,"",1354346815036
activated,workbench,org.eclipse.ui.workbench,3.7.1.v20120104-1859,"",1354346855307
deactivated,workbench,org.eclipse.ui.workbench,3.7.1.v20120104-1859,"",1354346863843
activated,workbench,org.eclipse.ui.workbench,3.7.1.v20120104-1859,"",1354346865232
activated,view,org.eclipse.jdt.ui,3.7.2.v20120109-1427,"org.eclipse.jdt.ui.PackageExplorer",1354346875675
opened,editor,org.eclipse.jdt.ui,3.7.2.v20120109-1427,"org.eclipse.jdt.ui.CompilationUnitEditor",1354346875908
deactivated,workbench,org.eclipse.ui.workbench,3.7.1.v20120104-1859,"",1354346879290
activated,workbench,org.eclipse.ui.workbench,3.7.1.v20120104-1859,"",1354346881575
executed,command,org.eclipse.ui,3.7.0.v20110928-1505,"org.eclipse.ui.edit.delete",1354346881706
closed,editor,org.eclipse.jdt.ui,3.7.2.v20120109-1427,"org.eclipse.jdt.ui.CompilationUnitEditor",1354346881842
opened,editor,org.eclipse.jdt.ui,3.7.2.v20120109-1427,"org.eclipse.jdt.ui.CompilationUnitEditor",1354346882653
started,bundle,org.eclipse.pde.build,3.7.0.v20111116-2009,"org.eclipse.pde.build",1354346882862
deactivated,workbench,org.eclipse.ui.workbench,3.7.1.v20120104-1859,"",1354346884871
activated,workbench,org.eclipse.ui.workbench,3.7.1.v20120104-1859,"",1354346886499
executed,command,org.eclipse.ui,3.7.0.v20110928-1505,"org.eclipse.ui.edit.delete",1354346886572
closed,editor,org.eclipse.jdt.ui,3.7.2.v20120109-1427,"org.eclipse.jdt.ui.CompilationUnitEditor",1354346886672
deactivated,workbench,org.eclipse.ui.workbench,3.7.1.v20120104-1859,"",1354346889078
activated,workbench,org.eclipse.ui.workbench,3.7.1.v20120104-1859,"",1354346889918
deactivated,workbench,org.eclipse.ui.workbench,3.7.1.v20120104-1859,"",1354346892931
activated,workbench,org.eclipse.ui.workbench,3.7.1.v20120104-1859,"",1354346894883
deactivated,workbench,org.eclipse.ui.workbench,3.7.1.v20120104-1859,"",1354346897613
activated,workbench,org.eclipse.ui.workbench,3.7.1.v20120104-1859,"",1354346951017
deactivated,workbench,org.eclipse.ui.workbench,3.7.1.v20120104-1859,"",1354346953337
activated,workbench,org.eclipse.ui.workbench,3.7.1.v20120104-1859,"",1354346957925
opened,editor,org.eclipse.jdt.ui,3.7.2.v20120109-1427,"org.eclipse.jdt.ui.CompilationUnitEditor",1354346958934
started,bundle,org.eclipse.jdt.junit,3.7.0.v20110928-1453,"org.eclipse.jdt.junit",1354346959079
activated,editor,org.eclipse.jdt.ui,3.7.2.v20120109-1427,"org.eclipse.jdt.ui.CompilationUnitEditor",1354346959252
activated,view,org.eclipse.jdt.ui,3.7.2.v20120109-1427,"org.eclipse.jdt.ui.PackageExplorer",1354346968671
activated,editor,org.eclipse.jdt.ui,3.7.2.v20120109-1427,"org.eclipse.jdt.ui.CompilationUnitEditor",1354346969106
activated,view,org.eclipse.jdt.ui,3.7.2.v20120109-1427,"org.eclipse.jdt.ui.PackageExplorer",1354346969672
activated,editor,org.eclipse.jdt.ui,3.7.2.v20120109-1427,"org.eclipse.jdt.ui.CompilationUnitEditor",1354346970002
started,bundle,org.eclipse.mylyn.ide.ui,3.6.0.v20110608-1400,"org.eclipse.mylyn.ide.ui",1354346972444
started,bundle,org.eclipse.mylyn.java.ui,3.6.0.v20110608-1400,"org.eclipse.mylyn.java.ui",1354346972458
started,bundle,org.eclipse.pde.api.tools.ui,1.0.301.v20110803_r371,"org.eclipse.pde.api.tools.ui",1354346972480
started,bundle,org.eclipse.mylyn.pde.ui,3.6.0.v20110608-1400,"org.eclipse.mylyn.pde.ui",1354346972481
executed,command,org.eclipse.ui,3.7.0.v20110928-1505,"org.eclipse.ui.edit.text.contentAssist.proposals",1354346972697
deactivated,workbench,org.eclipse.ui.workbench,3.7.1.v20120104-1859,"",1354346973832
activated,workbench,org.eclipse.ui.workbench,3.7.1.v20120104-1859,"",1354346990626
executed,command,org.eclipse.ui,3.7.0.v20110928-1505,"org.eclipse.ui.edit.paste",1354346991036
executed,command,org.eclipse.jdt.ui,3.7.2.v20120109-1427,"org.eclipse.jdt.ui.edit.text.java.organize.imports",1354346992343
executed,command,,,"AUTOGEN:::org.eclipse.jdt.internal.ui.CompilationUnitEditor.ruler.actions/org.eclipse.jdt.internal.ui.javaeditor.JavaSelectRulerAction",1354346995311
executed,command,,,"AUTOGEN:::org.eclipse.jdt.internal.ui.CompilationUnitEditor.ruler.actions/org.eclipse.jdt.internal.ui.javaeditor.JavaSelectRulerAction",1354346997072
executed,command,org.eclipse.ui,3.7.0.v20110928-1505,"org.eclipse.ui.edit.text.contentAssist.proposals",1354347001825
executed,command,org.eclipse.ui,3.7.0.v20110928-1505,"org.eclipse.ui.edit.paste",1354347002783
executed,command,org.eclipse.jdt.ui,3.7.2.v20120109-1427,"org.eclipse.jdt.ui.edit.text.java.organize.imports",1354347004165
executed,command,,,"AUTOGEN:::org.eclipse.jdt.internal.ui.CompilationUnitEditor.ruler.actions/org.eclipse.jdt.internal.ui.javaeditor.JavaSelectRulerAction",1354347006332
executed,command,org.eclipse.ui,3.7.0.v20110928-1505,"org.eclipse.ui.edit.undo",1354347008346
executed,command,org.eclipse.ui,3.7.0.v20110928-1505,"org.eclipse.ui.edit.undo",1354347008600
executed,command,org.eclipse.ui,3.7.0.v20110928-1505,"org.eclipse.ui.edit.undo",1354347008817
executed,command,org.eclipse.ui,3.7.0.v20110928-1505,"org.eclipse.ui.edit.undo",1354347009059
executed,command,org.eclipse.ui,3.7.0.v20110928-1505,"org.eclipse.ui.file.save",1354347009891
activated,editor,org.eclipse.pde.ui,3.6.100.v20120103_r372,"org.eclipse.pde.ui.manifestEditor",1354347013601
executed,command,org.eclipse.ui,3.7.0.v20110928-1505,"org.eclipse.ui.file.save",1354347016641
deactivated,workbench,org.eclipse.ui.workbench,3.7.1.v20120104-1859,"",1354347022903
executed,command,org.eclipse.ui,3.7.0.v20110928-1505,"org.eclipse.ui.edit.paste",1354347023811
executed,command,org.eclipse.ui,3.7.0.v20110928-1505,"org.eclipse.ui.edit.selectAll",1354347031082
executed,command,org.eclipse.ui,3.7.0.v20110928-1505,"org.eclipse.ui.edit.paste",1354347031379
activated,workbench,org.eclipse.ui.workbench,3.7.1.v20120104-1859,"",1354347033327
executed,command,org.eclipse.ui,3.7.0.v20110928-1505,"org.eclipse.ui.file.save",1354347034059
deactivated,workbench,org.eclipse.ui.workbench,3.7.1.v20120104-1859,"",1354347036141
activated,workbench,org.eclipse.ui.workbench,3.7.1.v20120104-1859,"",1354347040353
activated,editor,org.eclipse.jdt.ui,3.7.2.v20120109-1427,"org.eclipse.jdt.ui.CompilationUnitEditor",1354347043538
executed,command,org.eclipse.ui,3.7.0.v20110928-1505,"org.eclipse.ui.edit.paste",1354347046647
started,bundle,org.eclipse.help.base,3.6.2.v201202080800,"org.eclipse.help.base",1354347066943
started,bundle,org.eclipse.help.ui,3.5.101.r37_20110819,"org.eclipse.help.ui",1354347066959
started,bundle,org.eclipse.equinox.http.jetty,2.0.100.v20110502,"org.eclipse.equinox.http.jetty",1354347067035
started,bundle,org.eclipse.equinox.http.servlet,1.1.200.v20110502,"org.eclipse.equinox.http.servlet",1354347067095
started,bundle,org.eclipse.equinox.http.registry,1.1.100.v20110502,"org.eclipse.equinox.http.registry",1354347067224
executed,command,org.eclipse.ui,3.7.0.v20110928-1505,"org.eclipse.ui.edit.text.contentAssist.proposals",1354347071621
deactivated,workbench,org.eclipse.ui.workbench,3.7.1.v20120104-1859,"",1354347079431
activated,workbench,org.eclipse.ui.workbench,3.7.1.v20120104-1859,"",1354347080009
deactivated,workbench,org.eclipse.ui.workbench,3.7.1.v20120104-1859,"",1354347088597
activated,workbench,org.eclipse.ui.workbench,3.7.1.v20120104-1859,"",1354347122633
executed,command,org.eclipse.ui,3.7.0.v20110928-1505,"org.eclipse.ui.edit.text.contentAssist.proposals",1354347128649
executed,command,org.eclipse.ui,3.7.0.v20110928-1505,"org.eclipse.ui.edit.paste",1354347129510
executed,command,org.eclipse.jdt.ui,3.7.2.v20120109-1427,"org.eclipse.jdt.ui.edit.text.java.organize.imports",1354347130786
executed,command,org.eclipse.ui,3.7.0.v20110928-1505,"org.eclipse.ui.file.save",1354347132240
executed,command,,,"AUTOGEN:::org.eclipse.jdt.internal.ui.CompilationUnitEditor.ruler.actions/org.eclipse.jdt.internal.ui.javaeditor.JavaSelectRulerAction",1354347133817
deactivated,workbench,org.eclipse.ui.workbench,3.7.1.v20120104-1859,"",1354347134300
activated,workbench,org.eclipse.ui.workbench,3.7.1.v20120104-1859,"",1354347134588
executed,command,org.eclipse.ui,3.7.0.v20110928-1505,"org.eclipse.ui.edit.delete",1354347139994
activated,view,org.eclipse.jdt.ui,3.7.2.v20120109-1427,"org.eclipse.jdt.ui.PackageExplorer",1354347141973
deactivated,workbench,org.eclipse.ui.workbench,3.7.1.v20120104-1859,"",1354347142581
executed,command,org.eclipse.ui,3.7.0.v20110928-1505,"org.eclipse.ui.edit.selectAll",1354347166234
started,bundle,org.eclipse.ant.ui,3.5.101.v20120110-1739,"org.eclipse.ant.ui",1354347192910
activated,workbench,org.eclipse.ui.workbench,3.7.1.v20120104-1859,"",1354347195768
executed,command,org.eclipse.ui,3.7.0.v20110928-1505,"org.eclipse.ui.edit.rename",1354347195839
activated,editor,org.eclipse.jdt.ui,3.7.2.v20120109-1427,"org.eclipse.jdt.ui.CompilationUnitEditor",1354347198947
executed,command,org.eclipse.ui.workbench.texteditor,3.7.0.v20110928-1504,"org.eclipse.ui.edit.text.select.lineEnd",1354347215787
executed,command,org.eclipse.ui,3.7.0.v20110928-1505,"org.eclipse.ui.edit.copy",1354347216611
executed,command,org.eclipse.ui,3.7.0.v20110928-1505,"org.eclipse.ui.edit.paste",1354347218752
started,bundle,org.eclipse.mylyn.java.tasks,3.6.0.v20110608-1400,"org.eclipse.mylyn.java.tasks",1354347222507
executed,command,org.eclipse.ui,3.7.0.v20110928-1505,"org.eclipse.ui.edit.copy",1354347222544
executed,command,org.eclipse.ui,3.7.0.v20110928-1505,"org.eclipse.ui.edit.paste",1354347224572
executed,command,org.eclipse.ui,3.7.0.v20110928-1505,"org.eclipse.ui.edit.copy",1354347227516
executed,command,org.eclipse.ui.workbench.texteditor,3.7.0.v20110928-1504,"org.eclipse.ui.edit.text.goto.lineEnd",1354347230376
deactivated,workbench,org.eclipse.ui.workbench,3.7.1.v20120104-1859,"",1354347234215
activated,workbench,org.eclipse.ui.workbench,3.7.1.v20120104-1859,"",1354347244831
executed,command,org.eclipse.ui,3.7.0.v20110928-1505,"org.eclipse.ui.edit.paste",1354347247812
executed,command,org.eclipse.jdt.ui,3.7.2.v20120109-1427,"org.eclipse.jdt.ui.edit.text.java.organize.imports",1354347248718
executed,command,,,"AUTOGEN:::org.eclipse.jdt.internal.ui.CompilationUnitEditor.ruler.actions/org.eclipse.jdt.internal.ui.javaeditor.JavaSelectRulerAction",1354347250678
deactivated,workbench,org.eclipse.ui.workbench,3.7.1.v20120104-1859,"",1354347251057
activated,workbench,org.eclipse.ui.workbench,3.7.1.v20120104-1859,"",1354347251342
deactivated,workbench,org.eclipse.ui.workbench,3.7.1.v20120104-1859,"",1354347253376
activated,workbench,org.eclipse.ui.workbench,3.7.1.v20120104-1859,"",1354347259825
deactivated,workbench,org.eclipse.ui.workbench,3.7.1.v20120104-1859,"",1354347268400
activated,workbench,org.eclipse.ui.workbench,3.7.1.v20120104-1859,"",1354347270748
executed,command,org.eclipse.ui,3.7.0.v20110928-1505,"org.eclipse.ui.edit.text.contentAssist.proposals",1354347274025
executed,command,org.eclipse.ui.workbench.texteditor,3.7.0.v20110928-1504,"org.eclipse.ui.edit.text.select.lineStart",1354347275887
deactivated,workbench,org.eclipse.ui.workbench,3.7.1.v20120104-1859,"",1354347277456
activated,workbench,org.eclipse.ui.workbench,3.7.1.v20120104-1859,"",1354347283373
executed,command,org.eclipse.ui,3.7.0.v20110928-1505,"org.eclipse.ui.file.save",1354347283741
activated,editor,org.eclipse.pde.ui,3.6.100.v20120103_r372,"org.eclipse.pde.ui.manifestEditor",1354347284923
deactivated,workbench,org.eclipse.ui.workbench,3.7.1.v20120104-1859,"",1354347288431
activated,workbench,org.eclipse.ui.workbench,3.7.1.v20120104-1859,"",1354347289228
deactivated,workbench,org.eclipse.ui.workbench,3.7.1.v20120104-1859,"",1354347293228
executed,command,org.eclipse.ui,3.7.0.v20110928-1505,"org.eclipse.ui.edit.paste",1354347300322
activated,workbench,org.eclipse.ui.workbench,3.7.1.v20120104-1859,"",1354347301364
deactivated,workbench,org.eclipse.ui.workbench,3.7.1.v20120104-1859,"",1354347304820
activated,workbench,org.eclipse.ui.workbench,3.7.1.v20120104-1859,"",1354347306473
deactivated,workbench,org.eclipse.ui.workbench,3.7.1.v20120104-1859,"",1354347307644
activated,workbench,org.eclipse.ui.workbench,3.7.1.v20120104-1859,"",1354347314416
deactivated,workbench,org.eclipse.ui.workbench,3.7.1.v20120104-1859,"",1354347314829
activated,view,org.eclipse.jdt.ui,3.7.2.v20120109-1427,"org.eclipse.jdt.ui.PackageExplorer",1354347348062
activated,workbench,org.eclipse.ui.workbench,3.7.1.v20120104-1859,"",1354347348199
deactivated,workbench,org.eclipse.ui.workbench,3.7.1.v20120104-1859,"",1354347350030
activated,workbench,org.eclipse.ui.workbench,3.7.1.v20120104-1859,"",1354347350521
deactivated,workbench,org.eclipse.ui.workbench,3.7.1.v20120104-1859,"",1354347352742
activated,workbench,org.eclipse.ui.workbench,3.7.1.v20120104-1859,"",1354347353552
activated,editor,org.eclipse.pde.ui,3.6.100.v20120103_r372,"org.eclipse.pde.ui.manifestEditor",1354347354319
deactivated,workbench,org.eclipse.ui.workbench,3.7.1.v20120104-1859,"",1354347359473
activated,workbench,org.eclipse.ui.workbench,3.7.1.v20120104-1859,"",1354347364534
executed,command,org.eclipse.ui,3.7.0.v20110928-1505,"org.eclipse.ui.edit.paste",1354347366911
executed,command,org.eclipse.ui,3.7.0.v20110928-1505,"org.eclipse.ui.edit.selectAll",1354347368191
deactivated,workbench,org.eclipse.ui.workbench,3.7.1.v20120104-1859,"",1354347368699
activated,workbench,org.eclipse.ui.workbench,3.7.1.v20120104-1859,"",1354347369490
executed,command,org.eclipse.ui,3.7.0.v20110928-1505,"org.eclipse.ui.file.properties",1354347369537
executed,command,org.eclipse.ui.workbench.texteditor,3.7.0.v20110928-1504,"org.eclipse.ui.edit.text.goto.lineStart",1354347371981
executed,command,org.eclipse.ui.workbench.texteditor,3.7.0.v20110928-1504,"org.eclipse.ui.edit.text.goto.lineStart",1354347375749
executed,command,org.eclipse.ui.workbench.texteditor,3.7.0.v20110928-1504,"org.eclipse.ui.edit.text.select.lineEnd",1354347384237
executed,command,org.eclipse.ui.workbench.texteditor,3.7.0.v20110928-1504,"org.eclipse.ui.edit.text.goto.lineEnd",1354347385964
executed,command,org.eclipse.ui,3.7.0.v20110928-1505,"org.eclipse.ui.file.save",1354347387548
started,bundle,org.eclipse.rap.ui.launch,1.4.2.20120213-1325,"org.eclipse.rap.ui.launch",1354347391951
deactivated,workbench,org.eclipse.ui.workbench,3.7.1.v20120104-1859,"",1354347394405
activated,view,org.eclipse.jdt.ui,3.7.2.v20120109-1427,"org.eclipse.jdt.ui.PackageExplorer",1354347394993
activated,workbench,org.eclipse.ui.workbench,3.7.1.v20120104-1859,"",1354347395140
opened,editor,org.eclipse.jdt.ui,3.7.2.v20120109-1427,"org.eclipse.jdt.ui.CompilationUnitEditor",1354347397279
activated,editor,org.eclipse.jdt.ui,3.7.2.v20120109-1427,"org.eclipse.jdt.ui.CompilationUnitEditor",1354347397523
executed,command,org.eclipse.ui,3.7.0.v20110928-1505,"org.eclipse.ui.file.save",1354347399955
deactivated,workbench,org.eclipse.ui.workbench,3.7.1.v20120104-1859,"",1354347400282
activated,workbench,org.eclipse.ui.workbench,3.7.1.v20120104-1859,"",1354347400954
activated,view,org.eclipse.ui.console,3.5.100.v20111007_r372,"org.eclipse.ui.console.ConsoleView",1354347402347
activated,editor,org.eclipse.pde.ui,3.6.100.v20120103_r372,"org.eclipse.pde.ui.manifestEditor",1354347404049
executed,command,org.eclipse.ui,3.7.0.v20110928-1505,"org.eclipse.ui.navigate.backwardHistory",1354347404065
executed,command,org.eclipse.ui,3.7.0.v20110928-1505,"org.eclipse.ui.file.save",1354347411206
activated,editor,org.eclipse.jdt.ui,3.7.2.v20120109-1427,"org.eclipse.jdt.ui.CompilationUnitEditor",1354347413683
closed,editor,org.eclipse.pde.ui,3.6.100.v20120103_r372,"org.eclipse.pde.ui.manifestEditor",1354347413684
activated,view,org.eclipse.jdt.ui,3.7.2.v20120109-1427,"org.eclipse.jdt.ui.PackageExplorer",1354347414875
opened,editor,org.eclipse.pde.ui,3.6.100.v20120103_r372,"org.eclipse.pde.ui.manifestEditor",1354347415299
activated,editor,org.eclipse.pde.ui,3.6.100.v20120103_r372,"org.eclipse.pde.ui.manifestEditor",1354347415369
deactivated,workbench,org.eclipse.ui.workbench,3.7.1.v20120104-1859,"",1354347426508
activated,workbench,org.eclipse.ui.workbench,3.7.1.v20120104-1859,"",1354347435126
deactivated,workbench,org.eclipse.ui.workbench,3.7.1.v20120104-1859,"",1354347438204
activated,workbench,org.eclipse.ui.workbench,3.7.1.v20120104-1859,"",1354347442299
deactivated,workbench,org.eclipse.ui.workbench,3.7.1.v20120104-1859,"",1354347447485
activated,workbench,org.eclipse.ui.workbench,3.7.1.v20120104-1859,"",1354347452059
deactivated,workbench,org.eclipse.ui.workbench,3.7.1.v20120104-1859,"",1354347453977
activated,workbench,org.eclipse.ui.workbench,3.7.1.v20120104-1859,"",1354347457350
deactivated,workbench,org.eclipse.ui.workbench,3.7.1.v20120104-1859,"",1354347459428
activated,workbench,org.eclipse.ui.workbench,3.7.1.v20120104-1859,"",1354347460308
deactivated,workbench,org.eclipse.ui.workbench,3.7.1.v20120104-1859,"",1354347460937
activated,workbench,org.eclipse.ui.workbench,3.7.1.v20120104-1859,"",1354347461506
deactivated,workbench,org.eclipse.ui.workbench,3.7.1.v20120104-1859,"",1354347462173
activated,workbench,org.eclipse.ui.workbench,3.7.1.v20120104-1859,"",1354347462620
deactivated,workbench,org.eclipse.ui.workbench,3.7.1.v20120104-1859,"",1354347463289
activated,workbench,org.eclipse.ui.workbench,3.7.1.v20120104-1859,"",1354347468404
deactivated,workbench,org.eclipse.ui.workbench,3.7.1.v20120104-1859,"",1354347469489
activated,workbench,org.eclipse.ui.workbench,3.7.1.v20120104-1859,"",1354347475715
activated,view,org.eclipse.jdt.ui,3.7.2.v20120109-1427,"org.eclipse.jdt.ui.PackageExplorer",1354347487557
activated,editor,org.eclipse.jdt.ui,3.7.2.v20120109-1427,"org.eclipse.jdt.ui.CompilationUnitEditor",1354347491372
executed,command,org.eclipse.ui.workbench.texteditor,3.7.0.v20110928-1504,"org.eclipse.ui.edit.text.select.lineEnd",1354347492505
executed,command,org.eclipse.ui,3.7.0.v20110928-1505,"org.eclipse.ui.edit.copy",1354347493544
activated,editor,org.eclipse.pde.ui,3.6.100.v20120103_r372,"org.eclipse.pde.ui.manifestEditor",1354347494721
executed,command,org.eclipse.ui,3.7.0.v20110928-1505,"org.eclipse.ui.edit.paste",1354347496174
executed,command,org.eclipse.ui,3.7.0.v20110928-1505,"org.eclipse.ui.file.save",1354347496824
deactivated,workbench,org.eclipse.ui.workbench,3.7.1.v20120104-1859,"",1354347504029
activated,workbench,org.eclipse.ui.workbench,3.7.1.v20120104-1859,"",1354347507463
executed,command,org.eclipse.ui,3.7.0.v20110928-1505,"org.eclipse.ui.edit.copy",1354347511168
activated,view,org.eclipse.jdt.ui,3.7.2.v20120109-1427,"org.eclipse.jdt.ui.PackageExplorer",1354347512225
activated,editor,org.eclipse.jdt.ui,3.7.2.v20120109-1427,"org.eclipse.jdt.ui.CompilationUnitEditor",1354347514624
executed,command,org.eclipse.jdt.ui,3.7.2.v20120109-1427,"org.eclipse.jdt.ui.edit.text.java.toggle.comment",1354347515920
executed,command,org.eclipse.ui,3.7.0.v20110928-1505,"org.eclipse.ui.edit.paste",1354347520861
executed,command,org.eclipse.ui,3.7.0.v20110928-1505,"org.eclipse.ui.file.save",1354347521805
deactivated,workbench,org.eclipse.ui.workbench,3.7.1.v20120104-1859,"",1354347524944
activated,workbench,org.eclipse.ui.workbench,3.7.1.v20120104-1859,"",1354347527501
activated,view,org.eclipse.ui.console,3.5.100.v20111007_r372,"org.eclipse.ui.console.ConsoleView",1354347528221
activated,editor,org.eclipse.jdt.ui,3.7.2.v20120109-1427,"org.eclipse.jdt.ui.CompilationUnitEditor",1354347532348
activated,view,org.eclipse.jdt.ui,3.7.2.v20120109-1427,"org.eclipse.jdt.ui.PackageExplorer",1354347534995
activated,editor,org.eclipse.pde.ui,3.6.100.v20120103_r372,"org.eclipse.pde.ui.manifestEditor",1354347537349
deactivated,workbench,org.eclipse.ui.workbench,3.7.1.v20120104-1859,"",1354347541430
executed,command,org.eclipse.ui,3.7.0.v20110928-1505,"org.eclipse.ui.edit.paste",1354347542149
activated,workbench,org.eclipse.ui.workbench,3.7.1.v20120104-1859,"",1354347543635
executed,command,org.eclipse.ui,3.7.0.v20110928-1505,"org.eclipse.ui.file.save",1354347548801
deactivated,workbench,org.eclipse.ui.workbench,3.7.1.v20120104-1859,"",1354347566275
executed,command,org.eclipse.ui,3.7.0.v20110928-1505,"org.eclipse.ui.edit.paste",1354347566813
activated,workbench,org.eclipse.ui.workbench,3.7.1.v20120104-1859,"",1354347569318
deactivated,workbench,org.eclipse.ui.workbench,3.7.1.v20120104-1859,"",1354347572304
activated,workbench,org.eclipse.ui.workbench,3.7.1.v20120104-1859,"",1354347670872
deactivated,workbench,org.eclipse.ui.workbench,3.7.1.v20120104-1859,"",1354347672428
activated,workbench,org.eclipse.ui.workbench,3.7.1.v20120104-1859,"",1354347694811
executed,command,org.eclipse.ui,3.7.0.v20110928-1505,"org.eclipse.ui.edit.copy",1354347698505
executed,command,org.eclipse.ui,3.7.0.v20110928-1505,"org.eclipse.ui.edit.paste",1354347699634
executed,command,org.eclipse.ui,3.7.0.v20110928-1505,"org.eclipse.ui.file.save",1354347700114
activated,view,org.eclipse.jdt.ui,3.7.2.v20120109-1427,"org.eclipse.jdt.ui.PackageExplorer",1354347702135
activated,editor,org.eclipse.jdt.ui,3.7.2.v20120109-1427,"org.eclipse.jdt.ui.CompilationUnitEditor",1354347703701
executed,command,org.eclipse.ui.workbench.texteditor,3.7.0.v20110928-1504,"org.eclipse.ui.edit.text.select.lineEnd",1354347706537
executed,command,org.eclipse.ui,3.7.0.v20110928-1505,"org.eclipse.ui.edit.paste",1354347709711
executed,command,org.eclipse.ui,3.7.0.v20110928-1505,"org.eclipse.ui.file.save",1354347710159
deactivated,workbench,org.eclipse.ui.workbench,3.7.1.v20120104-1859,"",1354347714960
activated,workbench,org.eclipse.ui.workbench,3.7.1.v20120104-1859,"",1354347726164
activated,editor,org.eclipse.pde.ui,3.6.100.v20120103_r372,"org.eclipse.pde.ui.manifestEditor",1354347730123
activated,editor,org.eclipse.jdt.ui,3.7.2.v20120109-1427,"org.eclipse.jdt.ui.CompilationUnitEditor",1354347734446
deactivated,workbench,org.eclipse.ui.workbench,3.7.1.v20120104-1859,"",1354347737399
activated,workbench,org.eclipse.ui.workbench,3.7.1.v20120104-1859,"",1354347826845
activated,view,org.eclipse.jdt.ui,3.7.2.v20120109-1427,"org.eclipse.jdt.ui.PackageExplorer",1354347829217
activated,editor,org.eclipse.jdt.ui,3.7.2.v20120109-1427,"org.eclipse.jdt.ui.CompilationUnitEditor",1354347831144
executed,command,org.eclipse.ui,3.7.0.v20110928-1505,"org.eclipse.ui.edit.paste",1354347835111
executed,command,org.eclipse.ui,3.7.0.v20110928-1505,"org.eclipse.ui.edit.undo",1354347836406
executed,command,org.eclipse.ui,3.7.0.v20110928-1505,"org.eclipse.ui.edit.undo",1354347836568
executed,command,org.eclipse.ui,3.7.0.v20110928-1505,"org.eclipse.ui.edit.text.contentAssist.proposals",1354347839562
executed,command,org.eclipse.jdt.ui,3.7.2.v20120109-1427,"org.eclipse.jdt.ui.edit.text.java.organize.imports",1354347843488
executed,command,,,"AUTOGEN:::org.eclipse.jdt.internal.ui.CompilationUnitEditor.ruler.actions/org.eclipse.jdt.internal.ui.javaeditor.JavaSelectRulerAction",1354347846435
deactivated,workbench,org.eclipse.ui.workbench,3.7.1.v20120104-1859,"",1354347847056
activated,workbench,org.eclipse.ui.workbench,3.7.1.v20120104-1859,"",1354347847332
deactivated,workbench,org.eclipse.ui.workbench,3.7.1.v20120104-1859,"",1354347853345
activated,workbench,org.eclipse.ui.workbench,3.7.1.v20120104-1859,"",1354347853859
executed,command,org.eclipse.ui.workbench.texteditor,3.7.0.v20110928-1504,"org.eclipse.ui.edit.text.select.lineEnd",1354347859844
executed,command,,,"AUTOGEN:::org.eclipse.jdt.internal.ui.CompilationUnitEditor.ruler.actions/org.eclipse.jdt.internal.ui.javaeditor.JavaSelectRulerAction",1354347868699
deactivated,workbench,org.eclipse.ui.workbench,3.7.1.v20120104-1859,"",1354347869165
activated,workbench,org.eclipse.ui.workbench,3.7.1.v20120104-1859,"",1354347869418
executed,command,org.eclipse.ui.workbench.texteditor,3.7.0.v20110928-1504,"org.eclipse.ui.edit.text.select.lineEnd",1354347872028
executed,command,org.eclipse.ui,3.7.0.v20110928-1505,"org.eclipse.ui.edit.cut",1354347872431
executed,command,org.eclipse.ui,3.7.0.v20110928-1505,"org.eclipse.ui.file.save",1354347874274
executed,command,org.eclipse.ui,3.7.0.v20110928-1505,"org.eclipse.ui.edit.paste",1354347877389
executed,command,org.eclipse.ui,3.7.0.v20110928-1505,"org.eclipse.ui.edit.undo",1354347878203
deactivated,workbench,org.eclipse.ui.workbench,3.7.1.v20120104-1859,"",1354347878884
activated,workbench,org.eclipse.ui.workbench,3.7.1.v20120104-1859,"",1354347888700
executed,command,org.eclipse.ui,3.7.0.v20110928-1505,"org.eclipse.ui.edit.paste",1354347889076
executed,command,org.eclipse.ui,3.7.0.v20110928-1505,"org.eclipse.ui.edit.copy",1354347928465
executed,command,org.eclipse.ui.workbench.texteditor,3.7.0.v20110928-1504,"org.eclipse.ui.edit.text.select.lineStart",1354347930457
executed,command,org.eclipse.ui,3.7.0.v20110928-1505,"org.eclipse.ui.edit.cut",1354347930820
executed,command,org.eclipse.ui,3.7.0.v20110928-1505,"org.eclipse.ui.edit.text.contentAssist.proposals",1354347934552
executed,command,org.eclipse.ui,3.7.0.v20110928-1505,"org.eclipse.ui.edit.text.contentAssist.proposals",1354347935874
executed,command,org.eclipse.ui,3.7.0.v20110928-1505,"org.eclipse.ui.edit.text.contentAssist.proposals",1354347937787
executed,command,,,"AUTOGEN:::org.eclipse.jdt.internal.ui.CompilationUnitEditor.ruler.actions/org.eclipse.jdt.internal.ui.javaeditor.JavaSelectRulerAction",1354347942691
deactivated,workbench,org.eclipse.ui.workbench,3.7.1.v20120104-1859,"",1354347943660
activated,workbench,org.eclipse.ui.workbench,3.7.1.v20120104-1859,"",1354347943914
executed,command,org.eclipse.ui.workbench.texteditor,3.7.0.v20110928-1504,"org.eclipse.ui.edit.text.goto.lineEnd",1354347953824
executed,command,org.eclipse.ui.workbench.texteditor,3.7.0.v20110928-1504,"org.eclipse.ui.edit.text.select.lineStart",1354347954247
executed,command,org.eclipse.ui.workbench.texteditor,3.7.0.v20110928-1504,"org.eclipse.ui.edit.text.select.lineStart",1354347954432
executed,command,org.eclipse.ui,3.7.0.v20110928-1505,"org.eclipse.ui.edit.text.contentAssist.proposals",1354347956783
activated,view,org.eclipse.jdt.ui,3.7.2.v20120109-1427,"org.eclipse.jdt.ui.PackageExplorer",1354347966460
deactivated,workbench,org.eclipse.ui.workbench,3.7.1.v20120104-1859,"",1354347971890
activated,workbench,org.eclipse.ui.workbench,3.7.1.v20120104-1859,"",1354347978519
executed,command,org.eclipse.ui,3.7.0.v20110928-1505,"org.eclipse.ui.file.properties",1354347978582
