what,kind,bundleId,bundleVersion,description,time
activated,workbench,org.eclipse.ui.workbench,3.7.1.v20120104-1859,"",1359008706036
deactivated,workbench,org.eclipse.ui.workbench,3.7.1.v20120104-1859,"",1359008707828
activated,workbench,org.eclipse.ui.workbench,3.7.1.v20120104-1859,"",1359008711595
deactivated,workbench,org.eclipse.ui.workbench,3.7.1.v20120104-1859,"",1359008723467
activated,workbench,org.eclipse.ui.workbench,3.7.1.v20120104-1859,"",1359008724516
executed,command,org.eclipse.ui,3.7.0.v20110928-1505,"org.eclipse.ui.edit.paste",1359008735123
executed,command,org.eclipse.ui.workbench.texteditor,3.7.0.v20110928-1504,"org.eclipse.ui.edit.text.goto.lineEnd",1359008776887
deactivated,workbench,org.eclipse.ui.workbench,3.7.1.v20120104-1859,"",1359008798357
activated,workbench,org.eclipse.ui.workbench,3.7.1.v20120104-1859,"",1359008798829
executed,command,org.eclipse.ui.workbench.texteditor,3.7.0.v20110928-1504,"org.eclipse.ui.edit.text.select.lineStart",1359008812165
executed,command,org.eclipse.ui,3.7.0.v20110928-1505,"org.eclipse.ui.edit.cut",1359008812879
executed,command,org.eclipse.ui,3.7.0.v20110928-1505,"org.eclipse.ui.edit.paste",1359008814936
executed,command,org.eclipse.ui.workbench.texteditor,3.7.0.v20110928-1504,"org.eclipse.ui.edit.text.goto.lineEnd",1359008819347
deactivated,workbench,org.eclipse.ui.workbench,3.7.1.v20120104-1859,"",1359008827550
activated,workbench,org.eclipse.ui.workbench,3.7.1.v20120104-1859,"",1359008829534
deactivated,workbench,org.eclipse.ui.workbench,3.7.1.v20120104-1859,"",1359008833758
activated,workbench,org.eclipse.ui.workbench,3.7.1.v20120104-1859,"",1359008835363
executed,command,org.eclipse.ui.workbench.texteditor,3.7.0.v20110928-1504,"org.eclipse.ui.edit.text.select.lineStart",1359008837525
executed,command,org.eclipse.ui,3.7.0.v20110928-1505,"org.eclipse.ui.edit.copy",1359008837841
executed,command,org.eclipse.ui,3.7.0.v20110928-1505,"org.eclipse.ui.edit.paste",1359008838554
deactivated,workbench,org.eclipse.ui.workbench,3.7.1.v20120104-1859,"",1359008843622
activated,workbench,org.eclipse.ui.workbench,3.7.1.v20120104-1859,"",1359008845347
deactivated,workbench,org.eclipse.ui.workbench,3.7.1.v20120104-1859,"",1359008849599
activated,workbench,org.eclipse.ui.workbench,3.7.1.v20120104-1859,"",1359008850742
executed,command,org.eclipse.ui.workbench.texteditor,3.7.0.v20110928-1504,"org.eclipse.ui.edit.text.goto.lineEnd",1359008856882
executed,command,org.eclipse.ui.workbench.texteditor,3.7.0.v20110928-1504,"org.eclipse.ui.edit.text.select.lineStart",1359008857223
executed,command,org.eclipse.ui,3.7.0.v20110928-1505,"org.eclipse.ui.edit.copy",1359008857514
executed,command,org.eclipse.ui,3.7.0.v20110928-1505,"org.eclipse.ui.edit.paste",1359008858318
deactivated,workbench,org.eclipse.ui.workbench,3.7.1.v20120104-1859,"",1359008858739
activated,workbench,org.eclipse.ui.workbench,3.7.1.v20120104-1859,"",1359008860207
deactivated,workbench,org.eclipse.ui.workbench,3.7.1.v20120104-1859,"",1359008865132
activated,workbench,org.eclipse.ui.workbench,3.7.1.v20120104-1859,"",1359008866573
executed,command,org.eclipse.ui.workbench.texteditor,3.7.0.v20110928-1504,"org.eclipse.ui.edit.text.goto.lineEnd",1359008870056
executed,command,org.eclipse.ui.workbench.texteditor,3.7.0.v20110928-1504,"org.eclipse.ui.edit.text.select.lineStart",1359008870299
executed,command,org.eclipse.ui,3.7.0.v20110928-1505,"org.eclipse.ui.edit.copy",1359008870450
executed,command,org.eclipse.ui,3.7.0.v20110928-1505,"org.eclipse.ui.edit.paste",1359008871030
deactivated,workbench,org.eclipse.ui.workbench,3.7.1.v20120104-1859,"",1359008871358
activated,workbench,org.eclipse.ui.workbench,3.7.1.v20120104-1859,"",1359008876917
executed,command,org.eclipse.ui.workbench.texteditor,3.7.0.v20110928-1504,"org.eclipse.ui.edit.text.select.lineEnd",1359008909093
executed,command,org.eclipse.ui,3.7.0.v20110928-1505,"org.eclipse.ui.edit.copy",1359008909363
executed,command,org.eclipse.ui,3.7.0.v20110928-1505,"org.eclipse.ui.edit.paste",1359008909990
executed,command,org.eclipse.ui,3.7.0.v20110928-1505,"org.eclipse.ui.edit.copy",1359008920186
deactivated,workbench,org.eclipse.ui.workbench,3.7.1.v20120104-1859,"",1359008928750
activated,workbench,org.eclipse.ui.workbench,3.7.1.v20120104-1859,"",1359008933916
executed,command,org.eclipse.ui,3.7.0.v20110928-1505,"org.eclipse.ui.edit.paste",1359008936741
executed,command,org.eclipse.ui.workbench.texteditor,3.7.0.v20110928-1504,"org.eclipse.ui.edit.text.upperCase",1359008938137
executed,command,org.eclipse.ui,3.7.0.v20110928-1505,"org.eclipse.ui.edit.paste",1359008939790
deactivated,workbench,org.eclipse.ui.workbench,3.7.1.v20120104-1859,"",1359008940714
activated,workbench,org.eclipse.ui.workbench,3.7.1.v20120104-1859,"",1359008967349
deactivated,workbench,org.eclipse.ui.workbench,3.7.1.v20120104-1859,"",1359008967750
activated,workbench,org.eclipse.ui.workbench,3.7.1.v20120104-1859,"",1359008968709
deactivated,workbench,org.eclipse.ui.workbench,3.7.1.v20120104-1859,"",1359008971868
activated,workbench,org.eclipse.ui.workbench,3.7.1.v20120104-1859,"",1359008973449
deactivated,workbench,org.eclipse.ui.workbench,3.7.1.v20120104-1859,"",1359008977642
activated,workbench,org.eclipse.ui.workbench,3.7.1.v20120104-1859,"",1359008978174
executed,command,org.eclipse.ui.workbench.texteditor,3.7.0.v20110928-1504,"org.eclipse.ui.edit.text.upperCase",1359008981265
deactivated,workbench,org.eclipse.ui.workbench,3.7.1.v20120104-1859,"",1359008982032
activated,workbench,org.eclipse.ui.workbench,3.7.1.v20120104-1859,"",1359008988894
deactivated,workbench,org.eclipse.ui.workbench,3.7.1.v20120104-1859,"",1359008995787
activated,workbench,org.eclipse.ui.workbench,3.7.1.v20120104-1859,"",1359009000939
deactivated,workbench,org.eclipse.ui.workbench,3.7.1.v20120104-1859,"",1359009002933
activated,workbench,org.eclipse.ui.workbench,3.7.1.v20120104-1859,"",1359009004542
deactivated,workbench,org.eclipse.ui.workbench,3.7.1.v20120104-1859,"",1359009005356
activated,workbench,org.eclipse.ui.workbench,3.7.1.v20120104-1859,"",1359009005948
deactivated,workbench,org.eclipse.ui.workbench,3.7.1.v20120104-1859,"",1359009011617
activated,workbench,org.eclipse.ui.workbench,3.7.1.v20120104-1859,"",1359009014325
deactivated,workbench,org.eclipse.ui.workbench,3.7.1.v20120104-1859,"",1359009018877
activated,workbench,org.eclipse.ui.workbench,3.7.1.v20120104-1859,"",1359009021427
deactivated,workbench,org.eclipse.ui.workbench,3.7.1.v20120104-1859,"",1359009025517
activated,workbench,org.eclipse.ui.workbench,3.7.1.v20120104-1859,"",1359009027407
deactivated,workbench,org.eclipse.ui.workbench,3.7.1.v20120104-1859,"",1359009033077
activated,workbench,org.eclipse.ui.workbench,3.7.1.v20120104-1859,"",1359009035026
deactivated,workbench,org.eclipse.ui.workbench,3.7.1.v20120104-1859,"",1359009036808
activated,workbench,org.eclipse.ui.workbench,3.7.1.v20120104-1859,"",1359009038715
deactivated,workbench,org.eclipse.ui.workbench,3.7.1.v20120104-1859,"",1359009055375
activated,workbench,org.eclipse.ui.workbench,3.7.1.v20120104-1859,"",1359009057511
deactivated,workbench,org.eclipse.ui.workbench,3.7.1.v20120104-1859,"",1359009073238
activated,workbench,org.eclipse.ui.workbench,3.7.1.v20120104-1859,"",1359009077110
executed,command,org.eclipse.ui.workbench.texteditor,3.7.0.v20110928-1504,"org.eclipse.ui.edit.text.select.lineStart",1359009084307
executed,command,org.eclipse.ui,3.7.0.v20110928-1505,"org.eclipse.ui.edit.copy",1359009084560
executed,command,org.eclipse.ui,3.7.0.v20110928-1505,"org.eclipse.ui.edit.paste",1359009085247
executed,command,org.eclipse.ui,3.7.0.v20110928-1505,"org.eclipse.ui.edit.copy",1359009093811
executed,command,org.eclipse.ui.workbench.texteditor,3.7.0.v20110928-1504,"org.eclipse.ui.edit.text.select.lineEnd",1359009096210
executed,command,org.eclipse.ui,3.7.0.v20110928-1505,"org.eclipse.ui.edit.paste",1359009097080
executed,command,org.eclipse.ui,3.7.0.v20110928-1505,"org.eclipse.ui.edit.undo",1359009098285
deactivated,workbench,org.eclipse.ui.workbench,3.7.1.v20120104-1859,"",1359009103524
activated,workbench,org.eclipse.ui.workbench,3.7.1.v20120104-1859,"",1359009104449
executed,command,org.eclipse.ui,3.7.0.v20110928-1505,"org.eclipse.ui.edit.copy",1359009106045
executed,command,org.eclipse.ui,3.7.0.v20110928-1505,"org.eclipse.ui.edit.undo",1359009109587
executed,command,org.eclipse.ui,3.7.0.v20110928-1505,"org.eclipse.ui.edit.redo",1359009110476
executed,command,org.eclipse.ui,3.7.0.v20110928-1505,"org.eclipse.ui.edit.paste",1359009116661
executed,command,org.eclipse.ui,3.7.0.v20110928-1505,"org.eclipse.ui.edit.undo",1359009119855
executed,command,org.eclipse.ui,3.7.0.v20110928-1505,"org.eclipse.ui.edit.paste",1359009121012
deactivated,workbench,org.eclipse.ui.workbench,3.7.1.v20120104-1859,"",1359009122287
activated,workbench,org.eclipse.ui.workbench,3.7.1.v20120104-1859,"",1359009126063
executed,command,org.eclipse.ui.workbench.texteditor,3.7.0.v20110928-1504,"org.eclipse.ui.edit.text.goto.lineEnd",1359009134448
executed,command,org.eclipse.ui.workbench.texteditor,3.7.0.v20110928-1504,"org.eclipse.ui.edit.text.goto.lineStart",1359009136664
executed,command,org.eclipse.ui.workbench.texteditor,3.7.0.v20110928-1504,"org.eclipse.ui.edit.text.select.lineStart",1359009138720
executed,command,org.eclipse.ui,3.7.0.v20110928-1505,"org.eclipse.ui.edit.undo",1359009141293
executed,command,org.eclipse.ui,3.7.0.v20110928-1505,"org.eclipse.ui.edit.undo",1359009141726
executed,command,org.eclipse.ui.workbench.texteditor,3.7.0.v20110928-1504,"org.eclipse.ui.edit.text.goto.lineEnd",1359009142907
executed,command,org.eclipse.ui.workbench.texteditor,3.7.0.v20110928-1504,"org.eclipse.ui.edit.text.goto.lineStart",1359009144015
executed,command,org.eclipse.ui.workbench.texteditor,3.7.0.v20110928-1504,"org.eclipse.ui.edit.text.goto.lineEnd",1359009146579
executed,command,org.eclipse.ui.workbench.texteditor,3.7.0.v20110928-1504,"org.eclipse.ui.edit.text.select.lineStart",1359009146840
executed,command,org.eclipse.ui,3.7.0.v20110928-1505,"org.eclipse.ui.edit.copy",1359009147095
executed,command,org.eclipse.ui,3.7.0.v20110928-1505,"org.eclipse.ui.edit.paste",1359009147835
deactivated,workbench,org.eclipse.ui.workbench,3.7.1.v20120104-1859,"",1359009148796
activated,workbench,org.eclipse.ui.workbench,3.7.1.v20120104-1859,"",1359009151254
deactivated,workbench,org.eclipse.ui.workbench,3.7.1.v20120104-1859,"",1359009152418
activated,workbench,org.eclipse.ui.workbench,3.7.1.v20120104-1859,"",1359009156766
executed,command,org.eclipse.ui.workbench.texteditor,3.7.0.v20110928-1504,"org.eclipse.ui.edit.text.select.lineStart",1359009157825
executed,command,org.eclipse.ui,3.7.0.v20110928-1505,"org.eclipse.ui.edit.cut",1359009171687
executed,command,org.eclipse.ui.workbench.texteditor,3.7.0.v20110928-1504,"org.eclipse.ui.edit.text.goto.lineEnd",1359009174603
executed,command,org.eclipse.ui,3.7.0.v20110928-1505,"org.eclipse.ui.edit.paste",1359009175661
deactivated,workbench,org.eclipse.ui.workbench,3.7.1.v20120104-1859,"",1359009176830
activated,workbench,org.eclipse.ui.workbench,3.7.1.v20120104-1859,"",1359009177137
deactivated,workbench,org.eclipse.ui.workbench,3.7.1.v20120104-1859,"",1359009178220
activated,workbench,org.eclipse.ui.workbench,3.7.1.v20120104-1859,"",1359009184742
deactivated,workbench,org.eclipse.ui.workbench,3.7.1.v20120104-1859,"",1359009187448
activated,workbench,org.eclipse.ui.workbench,3.7.1.v20120104-1859,"",1359009189218
executed,command,org.eclipse.ui,3.7.0.v20110928-1505,"org.eclipse.ui.edit.text.contentAssist.proposals",1359009189995
executed,command,org.eclipse.ui,3.7.0.v20110928-1505,"org.eclipse.ui.edit.undo",1359009198868
executed,command,org.eclipse.ui.workbench.texteditor,3.7.0.v20110928-1504,"org.eclipse.ui.edit.text.goto.lineEnd",1359009199594
deactivated,workbench,org.eclipse.ui.workbench,3.7.1.v20120104-1859,"",1359009200430
activated,workbench,org.eclipse.ui.workbench,3.7.1.v20120104-1859,"",1359009204643
deactivated,workbench,org.eclipse.ui.workbench,3.7.1.v20120104-1859,"",1359009207772
activated,workbench,org.eclipse.ui.workbench,3.7.1.v20120104-1859,"",1359009208297
deactivated,workbench,org.eclipse.ui.workbench,3.7.1.v20120104-1859,"",1359009248769
activated,workbench,org.eclipse.ui.workbench,3.7.1.v20120104-1859,"",1359009255790
executed,command,org.eclipse.ui,3.7.0.v20110928-1505,"org.eclipse.ui.edit.copy",1359009266696
executed,command,org.eclipse.ui.workbench.texteditor,3.7.0.v20110928-1504,"org.eclipse.ui.edit.text.select.lineStart",1359009273458
executed,command,org.eclipse.ui,3.7.0.v20110928-1505,"org.eclipse.ui.edit.paste",1359009275453
executed,command,org.eclipse.ui,3.7.0.v20110928-1505,"org.eclipse.ui.edit.undo",1359009276797
executed,command,org.eclipse.ui.workbench.texteditor,3.7.0.v20110928-1504,"org.eclipse.ui.edit.text.select.lineEnd",1359009280266
executed,command,org.eclipse.ui,3.7.0.v20110928-1505,"org.eclipse.ui.edit.paste",1359009280541
deactivated,workbench,org.eclipse.ui.workbench,3.7.1.v20120104-1859,"",1359009281569
activated,workbench,org.eclipse.ui.workbench,3.7.1.v20120104-1859,"",1359009285700
executed,command,org.eclipse.ui,3.7.0.v20110928-1505,"org.eclipse.ui.edit.text.contentAssist.proposals",1359009290526
executed,command,org.eclipse.ui,3.7.0.v20110928-1505,"org.eclipse.ui.file.save",1359009295696
executed,command,org.eclipse.ui,3.7.0.v20110928-1505,"org.eclipse.ui.edit.copy",1359009297402
activated,editor,org.eclipse.jdt.ui,3.7.2.v20120109-1427,"org.eclipse.jdt.ui.CompilationUnitEditor",1359009300297
activated,editor,org.eclipse.jdt.ui,3.7.2.v20120109-1427,"org.eclipse.jdt.ui.CompilationUnitEditor",1359009308666
activated,editor,org.eclipse.jdt.ui,3.7.2.v20120109-1427,"org.eclipse.jdt.ui.CompilationUnitEditor",1359009311567
executed,command,org.eclipse.ui,3.7.0.v20110928-1505,"org.eclipse.ui.navigate.backwardHistory",1359009311573
executed,command,org.eclipse.ui.workbench.texteditor,3.7.0.v20110928-1504,"org.eclipse.ui.edit.text.select.lineStart",1359009317471
executed,command,org.eclipse.ui,3.7.0.v20110928-1505,"org.eclipse.ui.edit.cut",1359009317941
executed,command,org.eclipse.ui,3.7.0.v20110928-1505,"org.eclipse.ui.edit.paste",1359009320226
activated,editor,org.eclipse.jdt.ui,3.7.2.v20120109-1427,"org.eclipse.jdt.ui.CompilationUnitEditor",1359009327197
executed,command,org.eclipse.ui,3.7.0.v20110928-1505,"org.eclipse.ui.edit.text.contentAssist.proposals",1359009343273
deactivated,workbench,org.eclipse.ui.workbench,3.7.1.v20120104-1859,"",1359009374152
activated,workbench,org.eclipse.ui.workbench,3.7.1.v20120104-1859,"",1359009377122
deactivated,workbench,org.eclipse.ui.workbench,3.7.1.v20120104-1859,"",1359009378090
activated,workbench,org.eclipse.ui.workbench,3.7.1.v20120104-1859,"",1359009392481
executed,command,org.eclipse.ui,3.7.0.v20110928-1505,"org.eclipse.ui.edit.undo",1359009402494
executed,command,org.eclipse.ui,3.7.0.v20110928-1505,"org.eclipse.ui.edit.redo",1359009403286
executed,command,org.eclipse.ui.workbench.texteditor,3.7.0.v20110928-1504,"org.eclipse.ui.edit.text.select.lineEnd",1359009415202
executed,command,org.eclipse.ui,3.7.0.v20110928-1505,"org.eclipse.ui.edit.copy",1359009416668
executed,command,org.eclipse.ui,3.7.0.v20110928-1505,"org.eclipse.ui.edit.undo",1359009417299
executed,command,org.eclipse.ui,3.7.0.v20110928-1505,"org.eclipse.ui.edit.redo",1359009417851
executed,command,org.eclipse.ui,3.7.0.v20110928-1505,"org.eclipse.ui.edit.paste",1359009422600
deactivated,workbench,org.eclipse.ui.workbench,3.7.1.v20120104-1859,"",1359009428265
activated,workbench,org.eclipse.ui.workbench,3.7.1.v20120104-1859,"",1359009428800
executed,command,org.eclipse.ui,3.7.0.v20110928-1505,"org.eclipse.ui.edit.text.contentAssist.proposals",1359009431549
executed,command,org.eclipse.ui,3.7.0.v20110928-1505,"org.eclipse.ui.edit.cut",1359009453154
executed,command,org.eclipse.ui,3.7.0.v20110928-1505,"org.eclipse.ui.edit.paste",1359009465495
executed,command,org.eclipse.ui.workbench.texteditor,3.7.0.v20110928-1504,"org.eclipse.ui.edit.text.goto.lineEnd",1359009480980
executed,command,org.eclipse.ui,3.7.0.v20110928-1505,"org.eclipse.ui.edit.copy",1359009493184
executed,command,org.eclipse.ui,3.7.0.v20110928-1505,"org.eclipse.ui.edit.paste",1359009495422
executed,command,org.eclipse.ui,3.7.0.v20110928-1505,"org.eclipse.ui.file.save",1359009524452
deactivated,workbench,org.eclipse.ui.workbench,3.7.1.v20120104-1859,"",1359009533266
activated,workbench,org.eclipse.ui.workbench,3.7.1.v20120104-1859,"",1359009535913
executed,command,org.eclipse.ui,3.7.0.v20110928-1505,"org.eclipse.ui.edit.copy",1359009544154
activated,editor,org.eclipse.jdt.ui,3.7.2.v20120109-1427,"org.eclipse.jdt.ui.CompilationUnitEditor",1359009544697
executed,command,org.eclipse.ui,3.7.0.v20110928-1505,"org.eclipse.ui.edit.paste",1359009549383
executed,command,org.eclipse.ui,3.7.0.v20110928-1505,"org.eclipse.ui.edit.undo",1359009550680
executed,command,org.eclipse.ui,3.7.0.v20110928-1505,"org.eclipse.ui.edit.paste",1359009553615
executed,command,org.eclipse.ui,3.7.0.v20110928-1505,"org.eclipse.ui.edit.text.contentAssist.proposals",1359009556934
executed,command,org.eclipse.ui,3.7.0.v20110928-1505,"org.eclipse.ui.edit.paste",1359009559836
activated,editor,org.eclipse.jdt.ui,3.7.2.v20120109-1427,"org.eclipse.jdt.ui.CompilationUnitEditor",1359009568706
executed,command,org.eclipse.ui,3.7.0.v20110928-1505,"org.eclipse.ui.edit.copy",1359009571990
executed,command,org.eclipse.ui,3.7.0.v20110928-1505,"org.eclipse.ui.edit.cut",1359009574135
executed,command,org.eclipse.ui,3.7.0.v20110928-1505,"org.eclipse.ui.file.save",1359009575597
executed,command,org.eclipse.ui,3.7.0.v20110928-1505,"org.eclipse.ui.edit.copy",1359009576608
activated,editor,org.eclipse.jdt.ui,3.7.2.v20120109-1427,"org.eclipse.jdt.ui.CompilationUnitEditor",1359009577194
executed,command,org.eclipse.ui,3.7.0.v20110928-1505,"org.eclipse.ui.file.save",1359009581504
deactivated,workbench,org.eclipse.ui.workbench,3.7.1.v20120104-1859,"",1359009584807
error,log,,,"File not found: /Users/pky1030/Downloads/youandme/org.opros.tpl.scenario/META-INF/MANIFEST.MF.",1359009595709
error,log,,,"File not found: /Users/pky1030/Downloads/youandme/org.opros.tpl.taskmodel/META-INF/MANIFEST.MF.",1359009595806
error,log,,,"File not found: /Users/pky1030/Downloads/youandme/org.opros.tpl/META-INF/MANIFEST.MF.",1359009595807
error,log,,,"File not found: /Users/pky1030/Downloads/youandme/org.opros.tpl.taskmodel.edit/META-INF/MANIFEST.MF.",1359009595808
activated,workbench,org.eclipse.ui.workbench,3.7.1.v20120104-1859,"",1359009607058
deactivated,workbench,org.eclipse.ui.workbench,3.7.1.v20120104-1859,"",1359009611581
activated,workbench,org.eclipse.ui.workbench,3.7.1.v20120104-1859,"",1359009615172
activated,editor,org.eclipse.jdt.ui,3.7.2.v20120109-1427,"org.eclipse.jdt.ui.CompilationUnitEditor",1359009615497
activated,view,org.eclipse.debug.ui,3.7.102.v20111129-1423_r372,"org.eclipse.debug.ui.DebugView",1359009619049
executed,command,org.eclipse.debug.ui,3.7.102.v20111129-1423_r372,"org.eclipse.debug.ui.commands.Resume",1359009619149
activated,view,org.eclipse.ui.console,3.5.100.v20111007_r372,"org.eclipse.ui.console.ConsoleView",1359009621808
activated,editor,org.eclipse.jdt.ui,3.7.2.v20120109-1427,"org.eclipse.jdt.ui.CompilationUnitEditor",1359009629298
executed,command,,,"AUTOGEN:::org.eclipse.jdt.debug.CompilationUnitEditor.BreakpointRulerActions/org.eclipse.jdt.debug.ui.actions.ManageBreakpointRulerAction",1359009645163
deactivated,workbench,org.eclipse.ui.workbench,3.7.1.v20120104-1859,"",1359009645722
activated,workbench,org.eclipse.ui.workbench,3.7.1.v20120104-1859,"",1359009647672
activated,view,org.eclipse.debug.ui,3.7.102.v20111129-1423_r372,"org.eclipse.debug.ui.DebugView",1359009648893
executed,command,org.eclipse.debug.ui,3.7.102.v20111129-1423_r372,"org.eclipse.debug.ui.commands.StepOver",1359009648986
activated,editor,org.eclipse.jdt.ui,3.7.2.v20120109-1427,"org.eclipse.jdt.ui.CompilationUnitEditor",1359009651177
executed,command,,,"AUTOGEN:::org.eclipse.jdt.debug.CompilationUnitEditor.BreakpointRulerActions/org.eclipse.jdt.debug.ui.actions.ManageBreakpointRulerAction",1359009653685
activated,view,org.eclipse.debug.ui,3.7.102.v20111129-1423_r372,"org.eclipse.debug.ui.DebugView",1359009654819
executed,command,org.eclipse.debug.ui,3.7.102.v20111129-1423_r372,"org.eclipse.debug.ui.commands.Resume",1359009654912
executed,command,org.eclipse.debug.ui,3.7.102.v20111129-1423_r372,"org.eclipse.debug.ui.commands.StepOver",1359009657176
activated,view,org.eclipse.debug.ui,3.7.102.v20111129-1423_r372,"org.eclipse.debug.ui.VariableView",1359009658179
executed,command,org.eclipse.ui,3.7.0.v20110928-1505,"org.eclipse.ui.edit.copy",1359009662202
activated,editor,org.eclipse.jdt.ui,3.7.2.v20120109-1427,"org.eclipse.jdt.ui.CompilationUnitEditor",1359009667260
executed,command,org.eclipse.ui,3.7.0.v20110928-1505,"org.eclipse.ui.file.save",1359009671603
activated,view,org.eclipse.debug.ui,3.7.102.v20111129-1423_r372,"org.eclipse.debug.ui.DebugView",1359009674294
executed,command,org.eclipse.debug.ui,3.7.102.v20111129-1423_r372,"org.eclipse.debug.ui.commands.Resume",1359009674388
executed,command,org.eclipse.debug.ui,3.7.102.v20111129-1423_r372,"org.eclipse.debug.ui.commands.Resume",1359009676558
activated,editor,org.eclipse.jdt.ui,3.7.2.v20120109-1427,"org.eclipse.jdt.ui.CompilationUnitEditor",1359009688822
executed,command,org.eclipse.ui,3.7.0.v20110928-1505,"org.eclipse.ui.file.save",1359009697394
activated,view,org.eclipse.debug.ui,3.7.102.v20111129-1423_r372,"org.eclipse.debug.ui.DebugView",1359009699714
executed,command,org.eclipse.debug.ui,3.7.102.v20111129-1423_r372,"org.eclipse.debug.ui.commands.StepOver",1359009699823
executed,command,org.eclipse.debug.ui,3.7.102.v20111129-1423_r372,"org.eclipse.debug.ui.commands.Resume",1359009702054
executed,command,org.eclipse.debug.ui,3.7.102.v20111129-1423_r372,"org.eclipse.debug.ui.commands.StepOver",1359009703512
activated,editor,org.eclipse.jdt.ui,3.7.2.v20120109-1427,"org.eclipse.jdt.ui.CompilationUnitEditor",1359009705960
executed,command,org.eclipse.ui,3.7.0.v20110928-1505,"org.eclipse.ui.file.save",1359009710671
activated,view,org.eclipse.debug.ui,3.7.102.v20111129-1423_r372,"org.eclipse.debug.ui.DebugView",1359009712823
executed,command,org.eclipse.debug.ui,3.7.102.v20111129-1423_r372,"org.eclipse.debug.ui.commands.Resume",1359009712954
executed,command,org.eclipse.debug.ui,3.7.102.v20111129-1423_r372,"org.eclipse.debug.ui.commands.StepOver",1359009715017
activated,view,org.eclipse.debug.ui,3.7.102.v20111129-1423_r372,"org.eclipse.debug.ui.VariableView",1359009716229
activated,view,org.eclipse.debug.ui,3.7.102.v20111129-1423_r372,"org.eclipse.debug.ui.DebugView",1359009718489
executed,command,org.eclipse.debug.ui,3.7.102.v20111129-1423_r372,"org.eclipse.debug.ui.commands.StepOver",1359009718620
activated,view,org.eclipse.debug.ui,3.7.102.v20111129-1423_r372,"org.eclipse.debug.ui.VariableView",1359009721100
executed,command,org.eclipse.ui,3.7.0.v20110928-1505,"org.eclipse.ui.edit.copy",1359009722489
deactivated,workbench,org.eclipse.ui.workbench,3.7.1.v20120104-1859,"",1359009723928
activated,workbench,org.eclipse.ui.workbench,3.7.1.v20120104-1859,"",1359009727230
activated,view,org.eclipse.debug.ui,3.7.102.v20111129-1423_r372,"org.eclipse.debug.ui.DebugView",1359009728853
executed,command,org.eclipse.debug.ui,3.7.102.v20111129-1423_r372,"org.eclipse.debug.ui.commands.StepOver",1359009728939
executed,command,org.eclipse.debug.ui,3.7.102.v20111129-1423_r372,"org.eclipse.debug.ui.commands.StepOver",1359009729734
executed,command,org.eclipse.debug.ui,3.7.102.v20111129-1423_r372,"org.eclipse.debug.ui.commands.StepOver",1359009730349
executed,command,org.eclipse.debug.ui,3.7.102.v20111129-1423_r372,"org.eclipse.debug.ui.commands.StepOver",1359009731014
executed,command,org.eclipse.debug.ui,3.7.102.v20111129-1423_r372,"org.eclipse.debug.ui.commands.StepOver",1359009731766
executed,command,org.eclipse.debug.ui,3.7.102.v20111129-1423_r372,"org.eclipse.debug.ui.commands.StepOver",1359009732455
executed,command,org.eclipse.debug.ui,3.7.102.v20111129-1423_r372,"org.eclipse.debug.ui.commands.StepOver",1359009733160
executed,command,org.eclipse.debug.ui,3.7.102.v20111129-1423_r372,"org.eclipse.debug.ui.commands.StepOver",1359009733949
executed,command,org.eclipse.debug.ui,3.7.102.v20111129-1423_r372,"org.eclipse.debug.ui.commands.Resume",1359009743863
activated,editor,org.eclipse.jdt.ui,3.7.2.v20120109-1427,"org.eclipse.jdt.ui.CompilationUnitEditor",1359009752223
executed,command,,,"AUTOGEN:::org.eclipse.jdt.debug.CompilationUnitEditor.BreakpointRulerActions/org.eclipse.jdt.debug.ui.actions.ManageBreakpointRulerAction",1359009752472
deactivated,workbench,org.eclipse.ui.workbench,3.7.1.v20120104-1859,"",1359009753416
activated,workbench,org.eclipse.ui.workbench,3.7.1.v20120104-1859,"",1359009775395
deactivated,workbench,org.eclipse.ui.workbench,3.7.1.v20120104-1859,"",1359009778554
activated,workbench,org.eclipse.ui.workbench,3.7.1.v20120104-1859,"",1359009787916
activated,view,org.eclipse.debug.ui,3.7.102.v20111129-1423_r372,"org.eclipse.debug.ui.DebugView",1359009790895
