what,kind,bundleId,bundleVersion,description,time
executed,command,org.eclipse.ui,3.7.0.v20110928-1505,"org.eclipse.ui.edit.copy",1351084659609
executed,command,org.eclipse.jdt.ui,3.7.2.v20120109-1427,"org.eclipse.jdt.ui.edit.text.java.organize.imports",1351084660629
executed,command,org.eclipse.ui,3.7.0.v20110928-1505,"org.eclipse.ui.file.save",1351084661337
executed,command,org.eclipse.ui,3.7.0.v20110928-1505,"org.eclipse.ui.edit.copy",1351084662257
activated,view,org.eclipse.jdt.ui,3.7.2.v20120109-1427,"org.eclipse.jdt.ui.PackageExplorer",1351084673353
activated,editor,org.eclipse.jdt.ui,3.7.2.v20120109-1427,"org.eclipse.jdt.ui.CompilationUnitEditor",1351084676563
executed,command,org.eclipse.ui,3.7.0.v20110928-1505,"org.eclipse.ui.edit.text.contentAssist.proposals",1351084684200
executed,command,org.eclipse.ui,3.7.0.v20110928-1505,"org.eclipse.ui.edit.text.contentAssist.proposals",1351084697864
executed,command,org.eclipse.ui,3.7.0.v20110928-1505,"org.eclipse.ui.edit.copy",1351084701495
executed,command,org.eclipse.ui,3.7.0.v20110928-1505,"org.eclipse.ui.edit.paste",1351084702687
executed,command,org.eclipse.ui,3.7.0.v20110928-1505,"org.eclipse.ui.file.save",1351084705126
activated,editor,org.eclipse.jdt.ui,3.7.2.v20120109-1427,"org.eclipse.jdt.ui.CompilationUnitEditor",1351084709172
activated,editor,org.eclipse.jdt.ui,3.7.2.v20120109-1427,"org.eclipse.jdt.ui.CompilationUnitEditor",1351084711145
executed,command,org.eclipse.ui,3.7.0.v20110928-1505,"org.eclipse.ui.navigate.backwardHistory",1351084711161
activated,editor,org.eclipse.jdt.ui,3.7.2.v20120109-1427,"org.eclipse.jdt.ui.CompilationUnitEditor",1351084716980
activated,editor,org.eclipse.jdt.ui,3.7.2.v20120109-1427,"org.eclipse.jdt.ui.CompilationUnitEditor",1351084720102
executed,command,org.eclipse.ui,3.7.0.v20110928-1505,"org.eclipse.ui.edit.copy",1351084721795
activated,view,org.eclipse.jdt.ui,3.7.2.v20120109-1427,"org.eclipse.jdt.ui.PackageExplorer",1351084723409
activated,editor,org.eclipse.jdt.ui,3.7.2.v20120109-1427,"org.eclipse.jdt.ui.CompilationUnitEditor",1351084723803
executed,command,org.eclipse.ui,3.7.0.v20110928-1505,"org.eclipse.ui.edit.copy",1351084730816
executed,command,org.eclipse.ui,3.7.0.v20110928-1505,"org.eclipse.ui.edit.paste",1351084735387
executed,command,org.eclipse.ui,3.7.0.v20110928-1505,"org.eclipse.ui.edit.undo",1351084736293
executed,command,org.eclipse.ui,3.7.0.v20110928-1505,"org.eclipse.ui.file.save",1351084738629
executed,command,org.eclipse.ui,3.7.0.v20110928-1505,"org.eclipse.ui.edit.text.contentAssist.proposals",1351084746358
executed,command,org.eclipse.ui,3.7.0.v20110928-1505,"org.eclipse.ui.edit.text.contentAssist.proposals",1351084748013
executed,command,org.eclipse.ui.workbench.texteditor,3.7.0.v20110928-1504,"org.eclipse.ui.edit.text.select.lineStart",1351084751434
executed,command,org.eclipse.ui,3.7.0.v20110928-1505,"org.eclipse.ui.file.save",1351084752566
activated,editor,org.eclipse.jdt.ui,3.7.2.v20120109-1427,"org.eclipse.jdt.ui.CompilationUnitEditor",1351084756543
activated,editor,org.eclipse.jdt.ui,3.7.2.v20120109-1427,"org.eclipse.jdt.ui.CompilationUnitEditor",1351084764652
activated,editor,org.eclipse.jdt.ui,3.7.2.v20120109-1427,"org.eclipse.jdt.ui.CompilationUnitEditor",1351084768833
activated,view,org.eclipse.search,3.7.0.v20110928-1504,"org.eclipse.search.ui.views.SearchView",1351084773415
activated,editor,org.eclipse.jdt.ui,3.7.2.v20120109-1427,"org.eclipse.jdt.ui.CompilationUnitEditor",1351084779313
executed,command,org.eclipse.ui.workbench.texteditor,3.7.0.v20110928-1504,"org.eclipse.ui.edit.text.select.lineEnd",1351084781552
executed,command,org.eclipse.ui,3.7.0.v20110928-1505,"org.eclipse.ui.edit.copy",1351084782202
activated,editor,org.eclipse.jdt.ui,3.7.2.v20120109-1427,"org.eclipse.jdt.ui.CompilationUnitEditor",1351084790028
executed,command,org.eclipse.ui,3.7.0.v20110928-1505,"org.eclipse.ui.file.save",1351084798304
activated,view,org.eclipse.jdt.ui,3.7.2.v20120109-1427,"org.eclipse.jdt.ui.PackageExplorer",1351084800050
activated,editor,org.eclipse.jdt.ui,3.7.2.v20120109-1427,"org.eclipse.jdt.ui.CompilationUnitEditor",1351084802164
executed,command,org.eclipse.ui,3.7.0.v20110928-1505,"org.eclipse.ui.file.save",1351084804037
activated,view,org.eclipse.jdt.ui,3.7.2.v20120109-1427,"org.eclipse.jdt.ui.PackageExplorer",1351084807484
activated,editor,org.eclipse.jdt.ui,3.7.2.v20120109-1427,"org.eclipse.jdt.ui.CompilationUnitEditor",1351084834184
executed,command,org.eclipse.ui,3.7.0.v20110928-1505,"org.eclipse.ui.edit.paste",1351084835335
executed,command,org.eclipse.jdt.ui,3.7.2.v20120109-1427,"org.eclipse.jdt.ui.edit.text.java.organize.imports",1351084837812
deactivated,workbench,org.eclipse.ui.workbench,3.7.1.v20120104-1859,"",1351084845362
activated,workbench,org.eclipse.ui.workbench,3.7.1.v20120104-1859,"",1351084848840
activated,editor,org.eclipse.jdt.ui,3.7.2.v20120109-1427,"org.eclipse.jdt.ui.CompilationUnitEditor",1351084848969
executed,command,org.eclipse.ui.ide,3.7.0.v20110928-1505,"org.eclipse.ui.navigate.openResource",1351084848973
deactivated,workbench,org.eclipse.ui.workbench,3.7.1.v20120104-1859,"",1351084849915
executed,command,org.eclipse.ui,3.7.0.v20110928-1505,"org.eclipse.ui.edit.findReplace",1351084849962
activated,workbench,org.eclipse.ui.workbench,3.7.1.v20120104-1859,"",1351084853596
executed,command,org.eclipse.ui,3.7.0.v20110928-1505,"org.eclipse.ui.edit.copy",1351084858305
activated,view,org.eclipse.jdt.ui,3.7.2.v20120109-1427,"org.eclipse.jdt.ui.PackageExplorer",1351084861274
activated,editor,org.eclipse.jdt.ui,3.7.2.v20120109-1427,"org.eclipse.jdt.ui.CompilationUnitEditor",1351084865496
executed,command,org.eclipse.ui,3.7.0.v20110928-1505,"org.eclipse.ui.edit.paste",1351084866723
executed,command,org.eclipse.ui,3.7.0.v20110928-1505,"org.eclipse.ui.file.save",1351084868250
activated,editor,org.eclipse.jdt.ui,3.7.2.v20120109-1427,"org.eclipse.jdt.ui.CompilationUnitEditor",1351084869410
executed,command,org.eclipse.ui,3.7.0.v20110928-1505,"org.eclipse.ui.edit.copy",1351084873164
activated,view,org.eclipse.search,3.7.0.v20110928-1504,"org.eclipse.search.ui.views.SearchView",1351084873797
activated,editor,org.eclipse.jdt.ui,3.7.2.v20120109-1427,"org.eclipse.jdt.ui.CompilationUnitEditor",1351084877120
executed,command,org.eclipse.ui,3.7.0.v20110928-1505,"org.eclipse.ui.edit.copy",1351084878343
activated,editor,org.eclipse.jdt.ui,3.7.2.v20120109-1427,"org.eclipse.jdt.ui.CompilationUnitEditor",1351084880286
executed,command,org.eclipse.ui,3.7.0.v20110928-1505,"org.eclipse.ui.navigate.backwardHistory",1351084880304
executed,command,org.eclipse.ui.workbench.texteditor,3.7.0.v20110928-1504,"org.eclipse.ui.edit.text.goto.lineEnd",1351084881521
executed,command,org.eclipse.ui,3.7.0.v20110928-1505,"org.eclipse.ui.edit.paste",1351084882129
executed,command,org.eclipse.ui.workbench.texteditor,3.7.0.v20110928-1504,"org.eclipse.ui.edit.text.select.lineEnd",1351084886470
executed,command,org.eclipse.ui,3.7.0.v20110928-1505,"org.eclipse.ui.file.save",1351084888765
deactivated,workbench,org.eclipse.ui.workbench,3.7.1.v20120104-1859,"",1351084893307
activated,perspective,org.eclipse.debug.ui,3.7.102.v20111129-1423_r372,"org.eclipse.debug.ui.DebugPerspective",1351084895646
activated,workbench,org.eclipse.ui.workbench,3.7.1.v20120104-1859,"",1351084895919
activated,view,org.eclipse.debug.ui,3.7.102.v20111129-1423_r372,"org.eclipse.debug.ui.DebugView",1351084897816
executed,command,org.eclipse.debug.ui,3.7.102.v20111129-1423_r372,"org.eclipse.debug.ui.commands.Resume",1351084897957
activated,editor,org.eclipse.jdt.ui,3.7.2.v20120109-1427,"org.eclipse.jdt.ui.CompilationUnitEditor",1351084899690
executed,command,,,"AUTOGEN:::org.eclipse.jdt.internal.ui.CompilationUnitEditor.ruler.actions/org.eclipse.jdt.internal.ui.javaeditor.JavaSelectRulerAction",1351084900194
executed,command,,,"AUTOGEN:::org.eclipse.jdt.debug.CompilationUnitEditor.BreakpointRulerActions/org.eclipse.jdt.debug.ui.actions.ManageBreakpointRulerAction",1351084900639
deactivated,workbench,org.eclipse.ui.workbench,3.7.1.v20120104-1859,"",1351084900887
activated,workbench,org.eclipse.ui.workbench,3.7.1.v20120104-1859,"",1351084902997
activated,editor,org.eclipse.jdt.ui,3.7.2.v20120109-1427,"org.eclipse.jdt.ui.CompilationUnitEditor",1351084903252
activated,view,org.eclipse.debug.ui,3.7.102.v20111129-1423_r372,"org.eclipse.debug.ui.DebugView",1351084905767
executed,command,org.eclipse.debug.ui,3.7.102.v20111129-1423_r372,"org.eclipse.debug.ui.commands.Resume",1351084905870
activated,editor,org.eclipse.jdt.ui,3.7.2.v20120109-1427,"org.eclipse.jdt.ui.CompilationUnitEditor",1351084906933
executed,command,,,"AUTOGEN:::org.eclipse.jdt.debug.CompilationUnitEditor.BreakpointRulerActions/org.eclipse.jdt.debug.ui.actions.ManageBreakpointRulerAction",1351084907269
executed,command,,,"AUTOGEN:::org.eclipse.jdt.debug.CompilationUnitEditor.BreakpointRulerActions/org.eclipse.jdt.debug.ui.actions.ManageBreakpointRulerAction",1351084908206
executed,command,,,"AUTOGEN:::org.eclipse.jdt.debug.CompilationUnitEditor.BreakpointRulerActions/org.eclipse.jdt.debug.ui.actions.ManageBreakpointRulerAction",1351084909080
executed,command,,,"AUTOGEN:::org.eclipse.jdt.internal.ui.CompilationUnitEditor.ruler.actions/org.eclipse.jdt.internal.ui.javaeditor.JavaSelectRulerAction",1351084909999
executed,command,,,"AUTOGEN:::org.eclipse.jdt.debug.CompilationUnitEditor.BreakpointRulerActions/org.eclipse.jdt.debug.ui.actions.ManageBreakpointRulerAction",1351084910023
executed,command,,,"AUTOGEN:::org.eclipse.jdt.debug.CompilationUnitEditor.BreakpointRulerActions/org.eclipse.jdt.debug.ui.actions.ManageBreakpointRulerAction",1351084910891
deactivated,workbench,org.eclipse.ui.workbench,3.7.1.v20120104-1859,"",1351084911188
activated,workbench,org.eclipse.ui.workbench,3.7.1.v20120104-1859,"",1351084917298
executed,command,org.eclipse.ui,3.7.0.v20110928-1505,"org.eclipse.ui.navigate.backwardHistory",1351084917461
executed,command,org.eclipse.ui,3.7.0.v20110928-1505,"org.eclipse.ui.navigate.backwardHistory",1351084918037
activated,editor,org.eclipse.jdt.ui,3.7.2.v20120109-1427,"org.eclipse.jdt.ui.CompilationUnitEditor",1351084921095
activated,editor,org.eclipse.jdt.ui,3.7.2.v20120109-1427,"org.eclipse.jdt.ui.CompilationUnitEditor",1351084922071
executed,command,org.eclipse.ui,3.7.0.v20110928-1505,"org.eclipse.ui.edit.undo",1351084924200
executed,command,org.eclipse.ui,3.7.0.v20110928-1505,"org.eclipse.ui.edit.undo",1351084924628
executed,command,org.eclipse.ui,3.7.0.v20110928-1505,"org.eclipse.ui.file.save",1351084925162
deactivated,workbench,org.eclipse.ui.workbench,3.7.1.v20120104-1859,"",1351084925848
activated,workbench,org.eclipse.ui.workbench,3.7.1.v20120104-1859,"",1351084929090
deactivated,workbench,org.eclipse.ui.workbench,3.7.1.v20120104-1859,"",1351084932235
activated,workbench,org.eclipse.ui.workbench,3.7.1.v20120104-1859,"",1351084938234
activated,view,org.eclipse.ui.console,3.5.100.v20111007_r372,"org.eclipse.ui.console.ConsoleView",1351084939294
activated,editor,org.eclipse.jdt.ui,3.7.2.v20120109-1427,"org.eclipse.jdt.ui.CompilationUnitEditor",1351084939532
executed,command,org.eclipse.ui.workbench.texteditor,3.7.0.v20110928-1504,"org.eclipse.ui.edit.text.goto.lineStart",1351084941509
executed,command,org.eclipse.ui,3.7.0.v20110928-1505,"org.eclipse.ui.file.save",1351084942501
deactivated,workbench,org.eclipse.ui.workbench,3.7.1.v20120104-1859,"",1351084942876
activated,workbench,org.eclipse.ui.workbench,3.7.1.v20120104-1859,"",1351084948679
activated,view,org.eclipse.search,3.7.0.v20110928-1504,"org.eclipse.search.ui.views.SearchView",1351084953004
activated,editor,org.eclipse.jdt.ui,3.7.2.v20120109-1427,"org.eclipse.jdt.ui.CompilationUnitEditor",1351084958810
activated,editor,org.eclipse.jdt.ui,3.7.2.v20120109-1427,"org.eclipse.jdt.ui.CompilationUnitEditor",1351084968471
executed,command,org.eclipse.ui,3.7.0.v20110928-1505,"org.eclipse.ui.navigate.backwardHistory",1351084968484
deactivated,workbench,org.eclipse.ui.workbench,3.7.1.v20120104-1859,"",1351084982711
activated,workbench,org.eclipse.ui.workbench,3.7.1.v20120104-1859,"",1351084995970
deactivated,workbench,org.eclipse.ui.workbench,3.7.1.v20120104-1859,"",1351084997270
activated,workbench,org.eclipse.ui.workbench,3.7.1.v20120104-1859,"",1351085004666
activated,editor,org.eclipse.jdt.ui,3.7.2.v20120109-1427,"org.eclipse.jdt.ui.CompilationUnitEditor",1351085004784
executed,command,org.eclipse.ui.ide,3.7.0.v20110928-1505,"org.eclipse.ui.navigate.openResource",1351085004785
deactivated,workbench,org.eclipse.ui.workbench,3.7.1.v20120104-1859,"",1351085006269
activated,workbench,org.eclipse.ui.workbench,3.7.1.v20120104-1859,"",1351085007446
deactivated,workbench,org.eclipse.ui.workbench,3.7.1.v20120104-1859,"",1351085009771
activated,workbench,org.eclipse.ui.workbench,3.7.1.v20120104-1859,"",1351085012017
deactivated,workbench,org.eclipse.ui.workbench,3.7.1.v20120104-1859,"",1351085012403
activated,workbench,org.eclipse.ui.workbench,3.7.1.v20120104-1859,"",1351085014259
deactivated,workbench,org.eclipse.ui.workbench,3.7.1.v20120104-1859,"",1351085014822
activated,workbench,org.eclipse.ui.workbench,3.7.1.v20120104-1859,"",1351085018619
activated,editor,org.eclipse.jdt.ui,3.7.2.v20120109-1427,"org.eclipse.jdt.ui.CompilationUnitEditor",1351085018737
executed,command,org.eclipse.ui.ide,3.7.0.v20110928-1505,"org.eclipse.ui.navigate.openResource",1351085018739
executed,command,org.eclipse.ui,3.7.0.v20110928-1505,"org.eclipse.ui.edit.paste",1351085023112
executed,command,org.eclipse.ui,3.7.0.v20110928-1505,"org.eclipse.ui.edit.copy",1351085025495
executed,command,org.eclipse.ui,3.7.0.v20110928-1505,"org.eclipse.ui.edit.paste",1351085027142
executed,command,org.eclipse.ui,3.7.0.v20110928-1505,"org.eclipse.ui.file.save",1351085030815
deactivated,workbench,org.eclipse.ui.workbench,3.7.1.v20120104-1859,"",1351085032607
activated,workbench,org.eclipse.ui.workbench,3.7.1.v20120104-1859,"",1351085041312
deactivated,workbench,org.eclipse.ui.workbench,3.7.1.v20120104-1859,"",1351085042041
activated,workbench,org.eclipse.ui.workbench,3.7.1.v20120104-1859,"",1351085045579
activated,editor,org.eclipse.jdt.ui,3.7.2.v20120109-1427,"org.eclipse.jdt.ui.CompilationUnitEditor",1351085045702
executed,command,org.eclipse.ui.ide,3.7.0.v20110928-1505,"org.eclipse.ui.navigate.openResource",1351085045703
executed,command,org.eclipse.ui,3.7.0.v20110928-1505,"org.eclipse.ui.edit.paste",1351085048606
executed,command,org.eclipse.ui,3.7.0.v20110928-1505,"org.eclipse.ui.file.save",1351085050782
activated,editor,org.eclipse.jdt.ui,3.7.2.v20120109-1427,"org.eclipse.jdt.ui.CompilationUnitEditor",1351085054892
executed,command,org.eclipse.ui,3.7.0.v20110928-1505,"org.eclipse.ui.navigate.backwardHistory",1351085054904
activated,editor,org.eclipse.jdt.ui,3.7.2.v20120109-1427,"org.eclipse.jdt.ui.CompilationUnitEditor",1351085057132
activated,editor,org.eclipse.jdt.ui,3.7.2.v20120109-1427,"org.eclipse.jdt.ui.CompilationUnitEditor",1351085058853
activated,editor,org.eclipse.jdt.ui,3.7.2.v20120109-1427,"org.eclipse.jdt.ui.CompilationUnitEditor",1351085060935
executed,command,org.eclipse.ui,3.7.0.v20110928-1505,"org.eclipse.ui.edit.undo",1351085062294
executed,command,org.eclipse.ui,3.7.0.v20110928-1505,"org.eclipse.ui.edit.redo",1351085064383
deactivated,workbench,org.eclipse.ui.workbench,3.7.1.v20120104-1859,"",1351085065033
activated,workbench,org.eclipse.ui.workbench,3.7.1.v20120104-1859,"",1351085065455
deactivated,workbench,org.eclipse.ui.workbench,3.7.1.v20120104-1859,"",1351085066129
activated,workbench,org.eclipse.ui.workbench,3.7.1.v20120104-1859,"",1351085078146
deactivated,workbench,org.eclipse.ui.workbench,3.7.1.v20120104-1859,"",1351085081281
activated,workbench,org.eclipse.ui.workbench,3.7.1.v20120104-1859,"",1351085087934
deactivated,workbench,org.eclipse.ui.workbench,3.7.1.v20120104-1859,"",1351085088329
activated,workbench,org.eclipse.ui.workbench,3.7.1.v20120104-1859,"",1351085101812
deactivated,workbench,org.eclipse.ui.workbench,3.7.1.v20120104-1859,"",1351085102839
activated,workbench,org.eclipse.ui.workbench,3.7.1.v20120104-1859,"",1351085103519
activated,editor,org.eclipse.jdt.ui,3.7.2.v20120109-1427,"org.eclipse.jdt.ui.CompilationUnitEditor",1351085106114
deactivated,workbench,org.eclipse.ui.workbench,3.7.1.v20120104-1859,"",1351085106824
executed,command,org.eclipse.ui,3.7.0.v20110928-1505,"org.eclipse.ui.edit.findReplace",1351085106879
executed,command,org.eclipse.ui,3.7.0.v20110928-1505,"org.eclipse.ui.edit.paste",1351085107053
activated,workbench,org.eclipse.ui.workbench,3.7.1.v20120104-1859,"",1351085122528
deactivated,workbench,org.eclipse.ui.workbench,3.7.1.v20120104-1859,"",1351085124357
activated,workbench,org.eclipse.ui.workbench,3.7.1.v20120104-1859,"",1351085130896
executed,command,org.eclipse.ui,3.7.0.v20110928-1505,"org.eclipse.ui.edit.paste",1351085132503
deactivated,workbench,org.eclipse.ui.workbench,3.7.1.v20120104-1859,"",1351085141422
activated,workbench,org.eclipse.ui.workbench,3.7.1.v20120104-1859,"",1351085142024
executed,command,org.eclipse.ui,3.7.0.v20110928-1505,"org.eclipse.ui.edit.text.contentAssist.proposals",1351085144268
executed,command,org.eclipse.ui,3.7.0.v20110928-1505,"org.eclipse.ui.edit.text.contentAssist.proposals",1351085152915
executed,command,org.eclipse.ui,3.7.0.v20110928-1505,"org.eclipse.ui.edit.undo",1351085157334
activated,perspective,org.eclipse.jdt.ui,3.7.2.v20120109-1427,"org.eclipse.jdt.ui.JavaPerspective",1351085159288
deactivated,workbench,org.eclipse.ui.workbench,3.7.1.v20120104-1859,"",1351085165837
activated,workbench,org.eclipse.ui.workbench,3.7.1.v20120104-1859,"",1351085168869
activated,view,org.eclipse.jdt.ui,3.7.2.v20120109-1427,"org.eclipse.jdt.ui.PackageExplorer",1351085169622
activated,editor,org.eclipse.jdt.ui,3.7.2.v20120109-1427,"org.eclipse.jdt.ui.CompilationUnitEditor",1351085170728
activated,view,org.eclipse.jdt.ui,3.7.2.v20120109-1427,"org.eclipse.jdt.ui.PackageExplorer",1351085171564
activated,editor,org.eclipse.jdt.ui,3.7.2.v20120109-1427,"org.eclipse.jdt.ui.CompilationUnitEditor",1351085172056
executed,command,org.eclipse.ui,3.7.0.v20110928-1505,"org.eclipse.ui.edit.copy",1351085174015
deactivated,workbench,org.eclipse.ui.workbench,3.7.1.v20120104-1859,"",1351085174452
activated,workbench,org.eclipse.ui.workbench,3.7.1.v20120104-1859,"",1351085175575
activated,editor,org.eclipse.jdt.ui,3.7.2.v20120109-1427,"org.eclipse.jdt.ui.CompilationUnitEditor",1351085176660
executed,command,org.eclipse.ui,3.7.0.v20110928-1505,"org.eclipse.ui.navigate.backwardHistory",1351085176677
activated,editor,org.eclipse.jdt.ui,3.7.2.v20120109-1427,"org.eclipse.jdt.ui.CompilationUnitEditor",1351085178524
executed,command,org.eclipse.ui,3.7.0.v20110928-1505,"org.eclipse.ui.edit.paste",1351085180020
executed,command,org.eclipse.ui,3.7.0.v20110928-1505,"org.eclipse.ui.edit.paste",1351085181044
executed,command,org.eclipse.jdt.ui,3.7.2.v20120109-1427,"org.eclipse.jdt.ui.edit.text.java.organize.imports",1351085182835
executed,command,org.eclipse.ui,3.7.0.v20110928-1505,"org.eclipse.ui.file.save",1351085193777
deactivated,workbench,org.eclipse.ui.workbench,3.7.1.v20120104-1859,"",1351085194344
activated,workbench,org.eclipse.ui.workbench,3.7.1.v20120104-1859,"",1351085205101
executed,command,org.eclipse.ui,3.7.0.v20110928-1505,"org.eclipse.ui.edit.copy",1351085211166
deactivated,workbench,org.eclipse.ui.workbench,3.7.1.v20120104-1859,"",1351085218166
activated,workbench,org.eclipse.ui.workbench,3.7.1.v20120104-1859,"",1351085222503
deactivated,workbench,org.eclipse.ui.workbench,3.7.1.v20120104-1859,"",1351085223513
activated,workbench,org.eclipse.ui.workbench,3.7.1.v20120104-1859,"",1351085229291
activated,editor,org.eclipse.jdt.ui,3.7.2.v20120109-1427,"org.eclipse.jdt.ui.CompilationUnitEditor",1351085229322
executed,command,org.eclipse.ui.ide,3.7.0.v20110928-1505,"org.eclipse.ui.navigate.openResource",1351085229323
deactivated,workbench,org.eclipse.ui.workbench,3.7.1.v20120104-1859,"",1351085230691
activated,workbench,org.eclipse.ui.workbench,3.7.1.v20120104-1859,"",1351085232411
deactivated,workbench,org.eclipse.ui.workbench,3.7.1.v20120104-1859,"",1351085235178
activated,workbench,org.eclipse.ui.workbench,3.7.1.v20120104-1859,"",1351085236111
activated,editor,org.eclipse.jdt.ui,3.7.2.v20120109-1427,"org.eclipse.jdt.ui.CompilationUnitEditor",1351085239858
executed,command,org.eclipse.ui,3.7.0.v20110928-1505,"org.eclipse.ui.edit.cut",1351085244193
executed,command,org.eclipse.ui,3.7.0.v20110928-1505,"org.eclipse.ui.file.save",1351085245445
deactivated,workbench,org.eclipse.ui.workbench,3.7.1.v20120104-1859,"",1351085245915
activated,workbench,org.eclipse.ui.workbench,3.7.1.v20120104-1859,"",1351085248064
activated,editor,org.eclipse.jdt.ui,3.7.2.v20120109-1427,"org.eclipse.jdt.ui.CompilationUnitEditor",1351085250068
executed,command,org.eclipse.ui,3.7.0.v20110928-1505,"org.eclipse.ui.file.save",1351085255953
deactivated,workbench,org.eclipse.ui.workbench,3.7.1.v20120104-1859,"",1351085258044
activated,workbench,org.eclipse.ui.workbench,3.7.1.v20120104-1859,"",1351085259823
deactivated,workbench,org.eclipse.ui.workbench,3.7.1.v20120104-1859,"",1351085261518
activated,workbench,org.eclipse.ui.workbench,3.7.1.v20120104-1859,"",1351085263459
deactivated,workbench,org.eclipse.ui.workbench,3.7.1.v20120104-1859,"",1351085267509
activated,workbench,org.eclipse.ui.workbench,3.7.1.v20120104-1859,"",1351085277783
activated,editor,org.eclipse.jdt.ui,3.7.2.v20120109-1427,"org.eclipse.jdt.ui.CompilationUnitEditor",1351085278894
executed,command,org.eclipse.ui,3.7.0.v20110928-1505,"org.eclipse.ui.edit.copy",1351085281662
deactivated,workbench,org.eclipse.ui.workbench,3.7.1.v20120104-1859,"",1351085281976
activated,workbench,org.eclipse.ui.workbench,3.7.1.v20120104-1859,"",1351085337127
executed,command,org.eclipse.ui.workbench.texteditor,3.7.0.v20110928-1504,"org.eclipse.ui.edit.text.select.lineEnd",1351085341477
executed,command,org.eclipse.ui.workbench.texteditor,3.7.0.v20110928-1504,"org.eclipse.ui.edit.text.goto.lineStart",1351085341877
executed,command,org.eclipse.ui.workbench.texteditor,3.7.0.v20110928-1504,"org.eclipse.ui.edit.text.goto.lineStart",1351085342060
executed,command,org.eclipse.ui.workbench.texteditor,3.7.0.v20110928-1504,"org.eclipse.ui.edit.text.select.lineEnd",1351085342773
executed,command,org.eclipse.ui.workbench.texteditor,3.7.0.v20110928-1504,"org.eclipse.ui.edit.text.select.lineEnd",1351085345189
executed,command,org.eclipse.ui,3.7.0.v20110928-1505,"org.eclipse.ui.edit.paste",1351085346694
executed,command,org.eclipse.jdt.ui,3.7.2.v20120109-1427,"org.eclipse.jdt.ui.edit.text.java.organize.imports",1351085348573
executed,command,,,"AUTOGEN:::org.eclipse.jdt.internal.ui.CompilationUnitEditor.ruler.actions/org.eclipse.jdt.internal.ui.javaeditor.JavaSelectRulerAction",1351085355224
deactivated,workbench,org.eclipse.ui.workbench,3.7.1.v20120104-1859,"",1351085355804
activated,workbench,org.eclipse.ui.workbench,3.7.1.v20120104-1859,"",1351085356097
executed,command,org.eclipse.ui,3.7.0.v20110928-1505,"org.eclipse.ui.file.save",1351085359452
deactivated,workbench,org.eclipse.ui.workbench,3.7.1.v20120104-1859,"",1351085360059
activated,workbench,org.eclipse.ui.workbench,3.7.1.v20120104-1859,"",1351085364925
deactivated,workbench,org.eclipse.ui.workbench,3.7.1.v20120104-1859,"",1351085368053
activated,workbench,org.eclipse.ui.workbench,3.7.1.v20120104-1859,"",1351085382356
executed,command,org.eclipse.ui,3.7.0.v20110928-1505,"org.eclipse.ui.edit.paste",1351085385924
executed,command,org.eclipse.ui,3.7.0.v20110928-1505,"org.eclipse.ui.file.save",1351085390008
deactivated,workbench,org.eclipse.ui.workbench,3.7.1.v20120104-1859,"",1351085395195
activated,workbench,org.eclipse.ui.workbench,3.7.1.v20120104-1859,"",1351085439305
executed,command,,,"AUTOGEN:::org.eclipse.jdt.debug.CompilationUnitEditor.BreakpointRulerActions/org.eclipse.jdt.debug.ui.actions.ManageBreakpointRulerAction",1351085442450
executed,command,,,"AUTOGEN:::org.eclipse.jdt.debug.CompilationUnitEditor.BreakpointRulerActions/org.eclipse.jdt.debug.ui.actions.ManageBreakpointRulerAction",1351085443614
executed,command,,,"AUTOGEN:::org.eclipse.jdt.debug.CompilationUnitEditor.BreakpointRulerActions/org.eclipse.jdt.debug.ui.actions.ManageBreakpointRulerAction",1351085444772
activated,perspective,org.eclipse.debug.ui,3.7.102.v20111129-1423_r372,"org.eclipse.debug.ui.DebugPerspective",1351085446811
deactivated,workbench,org.eclipse.ui.workbench,3.7.1.v20120104-1859,"",1351085450842
activated,workbench,org.eclipse.ui.workbench,3.7.1.v20120104-1859,"",1351085459318
deactivated,workbench,org.eclipse.ui.workbench,3.7.1.v20120104-1859,"",1351085461592
activated,workbench,org.eclipse.ui.workbench,3.7.1.v20120104-1859,"",1351085464318
activated,perspective,org.eclipse.jdt.ui,3.7.2.v20120109-1427,"org.eclipse.jdt.ui.JavaPerspective",1351085464565
activated,view,org.eclipse.jdt.ui,3.7.2.v20120109-1427,"org.eclipse.jdt.ui.PackageExplorer",1351085468663
activated,editor,org.eclipse.jdt.ui,3.7.2.v20120109-1427,"org.eclipse.jdt.ui.CompilationUnitEditor",1351085470042
executed,command,org.eclipse.ui,3.7.0.v20110928-1505,"org.eclipse.ui.edit.copy",1351085470524
deactivated,workbench,org.eclipse.ui.workbench,3.7.1.v20120104-1859,"",1351085470889
activated,workbench,org.eclipse.ui.workbench,3.7.1.v20120104-1859,"",1351085524624
activated,view,org.eclipse.jdt.ui,3.7.2.v20120109-1427,"org.eclipse.jdt.ui.PackageExplorer",1351085536701
activated,editor,org.eclipse.jdt.ui,3.7.2.v20120109-1427,"org.eclipse.jdt.ui.CompilationUnitEditor",1351085539572
executed,command,,,"AUTOGEN:::org.eclipse.jdt.debug.CompilationUnitEditor.BreakpointRulerActions/org.eclipse.jdt.debug.ui.actions.ManageBreakpointRulerAction",1351085539833
