what,kind,bundleId,bundleVersion,description,time
executed,command,org.eclipse.debug.ui,3.7.102.v20111129-1423_r372,"org.eclipse.debug.ui.commands.StepOver",1359178298575
executed,command,org.eclipse.debug.ui,3.7.102.v20111129-1423_r372,"org.eclipse.debug.ui.commands.StepOver",1359178298979
executed,command,org.eclipse.debug.ui,3.7.102.v20111129-1423_r372,"org.eclipse.debug.ui.commands.StepOver",1359178299953
executed,command,org.eclipse.debug.ui,3.7.102.v20111129-1423_r372,"org.eclipse.debug.ui.commands.StepOver",1359178300705
executed,command,org.eclipse.debug.ui,3.7.102.v20111129-1423_r372,"org.eclipse.debug.ui.commands.StepOver",1359178301625
executed,command,org.eclipse.debug.ui,3.7.102.v20111129-1423_r372,"org.eclipse.debug.ui.commands.StepOver",1359178302346
executed,command,org.eclipse.debug.ui,3.7.102.v20111129-1423_r372,"org.eclipse.debug.ui.commands.StepOver",1359178303335
executed,command,org.eclipse.debug.ui,3.7.102.v20111129-1423_r372,"org.eclipse.debug.ui.commands.StepOver",1359178304876
executed,command,org.eclipse.debug.ui,3.7.102.v20111129-1423_r372,"org.eclipse.debug.ui.commands.StepOver",1359178305278
executed,command,org.eclipse.debug.ui,3.7.102.v20111129-1423_r372,"org.eclipse.debug.ui.commands.StepOver",1359178305982
executed,command,org.eclipse.debug.ui,3.7.102.v20111129-1423_r372,"org.eclipse.debug.ui.commands.StepOver",1359178306430
executed,command,org.eclipse.debug.ui,3.7.102.v20111129-1423_r372,"org.eclipse.debug.ui.commands.StepOver",1359178306970
executed,command,org.eclipse.debug.ui,3.7.102.v20111129-1423_r372,"org.eclipse.debug.ui.commands.StepOver",1359178307470
executed,command,org.eclipse.debug.ui,3.7.102.v20111129-1423_r372,"org.eclipse.debug.ui.commands.StepOver",1359178307972
executed,command,org.eclipse.debug.ui,3.7.102.v20111129-1423_r372,"org.eclipse.debug.ui.commands.StepOver",1359178308629
executed,command,org.eclipse.debug.ui,3.7.102.v20111129-1423_r372,"org.eclipse.debug.ui.commands.StepOver",1359178309181
executed,command,org.eclipse.debug.ui,3.7.102.v20111129-1423_r372,"org.eclipse.debug.ui.commands.StepOver",1359178309550
executed,command,org.eclipse.debug.ui,3.7.102.v20111129-1423_r372,"org.eclipse.debug.ui.commands.StepOver",1359178310115
executed,command,org.eclipse.debug.ui,3.7.102.v20111129-1423_r372,"org.eclipse.debug.ui.commands.StepOver",1359178310702
executed,command,org.eclipse.debug.ui,3.7.102.v20111129-1423_r372,"org.eclipse.debug.ui.commands.Resume",1359178314942
deactivated,workbench,org.eclipse.ui.workbench,3.7.1.v20120104-1859,"",1359178317739
activated,workbench,org.eclipse.ui.workbench,3.7.1.v20120104-1859,"",1359178319279
activated,editor,org.eclipse.jdt.ui,3.7.2.v20120109-1427,"org.eclipse.jdt.ui.CompilationUnitEditor",1359178320079
activated,editor,org.eclipse.jdt.ui,3.7.2.v20120109-1427,"org.eclipse.jdt.ui.CompilationUnitEditor",1359178320228
executed,command,,,"AUTOGEN:::org.eclipse.jdt.debug.CompilationUnitEditor.BreakpointRulerActions/org.eclipse.jdt.debug.ui.actions.ManageBreakpointRulerAction",1359178323890
deactivated,workbench,org.eclipse.ui.workbench,3.7.1.v20120104-1859,"",1359178324395
activated,workbench,org.eclipse.ui.workbench,3.7.1.v20120104-1859,"",1359178328122
activated,editor,org.eclipse.jdt.ui,3.7.2.v20120109-1427,"org.eclipse.jdt.ui.CompilationUnitEditor",1359178328546
activated,view,org.eclipse.debug.ui,3.7.102.v20111129-1423_r372,"org.eclipse.debug.ui.DebugView",1359178329828
executed,command,org.eclipse.debug.ui,3.7.102.v20111129-1423_r372,"org.eclipse.debug.ui.commands.Resume",1359178329910
executed,command,org.eclipse.debug.ui,3.7.102.v20111129-1423_r372,"org.eclipse.debug.ui.commands.StepOver",1359178332183
executed,command,org.eclipse.debug.ui,3.7.102.v20111129-1423_r372,"org.eclipse.debug.ui.commands.StepOver",1359178332600
executed,command,org.eclipse.debug.ui,3.7.102.v20111129-1423_r372,"org.eclipse.debug.ui.commands.StepOver",1359178333304
executed,command,org.eclipse.debug.ui,3.7.102.v20111129-1423_r372,"org.eclipse.debug.ui.commands.StepOver",1359178334258
executed,command,org.eclipse.debug.ui,3.7.102.v20111129-1423_r372,"org.eclipse.debug.ui.commands.StepOver",1359178335096
activated,view,org.eclipse.debug.ui,3.7.102.v20111129-1423_r372,"org.eclipse.debug.ui.VariableView",1359178337434
executed,command,org.eclipse.ui,3.7.0.v20110928-1505,"org.eclipse.ui.edit.copy",1359178359146
deactivated,workbench,org.eclipse.ui.workbench,3.7.1.v20120104-1859,"",1359178361858
error,log,,,"File not found: /Users/pky1030/Downloads/youandme/org.opros.tpl.scenario/META-INF/MANIFEST.MF.",1359178368463
error,log,,,"File not found: /Users/pky1030/Downloads/youandme/org.opros.tpl.taskmodel/META-INF/MANIFEST.MF.",1359178368561
error,log,,,"File not found: /Users/pky1030/Downloads/youandme/org.opros.tpl/META-INF/MANIFEST.MF.",1359178368563
error,log,,,"File not found: /Users/pky1030/Downloads/youandme/org.opros.tpl.taskmodel.edit/META-INF/MANIFEST.MF.",1359178368563
activated,workbench,org.eclipse.ui.workbench,3.7.1.v20120104-1859,"",1359178372358
activated,editor,org.eclipse.jdt.ui,3.7.2.v20120109-1427,"org.eclipse.jdt.ui.CompilationUnitEditor",1359178374388
activated,view,org.eclipse.debug.ui,3.7.102.v20111129-1423_r372,"org.eclipse.debug.ui.DebugView",1359178380103
executed,command,org.eclipse.debug.ui,3.7.102.v20111129-1423_r372,"org.eclipse.debug.ui.commands.Terminate",1359178380198
deactivated,workbench,org.eclipse.ui.workbench,3.7.1.v20120104-1859,"",1359178381308
activated,workbench,org.eclipse.ui.workbench,3.7.1.v20120104-1859,"",1359178381695
deactivated,workbench,org.eclipse.ui.workbench,3.7.1.v20120104-1859,"",1359178384475
activated,workbench,org.eclipse.ui.workbench,3.7.1.v20120104-1859,"",1359178385876
deactivated,workbench,org.eclipse.ui.workbench,3.7.1.v20120104-1859,"",1359178386683
activated,workbench,org.eclipse.ui.workbench,3.7.1.v20120104-1859,"",1359178397465
executed,command,org.eclipse.debug.ui,3.7.102.v20111129-1423_r372,"org.eclipse.debug.ui.commands.Terminate",1359178398712
activated,editor,org.eclipse.jdt.ui,3.7.2.v20120109-1427,"org.eclipse.jdt.ui.CompilationUnitEditor",1359178400843
deactivated,workbench,org.eclipse.ui.workbench,3.7.1.v20120104-1859,"",1359178401959
activated,workbench,org.eclipse.ui.workbench,3.7.1.v20120104-1859,"",1359178402466
executed,command,org.eclipse.ui,3.7.0.v20110928-1505,"org.eclipse.ui.edit.copy",1359178403220
deactivated,workbench,org.eclipse.ui.workbench,3.7.1.v20120104-1859,"",1359178403547
executed,command,org.eclipse.ui,3.7.0.v20110928-1505,"org.eclipse.ui.edit.findReplace",1359178403636
activated,workbench,org.eclipse.ui.workbench,3.7.1.v20120104-1859,"",1359178404861
deactivated,workbench,org.eclipse.ui.workbench,3.7.1.v20120104-1859,"",1359178405460
activated,workbench,org.eclipse.ui.workbench,3.7.1.v20120104-1859,"",1359178424874
activated,editor,org.eclipse.jdt.ui,3.7.2.v20120109-1427,"org.eclipse.jdt.ui.CompilationUnitEditor",1359178425320
activated,view,org.eclipse.debug.ui,3.7.102.v20111129-1423_r372,"org.eclipse.debug.ui.DebugView",1359178427056
executed,command,org.eclipse.debug.ui,3.7.102.v20111129-1423_r372,"org.eclipse.debug.ui.commands.Resume",1359178427160
executed,command,org.eclipse.debug.ui,3.7.102.v20111129-1423_r372,"org.eclipse.debug.ui.commands.StepOver",1359178429745
executed,command,org.eclipse.debug.ui,3.7.102.v20111129-1423_r372,"org.eclipse.debug.ui.commands.StepOver",1359178430164
executed,command,org.eclipse.debug.ui,3.7.102.v20111129-1423_r372,"org.eclipse.debug.ui.commands.StepOver",1359178430734
executed,command,org.eclipse.debug.ui,3.7.102.v20111129-1423_r372,"org.eclipse.debug.ui.commands.StepOver",1359178431469
executed,command,org.eclipse.debug.ui,3.7.102.v20111129-1423_r372,"org.eclipse.debug.ui.commands.StepOver",1359178432258
executed,command,org.eclipse.debug.ui,3.7.102.v20111129-1423_r372,"org.eclipse.debug.ui.commands.StepOver",1359178433695
activated,editor,org.eclipse.jdt.ui,3.7.2.v20120109-1427,"org.eclipse.jdt.ui.CompilationUnitEditor",1359178435924
executed,command,,,"AUTOGEN:::org.eclipse.jdt.debug.CompilationUnitEditor.BreakpointRulerActions/org.eclipse.jdt.debug.ui.actions.ManageBreakpointRulerAction",1359178437642
activated,view,org.eclipse.debug.ui,3.7.102.v20111129-1423_r372,"org.eclipse.debug.ui.DebugView",1359178438634
executed,command,org.eclipse.debug.ui,3.7.102.v20111129-1423_r372,"org.eclipse.debug.ui.commands.Resume",1359178438749
executed,command,org.eclipse.debug.ui,3.7.102.v20111129-1423_r372,"org.eclipse.debug.ui.commands.Resume",1359178441874
deactivated,workbench,org.eclipse.ui.workbench,3.7.1.v20120104-1859,"",1359178444390
activated,workbench,org.eclipse.ui.workbench,3.7.1.v20120104-1859,"",1359178448618
deactivated,workbench,org.eclipse.ui.workbench,3.7.1.v20120104-1859,"",1359178449116
activated,workbench,org.eclipse.ui.workbench,3.7.1.v20120104-1859,"",1359178453509
activated,view,org.eclipse.ui.console,3.5.100.v20111007_r372,"org.eclipse.ui.console.ConsoleView",1359178455348
activated,editor,org.eclipse.jdt.ui,3.7.2.v20120109-1427,"org.eclipse.jdt.ui.CompilationUnitEditor",1359178455482
activated,editor,org.eclipse.jdt.ui,3.7.2.v20120109-1427,"org.eclipse.jdt.ui.CompilationUnitEditor",1359178459171
activated,editor,org.eclipse.jdt.ui,3.7.2.v20120109-1427,"org.eclipse.jdt.ui.CompilationUnitEditor",1359178463285
executed,command,org.eclipse.jdt.ui,3.7.2.v20120109-1427,"org.eclipse.jdt.ui.edit.text.java.toggle.comment",1359178467696
executed,command,org.eclipse.ui,3.7.0.v20110928-1505,"org.eclipse.ui.file.save",1359178469001
deactivated,workbench,org.eclipse.ui.workbench,3.7.1.v20120104-1859,"",1359178470679
activated,workbench,org.eclipse.ui.workbench,3.7.1.v20120104-1859,"",1359178472018
executed,command,,,"AUTOGEN:::org.eclipse.jdt.debug.CompilationUnitEditor.BreakpointRulerActions/org.eclipse.jdt.debug.ui.actions.ManageBreakpointRulerAction",1359178475413
activated,view,org.eclipse.debug.ui,3.7.102.v20111129-1423_r372,"org.eclipse.debug.ui.DebugView",1359178476957
executed,command,org.eclipse.debug.ui,3.7.102.v20111129-1423_r372,"org.eclipse.debug.ui.commands.Resume",1359178477042
executed,command,org.eclipse.debug.ui,3.7.102.v20111129-1423_r372,"org.eclipse.debug.ui.commands.Resume",1359178479148
activated,view,org.eclipse.debug.ui,3.7.102.v20111129-1423_r372,"org.eclipse.debug.ui.VariableView",1359178482570
executed,command,org.eclipse.ui,3.7.0.v20110928-1505,"org.eclipse.ui.edit.copy",1359178498541
deactivated,workbench,org.eclipse.ui.workbench,3.7.1.v20120104-1859,"",1359178501242
error,log,,,"File not found: /Users/pky1030/Downloads/youandme/org.opros.tpl.scenario/META-INF/MANIFEST.MF.",1359178681799
error,log,,,"File not found: /Users/pky1030/Downloads/youandme/org.opros.tpl.taskmodel/META-INF/MANIFEST.MF.",1359178681897
error,log,,,"File not found: /Users/pky1030/Downloads/youandme/org.opros.tpl/META-INF/MANIFEST.MF.",1359178681899
error,log,,,"File not found: /Users/pky1030/Downloads/youandme/org.opros.tpl.taskmodel.edit/META-INF/MANIFEST.MF.",1359178681902
activated,workbench,org.eclipse.ui.workbench,3.7.1.v20120104-1859,"",1359178832141
activated,perspective,org.eclipse.jdt.ui,3.7.2.v20120109-1427,"org.eclipse.jdt.ui.JavaPerspective",1359178836370
activated,editor,org.eclipse.jdt.ui,3.7.2.v20120109-1427,"org.eclipse.jdt.ui.CompilationUnitEditor",1359178836395
activated,editor,org.eclipse.jdt.ui,3.7.2.v20120109-1427,"org.eclipse.jdt.ui.CompilationUnitEditor",1359178841914
activated,editor,org.eclipse.jdt.ui,3.7.2.v20120109-1427,"org.eclipse.jdt.ui.CompilationUnitEditor",1359178845941
deactivated,workbench,org.eclipse.ui.workbench,3.7.1.v20120104-1859,"",1359178852683
executed,command,org.eclipse.ui,3.7.0.v20110928-1505,"org.eclipse.ui.edit.findReplace",1359178852729
activated,workbench,org.eclipse.ui.workbench,3.7.1.v20120104-1859,"",1359178858118
deactivated,workbench,org.eclipse.ui.workbench,3.7.1.v20120104-1859,"",1359178875034
activated,workbench,org.eclipse.ui.workbench,3.7.1.v20120104-1859,"",1359178875293
deactivated,workbench,org.eclipse.ui.workbench,3.7.1.v20120104-1859,"",1359178875752
activated,workbench,org.eclipse.ui.workbench,3.7.1.v20120104-1859,"",1359178893144
activated,view,org.eclipse.ui.console,3.5.100.v20111007_r372,"org.eclipse.ui.console.ConsoleView",1359178894377
deactivated,workbench,org.eclipse.ui.workbench,3.7.1.v20120104-1859,"",1359178898935
activated,perspective,org.eclipse.debug.ui,3.7.102.v20111129-1423_r372,"org.eclipse.debug.ui.DebugPerspective",1359178926161
activated,workbench,org.eclipse.ui.workbench,3.7.1.v20120104-1859,"",1359178926469
activated,editor,org.eclipse.jdt.ui,3.7.2.v20120109-1427,"org.eclipse.jdt.ui.CompilationUnitEditor",1359178928533
executed,command,,,"AUTOGEN:::org.eclipse.jdt.debug.CompilationUnitEditor.BreakpointRulerActions/org.eclipse.jdt.debug.ui.actions.ManageBreakpointRulerAction",1359178928939
activated,view,org.eclipse.debug.ui,3.7.102.v20111129-1423_r372,"org.eclipse.debug.ui.DebugView",1359178930205
executed,command,org.eclipse.debug.ui,3.7.102.v20111129-1423_r372,"org.eclipse.debug.ui.commands.Resume",1359178930298
executed,command,org.eclipse.debug.ui,3.7.102.v20111129-1423_r372,"org.eclipse.debug.ui.commands.Resume",1359178931381
deactivated,workbench,org.eclipse.ui.workbench,3.7.1.v20120104-1859,"",1359178933998
activated,workbench,org.eclipse.ui.workbench,3.7.1.v20120104-1859,"",1359178976143
activated,editor,org.eclipse.jdt.ui,3.7.2.v20120109-1427,"org.eclipse.jdt.ui.CompilationUnitEditor",1359178987023
deactivated,workbench,org.eclipse.ui.workbench,3.7.1.v20120104-1859,"",1359178987316
executed,command,org.eclipse.ui,3.7.0.v20110928-1505,"org.eclipse.ui.edit.findReplace",1359178987364
activated,workbench,org.eclipse.ui.workbench,3.7.1.v20120104-1859,"",1359178990226
deactivated,workbench,org.eclipse.ui.workbench,3.7.1.v20120104-1859,"",1359178990906
executed,command,org.eclipse.ui,3.7.0.v20110928-1505,"org.eclipse.ui.edit.findReplace",1359178990952
activated,workbench,org.eclipse.ui.workbench,3.7.1.v20120104-1859,"",1359178993333
activated,editor,org.eclipse.jdt.ui,3.7.2.v20120109-1427,"org.eclipse.jdt.ui.CompilationUnitEditor",1359178996652
deactivated,workbench,org.eclipse.ui.workbench,3.7.1.v20120104-1859,"",1359178997380
executed,command,org.eclipse.ui,3.7.0.v20110928-1505,"org.eclipse.ui.edit.findReplace",1359178997433
activated,workbench,org.eclipse.ui.workbench,3.7.1.v20120104-1859,"",1359179000376
executed,command,org.eclipse.ui.workbench.texteditor,3.7.0.v20110928-1504,"org.eclipse.ui.edit.text.goto.lineStart",1359179002356
deactivated,workbench,org.eclipse.ui.workbench,3.7.1.v20120104-1859,"",1359179005485
activated,workbench,org.eclipse.ui.workbench,3.7.1.v20120104-1859,"",1359179009255
deactivated,workbench,org.eclipse.ui.workbench,3.7.1.v20120104-1859,"",1359179009983
activated,workbench,org.eclipse.ui.workbench,3.7.1.v20120104-1859,"",1359179025176
executed,command,org.eclipse.ui.workbench.texteditor,3.7.0.v20110928-1504,"org.eclipse.ui.edit.text.goto.lineEnd",1359179036526
executed,command,org.eclipse.ui,3.7.0.v20110928-1505,"org.eclipse.ui.edit.text.contentAssist.proposals",1359179047721
executed,command,org.eclipse.ui.workbench.texteditor,3.7.0.v20110928-1504,"org.eclipse.ui.edit.text.smartEnter",1359179100409
executed,command,org.eclipse.ui,3.7.0.v20110928-1505,"org.eclipse.ui.edit.undo",1359179101762
executed,command,org.eclipse.ui,3.7.0.v20110928-1505,"org.eclipse.ui.edit.text.contentAssist.proposals",1359179106239
executed,command,org.eclipse.ui.workbench.texteditor,3.7.0.v20110928-1504,"org.eclipse.ui.edit.text.goto.lineEnd",1359179128991
executed,command,org.eclipse.ui,3.7.0.v20110928-1505,"org.eclipse.ui.file.save",1359179132476
deactivated,workbench,org.eclipse.ui.workbench,3.7.1.v20120104-1859,"",1359179134686
activated,workbench,org.eclipse.ui.workbench,3.7.1.v20120104-1859,"",1359179136085
deactivated,workbench,org.eclipse.ui.workbench,3.7.1.v20120104-1859,"",1359179141637
activated,workbench,org.eclipse.ui.workbench,3.7.1.v20120104-1859,"",1359179142102
deactivated,workbench,org.eclipse.ui.workbench,3.7.1.v20120104-1859,"",1359179144417
activated,workbench,org.eclipse.ui.workbench,3.7.1.v20120104-1859,"",1359179144994
executed,command,org.eclipse.ui.workbench.texteditor,3.7.0.v20110928-1504,"org.eclipse.ui.edit.text.goto.lineEnd",1359179147297
executed,command,org.eclipse.ui.workbench.texteditor,3.7.0.v20110928-1504,"org.eclipse.ui.edit.text.select.lineStart",1359179147708
executed,command,org.eclipse.ui,3.7.0.v20110928-1505,"org.eclipse.ui.edit.cut",1359179148064
executed,command,org.eclipse.ui,3.7.0.v20110928-1505,"org.eclipse.ui.edit.paste",1359179149016
executed,command,org.eclipse.ui,3.7.0.v20110928-1505,"org.eclipse.ui.file.save",1359179150459
deactivated,workbench,org.eclipse.ui.workbench,3.7.1.v20120104-1859,"",1359179151259
activated,workbench,org.eclipse.ui.workbench,3.7.1.v20120104-1859,"",1359179151821
deactivated,workbench,org.eclipse.ui.workbench,3.7.1.v20120104-1859,"",1359179157584
activated,workbench,org.eclipse.ui.workbench,3.7.1.v20120104-1859,"",1359179164894
activated,editor,org.eclipse.jdt.ui,3.7.2.v20120109-1427,"org.eclipse.jdt.ui.CompilationUnitEditor",1359179170210
activated,view,org.eclipse.ui.views,3.6.0.v20110928-1505,"org.eclipse.ui.views.ContentOutline",1359179171675
activated,editor,org.eclipse.jdt.ui,3.7.2.v20120109-1427,"org.eclipse.jdt.ui.CompilationUnitEditor",1359179179696
executed,command,org.eclipse.ui,3.7.0.v20110928-1505,"org.eclipse.ui.edit.undo",1359179200978
executed,command,org.eclipse.ui.workbench.texteditor,3.7.0.v20110928-1504,"org.eclipse.ui.edit.text.goto.lineEnd",1359179221267
executed,command,org.eclipse.ui.workbench.texteditor,3.7.0.v20110928-1504,"org.eclipse.ui.edit.text.select.lineStart",1359179221589
deactivated,workbench,org.eclipse.ui.workbench,3.7.1.v20120104-1859,"",1359179248925
activated,workbench,org.eclipse.ui.workbench,3.7.1.v20120104-1859,"",1359179339137
executed,command,org.eclipse.ui,3.7.0.v20110928-1505,"org.eclipse.ui.edit.undo",1359179343124
executed,command,org.eclipse.ui,3.7.0.v20110928-1505,"org.eclipse.ui.edit.redo",1359179343686
executed,command,org.eclipse.ui,3.7.0.v20110928-1505,"org.eclipse.ui.edit.cut",1359179346895
deactivated,workbench,org.eclipse.ui.workbench,3.7.1.v20120104-1859,"",1359179352061
activated,workbench,org.eclipse.ui.workbench,3.7.1.v20120104-1859,"",1359179352653
executed,command,org.eclipse.ui,3.7.0.v20110928-1505,"org.eclipse.ui.edit.copy",1359179366342
executed,command,org.eclipse.ui,3.7.0.v20110928-1505,"org.eclipse.ui.edit.paste",1359179367439
deactivated,workbench,org.eclipse.ui.workbench,3.7.1.v20120104-1859,"",1359179367746
activated,workbench,org.eclipse.ui.workbench,3.7.1.v20120104-1859,"",1359179371172
deactivated,workbench,org.eclipse.ui.workbench,3.7.1.v20120104-1859,"",1359179376473
activated,workbench,org.eclipse.ui.workbench,3.7.1.v20120104-1859,"",1359179377274
deactivated,workbench,org.eclipse.ui.workbench,3.7.1.v20120104-1859,"",1359179377768
activated,workbench,org.eclipse.ui.workbench,3.7.1.v20120104-1859,"",1359179380139
deactivated,workbench,org.eclipse.ui.workbench,3.7.1.v20120104-1859,"",1359179381928
activated,workbench,org.eclipse.ui.workbench,3.7.1.v20120104-1859,"",1359179384232
executed,command,org.eclipse.ui,3.7.0.v20110928-1505,"org.eclipse.ui.edit.paste",1359179385683
executed,command,org.eclipse.ui.workbench.texteditor,3.7.0.v20110928-1504,"org.eclipse.ui.edit.text.upperCase",1359179388406
executed,command,org.eclipse.ui.workbench.texteditor,3.7.0.v20110928-1504,"org.eclipse.ui.edit.text.goto.lineEnd",1359179388747
deactivated,workbench,org.eclipse.ui.workbench,3.7.1.v20120104-1859,"",1359179393146
activated,workbench,org.eclipse.ui.workbench,3.7.1.v20120104-1859,"",1359179410362
deactivated,workbench,org.eclipse.ui.workbench,3.7.1.v20120104-1859,"",1359179412230
error,log,,,"File not found: /Users/pky1030/Downloads/youandme/org.opros.tpl.scenario/META-INF/MANIFEST.MF.",1359179432526
error,log,,,"File not found: /Users/pky1030/Downloads/youandme/org.opros.tpl.taskmodel/META-INF/MANIFEST.MF.",1359179432624
error,log,,,"File not found: /Users/pky1030/Downloads/youandme/org.opros.tpl/META-INF/MANIFEST.MF.",1359179432626
error,log,,,"File not found: /Users/pky1030/Downloads/youandme/org.opros.tpl.taskmodel.edit/META-INF/MANIFEST.MF.",1359179432626
activated,workbench,org.eclipse.ui.workbench,3.7.1.v20120104-1859,"",1359179584959
deactivated,workbench,org.eclipse.ui.workbench,3.7.1.v20120104-1859,"",1359179593278
activated,workbench,org.eclipse.ui.workbench,3.7.1.v20120104-1859,"",1359179598768
executed,command,org.eclipse.ui,3.7.0.v20110928-1505,"org.eclipse.ui.edit.undo",1359179633736
executed,command,org.eclipse.ui,3.7.0.v20110928-1505,"org.eclipse.ui.edit.redo",1359179634985
executed,command,org.eclipse.ui.workbench.texteditor,3.7.0.v20110928-1504,"org.eclipse.ui.edit.text.select.lineStart",1359179639914
executed,command,org.eclipse.ui,3.7.0.v20110928-1505,"org.eclipse.ui.edit.copy",1359179640258
executed,command,org.eclipse.ui,3.7.0.v20110928-1505,"org.eclipse.ui.edit.paste",1359179640805
deactivated,workbench,org.eclipse.ui.workbench,3.7.1.v20120104-1859,"",1359179642702
activated,workbench,org.eclipse.ui.workbench,3.7.1.v20120104-1859,"",1359179645235
executed,command,org.eclipse.ui,3.7.0.v20110928-1505,"org.eclipse.ui.edit.paste",1359179648135
executed,command,org.eclipse.ui.workbench.texteditor,3.7.0.v20110928-1504,"org.eclipse.ui.edit.text.upperCase",1359179649621
executed,command,org.eclipse.ui,3.7.0.v20110928-1505,"org.eclipse.ui.edit.paste",1359179652262
executed,command,org.eclipse.ui.workbench.texteditor,3.7.0.v20110928-1504,"org.eclipse.ui.edit.text.goto.lineEnd",1359179653953
deactivated,workbench,org.eclipse.ui.workbench,3.7.1.v20120104-1859,"",1359179654827
activated,workbench,org.eclipse.ui.workbench,3.7.1.v20120104-1859,"",1359179667848
executed,command,org.eclipse.ui.workbench.texteditor,3.7.0.v20110928-1504,"org.eclipse.ui.edit.text.select.lineStart",1359179669529
executed,command,org.eclipse.ui,3.7.0.v20110928-1505,"org.eclipse.ui.edit.copy",1359179669721
executed,command,org.eclipse.ui,3.7.0.v20110928-1505,"org.eclipse.ui.edit.paste",1359179670413
executed,command,org.eclipse.ui.workbench.texteditor,3.7.0.v20110928-1504,"org.eclipse.ui.edit.text.goto.lineEnd",1359179675760
executed,command,org.eclipse.ui.workbench.texteditor,3.7.0.v20110928-1504,"org.eclipse.ui.edit.text.select.lineStart",1359179676016
executed,command,org.eclipse.ui,3.7.0.v20110928-1505,"org.eclipse.ui.edit.copy",1359179676252
executed,command,org.eclipse.ui.workbench.texteditor,3.7.0.v20110928-1504,"org.eclipse.ui.edit.text.select.lineStart",1359179678478
executed,command,org.eclipse.ui,3.7.0.v20110928-1505,"org.eclipse.ui.edit.copy",1359179678648
executed,command,org.eclipse.ui.workbench.texteditor,3.7.0.v20110928-1504,"org.eclipse.ui.edit.text.goto.lineEnd",1359179679180
executed,command,org.eclipse.ui,3.7.0.v20110928-1505,"org.eclipse.ui.edit.paste",1359179679637
executed,command,org.eclipse.ui.workbench.texteditor,3.7.0.v20110928-1504,"org.eclipse.ui.edit.text.goto.lineEnd",1359179681817
executed,command,org.eclipse.ui.workbench.texteditor,3.7.0.v20110928-1504,"org.eclipse.ui.edit.text.select.lineStart",1359179685936
executed,command,org.eclipse.ui,3.7.0.v20110928-1505,"org.eclipse.ui.edit.copy",1359179686183
deactivated,workbench,org.eclipse.ui.workbench,3.7.1.v20120104-1859,"",1359179687107
activated,workbench,org.eclipse.ui.workbench,3.7.1.v20120104-1859,"",1359179687541
executed,command,org.eclipse.ui.workbench.texteditor,3.7.0.v20110928-1504,"org.eclipse.ui.edit.text.goto.lineStart",1359179688608
executed,command,org.eclipse.ui.workbench.texteditor,3.7.0.v20110928-1504,"org.eclipse.ui.edit.text.goto.lineEnd",1359179689977
deactivated,workbench,org.eclipse.ui.workbench,3.7.1.v20120104-1859,"",1359179691475
activated,workbench,org.eclipse.ui.workbench,3.7.1.v20120104-1859,"",1359179695073
deactivated,workbench,org.eclipse.ui.workbench,3.7.1.v20120104-1859,"",1359179695915
activated,workbench,org.eclipse.ui.workbench,3.7.1.v20120104-1859,"",1359179732380
executed,command,org.eclipse.ui.workbench.texteditor,3.7.0.v20110928-1504,"org.eclipse.ui.edit.text.goto.lineEnd",1359179734645
executed,command,org.eclipse.ui.workbench.texteditor,3.7.0.v20110928-1504,"org.eclipse.ui.edit.text.select.lineStart",1359179734846
executed,command,org.eclipse.ui,3.7.0.v20110928-1505,"org.eclipse.ui.edit.copy",1359179735022
executed,command,org.eclipse.ui,3.7.0.v20110928-1505,"org.eclipse.ui.edit.paste",1359179736867
executed,command,org.eclipse.ui.workbench.texteditor,3.7.0.v20110928-1504,"org.eclipse.ui.edit.text.goto.lineEnd",1359179741896
deactivated,workbench,org.eclipse.ui.workbench,3.7.1.v20120104-1859,"",1359179745654
activated,workbench,org.eclipse.ui.workbench,3.7.1.v20120104-1859,"",1359179748622
executed,command,org.eclipse.ui.workbench.texteditor,3.7.0.v20110928-1504,"org.eclipse.ui.edit.text.goto.lineEnd",1359179748879
executed,command,org.eclipse.ui.workbench.texteditor,3.7.0.v20110928-1504,"org.eclipse.ui.edit.text.select.lineStart",1359179749143
executed,command,org.eclipse.ui,3.7.0.v20110928-1505,"org.eclipse.ui.edit.copy",1359179749335
executed,command,org.eclipse.ui,3.7.0.v20110928-1505,"org.eclipse.ui.edit.paste",1359179749885
executed,command,org.eclipse.ui.workbench.texteditor,3.7.0.v20110928-1504,"org.eclipse.ui.edit.text.goto.lineEnd",1359179752839
deactivated,workbench,org.eclipse.ui.workbench,3.7.1.v20120104-1859,"",1359179754182
activated,workbench,org.eclipse.ui.workbench,3.7.1.v20120104-1859,"",1359179760606
executed,command,org.eclipse.ui.workbench.texteditor,3.7.0.v20110928-1504,"org.eclipse.ui.edit.text.goto.lineEnd",1359179762903
activated,view,org.eclipse.ui.views,3.6.0.v20110928-1505,"org.eclipse.ui.views.ContentOutline",1359179770276
activated,editor,org.eclipse.jdt.ui,3.7.2.v20120109-1427,"org.eclipse.jdt.ui.CompilationUnitEditor",1359179786615
executed,command,org.eclipse.ui,3.7.0.v20110928-1505,"org.eclipse.ui.edit.copy",1359179788782
deactivated,workbench,org.eclipse.ui.workbench,3.7.1.v20120104-1859,"",1359179789428
activated,workbench,org.eclipse.ui.workbench,3.7.1.v20120104-1859,"",1359179789897
