what,kind,bundleId,bundleVersion,description,time
activated,workbench,org.eclipse.ui.workbench,3.7.1.v20120104-1859,"",1364432295938
executed,command,org.eclipse.ui,3.7.0.v20110928-1505,"org.eclipse.ui.edit.text.contentAssist.proposals",1364432297381
deactivated,workbench,org.eclipse.ui.workbench,3.7.1.v20120104-1859,"",1364432298435
activated,workbench,org.eclipse.ui.workbench,3.7.1.v20120104-1859,"",1364432299624
executed,command,org.eclipse.ui,3.7.0.v20110928-1505,"org.eclipse.ui.edit.text.contentAssist.proposals",1364432299938
deactivated,workbench,org.eclipse.ui.workbench,3.7.1.v20120104-1859,"",1364432301356
activated,workbench,org.eclipse.ui.workbench,3.7.1.v20120104-1859,"",1364432302355
executed,command,org.eclipse.ui,3.7.0.v20110928-1505,"org.eclipse.ui.edit.text.contentAssist.proposals",1364432303351
executed,command,org.eclipse.ui,3.7.0.v20110928-1505,"org.eclipse.ui.edit.text.contentAssist.proposals",1364432304549
deactivated,workbench,org.eclipse.ui.workbench,3.7.1.v20120104-1859,"",1364432305315
activated,workbench,org.eclipse.ui.workbench,3.7.1.v20120104-1859,"",1364432306604
executed,command,org.eclipse.ui,3.7.0.v20110928-1505,"org.eclipse.ui.edit.text.contentAssist.proposals",1364432307095
deactivated,workbench,org.eclipse.ui.workbench,3.7.1.v20120104-1859,"",1364432310063
activated,workbench,org.eclipse.ui.workbench,3.7.1.v20120104-1859,"",1364432311115
executed,command,org.eclipse.ui,3.7.0.v20110928-1505,"org.eclipse.ui.edit.text.contentAssist.proposals",1364432311459
executed,command,org.eclipse.ui.workbench.texteditor,3.7.0.v20110928-1504,"org.eclipse.ui.edit.text.goto.lineEnd",1364432312753
executed,command,org.eclipse.ui.workbench.texteditor,3.7.0.v20110928-1504,"org.eclipse.ui.edit.text.select.lineStart",1364432313769
executed,command,org.eclipse.ui,3.7.0.v20110928-1505,"org.eclipse.ui.edit.copy",1364432314406
executed,command,org.eclipse.ui,3.7.0.v20110928-1505,"org.eclipse.ui.edit.paste",1364432314592
executed,command,org.eclipse.ui.workbench.texteditor,3.7.0.v20110928-1504,"org.eclipse.ui.edit.text.goto.lineEnd",1364432317928
deactivated,workbench,org.eclipse.ui.workbench,3.7.1.v20120104-1859,"",1364432318567
activated,workbench,org.eclipse.ui.workbench,3.7.1.v20120104-1859,"",1364432319095
executed,command,org.eclipse.jdt.ui,3.7.2.v20120109-1427,"org.eclipse.jdt.ui.edit.text.java.organize.imports",1364432319666
deactivated,workbench,org.eclipse.ui.workbench,3.7.1.v20120104-1859,"",1364432321665
activated,workbench,org.eclipse.ui.workbench,3.7.1.v20120104-1859,"",1364432328987
executed,command,org.eclipse.ui,3.7.0.v20110928-1505,"org.eclipse.ui.file.save",1364432329855
activated,view,org.eclipse.jdt.ui,3.7.2.v20120109-1427,"org.eclipse.jdt.ui.PackageExplorer",1364432333176
opened,editor,org.eclipse.pde.ui,3.6.100.v20120103_r372,"org.eclipse.pde.ui.manifestEditor",1364432334924
activated,editor,org.eclipse.pde.ui,3.6.100.v20120103_r372,"org.eclipse.pde.ui.manifestEditor",1364432335019
activated,editor,org.eclipse.pde.ui,3.6.100.v20120103_r372,"org.eclipse.pde.ui.manifestEditor",1364432338830
executed,command,org.eclipse.ui.workbench.texteditor,3.7.0.v20110928-1504,"org.eclipse.ui.edit.text.select.lineEnd",1364432339976
executed,command,org.eclipse.ui,3.7.0.v20110928-1505,"org.eclipse.ui.edit.copy",1364432340295
activated,editor,org.eclipse.pde.ui,3.6.100.v20120103_r372,"org.eclipse.pde.ui.manifestEditor",1364432346093
deactivated,workbench,org.eclipse.ui.workbench,3.7.1.v20120104-1859,"",1364432347541
executed,command,org.eclipse.ui,3.7.0.v20110928-1505,"org.eclipse.ui.edit.findReplace",1364432347590
activated,workbench,org.eclipse.ui.workbench,3.7.1.v20120104-1859,"",1364432348314
executed,command,org.eclipse.ui.workbench.texteditor,3.7.0.v20110928-1504,"org.eclipse.ui.edit.text.goto.lineEnd",1364432349461
executed,command,org.eclipse.ui,3.7.0.v20110928-1505,"org.eclipse.ui.edit.paste",1364432350074
activated,editor,org.eclipse.jdt.ui,3.7.2.v20120109-1427,"org.eclipse.jdt.ui.CompilationUnitEditor",1364432355263
executed,command,org.eclipse.ui.workbench.texteditor,3.7.0.v20110928-1504,"org.eclipse.ui.edit.text.select.lineStart",1364432357718
executed,command,org.eclipse.ui,3.7.0.v20110928-1505,"org.eclipse.ui.edit.copy",1364432359062
activated,editor,org.eclipse.pde.ui,3.6.100.v20120103_r372,"org.eclipse.pde.ui.manifestEditor",1364432359981
executed,command,org.eclipse.ui.workbench.texteditor,3.7.0.v20110928-1504,"org.eclipse.ui.edit.text.select.lineEnd",1364432362126
executed,command,org.eclipse.ui,3.7.0.v20110928-1505,"org.eclipse.ui.edit.paste",1364432365251
activated,editor,org.eclipse.jdt.ui,3.7.2.v20120109-1427,"org.eclipse.jdt.ui.CompilationUnitEditor",1364432367413
executed,command,org.eclipse.ui,3.7.0.v20110928-1505,"org.eclipse.ui.edit.copy",1364432369538
activated,editor,org.eclipse.pde.ui,3.6.100.v20120103_r372,"org.eclipse.pde.ui.manifestEditor",1364432370390
executed,command,org.eclipse.ui.workbench.texteditor,3.7.0.v20110928-1504,"org.eclipse.ui.edit.text.select.lineEnd",1364432375350
executed,command,org.eclipse.ui,3.7.0.v20110928-1505,"org.eclipse.ui.edit.paste",1364432376362
executed,command,org.eclipse.ui,3.7.0.v20110928-1505,"org.eclipse.ui.file.save",1364432377099
activated,editor,org.eclipse.jdt.ui,3.7.2.v20120109-1427,"org.eclipse.jdt.ui.CompilationUnitEditor",1364432379524
deactivated,workbench,org.eclipse.ui.workbench,3.7.1.v20120104-1859,"",1364432380634
activated,workbench,org.eclipse.ui.workbench,3.7.1.v20120104-1859,"",1364432383014
deactivated,workbench,org.eclipse.ui.workbench,3.7.1.v20120104-1859,"",1364432384129
activated,workbench,org.eclipse.ui.workbench,3.7.1.v20120104-1859,"",1364432385701
deactivated,workbench,org.eclipse.ui.workbench,3.7.1.v20120104-1859,"",1364432388867
activated,workbench,org.eclipse.ui.workbench,3.7.1.v20120104-1859,"",1364432390679
deactivated,workbench,org.eclipse.ui.workbench,3.7.1.v20120104-1859,"",1364432391092
activated,workbench,org.eclipse.ui.workbench,3.7.1.v20120104-1859,"",1364432391964
activated,perspective,org.eclipse.debug.ui,3.7.102.v20111129-1423_r372,"org.eclipse.debug.ui.DebugPerspective",1364432394792
activated,view,org.eclipse.debug.ui,3.7.102.v20111129-1423_r372,"org.eclipse.debug.ui.DebugView",1364432396186
executed,command,org.eclipse.debug.ui,3.7.102.v20111129-1423_r372,"org.eclipse.debug.ui.commands.Terminate",1364432396273
deactivated,workbench,org.eclipse.ui.workbench,3.7.1.v20120104-1859,"",1364432406114
activated,workbench,org.eclipse.ui.workbench,3.7.1.v20120104-1859,"",1364432407493
deactivated,workbench,org.eclipse.ui.workbench,3.7.1.v20120104-1859,"",1364432413079
activated,workbench,org.eclipse.ui.workbench,3.7.1.v20120104-1859,"",1364432425810
deactivated,workbench,org.eclipse.ui.workbench,3.7.1.v20120104-1859,"",1364432432032
activated,workbench,org.eclipse.ui.workbench,3.7.1.v20120104-1859,"",1364432434867
deactivated,workbench,org.eclipse.ui.workbench,3.7.1.v20120104-1859,"",1364432435702
activated,workbench,org.eclipse.ui.workbench,3.7.1.v20120104-1859,"",1364432445059
deactivated,workbench,org.eclipse.ui.workbench,3.7.1.v20120104-1859,"",1364432448717
activated,workbench,org.eclipse.ui.workbench,3.7.1.v20120104-1859,"",1364432455175
activated,editor,org.eclipse.jdt.ui,3.7.2.v20120109-1427,"org.eclipse.jdt.ui.CompilationUnitEditor",1364432455319
executed,command,org.eclipse.ui.ide,3.7.0.v20110928-1505,"org.eclipse.ui.navigate.openResource",1364432455328
deactivated,workbench,org.eclipse.ui.workbench,3.7.1.v20120104-1859,"",1364432456264
activated,workbench,org.eclipse.ui.workbench,3.7.1.v20120104-1859,"",1364432457938
activated,view,org.eclipse.ui.views,3.6.0.v20110928-1505,"org.eclipse.ui.views.ContentOutline",1364432459766
deactivated,workbench,org.eclipse.ui.workbench,3.7.1.v20120104-1859,"",1364432461161
activated,workbench,org.eclipse.ui.workbench,3.7.1.v20120104-1859,"",1364432473099
activated,editor,org.eclipse.jdt.ui,3.7.2.v20120109-1427,"org.eclipse.jdt.ui.CompilationUnitEditor",1364432473796
executed,command,org.eclipse.ui.workbench.texteditor,3.7.0.v20110928-1504,"org.eclipse.ui.edit.text.goto.lineEnd",1364432474920
deactivated,workbench,org.eclipse.ui.workbench,3.7.1.v20120104-1859,"",1364432477640
activated,workbench,org.eclipse.ui.workbench,3.7.1.v20120104-1859,"",1364432479145
executed,command,org.eclipse.ui,3.7.0.v20110928-1505,"org.eclipse.ui.edit.text.contentAssist.proposals",1364432479550
deactivated,workbench,org.eclipse.ui.workbench,3.7.1.v20120104-1859,"",1364432481996
activated,workbench,org.eclipse.ui.workbench,3.7.1.v20120104-1859,"",1364432482837
executed,command,org.eclipse.ui,3.7.0.v20110928-1505,"org.eclipse.ui.edit.text.contentAssist.proposals",1364432483120
executed,command,org.eclipse.ui,3.7.0.v20110928-1505,"org.eclipse.ui.edit.text.contentAssist.proposals",1364432484513
executed,command,org.eclipse.ui.workbench.texteditor,3.7.0.v20110928-1504,"org.eclipse.ui.edit.text.goto.lineEnd",1364432486224
executed,command,org.eclipse.ui.workbench.texteditor,3.7.0.v20110928-1504,"org.eclipse.ui.edit.text.goto.lineEnd",1364432486702
deactivated,workbench,org.eclipse.ui.workbench,3.7.1.v20120104-1859,"",1364432487981
activated,workbench,org.eclipse.ui.workbench,3.7.1.v20120104-1859,"",1364432490962
deactivated,workbench,org.eclipse.ui.workbench,3.7.1.v20120104-1859,"",1364432492022
activated,workbench,org.eclipse.ui.workbench,3.7.1.v20120104-1859,"",1364432493657
executed,command,org.eclipse.ui,3.7.0.v20110928-1505,"org.eclipse.ui.file.save",1364432495752
deactivated,workbench,org.eclipse.ui.workbench,3.7.1.v20120104-1859,"",1364432496501
activated,workbench,org.eclipse.ui.workbench,3.7.1.v20120104-1859,"",1364432510043
activated,editor,org.eclipse.jdt.ui,3.7.2.v20120109-1427,"org.eclipse.jdt.ui.CompilationUnitEditor",1364432512338
deactivated,workbench,org.eclipse.ui.workbench,3.7.1.v20120104-1859,"",1364432516633
activated,workbench,org.eclipse.ui.workbench,3.7.1.v20120104-1859,"",1364432547983
activated,editor,org.eclipse.jdt.ui,3.7.2.v20120109-1427,"org.eclipse.jdt.ui.CompilationUnitEditor",1364432550988
deactivated,workbench,org.eclipse.ui.workbench,3.7.1.v20120104-1859,"",1364432556185
activated,workbench,org.eclipse.ui.workbench,3.7.1.v20120104-1859,"",1364432557431
activated,view,org.eclipse.ui.views,3.6.0.v20110928-1505,"org.eclipse.ui.views.ContentOutline",1364432561423
deactivated,workbench,org.eclipse.ui.workbench,3.7.1.v20120104-1859,"",1364432563325
activated,workbench,org.eclipse.ui.workbench,3.7.1.v20120104-1859,"",1364432564338
activated,editor,org.eclipse.jdt.ui,3.7.2.v20120109-1427,"org.eclipse.jdt.ui.CompilationUnitEditor",1364432567822
executed,command,org.eclipse.ui,3.7.0.v20110928-1505,"org.eclipse.ui.edit.text.contentAssist.proposals",1364432575578
deactivated,workbench,org.eclipse.ui.workbench,3.7.1.v20120104-1859,"",1364432578510
activated,workbench,org.eclipse.ui.workbench,3.7.1.v20120104-1859,"",1364432579834
executed,command,org.eclipse.ui.workbench.texteditor,3.7.0.v20110928-1504,"org.eclipse.ui.edit.text.select.lineEnd",1364432581516
deactivated,workbench,org.eclipse.ui.workbench,3.7.1.v20120104-1859,"",1364432583838
activated,workbench,org.eclipse.ui.workbench,3.7.1.v20120104-1859,"",1364432585017
executed,command,org.eclipse.ui,3.7.0.v20110928-1505,"org.eclipse.ui.edit.text.contentAssist.proposals",1364432587244
deactivated,workbench,org.eclipse.ui.workbench,3.7.1.v20120104-1859,"",1364432588719
activated,workbench,org.eclipse.ui.workbench,3.7.1.v20120104-1859,"",1364432589435
executed,command,org.eclipse.ui,3.7.0.v20110928-1505,"org.eclipse.ui.edit.text.contentAssist.proposals",1364432589741
executed,command,org.eclipse.ui.workbench.texteditor,3.7.0.v20110928-1504,"org.eclipse.ui.edit.text.goto.lineEnd",1364432592676
deactivated,workbench,org.eclipse.ui.workbench,3.7.1.v20120104-1859,"",1364432593925
activated,workbench,org.eclipse.ui.workbench,3.7.1.v20120104-1859,"",1364432596986
deactivated,workbench,org.eclipse.ui.workbench,3.7.1.v20120104-1859,"",1364432598452
activated,workbench,org.eclipse.ui.workbench,3.7.1.v20120104-1859,"",1364432599394
executed,command,org.eclipse.ui,3.7.0.v20110928-1505,"org.eclipse.ui.edit.text.contentAssist.proposals",1364432600350
executed,command,org.eclipse.ui,3.7.0.v20110928-1505,"org.eclipse.ui.edit.text.contentAssist.proposals",1364432604748
deactivated,workbench,org.eclipse.ui.workbench,3.7.1.v20120104-1859,"",1364432605259
activated,workbench,org.eclipse.ui.workbench,3.7.1.v20120104-1859,"",1364432606724
executed,command,org.eclipse.ui,3.7.0.v20110928-1505,"org.eclipse.ui.edit.text.contentAssist.proposals",1364432607720
deactivated,workbench,org.eclipse.ui.workbench,3.7.1.v20120104-1859,"",1364432609086
activated,workbench,org.eclipse.ui.workbench,3.7.1.v20120104-1859,"",1364432610559
executed,command,org.eclipse.ui,3.7.0.v20110928-1505,"org.eclipse.ui.edit.text.contentAssist.proposals",1364432610870
deactivated,workbench,org.eclipse.ui.workbench,3.7.1.v20120104-1859,"",1364432612235
activated,workbench,org.eclipse.ui.workbench,3.7.1.v20120104-1859,"",1364432613548
executed,command,org.eclipse.ui,3.7.0.v20110928-1505,"org.eclipse.ui.edit.text.contentAssist.proposals",1364432614677
deactivated,workbench,org.eclipse.ui.workbench,3.7.1.v20120104-1859,"",1364432615366
activated,workbench,org.eclipse.ui.workbench,3.7.1.v20120104-1859,"",1364432616314
executed,command,org.eclipse.ui,3.7.0.v20110928-1505,"org.eclipse.ui.edit.text.contentAssist.proposals",1364432617141
deactivated,workbench,org.eclipse.ui.workbench,3.7.1.v20120104-1859,"",1364432618892
activated,workbench,org.eclipse.ui.workbench,3.7.1.v20120104-1859,"",1364432620473
deactivated,workbench,org.eclipse.ui.workbench,3.7.1.v20120104-1859,"",1364432621898
activated,workbench,org.eclipse.ui.workbench,3.7.1.v20120104-1859,"",1364432622924
executed,command,org.eclipse.ui,3.7.0.v20110928-1505,"org.eclipse.ui.edit.text.contentAssist.proposals",1364432623287
deactivated,workbench,org.eclipse.ui.workbench,3.7.1.v20120104-1859,"",1364432624651
activated,workbench,org.eclipse.ui.workbench,3.7.1.v20120104-1859,"",1364432625459
executed,command,org.eclipse.ui,3.7.0.v20110928-1505,"org.eclipse.ui.edit.text.contentAssist.proposals",1364432627393
deactivated,workbench,org.eclipse.ui.workbench,3.7.1.v20120104-1859,"",1364432629135
activated,workbench,org.eclipse.ui.workbench,3.7.1.v20120104-1859,"",1364432632462
deactivated,workbench,org.eclipse.ui.workbench,3.7.1.v20120104-1859,"",1364432635963
activated,workbench,org.eclipse.ui.workbench,3.7.1.v20120104-1859,"",1364432640778
deactivated,workbench,org.eclipse.ui.workbench,3.7.1.v20120104-1859,"",1364432645525
activated,workbench,org.eclipse.ui.workbench,3.7.1.v20120104-1859,"",1364432658340
executed,command,org.eclipse.ui.workbench.texteditor,3.7.0.v20110928-1504,"org.eclipse.ui.edit.text.goto.lineEnd",1364432662171
executed,command,org.eclipse.ui,3.7.0.v20110928-1505,"org.eclipse.ui.edit.undo",1364432663475
executed,command,org.eclipse.ui,3.7.0.v20110928-1505,"org.eclipse.ui.edit.undo",1364432663940
deactivated,workbench,org.eclipse.ui.workbench,3.7.1.v20120104-1859,"",1364432671751
activated,workbench,org.eclipse.ui.workbench,3.7.1.v20120104-1859,"",1364432673969
executed,command,org.eclipse.ui.workbench.texteditor,3.7.0.v20110928-1504,"org.eclipse.ui.edit.text.select.lineStart",1364432675186
deactivated,workbench,org.eclipse.ui.workbench,3.7.1.v20120104-1859,"",1364432675867
activated,workbench,org.eclipse.ui.workbench,3.7.1.v20120104-1859,"",1364432679711
executed,command,org.eclipse.ui.workbench.texteditor,3.7.0.v20110928-1504,"org.eclipse.ui.edit.text.select.lineStart",1364432681305
executed,command,org.eclipse.ui.workbench.texteditor,3.7.0.v20110928-1504,"org.eclipse.ui.edit.text.goto.lineEnd",1364432681937
executed,command,org.eclipse.ui.workbench.texteditor,3.7.0.v20110928-1504,"org.eclipse.ui.edit.text.select.lineStart",1364432682449
deactivated,workbench,org.eclipse.ui.workbench,3.7.1.v20120104-1859,"",1364432684549
activated,workbench,org.eclipse.ui.workbench,3.7.1.v20120104-1859,"",1364432685391
deactivated,workbench,org.eclipse.ui.workbench,3.7.1.v20120104-1859,"",1364432687112
activated,workbench,org.eclipse.ui.workbench,3.7.1.v20120104-1859,"",1364432687943
executed,command,org.eclipse.ui,3.7.0.v20110928-1505,"org.eclipse.ui.edit.text.contentAssist.proposals",1364432690367
deactivated,workbench,org.eclipse.ui.workbench,3.7.1.v20120104-1859,"",1364432691640
activated,workbench,org.eclipse.ui.workbench,3.7.1.v20120104-1859,"",1364432694062
executed,command,org.eclipse.ui,3.7.0.v20110928-1505,"org.eclipse.ui.edit.text.contentAssist.proposals",1364432696107
deactivated,workbench,org.eclipse.ui.workbench,3.7.1.v20120104-1859,"",1364432696623
activated,workbench,org.eclipse.ui.workbench,3.7.1.v20120104-1859,"",1364432697854
executed,command,org.eclipse.ui,3.7.0.v20110928-1505,"org.eclipse.ui.edit.text.contentAssist.proposals",1364432698230
deactivated,workbench,org.eclipse.ui.workbench,3.7.1.v20120104-1859,"",1364432699745
activated,workbench,org.eclipse.ui.workbench,3.7.1.v20120104-1859,"",1364432700472
executed,command,org.eclipse.ui,3.7.0.v20110928-1505,"org.eclipse.ui.edit.text.contentAssist.proposals",1364432700770
deactivated,workbench,org.eclipse.ui.workbench,3.7.1.v20120104-1859,"",1364432702482
activated,workbench,org.eclipse.ui.workbench,3.7.1.v20120104-1859,"",1364432705321
deactivated,workbench,org.eclipse.ui.workbench,3.7.1.v20120104-1859,"",1364432709638
activated,workbench,org.eclipse.ui.workbench,3.7.1.v20120104-1859,"",1364432713369
executed,command,org.eclipse.ui,3.7.0.v20110928-1505,"org.eclipse.ui.edit.text.contentAssist.proposals",1364432713763
deactivated,workbench,org.eclipse.ui.workbench,3.7.1.v20120104-1859,"",1364432716242
activated,workbench,org.eclipse.ui.workbench,3.7.1.v20120104-1859,"",1364432724128
executed,command,org.eclipse.ui,3.7.0.v20110928-1505,"org.eclipse.ui.edit.copy",1364432725999
deactivated,workbench,org.eclipse.ui.workbench,3.7.1.v20120104-1859,"",1364432726458
activated,workbench,org.eclipse.ui.workbench,3.7.1.v20120104-1859,"",1364432729347
opened,editor,org.eclipse.jdt.ui,3.7.2.v20120109-1427,"org.eclipse.jdt.ui.CompilationUnitEditor",1364432729561
activated,editor,org.eclipse.jdt.ui,3.7.2.v20120109-1427,"org.eclipse.jdt.ui.CompilationUnitEditor",1364432729692
executed,command,org.eclipse.ui.ide,3.7.0.v20110928-1505,"org.eclipse.ui.navigate.openResource",1364432729698
deactivated,workbench,org.eclipse.ui.workbench,3.7.1.v20120104-1859,"",1364432730679
executed,command,org.eclipse.ui,3.7.0.v20110928-1505,"org.eclipse.ui.edit.findReplace",1364432730732
executed,command,org.eclipse.ui,3.7.0.v20110928-1505,"org.eclipse.ui.edit.paste",1364432730924
activated,workbench,org.eclipse.ui.workbench,3.7.1.v20120104-1859,"",1364432732235
executed,command,org.eclipse.ui.workbench.texteditor,3.7.0.v20110928-1504,"org.eclipse.ui.edit.text.goto.lineEnd",1364432734464
executed,command,org.eclipse.ui.workbench.texteditor,3.7.0.v20110928-1504,"org.eclipse.ui.edit.text.select.lineStart",1364432735463
executed,command,org.eclipse.ui,3.7.0.v20110928-1505,"org.eclipse.ui.edit.copy",1364432735855
activated,editor,org.eclipse.jdt.ui,3.7.2.v20120109-1427,"org.eclipse.jdt.ui.CompilationUnitEditor",1364432738389
executed,command,org.eclipse.ui,3.7.0.v20110928-1505,"org.eclipse.ui.edit.paste",1364432741425
opened,editor,org.eclipse.jdt.ui,3.7.2.v20120109-1427,"org.eclipse.jdt.ui.ClassFileEditor",1364432747221
activated,editor,org.eclipse.jdt.ui,3.7.2.v20120109-1427,"org.eclipse.jdt.ui.ClassFileEditor",1364432747415
activated,editor,org.eclipse.jdt.ui,3.7.2.v20120109-1427,"org.eclipse.jdt.ui.CompilationUnitEditor",1364432748961
executed,command,org.eclipse.ui,3.7.0.v20110928-1505,"org.eclipse.ui.navigate.backwardHistory",1364432748969
executed,command,org.eclipse.ui,3.7.0.v20110928-1505,"org.eclipse.ui.file.save",1364432750238
deactivated,workbench,org.eclipse.ui.workbench,3.7.1.v20120104-1859,"",1364432751576
activated,workbench,org.eclipse.ui.workbench,3.7.1.v20120104-1859,"",1364432753284
deactivated,workbench,org.eclipse.ui.workbench,3.7.1.v20120104-1859,"",1364432761103
activated,workbench,org.eclipse.ui.workbench,3.7.1.v20120104-1859,"",1364432763284
deactivated,workbench,org.eclipse.ui.workbench,3.7.1.v20120104-1859,"",1364432763559
activated,workbench,org.eclipse.ui.workbench,3.7.1.v20120104-1859,"",1364432847105
deactivated,workbench,org.eclipse.ui.workbench,3.7.1.v20120104-1859,"",1364432849700
activated,workbench,org.eclipse.ui.workbench,3.7.1.v20120104-1859,"",1364432890951
activated,perspective,org.eclipse.jdt.ui,3.7.2.v20120109-1427,"org.eclipse.jdt.ui.JavaPerspective",1364432898014
deactivated,workbench,org.eclipse.ui.workbench,3.7.1.v20120104-1859,"",1364432903977
activated,workbench,org.eclipse.ui.workbench,3.7.1.v20120104-1859,"",1364432904996
executed,command,org.eclipse.ui.ide,3.7.0.v20110928-1505,"org.eclipse.ui.navigate.openResource",1364432905099
activated,view,org.eclipse.search,3.7.0.v20110928-1504,"org.eclipse.search.ui.views.SearchView",1364432906685
activated,editor,org.eclipse.jdt.ui,3.7.2.v20120109-1427,"org.eclipse.jdt.ui.CompilationUnitEditor",1364432907764
executed,command,org.eclipse.ui,3.7.0.v20110928-1505,"org.eclipse.ui.edit.copy",1364432914768
executed,command,org.eclipse.ui,3.7.0.v20110928-1505,"org.eclipse.ui.edit.copy",1364432919727
activated,editor,org.eclipse.jdt.ui,3.7.2.v20120109-1427,"org.eclipse.jdt.ui.CompilationUnitEditor",1364432926309
activated,editor,org.eclipse.jdt.ui,3.7.2.v20120109-1427,"org.eclipse.jdt.ui.CompilationUnitEditor",1364432928901
activated,editor,org.eclipse.jdt.ui,3.7.2.v20120109-1427,"org.eclipse.jdt.ui.CompilationUnitEditor",1364432931811
executed,command,org.eclipse.ui,3.7.0.v20110928-1505,"org.eclipse.ui.edit.paste",1364432934942
executed,command,org.eclipse.ui.workbench.texteditor,3.7.0.v20110928-1504,"org.eclipse.ui.edit.text.goto.lineEnd",1364432937005
executed,command,org.eclipse.ui.workbench.texteditor,3.7.0.v20110928-1504,"org.eclipse.ui.edit.text.select.lineStart",1364432937285
executed,command,org.eclipse.ui.workbench.texteditor,3.7.0.v20110928-1504,"org.eclipse.ui.edit.text.select.lineEnd",1364432938741
executed,command,org.eclipse.ui.workbench.texteditor,3.7.0.v20110928-1504,"org.eclipse.ui.edit.text.select.lineStart",1364432940325
executed,command,org.eclipse.ui,3.7.0.v20110928-1505,"org.eclipse.ui.edit.undo",1364432940948
executed,command,org.eclipse.ui.workbench.texteditor,3.7.0.v20110928-1504,"org.eclipse.ui.edit.text.select.lineEnd",1364432944053
executed,command,org.eclipse.ui,3.7.0.v20110928-1505,"org.eclipse.ui.edit.cut",1364432944398
executed,command,org.eclipse.ui.workbench.texteditor,3.7.0.v20110928-1504,"org.eclipse.ui.edit.text.select.lineEnd",1364432945892
executed,command,org.eclipse.ui,3.7.0.v20110928-1505,"org.eclipse.ui.edit.cut",1364432946238
executed,command,org.eclipse.ui.workbench.texteditor,3.7.0.v20110928-1504,"org.eclipse.ui.edit.text.select.lineEnd",1364432947677
executed,command,org.eclipse.ui,3.7.0.v20110928-1505,"org.eclipse.ui.edit.cut",1364432948034
executed,command,org.eclipse.ui.workbench.texteditor,3.7.0.v20110928-1504,"org.eclipse.ui.edit.text.select.lineEnd",1364432949180
executed,command,org.eclipse.ui,3.7.0.v20110928-1505,"org.eclipse.ui.edit.cut",1364432949555
executed,command,org.eclipse.ui.workbench.texteditor,3.7.0.v20110928-1504,"org.eclipse.ui.edit.text.select.lineEnd",1364432950924
executed,command,org.eclipse.ui,3.7.0.v20110928-1505,"org.eclipse.ui.edit.cut",1364432951345
executed,command,org.eclipse.ui,3.7.0.v20110928-1505,"org.eclipse.ui.edit.selectAll",1364432954477
executed,command,org.eclipse.jdt.ui,3.7.2.v20120109-1427,"org.eclipse.jdt.ui.edit.text.java.indent",1364432954876
executed,command,org.eclipse.ui,3.7.0.v20110928-1505,"org.eclipse.ui.edit.cut",1364432959634
executed,command,org.eclipse.ui.workbench.texteditor,3.7.0.v20110928-1504,"org.eclipse.ui.edit.text.select.lineEnd",1364432960428
executed,command,org.eclipse.ui,3.7.0.v20110928-1505,"org.eclipse.ui.edit.cut",1364432960733
executed,command,org.eclipse.ui.workbench.texteditor,3.7.0.v20110928-1504,"org.eclipse.ui.edit.text.select.lineEnd",1364432965875
executed,command,org.eclipse.ui,3.7.0.v20110928-1505,"org.eclipse.ui.edit.copy",1364432966621
executed,command,org.eclipse.ui.workbench.texteditor,3.7.0.v20110928-1504,"org.eclipse.ui.edit.text.select.lineStart",1364432967955
executed,command,org.eclipse.ui,3.7.0.v20110928-1505,"org.eclipse.ui.edit.paste",1364432970121
executed,command,org.eclipse.jdt.ui,3.7.2.v20120109-1427,"org.eclipse.jdt.ui.edit.text.java.toggle.comment",1364432971356
executed,command,org.eclipse.ui.workbench.texteditor,3.7.0.v20110928-1504,"org.eclipse.ui.edit.text.goto.lineEnd",1364432972027
executed,command,org.eclipse.ui.workbench.texteditor,3.7.0.v20110928-1504,"org.eclipse.ui.edit.text.select.lineStart",1364432972683
executed,command,org.eclipse.ui.workbench.texteditor,3.7.0.v20110928-1504,"org.eclipse.ui.edit.text.select.lineStart",1364432972875
executed,command,org.eclipse.ui.workbench.texteditor,3.7.0.v20110928-1504,"org.eclipse.ui.edit.text.select.lineEnd",1364432977243
executed,command,org.eclipse.ui,3.7.0.v20110928-1505,"org.eclipse.ui.edit.cut",1364432978026
executed,command,org.eclipse.ui,3.7.0.v20110928-1505,"org.eclipse.ui.edit.undo",1364432978968
executed,command,org.eclipse.ui,3.7.0.v20110928-1505,"org.eclipse.ui.edit.undo",1364432979983
executed,command,org.eclipse.ui.workbench.texteditor,3.7.0.v20110928-1504,"org.eclipse.ui.edit.text.goto.lineEnd",1364432982555
executed,command,org.eclipse.ui,3.7.0.v20110928-1505,"org.eclipse.ui.edit.cut",1364432986311
executed,command,org.eclipse.ui.workbench.texteditor,3.7.0.v20110928-1504,"org.eclipse.ui.edit.text.goto.lineEnd",1364432987618
executed,command,org.eclipse.ui,3.7.0.v20110928-1505,"org.eclipse.ui.edit.paste",1364432989318
executed,command,org.eclipse.ui,3.7.0.v20110928-1505,"org.eclipse.ui.edit.undo",1364432989822
executed,command,org.eclipse.ui,3.7.0.v20110928-1505,"org.eclipse.ui.edit.paste",1364432992472
executed,command,org.eclipse.ui,3.7.0.v20110928-1505,"org.eclipse.ui.edit.cut",1364432998470
executed,command,org.eclipse.ui.workbench.texteditor,3.7.0.v20110928-1504,"org.eclipse.ui.edit.text.goto.lineEnd",1364433000188
executed,command,org.eclipse.ui,3.7.0.v20110928-1505,"org.eclipse.ui.edit.paste",1364433001898
executed,command,org.eclipse.ui.workbench.texteditor,3.7.0.v20110928-1504,"org.eclipse.ui.edit.text.select.lineStart",1364433004338
executed,command,org.eclipse.ui.workbench.texteditor,3.7.0.v20110928-1504,"org.eclipse.ui.edit.text.select.lineEnd",1364433007794
executed,command,org.eclipse.ui,3.7.0.v20110928-1505,"org.eclipse.ui.edit.cut",1364433010424
executed,command,org.eclipse.ui.workbench.texteditor,3.7.0.v20110928-1504,"org.eclipse.ui.edit.text.goto.lineEnd",1364433011898
executed,command,org.eclipse.ui,3.7.0.v20110928-1505,"org.eclipse.ui.edit.paste",1364433014119
executed,command,org.eclipse.ui,3.7.0.v20110928-1505,"org.eclipse.ui.edit.cut",1364433019638
executed,command,org.eclipse.ui.workbench.texteditor,3.7.0.v20110928-1504,"org.eclipse.ui.edit.text.goto.lineEnd",1364433020553
executed,command,org.eclipse.ui,3.7.0.v20110928-1505,"org.eclipse.ui.edit.paste",1364433022463
executed,command,org.eclipse.ui.workbench.texteditor,3.7.0.v20110928-1504,"org.eclipse.ui.edit.text.select.lineStart",1364433024258
executed,command,org.eclipse.ui,3.7.0.v20110928-1505,"org.eclipse.ui.edit.cut",1364433025949
executed,command,org.eclipse.ui.workbench.texteditor,3.7.0.v20110928-1504,"org.eclipse.ui.edit.text.goto.lineEnd",1364433026665
executed,command,org.eclipse.ui,3.7.0.v20110928-1505,"org.eclipse.ui.edit.paste",1364433028503
