what,kind,bundleId,bundleVersion,description,time
started,bundle,org.eclipse.team.ui,3.6.101.R37x_v20111109-0800,"org.eclipse.team.ui",1363171536729
started,bundle,org.eclipse.ui,3.7.0.v20110928-1505,"org.eclipse.ui",1363171536731
started,bundle,org.eclipse.ui.console,3.5.100.v20111007_r372,"org.eclipse.ui.console",1363171536731
started,bundle,org.eclipse.ui.editors,3.7.0.v20110928-1504,"org.eclipse.ui.editors",1363171536731
started,bundle,org.eclipse.ui.forms,3.5.101.v20111011-1919,"org.eclipse.ui.forms",1363171536733
started,bundle,org.eclipse.ui.ide,3.7.0.v20110928-1505,"org.eclipse.ui.ide",1363171536734
started,bundle,org.eclipse.ui.net,1.2.100.v20111208-1155,"org.eclipse.ui.net",1363171536735
started,bundle,org.eclipse.ui.views,3.6.0.v20110928-1505,"org.eclipse.ui.views",1363171536736
started,bundle,org.eclipse.ui.views.log,1.0.200.v20110404,"org.eclipse.ui.views.log",1363171536737
started,bundle,org.eclipse.ui.workbench,3.7.1.v20120104-1859,"org.eclipse.ui.workbench",1363171536738
started,bundle,org.eclipse.ui.workbench.texteditor,3.7.0.v20110928-1504,"org.eclipse.ui.workbench.texteditor",1363171536740
started,bundle,org.eclipse.update.configurator,3.3.100.v20100512,"org.eclipse.update.configurator",1363171536740
started,bundle,org.eclipse.update.core,3.2.500.v20110330,"org.eclipse.update.core",1363171536741
started,bundle,org.eclipse.update.scheduler,3.2.300.v20100512,"org.eclipse.update.scheduler",1363171536742
started,bundle,com.android.ide.eclipse.adt,21.0.1.v201212060256-543035,"com.android.ide.eclipse.adt",1363171536742
started,bundle,com.android.ide.eclipse.base,21.0.1.v201212060256-543035,"com.android.ide.eclipse.base",1363171536743
os,sysinfo,,,"macosx",1363171536748
arch,sysinfo,,,"x86_64",1363171536748
ws,sysinfo,,,"cocoa",1363171536748
locale,sysinfo,,,"ko_KR",1363171536748
processors,sysinfo,,,"4",1363171536748
java.runtime.name,sysinfo,,,"Java(TM) SE Runtime Environment",1363171536748
java.runtime.version,sysinfo,,,"1.6.0_43-b01-447-11M4203",1363171536748
java.specification.name,sysinfo,,,"Java Platform API Specification",1363171536748
java.specification.vendor,sysinfo,,,"Sun Microsystems Inc.",1363171536748
java.specification.version,sysinfo,,,"1.6",1363171536748
java.vendor,sysinfo,,,"Apple Inc.",1363171536748
java.version,sysinfo,,,"1.6.0_43",1363171536748
java.vm.info,sysinfo,,,"mixed mode",1363171536748
java.vm.name,sysinfo,,,"Java HotSpot(TM) 64-Bit Server VM",1363171536748
java.vm.specification.name,sysinfo,,,"Java Virtual Machine Specification",1363171536748
java.vm.specification.vendor,sysinfo,,,"Sun Microsystems Inc.",1363171536748
java.vm.specification.version,sysinfo,,,"1.0",1363171536748
java.vm.vendor,sysinfo,,,"Apple Inc.",1363171536748
java.vm.version,sysinfo,,,"20.14-b01-447",1363171536748
opened,view,org.eclipse.ui.ide,3.7.0.v20110928-1505,"org.eclipse.ui.views.ProblemView",1363171537282
activated,view,org.eclipse.jdt.ui,3.7.2.v20120109-1427,"org.eclipse.jdt.ui.PackageExplorer",1363171538804
activated,editor,org.eclipse.jdt.ui,3.7.2.v20120109-1427,"org.eclipse.jdt.ui.CompilationUnitEditor",1363171538806
activated,workbench,org.eclipse.ui.workbench,3.7.1.v20120104-1859,"",1363171539116
error,log,,,"The project description file (.project) for 'org.opros.tpl.taskmodel.edit' is missing.  This file contains important information about the project.  The project will not function properly until this file is restored.",1363171539311
deactivated,workbench,org.eclipse.ui.workbench,3.7.1.v20120104-1859,"",1363171539517
activated,workbench,org.eclipse.ui.workbench,3.7.1.v20120104-1859,"",1363171541673
started,bundle,org.eclipse.wst.sse.core,1.1.602.v201112071516,"org.eclipse.wst.sse.core",1363171545675
started,bundle,org.eclipse.wst.xml.core,1.1.602.v201201091944,"org.eclipse.wst.xml.core",1363171550690
started,bundle,org.eclipse.debug.ui,3.7.102.v20111129-1423_r372,"org.eclipse.debug.ui",1363171560353
started,bundle,org.eclipse.jdt.debug.ui,3.6.1.v20111006_r372,"org.eclipse.jdt.debug.ui",1363171560705
activated,editor,org.eclipse.jdt.ui,3.7.2.v20120109-1427,"org.eclipse.jdt.ui.CompilationUnitEditor",1363171562512
deactivated,workbench,org.eclipse.ui.workbench,3.7.1.v20120104-1859,"",1363171569050
activated,workbench,org.eclipse.ui.workbench,3.7.1.v20120104-1859,"",1363171574179
started,bundle,org.eclipse.rap.ui.launch,1.4.2.20120213-1325,"org.eclipse.rap.ui.launch",1363171576954
activated,view,org.eclipse.jdt.ui,3.7.2.v20120109-1427,"org.eclipse.jdt.ui.PackageExplorer",1363171578106
deactivated,workbench,org.eclipse.ui.workbench,3.7.1.v20120104-1859,"",1363171580972
activated,workbench,org.eclipse.ui.workbench,3.7.1.v20120104-1859,"",1363171583627
executed,command,org.eclipse.ltk.ui.refactoring,3.6.0.v20110928-1453,"org.eclipse.ltk.ui.refactoring.commands.deleteResources",1363171583722
executed,command,org.eclipse.ui,3.7.0.v20110928-1505,"org.eclipse.ui.edit.delete",1363171583722
opened,editor,org.eclipse.jdt.ui,3.7.2.v20120109-1427,"org.eclipse.jdt.ui.CompilationUnitEditor",1363171584037
closed,editor,org.eclipse.jdt.ui,3.7.2.v20120109-1427,"org.eclipse.jdt.ui.CompilationUnitEditor",1363171584124
started,bundle,org.eclipse.jdt.junit,3.7.0.v20110928-1453,"org.eclipse.jdt.junit",1363171584195
started,bundle,org.eclipse.compare,3.5.202.R37x_v20111109-0800,"org.eclipse.compare",1363171585461
executed,command,org.eclipse.pde.ui,3.6.100.v20120103_r372,"org.eclipse.pde.ui.runtimeWorkbenchShortcut.run",1363171587301
started,bundle,org.eclipse.pde.build,3.7.0.v20111116-2009,"org.eclipse.pde.build",1363171587391
deactivated,workbench,org.eclipse.ui.workbench,3.7.1.v20120104-1859,"",1363171589122
activated,workbench,org.eclipse.ui.workbench,3.7.1.v20120104-1859,"",1363171685827
deactivated,workbench,org.eclipse.ui.workbench,3.7.1.v20120104-1859,"",1363171689954
activated,workbench,org.eclipse.ui.workbench,3.7.1.v20120104-1859,"",1363171707736
deactivated,workbench,org.eclipse.ui.workbench,3.7.1.v20120104-1859,"",1363171709449
activated,workbench,org.eclipse.ui.workbench,3.7.1.v20120104-1859,"",1363171710163
executed,command,org.eclipse.ui.ide,3.7.0.v20110928-1505,"org.eclipse.ui.navigate.openResource",1363171710249
deactivated,workbench,org.eclipse.ui.workbench,3.7.1.v20120104-1859,"",1363171710886
activated,workbench,org.eclipse.ui.workbench,3.7.1.v20120104-1859,"",1363171714567
opened,editor,org.eclipse.jdt.ui,3.7.2.v20120109-1427,"org.eclipse.jdt.ui.CompilationUnitEditor",1363171714712
activated,editor,org.eclipse.jdt.ui,3.7.2.v20120109-1427,"org.eclipse.jdt.ui.CompilationUnitEditor",1363171714883
executed,command,org.eclipse.ui.ide,3.7.0.v20110928-1505,"org.eclipse.ui.navigate.openResource",1363171714906
deactivated,workbench,org.eclipse.ui.workbench,3.7.1.v20120104-1859,"",1363171746199
activated,workbench,org.eclipse.ui.workbench,3.7.1.v20120104-1859,"",1363171756739
deactivated,workbench,org.eclipse.ui.workbench,3.7.1.v20120104-1859,"",1363171757272
activated,workbench,org.eclipse.ui.workbench,3.7.1.v20120104-1859,"",1363171757548
started,bundle,org.eclipse.mylyn.java.tasks,3.6.0.v20110608-1400,"org.eclipse.mylyn.java.tasks",1363171761259
deactivated,workbench,org.eclipse.ui.workbench,3.7.1.v20120104-1859,"",1363171765318
activated,workbench,org.eclipse.ui.workbench,3.7.1.v20120104-1859,"",1363171783224
deactivated,workbench,org.eclipse.ui.workbench,3.7.1.v20120104-1859,"",1363171787678
activated,workbench,org.eclipse.ui.workbench,3.7.1.v20120104-1859,"",1363171793120
deactivated,workbench,org.eclipse.ui.workbench,3.7.1.v20120104-1859,"",1363171795258
started,bundle,org.eclipse.equinox.p2.garbagecollector,1.0.200.v20110815-1419,"org.eclipse.equinox.p2.garbagecollector",1363171839320
activated,workbench,org.eclipse.ui.workbench,3.7.1.v20120104-1859,"",1363171843633
deactivated,workbench,org.eclipse.ui.workbench,3.7.1.v20120104-1859,"",1363171845365
activated,workbench,org.eclipse.ui.workbench,3.7.1.v20120104-1859,"",1363171847631
opened,editor,org.eclipse.jdt.ui,3.7.2.v20120109-1427,"org.eclipse.jdt.ui.CompilationUnitEditor",1363171847839
activated,editor,org.eclipse.jdt.ui,3.7.2.v20120109-1427,"org.eclipse.jdt.ui.CompilationUnitEditor",1363171848049
executed,command,org.eclipse.ui.ide,3.7.0.v20110928-1505,"org.eclipse.ui.navigate.openResource",1363171848077
deactivated,workbench,org.eclipse.ui.workbench,3.7.1.v20120104-1859,"",1363171848604
activated,workbench,org.eclipse.ui.workbench,3.7.1.v20120104-1859,"",1363171851649
opened,editor,org.eclipse.jdt.ui,3.7.2.v20120109-1427,"org.eclipse.jdt.ui.CompilationUnitEditor",1363171851789
activated,editor,org.eclipse.jdt.ui,3.7.2.v20120109-1427,"org.eclipse.jdt.ui.CompilationUnitEditor",1363171851895
executed,command,org.eclipse.ui.ide,3.7.0.v20110928-1505,"org.eclipse.ui.navigate.openResource",1363171851900
started,bundle,org.eclipse.mylyn.ide.ui,3.6.0.v20110608-1400,"org.eclipse.mylyn.ide.ui",1363171854746
started,bundle,org.eclipse.mylyn.java.ui,3.6.0.v20110608-1400,"org.eclipse.mylyn.java.ui",1363171854766
started,bundle,org.eclipse.pde.api.tools,1.0.301.v20111129-2053,"org.eclipse.pde.api.tools",1363171854809
started,bundle,org.eclipse.pde.api.tools.ui,1.0.301.v20110803_r371,"org.eclipse.pde.api.tools.ui",1363171854811
started,bundle,org.eclipse.mylyn.pde.ui,3.6.0.v20110608-1400,"org.eclipse.mylyn.pde.ui",1363171854812
executed,command,org.eclipse.ui,3.7.0.v20110928-1505,"org.eclipse.ui.edit.text.contentAssist.proposals",1363171855769
started,bundle,org.eclipse.help.base,3.6.2.v201202080800,"org.eclipse.help.base",1363171856231
started,bundle,org.eclipse.help.ui,3.5.101.r37_20110819,"org.eclipse.help.ui",1363171856238
started,bundle,org.eclipse.equinox.http.jetty,2.0.100.v20110502,"org.eclipse.equinox.http.jetty",1363171856265
started,bundle,org.eclipse.equinox.http.servlet,1.1.200.v20110502,"org.eclipse.equinox.http.servlet",1363171856305
started,bundle,org.eclipse.equinox.http.registry,1.1.100.v20110502,"org.eclipse.equinox.http.registry",1363171856404
deactivated,workbench,org.eclipse.ui.workbench,3.7.1.v20120104-1859,"",1363171859563
activated,workbench,org.eclipse.ui.workbench,3.7.1.v20120104-1859,"",1363171865520
executed,command,org.eclipse.ui,3.7.0.v20110928-1505,"org.eclipse.ui.edit.text.contentAssist.proposals",1363171866704
executed,command,,,"AUTOGEN:::org.eclipse.jdt.debug.CompilationUnitEditor.BreakpointRulerActions/org.eclipse.jdt.debug.ui.actions.ManageBreakpointRulerAction",1363171872621
deactivated,workbench,org.eclipse.ui.workbench,3.7.1.v20120104-1859,"",1363171873194
activated,workbench,org.eclipse.ui.workbench,3.7.1.v20120104-1859,"",1363171873632
activated,view,org.eclipse.ui.console,3.5.100.v20111007_r372,"org.eclipse.ui.console.ConsoleView",1363171874508
deactivated,workbench,org.eclipse.ui.workbench,3.7.1.v20120104-1859,"",1363171874633
activated,workbench,org.eclipse.ui.workbench,3.7.1.v20120104-1859,"",1363171876907
activated,editor,org.eclipse.jdt.ui,3.7.2.v20120109-1427,"org.eclipse.jdt.ui.CompilationUnitEditor",1363171878067
executed,command,org.eclipse.ui,3.7.0.v20110928-1505,"org.eclipse.ui.file.save",1363171879395
deactivated,workbench,org.eclipse.ui.workbench,3.7.1.v20120104-1859,"",1363171883489
activated,workbench,org.eclipse.ui.workbench,3.7.1.v20120104-1859,"",1363171884166
deactivated,workbench,org.eclipse.ui.workbench,3.7.1.v20120104-1859,"",1363171884316
activated,workbench,org.eclipse.ui.workbench,3.7.1.v20120104-1859,"",1363171884508
deactivated,workbench,org.eclipse.ui.workbench,3.7.1.v20120104-1859,"",1363171885219
opened,view,org.eclipse.debug.ui,3.7.102.v20111129-1423_r372,"org.eclipse.debug.ui.VariableView",1363171896937
opened,view,org.eclipse.debug.ui,3.7.102.v20111129-1423_r372,"org.eclipse.debug.ui.DebugView",1363171897067
activated,perspective,org.eclipse.debug.ui,3.7.102.v20111129-1423_r372,"org.eclipse.debug.ui.DebugPerspective",1363171897380
activated,workbench,org.eclipse.ui.workbench,3.7.1.v20120104-1859,"",1363171897571
opened,view,org.eclipse.debug.ui,3.7.102.v20111129-1423_r372,"org.eclipse.debug.ui.BreakpointView",1363171898411
activated,view,org.eclipse.debug.ui,3.7.102.v20111129-1423_r372,"org.eclipse.debug.ui.DebugView",1363171901460
executed,command,org.eclipse.debug.ui,3.7.102.v20111129-1423_r372,"org.eclipse.debug.ui.commands.Resume",1363171901535
executed,command,org.eclipse.debug.ui,3.7.102.v20111129-1423_r372,"org.eclipse.debug.ui.commands.Resume",1363171902164
executed,command,org.eclipse.debug.ui,3.7.102.v20111129-1423_r372,"org.eclipse.debug.ui.commands.Resume",1363171902564
deactivated,workbench,org.eclipse.ui.workbench,3.7.1.v20120104-1859,"",1363171903678
activated,workbench,org.eclipse.ui.workbench,3.7.1.v20120104-1859,"",1363171905411
activated,editor,org.eclipse.jdt.ui,3.7.2.v20120109-1427,"org.eclipse.jdt.ui.CompilationUnitEditor",1363171906885
executed,command,,,"AUTOGEN:::org.eclipse.jdt.debug.CompilationUnitEditor.BreakpointRulerActions/org.eclipse.jdt.debug.ui.actions.ManageBreakpointRulerAction",1363171907152
activated,view,org.eclipse.debug.ui,3.7.102.v20111129-1423_r372,"org.eclipse.debug.ui.DebugView",1363171908350
executed,command,org.eclipse.debug.ui,3.7.102.v20111129-1423_r372,"org.eclipse.debug.ui.commands.Resume",1363171908437
deactivated,workbench,org.eclipse.ui.workbench,3.7.1.v20120104-1859,"",1363171909087
activated,workbench,org.eclipse.ui.workbench,3.7.1.v20120104-1859,"",1363171916555
activated,editor,org.eclipse.jdt.ui,3.7.2.v20120109-1427,"org.eclipse.jdt.ui.CompilationUnitEditor",1363171917558
executed,command,,,"AUTOGEN:::org.eclipse.jdt.debug.CompilationUnitEditor.BreakpointRulerActions/org.eclipse.jdt.debug.ui.actions.ManageBreakpointRulerAction",1363171917702
activated,view,org.eclipse.ui.console,3.5.100.v20111007_r372,"org.eclipse.ui.console.ConsoleView",1363171919376
deactivated,workbench,org.eclipse.ui.workbench,3.7.1.v20120104-1859,"",1363171919884
activated,workbench,org.eclipse.ui.workbench,3.7.1.v20120104-1859,"",1363171921530
deactivated,workbench,org.eclipse.ui.workbench,3.7.1.v20120104-1859,"",1363171923631
activated,workbench,org.eclipse.ui.workbench,3.7.1.v20120104-1859,"",1363171926838
activated,view,org.eclipse.debug.ui,3.7.102.v20111129-1423_r372,"org.eclipse.debug.ui.VariableView",1363171928438
activated,editor,org.eclipse.jdt.ui,3.7.2.v20120109-1427,"org.eclipse.jdt.ui.CompilationUnitEditor",1363171930976
executed,command,org.eclipse.ui.workbench.texteditor,3.7.0.v20110928-1504,"org.eclipse.ui.edit.text.goto.lineEnd",1363171935297
executed,command,org.eclipse.ui,3.7.0.v20110928-1505,"org.eclipse.ui.file.save",1363171939523
deactivated,workbench,org.eclipse.ui.workbench,3.7.1.v20120104-1859,"",1363171939993
activated,workbench,org.eclipse.ui.workbench,3.7.1.v20120104-1859,"",1363171941963
deactivated,workbench,org.eclipse.ui.workbench,3.7.1.v20120104-1859,"",1363171944409
activated,workbench,org.eclipse.ui.workbench,3.7.1.v20120104-1859,"",1363171949973
executed,command,,,"AUTOGEN:::org.eclipse.jdt.debug.CompilationUnitEditor.BreakpointRulerActions/org.eclipse.jdt.debug.ui.actions.ManageBreakpointRulerAction",1363171950962
deactivated,workbench,org.eclipse.ui.workbench,3.7.1.v20120104-1859,"",1363171951445
activated,workbench,org.eclipse.ui.workbench,3.7.1.v20120104-1859,"",1363171956125
activated,view,org.eclipse.debug.ui,3.7.102.v20111129-1423_r372,"org.eclipse.debug.ui.DebugView",1363171958378
executed,command,org.eclipse.debug.ui,3.7.102.v20111129-1423_r372,"org.eclipse.debug.ui.commands.StepOver",1363171958458
activated,view,org.eclipse.debug.ui,3.7.102.v20111129-1423_r372,"org.eclipse.debug.ui.VariableView",1363171959541
activated,view,org.eclipse.debug.ui,3.7.102.v20111129-1423_r372,"org.eclipse.debug.ui.DebugView",1363171961444
executed,command,org.eclipse.debug.ui,3.7.102.v20111129-1423_r372,"org.eclipse.debug.ui.commands.Resume",1363171961507
deactivated,workbench,org.eclipse.ui.workbench,3.7.1.v20120104-1859,"",1363171963482
activated,workbench,org.eclipse.ui.workbench,3.7.1.v20120104-1859,"",1363171964094
deactivated,workbench,org.eclipse.ui.workbench,3.7.1.v20120104-1859,"",1363171964411
activated,workbench,org.eclipse.ui.workbench,3.7.1.v20120104-1859,"",1363171965082
activated,editor,org.eclipse.jdt.ui,3.7.2.v20120109-1427,"org.eclipse.jdt.ui.CompilationUnitEditor",1363171965292
executed,command,org.eclipse.ui,3.7.0.v20110928-1505,"org.eclipse.ui.edit.copy",1363171965827
deactivated,workbench,org.eclipse.ui.workbench,3.7.1.v20120104-1859,"",1363171966253
activated,workbench,org.eclipse.ui.workbench,3.7.1.v20120104-1859,"",1363171968460
opened,editor,org.eclipse.jdt.ui,3.7.2.v20120109-1427,"org.eclipse.jdt.ui.CompilationUnitEditor",1363171968754
activated,editor,org.eclipse.jdt.ui,3.7.2.v20120109-1427,"org.eclipse.jdt.ui.CompilationUnitEditor",1363171968905
executed,command,org.eclipse.ui.ide,3.7.0.v20110928-1505,"org.eclipse.ui.navigate.openResource",1363171969038
activated,view,org.eclipse.ui.views,3.6.0.v20110928-1505,"org.eclipse.ui.views.ContentOutline",1363171969937
activated,editor,org.eclipse.jdt.ui,3.7.2.v20120109-1427,"org.eclipse.jdt.ui.CompilationUnitEditor",1363171974783
deactivated,workbench,org.eclipse.ui.workbench,3.7.1.v20120104-1859,"",1363171975126
activated,workbench,org.eclipse.ui.workbench,3.7.1.v20120104-1859,"",1363171978175
opened,editor,org.eclipse.jdt.ui,3.7.2.v20120109-1427,"org.eclipse.jdt.ui.CompilationUnitEditor",1363171978357
activated,editor,org.eclipse.jdt.ui,3.7.2.v20120109-1427,"org.eclipse.jdt.ui.CompilationUnitEditor",1363171978449
executed,command,org.eclipse.ui.ide,3.7.0.v20110928-1505,"org.eclipse.ui.navigate.openResource",1363171978520
activated,view,org.eclipse.ui.views,3.6.0.v20110928-1505,"org.eclipse.ui.views.ContentOutline",1363171979415
activated,editor,org.eclipse.jdt.ui,3.7.2.v20120109-1427,"org.eclipse.jdt.ui.CompilationUnitEditor",1363171986771
executed,command,org.eclipse.ui.workbench.texteditor,3.7.0.v20110928-1504,"org.eclipse.ui.edit.text.goto.lineEnd",1363171991604
executed,command,org.eclipse.ui.workbench.texteditor,3.7.0.v20110928-1504,"org.eclipse.ui.edit.text.select.lineStart",1363171996890
opened,view,org.eclipse.jdt.ui,3.7.2.v20120109-1427,"org.eclipse.jdt.callhierarchy.view",1363172003238
activated,view,org.eclipse.jdt.ui,3.7.2.v20120109-1427,"org.eclipse.jdt.callhierarchy.view",1363172003266
executed,command,org.eclipse.jdt.ui,3.7.2.v20120109-1427,"org.eclipse.jdt.ui.edit.text.java.open.call.hierarchy",1363172003311
activated,editor,org.eclipse.jdt.ui,3.7.2.v20120109-1427,"org.eclipse.jdt.ui.CompilationUnitEditor",1363172005400
activated,view,org.eclipse.ui.views,3.6.0.v20110928-1505,"org.eclipse.ui.views.ContentOutline",1363172013072
activated,editor,org.eclipse.jdt.ui,3.7.2.v20120109-1427,"org.eclipse.jdt.ui.CompilationUnitEditor",1363172019867
opened,editor,org.eclipse.jdt.ui,3.7.2.v20120109-1427,"org.eclipse.jdt.ui.CompilationUnitEditor",1363172022900
activated,editor,org.eclipse.jdt.ui,3.7.2.v20120109-1427,"org.eclipse.jdt.ui.CompilationUnitEditor",1363172023179
executed,command,org.eclipse.ui,3.7.0.v20110928-1505,"org.eclipse.ui.navigate.backwardHistory",1363172031286
executed,command,org.eclipse.ui,3.7.0.v20110928-1505,"org.eclipse.ui.navigate.backwardHistory",1363172032022
activated,editor,org.eclipse.jdt.ui,3.7.2.v20120109-1427,"org.eclipse.jdt.ui.CompilationUnitEditor",1363172032597
executed,command,org.eclipse.ui,3.7.0.v20110928-1505,"org.eclipse.ui.navigate.backwardHistory",1363172032603
executed,command,org.eclipse.ui,3.7.0.v20110928-1505,"org.eclipse.ui.navigate.backwardHistory",1363172033646
executed,command,org.eclipse.ui,3.7.0.v20110928-1505,"org.eclipse.ui.edit.undo",1363172036875
executed,command,org.eclipse.ui,3.7.0.v20110928-1505,"org.eclipse.ui.edit.redo",1363172037750
executed,command,org.eclipse.ui,3.7.0.v20110928-1505,"org.eclipse.ui.edit.undo",1363172039133
executed,command,org.eclipse.ui,3.7.0.v20110928-1505,"org.eclipse.ui.edit.undo",1363172039395
executed,command,org.eclipse.ui,3.7.0.v20110928-1505,"org.eclipse.ui.edit.undo",1363172039620
executed,command,org.eclipse.ui,3.7.0.v20110928-1505,"org.eclipse.ui.edit.undo",1363172039864
executed,command,org.eclipse.ui,3.7.0.v20110928-1505,"org.eclipse.ui.edit.undo",1363172039916
executed,command,org.eclipse.ui,3.7.0.v20110928-1505,"org.eclipse.ui.edit.undo",1363172039953
executed,command,org.eclipse.ui,3.7.0.v20110928-1505,"org.eclipse.ui.edit.undo",1363172039969
executed,command,org.eclipse.ui,3.7.0.v20110928-1505,"org.eclipse.ui.edit.undo",1363172040006
executed,command,org.eclipse.ui,3.7.0.v20110928-1505,"org.eclipse.ui.edit.undo",1363172040033
activated,view,org.eclipse.ui.views,3.6.0.v20110928-1505,"org.eclipse.ui.views.ContentOutline",1363172043509
activated,editor,org.eclipse.jdt.ui,3.7.2.v20120109-1427,"org.eclipse.jdt.ui.CompilationUnitEditor",1363172055395
deactivated,workbench,org.eclipse.ui.workbench,3.7.1.v20120104-1859,"",1363172060179
activated,workbench,org.eclipse.ui.workbench,3.7.1.v20120104-1859,"",1363172060852
executed,command,org.eclipse.ui.ide,3.7.0.v20110928-1505,"org.eclipse.ui.navigate.openResource",1363172060907
deactivated,workbench,org.eclipse.ui.workbench,3.7.1.v20120104-1859,"",1363172065749
activated,workbench,org.eclipse.ui.workbench,3.7.1.v20120104-1859,"",1363172068493
opened,editor,org.eclipse.jdt.ui,3.7.2.v20120109-1427,"org.eclipse.jdt.ui.CompilationUnitEditor",1363172068666
activated,editor,org.eclipse.jdt.ui,3.7.2.v20120109-1427,"org.eclipse.jdt.ui.CompilationUnitEditor",1363172068769
executed,command,org.eclipse.ui.ide,3.7.0.v20110928-1505,"org.eclipse.ui.navigate.openResource",1363172068771
opened,editor,org.eclipse.jdt.ui,3.7.2.v20120109-1427,"org.eclipse.jdt.ui.CompilationUnitEditor",1363172071982
activated,editor,org.eclipse.jdt.ui,3.7.2.v20120109-1427,"org.eclipse.jdt.ui.CompilationUnitEditor",1363172072069
executed,command,org.eclipse.ui,3.7.0.v20110928-1505,"org.eclipse.ui.edit.copy",1363172076826
activated,editor,org.eclipse.jdt.ui,3.7.2.v20120109-1427,"org.eclipse.jdt.ui.CompilationUnitEditor",1363172077827
deactivated,workbench,org.eclipse.ui.workbench,3.7.1.v20120104-1859,"",1363172088804
activated,workbench,org.eclipse.ui.workbench,3.7.1.v20120104-1859,"",1363172091134
deactivated,workbench,org.eclipse.ui.workbench,3.7.1.v20120104-1859,"",1363172092607
activated,workbench,org.eclipse.ui.workbench,3.7.1.v20120104-1859,"",1363172094124
deactivated,workbench,org.eclipse.ui.workbench,3.7.1.v20120104-1859,"",1363172095105
activated,workbench,org.eclipse.ui.workbench,3.7.1.v20120104-1859,"",1363172096908
deactivated,workbench,org.eclipse.ui.workbench,3.7.1.v20120104-1859,"",1363172097471
activated,workbench,org.eclipse.ui.workbench,3.7.1.v20120104-1859,"",1363172097954
opened,view,org.eclipse.mylyn.tasks.ui,3.6.5.v20120215-0100,"org.eclipse.mylyn.tasks.ui.views.tasks",1363172101656
activated,perspective,org.eclipse.jdt.ui,3.7.2.v20120109-1427,"org.eclipse.jdt.ui.JavaPerspective",1363172101742
activated,perspective,org.eclipse.debug.ui,3.7.102.v20111129-1423_r372,"org.eclipse.debug.ui.DebugPerspective",1363172102521
activated,view,org.eclipse.debug.ui,3.7.102.v20111129-1423_r372,"org.eclipse.debug.ui.DebugView",1363172104299
executed,command,org.eclipse.debug.ui,3.7.102.v20111129-1423_r372,"org.eclipse.debug.ui.commands.Resume",1363172104406
activated,editor,org.eclipse.jdt.ui,3.7.2.v20120109-1427,"org.eclipse.jdt.ui.CompilationUnitEditor",1363172108372
executed,command,,,"AUTOGEN:::org.eclipse.jdt.debug.CompilationUnitEditor.BreakpointRulerActions/org.eclipse.jdt.debug.ui.actions.ManageBreakpointRulerAction",1363172108526
activated,view,org.eclipse.debug.ui,3.7.102.v20111129-1423_r372,"org.eclipse.debug.ui.DebugView",1363172109953
executed,command,org.eclipse.debug.ui,3.7.102.v20111129-1423_r372,"org.eclipse.debug.ui.commands.Resume",1363172110033
executed,command,org.eclipse.debug.ui,3.7.102.v20111129-1423_r372,"org.eclipse.debug.ui.commands.Resume",1363172110900
deactivated,workbench,org.eclipse.ui.workbench,3.7.1.v20120104-1859,"",1363172111834
activated,workbench,org.eclipse.ui.workbench,3.7.1.v20120104-1859,"",1363172115202
activated,editor,org.eclipse.jdt.ui,3.7.2.v20120109-1427,"org.eclipse.jdt.ui.CompilationUnitEditor",1363172116908
executed,command,,,"AUTOGEN:::org.eclipse.jdt.debug.CompilationUnitEditor.BreakpointRulerActions/org.eclipse.jdt.debug.ui.actions.ManageBreakpointRulerAction",1363172117087
activated,view,org.eclipse.debug.ui,3.7.102.v20111129-1423_r372,"org.eclipse.debug.ui.DebugView",1363172118705
executed,command,org.eclipse.debug.ui,3.7.102.v20111129-1423_r372,"org.eclipse.debug.ui.commands.Resume",1363172118778
deactivated,workbench,org.eclipse.ui.workbench,3.7.1.v20120104-1859,"",1363172119361
activated,workbench,org.eclipse.ui.workbench,3.7.1.v20120104-1859,"",1363172137636
activated,editor,org.eclipse.jdt.ui,3.7.2.v20120109-1427,"org.eclipse.jdt.ui.CompilationUnitEditor",1363172140278
executed,command,,,"AUTOGEN:::org.eclipse.jdt.debug.CompilationUnitEditor.BreakpointRulerActions/org.eclipse.jdt.debug.ui.actions.ManageBreakpointRulerAction",1363172140441
deactivated,workbench,org.eclipse.ui.workbench,3.7.1.v20120104-1859,"",1363172141195
activated,workbench,org.eclipse.ui.workbench,3.7.1.v20120104-1859,"",1363172147447
activated,view,org.eclipse.ui.console,3.5.100.v20111007_r372,"org.eclipse.ui.console.ConsoleView",1363172150321
deactivated,workbench,org.eclipse.ui.workbench,3.7.1.v20120104-1859,"",1363172150812
activated,workbench,org.eclipse.ui.workbench,3.7.1.v20120104-1859,"",1363172153231
activated,editor,org.eclipse.jdt.ui,3.7.2.v20120109-1427,"org.eclipse.jdt.ui.CompilationUnitEditor",1363172159625
opened,editor,org.eclipse.jdt.ui,3.7.2.v20120109-1427,"org.eclipse.jdt.ui.CompilationUnitEditor",1363172164533
activated,editor,org.eclipse.jdt.ui,3.7.2.v20120109-1427,"org.eclipse.jdt.ui.CompilationUnitEditor",1363172164622
deactivated,workbench,org.eclipse.ui.workbench,3.7.1.v20120104-1859,"",1363172172608
activated,workbench,org.eclipse.ui.workbench,3.7.1.v20120104-1859,"",1363172200031
activated,editor,org.eclipse.jdt.ui,3.7.2.v20120109-1427,"org.eclipse.jdt.ui.CompilationUnitEditor",1363172201676
executed,command,org.eclipse.ui,3.7.0.v20110928-1505,"org.eclipse.ui.edit.text.contentAssist.proposals",1363172208402
executed,command,org.eclipse.ui,3.7.0.v20110928-1505,"org.eclipse.ui.edit.text.contentAssist.proposals",1363172209964
deactivated,workbench,org.eclipse.ui.workbench,3.7.1.v20120104-1859,"",1363172211457
activated,workbench,org.eclipse.ui.workbench,3.7.1.v20120104-1859,"",1363172220808
executed,command,org.eclipse.ui,3.7.0.v20110928-1505,"org.eclipse.ui.edit.text.contentAssist.proposals",1363172222007
executed,command,org.eclipse.ui.workbench.texteditor,3.7.0.v20110928-1504,"org.eclipse.ui.edit.text.select.lineStart",1363172225007
activated,view,org.eclipse.ui.views,3.6.0.v20110928-1505,"org.eclipse.ui.views.ContentOutline",1363172231987
deactivated,workbench,org.eclipse.ui.workbench,3.7.1.v20120104-1859,"",1363172234994
activated,workbench,org.eclipse.ui.workbench,3.7.1.v20120104-1859,"",1363172237316
deactivated,workbench,org.eclipse.ui.workbench,3.7.1.v20120104-1859,"",1363172242452
activated,workbench,org.eclipse.ui.workbench,3.7.1.v20120104-1859,"",1363172253124
activated,editor,org.eclipse.jdt.ui,3.7.2.v20120109-1427,"org.eclipse.jdt.ui.CompilationUnitEditor",1363172256196
activated,view,org.eclipse.ui.views,3.6.0.v20110928-1505,"org.eclipse.ui.views.ContentOutline",1363172259509
activated,editor,org.eclipse.jdt.ui,3.7.2.v20120109-1427,"org.eclipse.jdt.ui.CompilationUnitEditor",1363172261692
