what,kind,bundleId,bundleVersion,description,time
activated,editor,org.eclipse.jdt.ui,3.7.2.v20120109-1427,"org.eclipse.jdt.ui.CompilationUnitEditor",1356761586401
executed,command,org.eclipse.ui,3.7.0.v20110928-1505,"org.eclipse.ui.file.save",1356761588410
activated,view,org.eclipse.jdt.ui,3.7.2.v20120109-1427,"org.eclipse.jdt.ui.PackageExplorer",1356761591156
opened,editor,org.eclipse.jdt.ui,3.7.2.v20120109-1427,"org.eclipse.jdt.ui.CompilationUnitEditor",1356761599916
activated,editor,org.eclipse.jdt.ui,3.7.2.v20120109-1427,"org.eclipse.jdt.ui.CompilationUnitEditor",1356761603766
activated,editor,org.eclipse.jdt.ui,3.7.2.v20120109-1427,"org.eclipse.jdt.ui.CompilationUnitEditor",1356761603929
activated,editor,org.eclipse.jdt.ui,3.7.2.v20120109-1427,"org.eclipse.jdt.ui.CompilationUnitEditor",1356761608199
executed,command,org.eclipse.ui,3.7.0.v20110928-1505,"org.eclipse.ui.navigate.backwardHistory",1356761608204
executed,command,,,"AUTOGEN:::org.eclipse.jdt.internal.ui.CompilationUnitEditor.ruler.actions/org.eclipse.jdt.internal.ui.javaeditor.JavaSelectRulerAction",1356761611211
activated,view,org.eclipse.jdt.ui,3.7.2.v20120109-1427,"org.eclipse.jdt.ui.PackageExplorer",1356761629276
activated,editor,org.eclipse.jdt.ui,3.7.2.v20120109-1427,"org.eclipse.jdt.ui.CompilationUnitEditor",1356761630205
executed,command,org.eclipse.jdt.ui,3.7.2.v20120109-1427,"org.eclipse.jdt.ui.edit.text.java.organize.imports",1356761632161
executed,command,org.eclipse.ui,3.7.0.v20110928-1505,"org.eclipse.ui.edit.copy",1356761634390
activated,editor,org.eclipse.jdt.ui,3.7.2.v20120109-1427,"org.eclipse.jdt.ui.CompilationUnitEditor",1356761635181
activated,editor,org.eclipse.jdt.ui,3.7.2.v20120109-1427,"org.eclipse.jdt.ui.CompilationUnitEditor",1356761637165
executed,command,org.eclipse.ui,3.7.0.v20110928-1505,"org.eclipse.ui.edit.paste",1356761638540
executed,command,org.eclipse.ui,3.7.0.v20110928-1505,"org.eclipse.ui.file.save",1356761639459
opened,editor,org.eclipse.jdt.ui,3.7.2.v20120109-1427,"org.eclipse.jdt.ui.ClassFileEditor",1356761642705
activated,editor,org.eclipse.jdt.ui,3.7.2.v20120109-1427,"org.eclipse.jdt.ui.ClassFileEditor",1356761642894
executed,command,org.eclipse.ui,3.7.0.v20110928-1505,"org.eclipse.ui.edit.copy",1356761645198
activated,editor,org.eclipse.jdt.ui,3.7.2.v20120109-1427,"org.eclipse.jdt.ui.CompilationUnitEditor",1356761647238
opened,view,org.eclipse.jdt.ui,3.7.2.v20120109-1427,"org.eclipse.jdt.ui.TypeHierarchy",1356761650288
activated,view,org.eclipse.jdt.ui,3.7.2.v20120109-1427,"org.eclipse.jdt.ui.TypeHierarchy",1356761650330
executed,command,org.eclipse.jdt.ui,3.7.2.v20120109-1427,"org.eclipse.jdt.ui.edit.text.java.open.type.hierarchy",1356761650420
activated,editor,org.eclipse.jdt.ui,3.7.2.v20120109-1427,"org.eclipse.jdt.ui.CompilationUnitEditor",1356761659214
executed,command,org.eclipse.jdt.ui,3.7.2.v20120109-1427,"org.eclipse.jdt.ui.edit.text.java.toggle.comment",1356761661756
activated,editor,org.eclipse.jdt.ui,3.7.2.v20120109-1427,"org.eclipse.jdt.ui.CompilationUnitEditor",1356761663961
executed,command,org.eclipse.jdt.ui,3.7.2.v20120109-1427,"org.eclipse.jdt.ui.edit.text.java.toggle.comment",1356761664865
executed,command,org.eclipse.ui,3.7.0.v20110928-1505,"org.eclipse.ui.file.save",1356761667130
activated,view,org.eclipse.jdt.ui,3.7.2.v20120109-1427,"org.eclipse.jdt.ui.PackageExplorer",1356761669591
activated,editor,org.eclipse.jdt.ui,3.7.2.v20120109-1427,"org.eclipse.jdt.ui.CompilationUnitEditor",1356761674339
executed,command,org.eclipse.jdt.ui,3.7.2.v20120109-1427,"org.eclipse.jdt.ui.edit.text.java.organize.imports",1356761677607
executed,command,org.eclipse.ui,3.7.0.v20110928-1505,"org.eclipse.ui.file.save",1356761679504
deactivated,workbench,org.eclipse.ui.workbench,3.7.1.v20120104-1859,"",1356761682634
activated,workbench,org.eclipse.ui.workbench,3.7.1.v20120104-1859,"",1356761712739
activated,view,org.eclipse.ui.console,3.5.100.v20111007_r372,"org.eclipse.ui.console.ConsoleView",1356761714490
deactivated,workbench,org.eclipse.ui.workbench,3.7.1.v20120104-1859,"",1356761718901
activated,workbench,org.eclipse.ui.workbench,3.7.1.v20120104-1859,"",1356761731082
activated,editor,org.eclipse.jdt.ui,3.7.2.v20120109-1427,"org.eclipse.jdt.ui.CompilationUnitEditor",1356761732427
executed,command,org.eclipse.ui,3.7.0.v20110928-1505,"org.eclipse.ui.file.save",1356761743527
deactivated,workbench,org.eclipse.ui.workbench,3.7.1.v20120104-1859,"",1356761743859
activated,workbench,org.eclipse.ui.workbench,3.7.1.v20120104-1859,"",1356761748086
executed,command,org.eclipse.ui.workbench.texteditor,3.7.0.v20110928-1504,"org.eclipse.ui.edit.text.select.lineEnd",1356761750209
executed,command,org.eclipse.ui,3.7.0.v20110928-1505,"org.eclipse.ui.edit.copy",1356761750491
executed,command,org.eclipse.ui.workbench.texteditor,3.7.0.v20110928-1504,"org.eclipse.ui.edit.text.select.lineStart",1356761751857
executed,command,org.eclipse.ui.workbench.texteditor,3.7.0.v20110928-1504,"org.eclipse.ui.edit.text.select.lineStart",1356761753233
executed,command,org.eclipse.ui.workbench.texteditor,3.7.0.v20110928-1504,"org.eclipse.ui.edit.text.select.lineStart",1356761753457
executed,command,org.eclipse.ui,3.7.0.v20110928-1505,"org.eclipse.ui.edit.paste",1356761754653
executed,command,org.eclipse.ui,3.7.0.v20110928-1505,"org.eclipse.ui.edit.copy",1356761756321
executed,command,org.eclipse.ui,3.7.0.v20110928-1505,"org.eclipse.ui.edit.paste",1356761757134
started,bundle,org.eclipse.mylyn.ide.ui,3.6.0.v20110608-1400,"org.eclipse.mylyn.ide.ui",1356761757606
started,bundle,org.eclipse.mylyn.java.ui,3.6.0.v20110608-1400,"org.eclipse.mylyn.java.ui",1356761757618
started,bundle,org.eclipse.pde.api.tools.ui,1.0.301.v20110803_r371,"org.eclipse.pde.api.tools.ui",1356761757632
started,bundle,org.eclipse.mylyn.pde.ui,3.6.0.v20110608-1400,"org.eclipse.mylyn.pde.ui",1356761757633
started,bundle,org.eclipse.help.base,3.6.2.v201202080800,"org.eclipse.help.base",1356761758055
started,bundle,org.eclipse.help.ui,3.5.101.r37_20110819,"org.eclipse.help.ui",1356761758065
started,bundle,org.eclipse.equinox.http.jetty,2.0.100.v20110502,"org.eclipse.equinox.http.jetty",1356761758105
started,bundle,org.eclipse.equinox.http.servlet,1.1.200.v20110502,"org.eclipse.equinox.http.servlet",1356761758154
started,bundle,org.eclipse.equinox.http.registry,1.1.100.v20110502,"org.eclipse.equinox.http.registry",1356761758306
executed,command,org.eclipse.ui,3.7.0.v20110928-1505,"org.eclipse.ui.file.save",1356761763657
deactivated,workbench,org.eclipse.ui.workbench,3.7.1.v20120104-1859,"",1356761764133
activated,workbench,org.eclipse.ui.workbench,3.7.1.v20120104-1859,"",1356761767751
executed,command,org.eclipse.ui,3.7.0.v20110928-1505,"org.eclipse.ui.file.save",1356761772171
deactivated,workbench,org.eclipse.ui.workbench,3.7.1.v20120104-1859,"",1356761775057
activated,workbench,org.eclipse.ui.workbench,3.7.1.v20120104-1859,"",1356761778164
executed,command,org.eclipse.ui.workbench.texteditor,3.7.0.v20110928-1504,"org.eclipse.ui.edit.text.goto.lineEnd",1356761785393
executed,command,org.eclipse.ui.workbench.texteditor,3.7.0.v20110928-1504,"org.eclipse.ui.edit.text.select.lineStart",1356761785745
executed,command,org.eclipse.ui,3.7.0.v20110928-1505,"org.eclipse.ui.edit.cut",1356761786040
executed,command,org.eclipse.ui,3.7.0.v20110928-1505,"org.eclipse.ui.edit.delete",1356761787301
executed,command,org.eclipse.ui,3.7.0.v20110928-1505,"org.eclipse.ui.edit.delete",1356761787498
executed,command,org.eclipse.ui,3.7.0.v20110928-1505,"org.eclipse.ui.edit.delete",1356761787786
executed,command,org.eclipse.ui.workbench.texteditor,3.7.0.v20110928-1504,"org.eclipse.ui.edit.text.goto.lineEnd",1356761788417
executed,command,org.eclipse.ui,3.7.0.v20110928-1505,"org.eclipse.ui.edit.paste",1356761789239
executed,command,org.eclipse.ui,3.7.0.v20110928-1505,"org.eclipse.ui.file.save",1356761792638
deactivated,workbench,org.eclipse.ui.workbench,3.7.1.v20120104-1859,"",1356761793056
activated,workbench,org.eclipse.ui.workbench,3.7.1.v20120104-1859,"",1356761796794
deactivated,workbench,org.eclipse.ui.workbench,3.7.1.v20120104-1859,"",1356761910528
activated,workbench,org.eclipse.ui.workbench,3.7.1.v20120104-1859,"",1356761912833
activated,view,org.eclipse.ui.console,3.5.100.v20111007_r372,"org.eclipse.ui.console.ConsoleView",1356761915669
opened,view,org.eclipse.debug.ui,3.7.102.v20111129-1423_r372,"org.eclipse.debug.ui.DebugView",1356761918781
opened,view,org.eclipse.debug.ui,3.7.102.v20111129-1423_r372,"org.eclipse.debug.ui.VariableView",1356761918861
activated,perspective,org.eclipse.debug.ui,3.7.102.v20111129-1423_r372,"org.eclipse.debug.ui.DebugPerspective",1356761918962
activated,view,org.eclipse.debug.ui,3.7.102.v20111129-1423_r372,"org.eclipse.debug.ui.DebugView",1356761919906
executed,command,org.eclipse.debug.ui,3.7.102.v20111129-1423_r372,"org.eclipse.debug.ui.commands.Terminate",1356761921798
deactivated,workbench,org.eclipse.ui.workbench,3.7.1.v20120104-1859,"",1356761953781
activated,workbench,org.eclipse.ui.workbench,3.7.1.v20120104-1859,"",1356761973559
deactivated,workbench,org.eclipse.ui.workbench,3.7.1.v20120104-1859,"",1356761974053
activated,workbench,org.eclipse.ui.workbench,3.7.1.v20120104-1859,"",1356761975877
deactivated,workbench,org.eclipse.ui.workbench,3.7.1.v20120104-1859,"",1356761976922
activated,workbench,org.eclipse.ui.workbench,3.7.1.v20120104-1859,"",1356761978146
deactivated,workbench,org.eclipse.ui.workbench,3.7.1.v20120104-1859,"",1356761978566
activated,workbench,org.eclipse.ui.workbench,3.7.1.v20120104-1859,"",1356761982788
deactivated,workbench,org.eclipse.ui.workbench,3.7.1.v20120104-1859,"",1356761983645
activated,workbench,org.eclipse.ui.workbench,3.7.1.v20120104-1859,"",1356761984156
activated,editor,org.eclipse.jdt.ui,3.7.2.v20120109-1427,"org.eclipse.jdt.ui.CompilationUnitEditor",1356761987610
executed,command,org.eclipse.ui,3.7.0.v20110928-1505,"org.eclipse.ui.edit.copy",1356761988071
deactivated,workbench,org.eclipse.ui.workbench,3.7.1.v20120104-1859,"",1356761990905
activated,workbench,org.eclipse.ui.workbench,3.7.1.v20120104-1859,"",1356761992373
deactivated,workbench,org.eclipse.ui.workbench,3.7.1.v20120104-1859,"",1356762002988
activated,workbench,org.eclipse.ui.workbench,3.7.1.v20120104-1859,"",1356762020599
deactivated,workbench,org.eclipse.ui.workbench,3.7.1.v20120104-1859,"",1356762070228
activated,workbench,org.eclipse.ui.workbench,3.7.1.v20120104-1859,"",1356772841599
executed,command,org.eclipse.ui,3.7.0.v20110928-1505,"org.eclipse.ui.window.closePerspective",1356772859799
executed,command,org.eclipse.ui,3.7.0.v20110928-1505,"org.eclipse.ui.window.closePerspective",1356772862789
deactivated,workbench,org.eclipse.ui.workbench,3.7.1.v20120104-1859,"",1356772883431
activated,workbench,org.eclipse.ui.workbench,3.7.1.v20120104-1859,"",1356773054149
deactivated,workbench,org.eclipse.ui.workbench,3.7.1.v20120104-1859,"",1356773058590
activated,workbench,org.eclipse.ui.workbench,3.7.1.v20120104-1859,"",1356773064064
deactivated,workbench,org.eclipse.ui.workbench,3.7.1.v20120104-1859,"",1356773066807
activated,workbench,org.eclipse.ui.workbench,3.7.1.v20120104-1859,"",1356773072972
executed,command,org.eclipse.ui,3.7.0.v20110928-1505,"org.eclipse.ui.file.save",1356773077792
deactivated,workbench,org.eclipse.ui.workbench,3.7.1.v20120104-1859,"",1356773078273
activated,workbench,org.eclipse.ui.workbench,3.7.1.v20120104-1859,"",1356773081810
deactivated,workbench,org.eclipse.ui.workbench,3.7.1.v20120104-1859,"",1356773099335
activated,workbench,org.eclipse.ui.workbench,3.7.1.v20120104-1859,"",1356773103885
deactivated,workbench,org.eclipse.ui.workbench,3.7.1.v20120104-1859,"",1356773127201
activated,workbench,org.eclipse.ui.workbench,3.7.1.v20120104-1859,"",1356773130330
deactivated,workbench,org.eclipse.ui.workbench,3.7.1.v20120104-1859,"",1356773130889
activated,workbench,org.eclipse.ui.workbench,3.7.1.v20120104-1859,"",1356773145078
executed,command,org.eclipse.ui.workbench.texteditor,3.7.0.v20110928-1504,"org.eclipse.ui.edit.text.goto.lineEnd",1356773147152
executed,command,org.eclipse.ui.workbench.texteditor,3.7.0.v20110928-1504,"org.eclipse.ui.edit.text.select.lineStart",1356773147496
executed,command,org.eclipse.ui,3.7.0.v20110928-1505,"org.eclipse.ui.edit.cut",1356773148207
executed,command,org.eclipse.ui.workbench.texteditor,3.7.0.v20110928-1504,"org.eclipse.ui.edit.text.goto.lineEnd",1356773149040
executed,command,org.eclipse.ui,3.7.0.v20110928-1505,"org.eclipse.ui.edit.paste",1356773149641
executed,command,org.eclipse.ui,3.7.0.v20110928-1505,"org.eclipse.ui.file.save",1356773155125
executed,command,org.eclipse.ui,3.7.0.v20110928-1505,"org.eclipse.ui.file.save",1356773157139
deactivated,workbench,org.eclipse.ui.workbench,3.7.1.v20120104-1859,"",1356773157458
activated,workbench,org.eclipse.ui.workbench,3.7.1.v20120104-1859,"",1356773160970
deactivated,workbench,org.eclipse.ui.workbench,3.7.1.v20120104-1859,"",1356773176290
activated,workbench,org.eclipse.ui.workbench,3.7.1.v20120104-1859,"",1356773180536
executed,command,org.eclipse.ui,3.7.0.v20110928-1505,"org.eclipse.ui.file.save",1356773188492
deactivated,workbench,org.eclipse.ui.workbench,3.7.1.v20120104-1859,"",1356773188858
activated,workbench,org.eclipse.ui.workbench,3.7.1.v20120104-1859,"",1356773192151
executed,command,org.eclipse.ui,3.7.0.v20110928-1505,"org.eclipse.ui.file.save",1356773197977
deactivated,workbench,org.eclipse.ui.workbench,3.7.1.v20120104-1859,"",1356773199034
activated,workbench,org.eclipse.ui.workbench,3.7.1.v20120104-1859,"",1356773201585
executed,command,org.eclipse.ui,3.7.0.v20110928-1505,"org.eclipse.ui.edit.undo",1356773201973
executed,command,org.eclipse.ui,3.7.0.v20110928-1505,"org.eclipse.ui.edit.undo",1356773202194
executed,command,org.eclipse.ui,3.7.0.v20110928-1505,"org.eclipse.ui.edit.undo",1356773202597
executed,command,org.eclipse.ui,3.7.0.v20110928-1505,"org.eclipse.ui.edit.undo",1356773202917
executed,command,org.eclipse.ui,3.7.0.v20110928-1505,"org.eclipse.ui.file.save",1356773204415
activated,view,org.eclipse.debug.ui,3.7.102.v20111129-1423_r372,"org.eclipse.debug.ui.DebugView",1356773206093
executed,command,org.eclipse.debug.ui,3.7.102.v20111129-1423_r372,"org.eclipse.debug.ui.commands.Terminate",1356773206183
deactivated,workbench,org.eclipse.ui.workbench,3.7.1.v20120104-1859,"",1356773209019
activated,workbench,org.eclipse.ui.workbench,3.7.1.v20120104-1859,"",1356773227190
activated,editor,org.eclipse.jdt.ui,3.7.2.v20120109-1427,"org.eclipse.jdt.ui.CompilationUnitEditor",1356773234626
executed,command,org.eclipse.ui,3.7.0.v20110928-1505,"org.eclipse.ui.edit.cut",1356773238515
executed,command,org.eclipse.ui,3.7.0.v20110928-1505,"org.eclipse.ui.file.save",1356773240688
deactivated,workbench,org.eclipse.ui.workbench,3.7.1.v20120104-1859,"",1356773241233
activated,workbench,org.eclipse.ui.workbench,3.7.1.v20120104-1859,"",1356773257679
deactivated,workbench,org.eclipse.ui.workbench,3.7.1.v20120104-1859,"",1356773260014
activated,workbench,org.eclipse.ui.workbench,3.7.1.v20120104-1859,"",1356773262239
executed,command,org.eclipse.ui,3.7.0.v20110928-1505,"org.eclipse.ui.edit.copy",1356773272024
executed,command,org.eclipse.ui,3.7.0.v20110928-1505,"org.eclipse.ui.edit.paste",1356773273022
executed,command,org.eclipse.ui,3.7.0.v20110928-1505,"org.eclipse.ui.file.save",1356773274465
executed,command,org.eclipse.ui,3.7.0.v20110928-1505,"org.eclipse.ui.edit.undo",1356773275908
deactivated,workbench,org.eclipse.ui.workbench,3.7.1.v20120104-1859,"",1356773283341
activated,workbench,org.eclipse.ui.workbench,3.7.1.v20120104-1859,"",1356773286535
opened,editor,org.eclipse.jdt.ui,3.7.2.v20120109-1427,"org.eclipse.jdt.ui.CompilationUnitEditor",1356773286742
activated,editor,org.eclipse.jdt.ui,3.7.2.v20120109-1427,"org.eclipse.jdt.ui.CompilationUnitEditor",1356773286894
executed,command,org.eclipse.ui.ide,3.7.0.v20110928-1505,"org.eclipse.ui.navigate.openResource",1356773286901
executed,command,org.eclipse.ui,3.7.0.v20110928-1505,"org.eclipse.ui.edit.copy",1356773300025
activated,editor,org.eclipse.jdt.ui,3.7.2.v20120109-1427,"org.eclipse.jdt.ui.CompilationUnitEditor",1356773301014
executed,command,org.eclipse.ui,3.7.0.v20110928-1505,"org.eclipse.ui.navigate.backwardHistory",1356773301023
executed,command,org.eclipse.ui,3.7.0.v20110928-1505,"org.eclipse.ui.edit.paste",1356773306422
executed,command,org.eclipse.ui,3.7.0.v20110928-1505,"org.eclipse.ui.edit.undo",1356773307844
activated,editor,org.eclipse.jdt.ui,3.7.2.v20120109-1427,"org.eclipse.jdt.ui.CompilationUnitEditor",1356773311035
executed,command,org.eclipse.ui,3.7.0.v20110928-1505,"org.eclipse.ui.edit.copy",1356773312463
activated,editor,org.eclipse.jdt.ui,3.7.2.v20120109-1427,"org.eclipse.jdt.ui.CompilationUnitEditor",1356773313373
activated,editor,org.eclipse.jdt.ui,3.7.2.v20120109-1427,"org.eclipse.jdt.ui.CompilationUnitEditor",1356773315864
executed,command,org.eclipse.ui,3.7.0.v20110928-1505,"org.eclipse.ui.edit.copy",1356773319704
activated,editor,org.eclipse.jdt.ui,3.7.2.v20120109-1427,"org.eclipse.jdt.ui.CompilationUnitEditor",1356773320324
executed,command,org.eclipse.ui,3.7.0.v20110928-1505,"org.eclipse.ui.edit.paste",1356773322578
executed,command,org.eclipse.ui,3.7.0.v20110928-1505,"org.eclipse.ui.edit.copy",1356773325429
executed,command,org.eclipse.ui,3.7.0.v20110928-1505,"org.eclipse.ui.edit.paste",1356773326426
executed,command,org.eclipse.ui,3.7.0.v20110928-1505,"org.eclipse.ui.edit.copy",1356773328990
executed,command,org.eclipse.ui,3.7.0.v20110928-1505,"org.eclipse.ui.edit.paste",1356773331547
executed,command,org.eclipse.ui,3.7.0.v20110928-1505,"org.eclipse.ui.file.save",1356773333492
deactivated,workbench,org.eclipse.ui.workbench,3.7.1.v20120104-1859,"",1356773334019
activated,workbench,org.eclipse.ui.workbench,3.7.1.v20120104-1859,"",1356773337804
executed,command,org.eclipse.ui,3.7.0.v20110928-1505,"org.eclipse.ui.file.save",1356773341467
deactivated,workbench,org.eclipse.ui.workbench,3.7.1.v20120104-1859,"",1356773341976
activated,workbench,org.eclipse.ui.workbench,3.7.1.v20120104-1859,"",1356773347587
executed,command,org.eclipse.ui,3.7.0.v20110928-1505,"org.eclipse.ui.edit.copy",1356773351395
executed,command,org.eclipse.ui,3.7.0.v20110928-1505,"org.eclipse.ui.edit.paste",1356773354193
executed,command,org.eclipse.ui,3.7.0.v20110928-1505,"org.eclipse.ui.file.save",1356773360680
deactivated,workbench,org.eclipse.ui.workbench,3.7.1.v20120104-1859,"",1356773361204
activated,workbench,org.eclipse.ui.workbench,3.7.1.v20120104-1859,"",1356773364657
executed,command,org.eclipse.ui.workbench.texteditor,3.7.0.v20110928-1504,"org.eclipse.ui.edit.text.select.lineStart",1356773365373
executed,command,org.eclipse.ui,3.7.0.v20110928-1505,"org.eclipse.ui.edit.copy",1356773365640
executed,command,org.eclipse.ui,3.7.0.v20110928-1505,"org.eclipse.ui.edit.paste",1356773366293
executed,command,org.eclipse.ui,3.7.0.v20110928-1505,"org.eclipse.ui.file.save",1356773374865
deactivated,workbench,org.eclipse.ui.workbench,3.7.1.v20120104-1859,"",1356773375201
activated,workbench,org.eclipse.ui.workbench,3.7.1.v20120104-1859,"",1356773378881
executed,command,org.eclipse.ui.workbench.texteditor,3.7.0.v20110928-1504,"org.eclipse.ui.edit.text.goto.lineEnd",1356773384865
executed,command,org.eclipse.ui,3.7.0.v20110928-1505,"org.eclipse.ui.edit.text.contentAssist.proposals",1356773389653
deactivated,workbench,org.eclipse.ui.workbench,3.7.1.v20120104-1859,"",1356773410568
activated,workbench,org.eclipse.ui.workbench,3.7.1.v20120104-1859,"",1356773410896
executed,command,org.eclipse.ui,3.7.0.v20110928-1505,"org.eclipse.ui.file.save",1356773417004
deactivated,workbench,org.eclipse.ui.workbench,3.7.1.v20120104-1859,"",1356773417349
activated,workbench,org.eclipse.ui.workbench,3.7.1.v20120104-1859,"",1356773420611
executed,command,org.eclipse.ui,3.7.0.v20110928-1505,"org.eclipse.ui.edit.cut",1356773426934
executed,command,org.eclipse.ui,3.7.0.v20110928-1505,"org.eclipse.ui.edit.delete",1356773427930
executed,command,org.eclipse.ui.workbench.texteditor,3.7.0.v20110928-1504,"org.eclipse.ui.edit.text.goto.textEnd",1356773432130
deactivated,workbench,org.eclipse.ui.workbench,3.7.1.v20120104-1859,"",1356773433154
activated,workbench,org.eclipse.ui.workbench,3.7.1.v20120104-1859,"",1356773433693
executed,command,org.eclipse.ui,3.7.0.v20110928-1505,"org.eclipse.ui.file.save",1356773440788
deactivated,workbench,org.eclipse.ui.workbench,3.7.1.v20120104-1859,"",1356773442271
activated,workbench,org.eclipse.ui.workbench,3.7.1.v20120104-1859,"",1356773447648
executed,command,org.eclipse.ui,3.7.0.v20110928-1505,"org.eclipse.ui.edit.cut",1356773450821
executed,command,org.eclipse.ui,3.7.0.v20110928-1505,"org.eclipse.ui.file.save",1356773451163
deactivated,workbench,org.eclipse.ui.workbench,3.7.1.v20120104-1859,"",1356773451547
activated,workbench,org.eclipse.ui.workbench,3.7.1.v20120104-1859,"",1356773458403
executed,command,org.eclipse.ui,3.7.0.v20110928-1505,"org.eclipse.ui.edit.copy",1356773460456
executed,command,org.eclipse.ui,3.7.0.v20110928-1505,"org.eclipse.ui.edit.paste",1356773461237
executed,command,org.eclipse.ui.workbench.texteditor,3.7.0.v20110928-1504,"org.eclipse.ui.edit.text.select.lineStart",1356773473094
executed,command,org.eclipse.ui,3.7.0.v20110928-1505,"org.eclipse.ui.edit.copy",1356773473539
executed,command,org.eclipse.ui,3.7.0.v20110928-1505,"org.eclipse.ui.edit.paste",1356773474338
executed,command,org.eclipse.ui,3.7.0.v20110928-1505,"org.eclipse.ui.edit.text.contentAssist.proposals",1356773476946
executed,command,org.eclipse.ui,3.7.0.v20110928-1505,"org.eclipse.ui.file.save",1356773478810
deactivated,workbench,org.eclipse.ui.workbench,3.7.1.v20120104-1859,"",1356773479134
activated,workbench,org.eclipse.ui.workbench,3.7.1.v20120104-1859,"",1356773484837
deactivated,workbench,org.eclipse.ui.workbench,3.7.1.v20120104-1859,"",1356773486888
activated,workbench,org.eclipse.ui.workbench,3.7.1.v20120104-1859,"",1356773487266
deactivated,workbench,org.eclipse.ui.workbench,3.7.1.v20120104-1859,"",1356773488581
activated,workbench,org.eclipse.ui.workbench,3.7.1.v20120104-1859,"",1356773494755
executed,command,org.eclipse.ui,3.7.0.v20110928-1505,"org.eclipse.ui.file.save",1356773498997
deactivated,workbench,org.eclipse.ui.workbench,3.7.1.v20120104-1859,"",1356773499354
activated,workbench,org.eclipse.ui.workbench,3.7.1.v20120104-1859,"",1356773503157
executed,command,org.eclipse.ui,3.7.0.v20110928-1505,"org.eclipse.ui.file.save",1356773504938
deactivated,workbench,org.eclipse.ui.workbench,3.7.1.v20120104-1859,"",1356773505261
activated,workbench,org.eclipse.ui.workbench,3.7.1.v20120104-1859,"",1356773514864
executed,command,org.eclipse.ui,3.7.0.v20110928-1505,"org.eclipse.ui.edit.cut",1356773517887
executed,command,org.eclipse.ui,3.7.0.v20110928-1505,"org.eclipse.ui.file.save",1356773518239
deactivated,workbench,org.eclipse.ui.workbench,3.7.1.v20120104-1859,"",1356773518598
activated,workbench,org.eclipse.ui.workbench,3.7.1.v20120104-1859,"",1356773521848
executed,command,org.eclipse.ui,3.7.0.v20110928-1505,"org.eclipse.ui.edit.undo",1356773522144
deactivated,workbench,org.eclipse.ui.workbench,3.7.1.v20120104-1859,"",1356773537283
activated,workbench,org.eclipse.ui.workbench,3.7.1.v20120104-1859,"",1356773541128
executed,command,org.eclipse.ui,3.7.0.v20110928-1505,"org.eclipse.ui.edit.undo",1356773548354
executed,command,org.eclipse.ui,3.7.0.v20110928-1505,"org.eclipse.ui.file.save",1356773562916
deactivated,workbench,org.eclipse.ui.workbench,3.7.1.v20120104-1859,"",1356773563332
activated,workbench,org.eclipse.ui.workbench,3.7.1.v20120104-1859,"",1356773569194
deactivated,workbench,org.eclipse.ui.workbench,3.7.1.v20120104-1859,"",1356773572054
activated,workbench,org.eclipse.ui.workbench,3.7.1.v20120104-1859,"",1356773582018
executed,command,org.eclipse.jdt.ui,3.7.2.v20120109-1427,"org.eclipse.jdt.ui.edit.text.java.toggle.comment",1356773586491
executed,command,org.eclipse.ui,3.7.0.v20110928-1505,"org.eclipse.ui.file.save",1356773586824
deactivated,workbench,org.eclipse.ui.workbench,3.7.1.v20120104-1859,"",1356773587263
activated,workbench,org.eclipse.ui.workbench,3.7.1.v20120104-1859,"",1356773590293
executed,command,org.eclipse.ui,3.7.0.v20110928-1505,"org.eclipse.ui.edit.undo",1356773590723
executed,command,org.eclipse.ui,3.7.0.v20110928-1505,"org.eclipse.ui.file.save",1356773592814
deactivated,workbench,org.eclipse.ui.workbench,3.7.1.v20120104-1859,"",1356773593271
activated,workbench,org.eclipse.ui.workbench,3.7.1.v20120104-1859,"",1356773594538
deactivated,workbench,org.eclipse.ui.workbench,3.7.1.v20120104-1859,"",1356773599402
activated,workbench,org.eclipse.ui.workbench,3.7.1.v20120104-1859,"",1356773609088
deactivated,workbench,org.eclipse.ui.workbench,3.7.1.v20120104-1859,"",1356773609745
activated,workbench,org.eclipse.ui.workbench,3.7.1.v20120104-1859,"",1356773610981
executed,command,org.eclipse.ui,3.7.0.v20110928-1505,"org.eclipse.ui.edit.copy",1356773615898
executed,command,org.eclipse.ui,3.7.0.v20110928-1505,"org.eclipse.ui.edit.paste",1356773617445
executed,command,org.eclipse.ui.workbench.texteditor,3.7.0.v20110928-1504,"org.eclipse.ui.edit.text.select.lineStart",1356773632410
executed,command,org.eclipse.ui,3.7.0.v20110928-1505,"org.eclipse.ui.edit.cut",1356773632715
deactivated,workbench,org.eclipse.ui.workbench,3.7.1.v20120104-1859,"",1356773635560
activated,workbench,org.eclipse.ui.workbench,3.7.1.v20120104-1859,"",1356773639811
deactivated,workbench,org.eclipse.ui.workbench,3.7.1.v20120104-1859,"",1356773640296
activated,workbench,org.eclipse.ui.workbench,3.7.1.v20120104-1859,"",1356773647285
deactivated,workbench,org.eclipse.ui.workbench,3.7.1.v20120104-1859,"",1356773652171
activated,workbench,org.eclipse.ui.workbench,3.7.1.v20120104-1859,"",1356773655310
executed,command,org.eclipse.ui.ide,3.7.0.v20110928-1505,"org.eclipse.ui.navigate.openResource",1356773655382
executed,command,org.eclipse.ui.workbench.texteditor,3.7.0.v20110928-1504,"org.eclipse.ui.edit.text.goto.lineStart",1356773657568
executed,command,org.eclipse.ui,3.7.0.v20110928-1505,"org.eclipse.ui.file.save",1356773659933
deactivated,workbench,org.eclipse.ui.workbench,3.7.1.v20120104-1859,"",1356773661279
activated,workbench,org.eclipse.ui.workbench,3.7.1.v20120104-1859,"",1356773665235
activated,editor,org.eclipse.jdt.ui,3.7.2.v20120109-1427,"org.eclipse.jdt.ui.CompilationUnitEditor",1356773665377
executed,command,org.eclipse.ui.ide,3.7.0.v20110928-1505,"org.eclipse.ui.navigate.openResource",1356773665379
executed,command,org.eclipse.ui,3.7.0.v20110928-1505,"org.eclipse.ui.edit.copy",1356773695089
