what,kind,bundleId,bundleVersion,description,time
stopped,bundle,org.eclipse.pde.ui.templates,3.4.400.v20110928-1516,"org.eclipse.pde.ui.templates",1368539066588
stopped,bundle,org.eclipse.rap.ui.launch,1.4.2.20120213-1325,"org.eclipse.rap.ui.launch",1368539066597
stopped,bundle,org.eclipse.rap.ui.templates,1.4.2.20120213-1325,"org.eclipse.rap.ui.templates",1368539066600
stopped,bundle,org.eclipse.pde.ui,3.6.100.v20120103_r372,"org.eclipse.pde.ui",1368539066600
stopped,bundle,org.eclipse.ant.ui,3.5.101.v20120110-1739,"org.eclipse.ant.ui",1368539066602
stopped,bundle,org.eclipse.ant.launching,1.0.101.v20120110-1739,"org.eclipse.ant.launching",1368539066604
stopped,bundle,org.eclipse.egit.mylyn.ui,1.3.0.201202151440-r,"org.eclipse.egit.mylyn.ui",1368539066605
stopped,bundle,org.eclipse.egit.ui,1.3.0.201202151440-r,"org.eclipse.egit.ui",1368539066612
stopped,bundle,org.eclipse.egit.core,1.3.0.201202151440-r,"org.eclipse.egit.core",1368539066612
stopped,bundle,org.eclipse.equinox.p2.ui.sdk,1.0.200.v20110815-1419,"org.eclipse.equinox.p2.ui.sdk",1368539066613
stopped,bundle,org.eclipse.mylyn.java.tasks,3.6.0.v20110608-1400,"org.eclipse.mylyn.java.tasks",1368539066614
stopped,bundle,org.eclipse.mylyn.java.ui,3.6.0.v20110608-1400,"org.eclipse.mylyn.java.ui",1368539066616
stopped,bundle,overlay.com.android.ide.eclipse.adt.overlay,21.0.1.v201212060256-543035,"overlay.com.android.ide.eclipse.adt.overlay",1368539066617
stopped,bundle,com.android.ide.eclipse.adt,21.0.1.v201212060256-543035,"com.android.ide.eclipse.adt",1368539066617
stopped,bundle,org.eclipse.jdt.junit,3.7.0.v20110928-1453,"org.eclipse.jdt.junit",1368539066622
stopped,bundle,org.eclipse.jdt.apt.ui,3.3.300.v20110305-1450,"org.eclipse.jdt.apt.ui",1368539066624
stopped,bundle,org.eclipse.rap.ui.launch.rwt,1.4.2.20120213-1325,"org.eclipse.rap.ui.launch.rwt",1368539066626
stopped,bundle,org.eclipse.jdt.debug.ui,3.6.1.v20111006_r372,"org.eclipse.jdt.debug.ui",1368539066626
stopped,bundle,org.eclipse.jdt.ui,3.7.2.v20120109-1427,"org.eclipse.jdt.ui",1368539066647
stopped,bundle,org.eclipse.wst.dtd.ui,1.0.600.v201103171359,"org.eclipse.wst.dtd.ui",1368539066649
stopped,bundle,org.eclipse.wst.xsd.ui,1.2.404.v201105050216,"org.eclipse.wst.xsd.ui",1368539066653
stopped,bundle,org.eclipse.wst.xml.ui,1.1.202.v201112071516,"org.eclipse.wst.xml.ui",1368539066656
stopped,bundle,org.eclipse.wst.common.ui,1.1.500.v200911190730,"org.eclipse.wst.common.ui",1368539066658
stopped,bundle,org.eclipse.wst.sse.ui,1.3.2.v201201041522,"org.eclipse.wst.sse.ui",1368539066661
stopped,bundle,org.eclipse.search,3.7.0.v20110928-1504,"org.eclipse.search",1368539066665
stopped,bundle,org.eclipse.mylyn.commons.team,0.8.0.v20110608-1400,"org.eclipse.mylyn.commons.team",1368539066668
stopped,bundle,org.eclipse.mylyn.team.ui,3.6.1.v20110825-0100,"org.eclipse.mylyn.team.ui",1368539066670
stopped,bundle,org.eclipse.ui.navigator.resources,3.4.300.v20110928-1505,"org.eclipse.ui.navigator.resources",1368539066672
stopped,bundle,org.eclipse.ltk.ui.refactoring,3.6.0.v20110928-1453,"org.eclipse.ltk.ui.refactoring",1368539066673
stopped,bundle,org.eclipse.mylyn.bugzilla.ui,3.6.0.v20110608-1400,"org.eclipse.mylyn.bugzilla.ui",1368539066674
stopped,bundle,org.eclipse.mylyn.ide.ui,3.6.0.v20110608-1400,"org.eclipse.mylyn.ide.ui",1368539066675
stopped,bundle,org.eclipse.mylyn.resources.ui,3.6.0.v20110608-1400,"org.eclipse.mylyn.resources.ui",1368539066677
stopped,bundle,org.eclipse.mylyn.wikitext.tasks.ui,1.5.0.v20110608-1400,"org.eclipse.mylyn.wikitext.tasks.ui",1368539066679
stopped,bundle,org.eclipse.mylyn.context.ui,3.6.1.v20120112-0100,"org.eclipse.mylyn.context.ui",1368539066680
stopped,bundle,org.eclipse.mylyn.help.ui,3.6.1.v20110830-0100,"org.eclipse.mylyn.help.ui",1368539066682
stopped,bundle,org.eclipse.mylyn.tasks.bugs,3.6.1.v20110825-0100,"org.eclipse.mylyn.tasks.bugs",1368539066683
stopped,bundle,org.eclipse.mylyn.tasks.ui,3.6.5.v20120215-0100,"org.eclipse.mylyn.tasks.ui",1368539066689
activated,perspective,org.eclipse.jdt.ui,,"org.eclipse.jdt.ui.JavaPerspective",1369028878732
started,bundle,org.eclipse.osgi,3.7.2.v20120110-1415,"org.eclipse.osgi",1369028878733
started,bundle,org.eclipse.equinox.simpleconfigurator,1.0.200.v20110815-1438,"org.eclipse.equinox.simpleconfigurator",1369028878736
started,bundle,com.ibm.icu,4.4.2.v20110823,"com.ibm.icu",1369028878739
started,bundle,org.eclipse.compare.core,3.5.200.I20110208-0800,"org.eclipse.compare.core",1369028878741
started,bundle,org.eclipse.core.contenttype,3.4.100.v20110423-0524,"org.eclipse.core.contenttype",1369028878744
started,bundle,org.eclipse.core.databinding.observable,1.4.0.I20110222-0800,"org.eclipse.core.databinding.observable",1369028878746
started,bundle,org.eclipse.core.expressions,3.4.300.v20110228,"org.eclipse.core.expressions",1369028878747
started,bundle,org.eclipse.core.filebuffers,3.5.200.v20110928-1504,"org.eclipse.core.filebuffers",1369028878748
started,bundle,org.eclipse.core.filesystem,1.3.100.v20110423-0524,"org.eclipse.core.filesystem",1369028878756
started,bundle,org.eclipse.core.jobs,3.5.101.v20120113-1953,"org.eclipse.core.jobs",1369028878757
started,bundle,org.eclipse.core.net,1.2.100.I20110511-0800,"org.eclipse.core.net",1369028878760
started,bundle,org.eclipse.core.resources,3.7.101.v20120125-1505,"org.eclipse.core.resources",1369028878761
started,bundle,org.eclipse.core.runtime,3.7.0.v20110110,"org.eclipse.core.runtime",1369028878762
started,bundle,org.eclipse.core.runtime.compatibility,3.2.100.v20100505,"org.eclipse.core.runtime.compatibility",1369028878763
started,bundle,org.eclipse.core.runtime.compatibility.auth,3.2.200.v20110110,"org.eclipse.core.runtime.compatibility.auth",1369028878764
started,bundle,org.eclipse.core.variables,3.2.500.v20110928-1503,"org.eclipse.core.variables",1369028878769
started,bundle,org.eclipse.debug.core,3.7.1.v20111129-2031,"org.eclipse.debug.core",1369028878770
started,bundle,org.eclipse.egit.core,1.3.0.201202151440-r,"org.eclipse.egit.core",1369028878788
started,bundle,org.eclipse.egit.ui,1.3.0.201202151440-r,"org.eclipse.egit.ui",1369028878797
started,bundle,org.eclipse.epp.mpc.ui,1.1.1.I20110907-0947,"org.eclipse.epp.mpc.ui",1369028878799
started,bundle,org.eclipse.epp.usagedata.gathering,1.3.1.R201106061540,"org.eclipse.epp.usagedata.gathering",1369028878800
started,bundle,org.eclipse.epp.usagedata.recording,1.3.1.R201106061540,"org.eclipse.epp.usagedata.recording",1369028878801
started,bundle,org.eclipse.equinox.app,1.3.100.v20110321,"org.eclipse.equinox.app",1369028878803
started,bundle,org.eclipse.equinox.common,3.6.0.v20110523,"org.eclipse.equinox.common",1369028878805
started,bundle,org.eclipse.equinox.ds,1.3.1.R37x_v20110701,"org.eclipse.equinox.ds",1369028878807
started,bundle,org.eclipse.equinox.event,1.2.100.v20110502,"org.eclipse.equinox.event",1369028878808
started,bundle,org.eclipse.equinox.frameworkadmin,2.0.0.v20110815-1438,"org.eclipse.equinox.frameworkadmin",1369028878810
started,bundle,org.eclipse.equinox.p2.core,2.1.1.v20120113-1346,"org.eclipse.equinox.p2.core",1369028878811
started,bundle,org.eclipse.equinox.p2.directorywatcher,1.0.300.v20110815-1419,"org.eclipse.equinox.p2.directorywatcher",1369028878812
started,bundle,org.eclipse.equinox.p2.engine,2.1.1.R37x_v20111003,"org.eclipse.equinox.p2.engine",1369028878814
started,bundle,org.eclipse.equinox.p2.metadata,2.1.0.v20110815-1419,"org.eclipse.equinox.p2.metadata",1369028878816
started,bundle,org.eclipse.equinox.p2.metadata.repository,1.2.0.v20110815-1419,"org.eclipse.equinox.p2.metadata.repository",1369028878817
started,bundle,org.eclipse.equinox.p2.operations,2.1.1.R37x_v20111111,"org.eclipse.equinox.p2.operations",1369028878819
started,bundle,org.eclipse.equinox.p2.reconciler.dropins,1.1.100.v20110815-1419,"org.eclipse.equinox.p2.reconciler.dropins",1369028878820
started,bundle,org.eclipse.equinox.p2.repository,2.1.1.v20120113-1346,"org.eclipse.equinox.p2.repository",1369028878822
started,bundle,org.eclipse.equinox.p2.ui.sdk.scheduler,1.0.100.v20110815-1419,"org.eclipse.equinox.p2.ui.sdk.scheduler",1369028878823
started,bundle,org.eclipse.equinox.p2.updatechecker,1.1.200.v20110815-1419,"org.eclipse.equinox.p2.updatechecker",1369028878825
started,bundle,org.eclipse.equinox.preferences,3.4.2.v20120111-2020,"org.eclipse.equinox.preferences",1369028878826
started,bundle,org.eclipse.equinox.registry,3.5.101.R37x_v20110810-1611,"org.eclipse.equinox.registry",1369028878828
started,bundle,org.eclipse.equinox.security,1.1.1.R37x_v20110822-1018,"org.eclipse.equinox.security",1369028878829
started,bundle,org.eclipse.equinox.simpleconfigurator.manipulator,2.0.0.v20110815-1438,"org.eclipse.equinox.simpleconfigurator.manipulator",1369028878832
started,bundle,org.eclipse.equinox.util,1.0.300.v20110502,"org.eclipse.equinox.util",1369028878833
started,bundle,org.eclipse.help,3.5.100.v20110426,"org.eclipse.help",1369028878834
started,bundle,org.eclipse.jdt.apt.core,3.3.500.v20110420-1015,"org.eclipse.jdt.apt.core",1369028878836
started,bundle,org.eclipse.jdt.apt.pluggable.core,1.0.400.v20110305-1450,"org.eclipse.jdt.apt.pluggable.core",1369028878837
started,bundle,org.eclipse.jdt.core,3.7.3.v20120119-1537,"org.eclipse.jdt.core",1369028878838
started,bundle,org.eclipse.jdt.core.manipulation,1.4.0.v20110928-1453,"org.eclipse.jdt.core.manipulation",1369028878839
started,bundle,org.eclipse.jdt.debug,3.7.1.v20111006_r372,"org.eclipse.jdt.debug",1369028878842
started,bundle,org.eclipse.jdt.launching,3.6.1.v20111006_r372,"org.eclipse.jdt.launching",1369028878846
started,bundle,org.eclipse.jdt.launching.macosx,3.2.100.v20111006_r372,"org.eclipse.jdt.launching.macosx",1369028878847
started,bundle,org.eclipse.jdt.ui,3.7.2.v20120109-1427,"org.eclipse.jdt.ui",1369028878847
started,bundle,org.eclipse.jface,3.7.0.v20110928-1505,"org.eclipse.jface",1369028878848
started,bundle,org.eclipse.jgit,1.3.0.201202151440-r,"org.eclipse.jgit",1369028878849
started,bundle,org.eclipse.jsch.core,1.1.300.I20110514-0800,"org.eclipse.jsch.core",1369028878851
started,bundle,org.eclipse.ltk.core.refactoring,3.5.201.r372_v20111101-0700,"org.eclipse.ltk.core.refactoring",1369028878852
started,bundle,org.eclipse.ltk.ui.refactoring,3.6.0.v20110928-1453,"org.eclipse.ltk.ui.refactoring",1369028878854
started,bundle,org.eclipse.mylyn.bugzilla.core,3.6.5.v20120123-0100,"org.eclipse.mylyn.bugzilla.core",1369028878855
started,bundle,org.eclipse.mylyn.bugzilla.ui,3.6.0.v20110608-1400,"org.eclipse.mylyn.bugzilla.ui",1369028878857
started,bundle,org.eclipse.mylyn.commons.identity,0.8.0.v20110608-1400,"org.eclipse.mylyn.commons.identity",1369028878858
started,bundle,org.eclipse.mylyn.commons.net,3.6.0.v20110608-1400,"org.eclipse.mylyn.commons.net",1369028878858
started,bundle,org.eclipse.mylyn.commons.ui,3.6.1.v20110720-0100,"org.eclipse.mylyn.commons.ui",1369028878861
started,bundle,org.eclipse.mylyn.context.core,3.6.1.v20110720-0100,"org.eclipse.mylyn.context.core",1369028878862
started,bundle,org.eclipse.mylyn.context.ui,3.6.1.v20120112-0100,"org.eclipse.mylyn.context.ui",1369028878864
started,bundle,org.eclipse.mylyn.monitor.ui,3.6.0.v20110608-1400,"org.eclipse.mylyn.monitor.ui",1369028878865
started,bundle,org.eclipse.mylyn.tasks.ui,3.6.5.v20120215-0100,"org.eclipse.mylyn.tasks.ui",1369028878873
started,bundle,org.eclipse.mylyn.team.ui,3.6.1.v20110825-0100,"org.eclipse.mylyn.team.ui",1369028878877
started,bundle,org.eclipse.pde,3.7.2.v201202080800,"org.eclipse.pde",1369028878878
started,bundle,org.eclipse.pde.build,3.7.0.v20111116-2009,"org.eclipse.pde.build",1369028878880
started,bundle,org.eclipse.pde.core,3.7.1.v20120103_r372,"org.eclipse.pde.core",1369028878882
started,bundle,org.eclipse.pde.launching,3.6.0.v20110506,"org.eclipse.pde.launching",1369028878883
started,bundle,org.eclipse.pde.ui,3.6.100.v20120103_r372,"org.eclipse.pde.ui",1369028878892
started,bundle,org.eclipse.search,3.7.0.v20110928-1504,"org.eclipse.search",1369028878893
started,bundle,org.eclipse.team.core,3.6.0.I20110525-0800,"org.eclipse.team.core",1369028878895
started,bundle,org.eclipse.team.cvs.core,3.3.400.I20110510-0800,"org.eclipse.team.cvs.core",1369028878897
started,bundle,org.eclipse.team.cvs.ui,3.3.401.v20120126-1227,"org.eclipse.team.cvs.ui",1369028878900
started,bundle,org.eclipse.team.ui,3.6.101.R37x_v20111109-0800,"org.eclipse.team.ui",1369028878902
started,bundle,org.eclipse.ui,3.7.0.v20110928-1505,"org.eclipse.ui",1369028878906
started,bundle,org.eclipse.ui.console,3.5.100.v20111007_r372,"org.eclipse.ui.console",1369028878907
started,bundle,org.eclipse.ui.editors,3.7.0.v20110928-1504,"org.eclipse.ui.editors",1369028878907
started,bundle,org.eclipse.ui.forms,3.5.101.v20111011-1919,"org.eclipse.ui.forms",1369028878908
started,bundle,org.eclipse.ui.ide,3.7.0.v20110928-1505,"org.eclipse.ui.ide",1369028878914
started,bundle,org.eclipse.ui.net,1.2.100.v20111208-1155,"org.eclipse.ui.net",1369028878915
started,bundle,org.eclipse.ui.views,3.6.0.v20110928-1505,"org.eclipse.ui.views",1369028878916
started,bundle,org.eclipse.ui.views.log,1.0.200.v20110404,"org.eclipse.ui.views.log",1369028878917
started,bundle,org.eclipse.ui.workbench,3.7.1.v20120104-1859,"org.eclipse.ui.workbench",1369028878919
started,bundle,org.eclipse.ui.workbench.texteditor,3.7.0.v20110928-1504,"org.eclipse.ui.workbench.texteditor",1369028878921
started,bundle,org.eclipse.update.configurator,3.3.100.v20100512,"org.eclipse.update.configurator",1369028878922
started,bundle,org.eclipse.update.core,3.2.500.v20110330,"org.eclipse.update.core",1369028878923
started,bundle,org.eclipse.update.scheduler,3.2.300.v20100512,"org.eclipse.update.scheduler",1369028878925
started,bundle,org.eclipse.wst.sse.core,1.1.602.v201112071516,"org.eclipse.wst.sse.core",1369028878926
started,bundle,com.android.ide.eclipse.adt,21.0.1.v201212060256-543035,"com.android.ide.eclipse.adt",1369028878926
started,bundle,com.android.ide.eclipse.base,21.0.1.v201212060256-543035,"com.android.ide.eclipse.base",1369028878927
started,bundle,org.eclipse.swt.tools,3.8.0.201203291717,"org.eclipse.swt.tools",1369028878928
os,sysinfo,,,"macosx",1369028878932
arch,sysinfo,,,"x86_64",1369028878932
ws,sysinfo,,,"cocoa",1369028878932
locale,sysinfo,,,"ko_KR",1369028878932
processors,sysinfo,,,"4",1369028878932
java.runtime.name,sysinfo,,,"Java(TM) SE Runtime Environment",1369028878932
java.runtime.version,sysinfo,,,"1.6.0_45-b06-451-11M4406",1369028878932
java.specification.name,sysinfo,,,"Java Platform API Specification",1369028878932
java.specification.vendor,sysinfo,,,"Sun Microsystems Inc.",1369028878932
java.specification.version,sysinfo,,,"1.6",1369028878932
java.vendor,sysinfo,,,"Apple Inc.",1369028878932
java.version,sysinfo,,,"1.6.0_45",1369028878932
java.vm.info,sysinfo,,,"mixed mode",1369028878932
java.vm.name,sysinfo,,,"Java HotSpot(TM) 64-Bit Server VM",1369028878932
java.vm.specification.name,sysinfo,,,"Java Virtual Machine Specification",1369028878932
java.vm.specification.vendor,sysinfo,,,"Sun Microsystems Inc.",1369028878932
java.vm.specification.version,sysinfo,,,"1.0",1369028878932
java.vm.vendor,sysinfo,,,"Apple Inc.",1369028878932
java.vm.version,sysinfo,,,"20.45-b01-451",1369028878932
started,bundle,org.eclipse.epp.usagedata.ui,1.3.1.R201106061540,"org.eclipse.epp.usagedata.ui",1369028879956
started,bundle,org.eclipse.debug.ui,3.7.102.v20111129-1423_r372,"org.eclipse.debug.ui",1369028879972
started,bundle,org.eclipse.jdt.debug.ui,3.6.1.v20111006_r372,"org.eclipse.jdt.debug.ui",1369028880402
started,bundle,org.eclipse.rap.ui.launch,1.4.2.20120213-1325,"org.eclipse.rap.ui.launch",1369028880409
deactivated,workbench,org.eclipse.ui.workbench,3.7.1.v20120104-1859,"",1369028881237
activated,workbench,org.eclipse.ui.workbench,3.7.1.v20120104-1859,"",1369028882970
deactivated,workbench,org.eclipse.ui.workbench,3.7.1.v20120104-1859,"",1369028884484
activated,workbench,org.eclipse.ui.workbench,3.7.1.v20120104-1859,"",1369028945559
opened,view,org.eclipse.debug.ui,3.7.102.v20111129-1423_r372,"org.eclipse.debug.ui.DebugView",1369028945876
opened,view,org.eclipse.debug.ui,3.7.102.v20111129-1423_r372,"org.eclipse.debug.ui.VariableView",1369028945955
opened,view,org.eclipse.team.ui,3.6.101.R37x_v20111109-0800,"org.eclipse.team.ui.GenericHistoryView",1369028945993
activated,perspective,org.eclipse.debug.ui,3.7.102.v20111129-1423_r372,"org.eclipse.debug.ui.DebugPerspective",1369028946073
opened,view,org.eclipse.debug.ui,3.7.102.v20111129-1423_r372,"org.eclipse.debug.ui.BreakpointView",1369028947020
opened,editor,org.eclipse.jdt.ui,3.7.2.v20120109-1427,"org.eclipse.jdt.ui.CompilationUnitEditor",1369028947381
activated,editor,org.eclipse.jdt.ui,3.7.2.v20120109-1427,"org.eclipse.jdt.ui.CompilationUnitEditor",1369028947520
started,bundle,org.eclipse.jdt.junit,3.7.0.v20110928-1453,"org.eclipse.jdt.junit",1369028947568
activated,view,org.eclipse.debug.ui,3.7.102.v20111129-1423_r372,"org.eclipse.debug.ui.DebugView",1369028949919
executed,command,org.eclipse.debug.ui,3.7.102.v20111129-1423_r372,"org.eclipse.debug.ui.commands.Terminate",1369028950044
deactivated,workbench,org.eclipse.ui.workbench,3.7.1.v20120104-1859,"",1369028955783
activated,workbench,org.eclipse.ui.workbench,3.7.1.v20120104-1859,"",1369028956547
executed,command,org.eclipse.debug.ui,3.7.102.v20111129-1423_r372,"org.eclipse.debug.ui.commands.Terminate",1369028956642
deactivated,workbench,org.eclipse.ui.workbench,3.7.1.v20120104-1859,"",1369028960016
activated,workbench,org.eclipse.ui.workbench,3.7.1.v20120104-1859,"",1369028967758
deactivated,workbench,org.eclipse.ui.workbench,3.7.1.v20120104-1859,"",1369028969956
activated,workbench,org.eclipse.ui.workbench,3.7.1.v20120104-1859,"",1369028980254
activated,editor,org.eclipse.jdt.ui,3.7.2.v20120109-1427,"org.eclipse.jdt.ui.CompilationUnitEditor",1369028981848
executed,command,,,"AUTOGEN:::org.eclipse.jdt.debug.CompilationUnitEditor.BreakpointRulerActions/org.eclipse.jdt.debug.ui.actions.ManageBreakpointRulerAction",1369028982131
activated,view,org.eclipse.debug.ui,3.7.102.v20111129-1423_r372,"org.eclipse.debug.ui.DebugView",1369028983283
executed,command,org.eclipse.debug.ui,3.7.102.v20111129-1423_r372,"org.eclipse.debug.ui.commands.Resume",1369028983420
deactivated,workbench,org.eclipse.ui.workbench,3.7.1.v20120104-1859,"",1369028986035
activated,workbench,org.eclipse.ui.workbench,3.7.1.v20120104-1859,"",1369029038718
deactivated,workbench,org.eclipse.ui.workbench,3.7.1.v20120104-1859,"",1369029043591
activated,workbench,org.eclipse.ui.workbench,3.7.1.v20120104-1859,"",1369029099107
activated,editor,org.eclipse.jdt.ui,3.7.2.v20120109-1427,"org.eclipse.jdt.ui.CompilationUnitEditor",1369029100824
executed,command,,,"AUTOGEN:::org.eclipse.jdt.debug.CompilationUnitEditor.BreakpointRulerActions/org.eclipse.jdt.debug.ui.actions.ManageBreakpointRulerAction",1369029101066
activated,view,org.eclipse.debug.ui,3.7.102.v20111129-1423_r372,"org.eclipse.debug.ui.BreakpointView",1369029101975
activated,view,org.eclipse.debug.ui,3.7.102.v20111129-1423_r372,"org.eclipse.debug.ui.DebugView",1369029104266
executed,command,org.eclipse.debug.ui,3.7.102.v20111129-1423_r372,"org.eclipse.debug.ui.commands.Resume",1369029104831
deactivated,workbench,org.eclipse.ui.workbench,3.7.1.v20120104-1859,"",1369029106337
started,bundle,org.eclipse.equinox.p2.garbagecollector,1.0.200.v20110815-1419,"org.eclipse.equinox.p2.garbagecollector",1369029173365
activated,workbench,org.eclipse.ui.workbench,3.7.1.v20120104-1859,"",1369029336867
executed,command,org.eclipse.debug.ui,3.7.102.v20111129-1423_r372,"org.eclipse.debug.ui.commands.Terminate",1369029338686
deactivated,workbench,org.eclipse.ui.workbench,3.7.1.v20120104-1859,"",1369029342065
activated,workbench,org.eclipse.ui.workbench,3.7.1.v20120104-1859,"",1369029508788
deactivated,workbench,org.eclipse.ui.workbench,3.7.1.v20120104-1859,"",1369029512135
activated,workbench,org.eclipse.ui.workbench,3.7.1.v20120104-1859,"",1369029728068
executed,command,org.eclipse.debug.ui,3.7.102.v20111129-1423_r372,"org.eclipse.debug.ui.commands.Terminate",1369029734658
activated,editor,org.eclipse.jdt.ui,3.7.2.v20120109-1427,"org.eclipse.jdt.ui.CompilationUnitEditor",1369029737297
deactivated,workbench,org.eclipse.ui.workbench,3.7.1.v20120104-1859,"",1369029737739
activated,workbench,org.eclipse.ui.workbench,3.7.1.v20120104-1859,"",1369029745021
opened,editor,org.eclipse.jdt.ui,3.7.2.v20120109-1427,"org.eclipse.jdt.ui.CompilationUnitEditor",1369029745204
activated,editor,org.eclipse.jdt.ui,3.7.2.v20120109-1427,"org.eclipse.jdt.ui.CompilationUnitEditor",1369029745321
executed,command,org.eclipse.ui.ide,3.7.0.v20110928-1505,"org.eclipse.ui.navigate.openResource",1369029745353
deactivated,workbench,org.eclipse.ui.workbench,3.7.1.v20120104-1859,"",1369029755311
activated,workbench,org.eclipse.ui.workbench,3.7.1.v20120104-1859,"",1369029773304
deactivated,workbench,org.eclipse.ui.workbench,3.7.1.v20120104-1859,"",1369029773624
activated,workbench,org.eclipse.ui.workbench,3.7.1.v20120104-1859,"",1369029790680
activated,view,org.eclipse.debug.ui,3.7.102.v20111129-1423_r372,"org.eclipse.debug.ui.DebugView",1369029792157
executed,command,org.eclipse.debug.ui,3.7.102.v20111129-1423_r372,"org.eclipse.debug.ui.commands.Terminate",1369029792249
deactivated,workbench,org.eclipse.ui.workbench,3.7.1.v20120104-1859,"",1369029795508
activated,workbench,org.eclipse.ui.workbench,3.7.1.v20120104-1859,"",1369029853862
activated,view,org.eclipse.ui.console,3.5.100.v20111007_r372,"org.eclipse.ui.console.ConsoleView",1369029855033
deactivated,workbench,org.eclipse.ui.workbench,3.7.1.v20120104-1859,"",1369029858730
activated,workbench,org.eclipse.ui.workbench,3.7.1.v20120104-1859,"",1369030573203
deactivated,workbench,org.eclipse.ui.workbench,3.7.1.v20120104-1859,"",1369030574712
activated,workbench,org.eclipse.ui.workbench,3.7.1.v20120104-1859,"",1369031532089
deactivated,workbench,org.eclipse.ui.workbench,3.7.1.v20120104-1859,"",1369031532933
activated,workbench,org.eclipse.ui.workbench,3.7.1.v20120104-1859,"",1369034031419
deactivated,workbench,org.eclipse.ui.workbench,3.7.1.v20120104-1859,"",1369034035553
activated,workbench,org.eclipse.ui.workbench,3.7.1.v20120104-1859,"",1369034055497
deactivated,workbench,org.eclipse.ui.workbench,3.7.1.v20120104-1859,"",1369034057548
activated,workbench,org.eclipse.ui.workbench,3.7.1.v20120104-1859,"",1369034278285
deactivated,workbench,org.eclipse.ui.workbench,3.7.1.v20120104-1859,"",1369034280133
activated,workbench,org.eclipse.ui.workbench,3.7.1.v20120104-1859,"",1369034334453
deactivated,workbench,org.eclipse.ui.workbench,3.7.1.v20120104-1859,"",1369034335760
activated,workbench,org.eclipse.ui.workbench,3.7.1.v20120104-1859,"",1369039844393
executed,command,org.eclipse.debug.ui,3.7.102.v20111129-1423_r372,"org.eclipse.debug.ui.commands.Terminate",1369039844531
deactivated,workbench,org.eclipse.ui.workbench,3.7.1.v20120104-1859,"",1369039846580
activated,workbench,org.eclipse.ui.workbench,3.7.1.v20120104-1859,"",1369046229998
deactivated,workbench,org.eclipse.ui.workbench,3.7.1.v20120104-1859,"",1369046236580
activated,workbench,org.eclipse.ui.workbench,3.7.1.v20120104-1859,"",1369046478509
deactivated,workbench,org.eclipse.ui.workbench,3.7.1.v20120104-1859,"",1369046487286
activated,workbench,org.eclipse.ui.workbench,3.7.1.v20120104-1859,"",1369092568802
activated,editor,org.eclipse.jdt.ui,3.7.2.v20120109-1427,"org.eclipse.jdt.ui.CompilationUnitEditor",1369092569228
activated,perspective,org.eclipse.jdt.ui,3.7.2.v20120109-1427,"org.eclipse.jdt.ui.JavaPerspective",1369092574436
deactivated,workbench,org.eclipse.ui.workbench,3.7.1.v20120104-1859,"",1369092580454
activated,workbench,org.eclipse.ui.workbench,3.7.1.v20120104-1859,"",1369092595062
activated,view,org.eclipse.jdt.ui,3.7.2.v20120109-1427,"org.eclipse.jdt.ui.PackageExplorer",1369092598719
opened,editor,org.eclipse.jdt.ui,3.7.2.v20120109-1427,"org.eclipse.jdt.ui.CompilationUnitEditor",1369092604123
activated,editor,org.eclipse.jdt.ui,3.7.2.v20120109-1427,"org.eclipse.jdt.ui.CompilationUnitEditor",1369092604256
activated,view,org.eclipse.jdt.ui,3.7.2.v20120109-1427,"org.eclipse.jdt.ui.PackageExplorer",1369092622683
opened,editor,org.eclipse.jdt.ui,3.7.2.v20120109-1427,"org.eclipse.jdt.ui.CompilationUnitEditor",1369092622898
activated,editor,org.eclipse.jdt.ui,3.7.2.v20120109-1427,"org.eclipse.jdt.ui.CompilationUnitEditor",1369092623131
activated,view,org.eclipse.jdt.ui,3.7.2.v20120109-1427,"org.eclipse.jdt.ui.PackageExplorer",1369092643518
opened,editor,org.eclipse.jdt.ui,3.7.2.v20120109-1427,"org.eclipse.jdt.ui.CompilationUnitEditor",1369092643751
activated,editor,org.eclipse.jdt.ui,3.7.2.v20120109-1427,"org.eclipse.jdt.ui.CompilationUnitEditor",1369092643993
started,bundle,org.eclipse.compare,3.5.202.R37x_v20111109-0800,"org.eclipse.compare",1369092650047
deactivated,workbench,org.eclipse.ui.workbench,3.7.1.v20120104-1859,"",1369092659608
activated,workbench,org.eclipse.ui.workbench,3.7.1.v20120104-1859,"",1369092665091
deactivated,workbench,org.eclipse.ui.workbench,3.7.1.v20120104-1859,"",1369092671339
activated,workbench,org.eclipse.ui.workbench,3.7.1.v20120104-1859,"",1369092787994
deactivated,workbench,org.eclipse.ui.workbench,3.7.1.v20120104-1859,"",1369092789085
activated,workbench,org.eclipse.ui.workbench,3.7.1.v20120104-1859,"",1369092792655
opened,editor,org.eclipse.jdt.ui,3.7.2.v20120109-1427,"org.eclipse.jdt.ui.CompilationUnitEditor",1369092792888
activated,editor,org.eclipse.jdt.ui,3.7.2.v20120109-1427,"org.eclipse.jdt.ui.CompilationUnitEditor",1369092793016
executed,command,org.eclipse.ui.ide,3.7.0.v20110928-1505,"org.eclipse.ui.navigate.openResource",1369092793019
executed,command,,,"AUTOGEN:::org.eclipse.jdt.debug.CompilationUnitEditor.BreakpointRulerActions/org.eclipse.jdt.debug.ui.actions.ManageBreakpointRulerAction",1369092799318
activated,perspective,org.eclipse.debug.ui,3.7.102.v20111129-1423_r372,"org.eclipse.debug.ui.DebugPerspective",1369092800976
activated,view,org.eclipse.debug.ui,3.7.102.v20111129-1423_r372,"org.eclipse.debug.ui.BreakpointView",1369092802270
deactivated,workbench,org.eclipse.ui.workbench,3.7.1.v20120104-1859,"",1369092803948
activated,workbench,org.eclipse.ui.workbench,3.7.1.v20120104-1859,"",1369092805712
deactivated,workbench,org.eclipse.ui.workbench,3.7.1.v20120104-1859,"",1369092806148
