what,kind,bundleId,bundleVersion,description,time
error,log,,,"File not found: /Users/pky1030/Downloads/youandme/org.opros.tpl.taskmodel.edit/META-INF/MANIFEST.MF.",1360118013351
deactivated,workbench,org.eclipse.ui.workbench,3.7.1.v20120104-1859,"",1360118567434
activated,workbench,org.eclipse.ui.workbench,3.7.1.v20120104-1859,"",1360120958642
activated,view,org.eclipse.ui.console,3.5.100.v20111007_r372,"org.eclipse.ui.console.ConsoleView",1360120962627
activated,editor,org.eclipse.jdt.ui,3.7.2.v20120109-1427,"org.eclipse.jdt.ui.CompilationUnitEditor",1360120995597
executed,command,org.eclipse.ui.workbench.texteditor,3.7.0.v20110928-1504,"org.eclipse.ui.edit.text.select.lineStart",1360120996710
executed,command,org.eclipse.ui,3.7.0.v20110928-1505,"org.eclipse.ui.edit.cut",1360120997040
activated,view,org.eclipse.ui.console,3.5.100.v20111007_r372,"org.eclipse.ui.console.ConsoleView",1360121001218
executed,command,org.eclipse.ui,3.7.0.v20110928-1505,"org.eclipse.ui.edit.copy",1360121005118
deactivated,workbench,org.eclipse.ui.workbench,3.7.1.v20120104-1859,"",1360121007121
activated,workbench,org.eclipse.ui.workbench,3.7.1.v20120104-1859,"",1360121008914
deactivated,workbench,org.eclipse.ui.workbench,3.7.1.v20120104-1859,"",1360121008994
activated,workbench,org.eclipse.ui.workbench,3.7.1.v20120104-1859,"",1360121022570
deactivated,workbench,org.eclipse.ui.workbench,3.7.1.v20120104-1859,"",1360121026718
activated,workbench,org.eclipse.ui.workbench,3.7.1.v20120104-1859,"",1360121049054
deactivated,workbench,org.eclipse.ui.workbench,3.7.1.v20120104-1859,"",1360121051679
activated,workbench,org.eclipse.ui.workbench,3.7.1.v20120104-1859,"",1360121157463
activated,editor,org.eclipse.jdt.ui,3.7.2.v20120109-1427,"org.eclipse.jdt.ui.CompilationUnitEditor",1360121158026
activated,editor,org.eclipse.jdt.ui,3.7.2.v20120109-1427,"org.eclipse.jdt.ui.CompilationUnitEditor",1360121159751
activated,editor,org.eclipse.jdt.ui,3.7.2.v20120109-1427,"org.eclipse.jdt.ui.CompilationUnitEditor",1360121161031
executed,command,org.eclipse.ui,3.7.0.v20110928-1505,"org.eclipse.ui.edit.undo",1360121161616
executed,command,org.eclipse.ui,3.7.0.v20110928-1505,"org.eclipse.ui.edit.redo",1360121162629
executed,command,org.eclipse.ui,3.7.0.v20110928-1505,"org.eclipse.ui.file.save",1360121178438
deactivated,workbench,org.eclipse.ui.workbench,3.7.1.v20120104-1859,"",1360121185393
activated,workbench,org.eclipse.ui.workbench,3.7.1.v20120104-1859,"",1360121188182
activated,editor,org.eclipse.jdt.ui,3.7.2.v20120109-1427,"org.eclipse.jdt.ui.CompilationUnitEditor",1360121188344
executed,command,org.eclipse.ui.ide,3.7.0.v20110928-1505,"org.eclipse.ui.navigate.openResource",1360121188345
activated,view,org.eclipse.ui.views,3.6.0.v20110928-1505,"org.eclipse.ui.views.ContentOutline",1360121189356
activated,editor,org.eclipse.jdt.ui,3.7.2.v20120109-1427,"org.eclipse.jdt.ui.CompilationUnitEditor",1360121198228
executed,command,org.eclipse.ui.workbench.texteditor,3.7.0.v20110928-1504,"org.eclipse.ui.edit.text.goto.lineEnd",1360121198795
executed,command,org.eclipse.ui.workbench.texteditor,3.7.0.v20110928-1504,"org.eclipse.ui.edit.text.select.lineStart",1360121199427
executed,command,org.eclipse.ui,3.7.0.v20110928-1505,"org.eclipse.ui.edit.cut",1360121200980
executed,command,org.eclipse.ui.workbench.texteditor,3.7.0.v20110928-1504,"org.eclipse.ui.edit.text.goto.lineEnd",1360121219202
executed,command,org.eclipse.ui,3.7.0.v20110928-1505,"org.eclipse.ui.edit.paste",1360121231492
executed,command,org.eclipse.ui.workbench.texteditor,3.7.0.v20110928-1504,"org.eclipse.ui.edit.text.goto.lineStart",1360121233505
executed,command,org.eclipse.ui.workbench.texteditor,3.7.0.v20110928-1504,"org.eclipse.ui.edit.text.goto.lineEnd",1360121237257
executed,command,org.eclipse.ui.workbench.texteditor,3.7.0.v20110928-1504,"org.eclipse.ui.edit.text.select.lineStart",1360121237704
executed,command,org.eclipse.ui,3.7.0.v20110928-1505,"org.eclipse.ui.edit.copy",1360121238154
executed,command,org.eclipse.ui.workbench.texteditor,3.7.0.v20110928-1504,"org.eclipse.ui.edit.text.select.lineStart",1360121242081
executed,command,org.eclipse.ui,3.7.0.v20110928-1505,"org.eclipse.ui.edit.paste",1360121242341
executed,command,org.eclipse.ui.workbench.texteditor,3.7.0.v20110928-1504,"org.eclipse.ui.edit.text.goto.lineEnd",1360121244945
executed,command,org.eclipse.ui,3.7.0.v20110928-1505,"org.eclipse.ui.edit.text.contentAssist.proposals",1360121249875
executed,command,org.eclipse.ui,3.7.0.v20110928-1505,"org.eclipse.ui.edit.undo",1360121253665
executed,command,org.eclipse.ui.workbench.texteditor,3.7.0.v20110928-1504,"org.eclipse.ui.edit.text.select.lineStart",1360121270195
executed,command,org.eclipse.ui.workbench.texteditor,3.7.0.v20110928-1504,"org.eclipse.ui.edit.text.goto.lineEnd",1360121278307
executed,command,org.eclipse.ui,3.7.0.v20110928-1505,"org.eclipse.ui.edit.text.contentAssist.proposals",1360121292053
executed,command,org.eclipse.ui.workbench.texteditor,3.7.0.v20110928-1504,"org.eclipse.ui.edit.text.goto.lineEnd",1360121295795
executed,command,org.eclipse.ui.workbench.texteditor,3.7.0.v20110928-1504,"org.eclipse.ui.edit.text.goto.lineEnd",1360121298722
executed,command,org.eclipse.ui,3.7.0.v20110928-1505,"org.eclipse.ui.edit.delete",1360121299344
executed,command,org.eclipse.ui,3.7.0.v20110928-1505,"org.eclipse.ui.edit.delete",1360121299732
executed,command,org.eclipse.ui,3.7.0.v20110928-1505,"org.eclipse.ui.edit.delete",1360121299948
executed,command,org.eclipse.ui,3.7.0.v20110928-1505,"org.eclipse.ui.edit.delete",1360121300132
executed,command,org.eclipse.ui,3.7.0.v20110928-1505,"org.eclipse.ui.edit.delete",1360121300351
executed,command,org.eclipse.ui,3.7.0.v20110928-1505,"org.eclipse.ui.edit.undo",1360121303792
executed,command,org.eclipse.ui,3.7.0.v20110928-1505,"org.eclipse.ui.edit.delete",1360121305781
executed,command,org.eclipse.ui.workbench.texteditor,3.7.0.v20110928-1504,"org.eclipse.ui.edit.text.goto.lineEnd",1360121306506
executed,command,org.eclipse.ui,3.7.0.v20110928-1505,"org.eclipse.ui.edit.copy",1360121311026
activated,view,org.eclipse.ui.views,3.6.0.v20110928-1505,"org.eclipse.ui.views.ContentOutline",1360121316673
activated,editor,org.eclipse.jdt.ui,3.7.2.v20120109-1427,"org.eclipse.jdt.ui.CompilationUnitEditor",1360121322208
executed,command,org.eclipse.ui,3.7.0.v20110928-1505,"org.eclipse.ui.edit.paste",1360121335037
executed,command,org.eclipse.ui,3.7.0.v20110928-1505,"org.eclipse.ui.file.save",1360121340906
deactivated,workbench,org.eclipse.ui.workbench,3.7.1.v20120104-1859,"",1360121341574
activated,workbench,org.eclipse.ui.workbench,3.7.1.v20120104-1859,"",1360121343345
deactivated,workbench,org.eclipse.ui.workbench,3.7.1.v20120104-1859,"",1360121346965
error,log,,,"File not found: /Users/pky1030/Downloads/youandme/org.opros.tpl.scenario/META-INF/MANIFEST.MF.",1360121478442
error,log,,,"File not found: /Users/pky1030/Downloads/youandme/org.opros.tpl.taskmodel/META-INF/MANIFEST.MF.",1360121478445
error,log,,,"File not found: /Users/pky1030/Downloads/youandme/org.opros.tpl/META-INF/MANIFEST.MF.",1360121478445
error,log,,,"File not found: /Users/pky1030/Downloads/youandme/org.opros.tpl.taskmodel.edit/META-INF/MANIFEST.MF.",1360121478446
activated,workbench,org.eclipse.ui.workbench,3.7.1.v20120104-1859,"",1360121930110
deactivated,workbench,org.eclipse.ui.workbench,3.7.1.v20120104-1859,"",1360121931348
activated,workbench,org.eclipse.ui.workbench,3.7.1.v20120104-1859,"",1360121932909
deactivated,workbench,org.eclipse.ui.workbench,3.7.1.v20120104-1859,"",1360121933585
activated,workbench,org.eclipse.ui.workbench,3.7.1.v20120104-1859,"",1360121934261
activated,view,org.eclipse.ui.console,3.5.100.v20111007_r372,"org.eclipse.ui.console.ConsoleView",1360121940729
activated,editor,org.eclipse.jdt.ui,3.7.2.v20120109-1427,"org.eclipse.jdt.ui.CompilationUnitEditor",1360121941095
executed,command,org.eclipse.ui,3.7.0.v20110928-1505,"org.eclipse.ui.edit.copy",1360121946496
executed,command,org.eclipse.ui,3.7.0.v20110928-1505,"org.eclipse.ui.edit.paste",1360121950039
executed,command,org.eclipse.ui,3.7.0.v20110928-1505,"org.eclipse.ui.file.save",1360121954578
deactivated,workbench,org.eclipse.ui.workbench,3.7.1.v20120104-1859,"",1360121955146
activated,workbench,org.eclipse.ui.workbench,3.7.1.v20120104-1859,"",1360121958361
activated,view,org.eclipse.ui.console,3.5.100.v20111007_r372,"org.eclipse.ui.console.ConsoleView",1360121961252
executed,command,org.eclipse.ui,3.7.0.v20110928-1505,"org.eclipse.ui.edit.copy",1360121965324
deactivated,workbench,org.eclipse.ui.workbench,3.7.1.v20120104-1859,"",1360121966347
activated,workbench,org.eclipse.ui.workbench,3.7.1.v20120104-1859,"",1360121969254
deactivated,workbench,org.eclipse.ui.workbench,3.7.1.v20120104-1859,"",1360121971655
activated,workbench,org.eclipse.ui.workbench,3.7.1.v20120104-1859,"",1360121978074
deactivated,workbench,org.eclipse.ui.workbench,3.7.1.v20120104-1859,"",1360121980984
activated,workbench,org.eclipse.ui.workbench,3.7.1.v20120104-1859,"",1360121983800
activated,editor,org.eclipse.jdt.ui,3.7.2.v20120109-1427,"org.eclipse.jdt.ui.CompilationUnitEditor",1360121986917
activated,editor,org.eclipse.jdt.ui,3.7.2.v20120109-1427,"org.eclipse.jdt.ui.CompilationUnitEditor",1360121999509
activated,editor,org.eclipse.jdt.ui,3.7.2.v20120109-1427,"org.eclipse.jdt.ui.CompilationUnitEditor",1360122002048
deactivated,workbench,org.eclipse.ui.workbench,3.7.1.v20120104-1859,"",1360122002871
activated,workbench,org.eclipse.ui.workbench,3.7.1.v20120104-1859,"",1360122031215
deactivated,workbench,org.eclipse.ui.workbench,3.7.1.v20120104-1859,"",1360122036631
activated,workbench,org.eclipse.ui.workbench,3.7.1.v20120104-1859,"",1360122040999
activated,editor,org.eclipse.jdt.ui,3.7.2.v20120109-1427,"org.eclipse.jdt.ui.CompilationUnitEditor",1360122055838
deactivated,workbench,org.eclipse.ui.workbench,3.7.1.v20120104-1859,"",1360122063727
activated,workbench,org.eclipse.ui.workbench,3.7.1.v20120104-1859,"",1360122066559
activated,editor,org.eclipse.jdt.ui,3.7.2.v20120109-1427,"org.eclipse.jdt.ui.CompilationUnitEditor",1360122067700
executed,command,org.eclipse.ui,3.7.0.v20110928-1505,"org.eclipse.ui.navigate.backwardHistory",1360122067707
deactivated,workbench,org.eclipse.ui.workbench,3.7.1.v20120104-1859,"",1360122083504
activated,workbench,org.eclipse.ui.workbench,3.7.1.v20120104-1859,"",1360122091566
deactivated,workbench,org.eclipse.ui.workbench,3.7.1.v20120104-1859,"",1360122092069
activated,workbench,org.eclipse.ui.workbench,3.7.1.v20120104-1859,"",1360122123330
deactivated,workbench,org.eclipse.ui.workbench,3.7.1.v20120104-1859,"",1360122124392
activated,workbench,org.eclipse.ui.workbench,3.7.1.v20120104-1859,"",1360122127586
activated,view,org.eclipse.ui.console,3.5.100.v20111007_r372,"org.eclipse.ui.console.ConsoleView",1360122133931
executed,command,org.eclipse.ui,3.7.0.v20110928-1505,"org.eclipse.ui.edit.copy",1360122135542
executed,command,org.eclipse.ui,3.7.0.v20110928-1505,"org.eclipse.ui.edit.copy",1360122137734
deactivated,workbench,org.eclipse.ui.workbench,3.7.1.v20120104-1859,"",1360122138128
activated,workbench,org.eclipse.ui.workbench,3.7.1.v20120104-1859,"",1360122162765
activated,editor,org.eclipse.jdt.ui,3.7.2.v20120109-1427,"org.eclipse.jdt.ui.CompilationUnitEditor",1360122165890
activated,editor,org.eclipse.jdt.ui,3.7.2.v20120109-1427,"org.eclipse.jdt.ui.CompilationUnitEditor",1360122173838
activated,editor,org.eclipse.jdt.ui,3.7.2.v20120109-1427,"org.eclipse.jdt.ui.CompilationUnitEditor",1360122178022
activated,view,org.eclipse.ui.views,3.6.0.v20110928-1505,"org.eclipse.ui.views.ContentOutline",1360122179765
activated,editor,org.eclipse.jdt.ui,3.7.2.v20120109-1427,"org.eclipse.jdt.ui.CompilationUnitEditor",1360122181486
executed,command,org.eclipse.ui.workbench.texteditor,3.7.0.v20110928-1504,"org.eclipse.ui.edit.text.select.lineStart",1360122191773
executed,command,org.eclipse.ui,3.7.0.v20110928-1505,"org.eclipse.ui.edit.delete",1360122194996
executed,command,org.eclipse.ui,3.7.0.v20110928-1505,"org.eclipse.ui.edit.delete",1360122195159
executed,command,org.eclipse.ui,3.7.0.v20110928-1505,"org.eclipse.ui.edit.delete",1360122195359
executed,command,org.eclipse.ui,3.7.0.v20110928-1505,"org.eclipse.ui.edit.delete",1360122195527
executed,command,org.eclipse.ui,3.7.0.v20110928-1505,"org.eclipse.ui.edit.delete",1360122195703
executed,command,org.eclipse.ui.workbench.texteditor,3.7.0.v20110928-1504,"org.eclipse.ui.edit.text.goto.textEnd",1360122197181
executed,command,org.eclipse.ui,3.7.0.v20110928-1505,"org.eclipse.ui.edit.undo",1360122198072
executed,command,org.eclipse.ui,3.7.0.v20110928-1505,"org.eclipse.ui.file.save",1360122202309
deactivated,workbench,org.eclipse.ui.workbench,3.7.1.v20120104-1859,"",1360122202720
activated,workbench,org.eclipse.ui.workbench,3.7.1.v20120104-1859,"",1360122224265
deactivated,workbench,org.eclipse.ui.workbench,3.7.1.v20120104-1859,"",1360122224920
activated,workbench,org.eclipse.ui.workbench,3.7.1.v20120104-1859,"",1360122225245
activated,view,org.eclipse.ui.console,3.5.100.v20111007_r372,"org.eclipse.ui.console.ConsoleView",1360122225882
executed,command,org.eclipse.ui,3.7.0.v20110928-1505,"org.eclipse.ui.edit.copy",1360122227131
deactivated,workbench,org.eclipse.ui.workbench,3.7.1.v20120104-1859,"",1360122229403
activated,workbench,org.eclipse.ui.workbench,3.7.1.v20120104-1859,"",1360122254069
error,log,,,"File not found: /Users/pky1030/Downloads/youandme/org.opros.tpl.scenario/META-INF/MANIFEST.MF.",1360122254572
error,log,,,"File not found: /Users/pky1030/Downloads/youandme/org.opros.tpl.taskmodel/META-INF/MANIFEST.MF.",1360122254573
error,log,,,"File not found: /Users/pky1030/Downloads/youandme/org.opros.tpl/META-INF/MANIFEST.MF.",1360122254574
error,log,,,"File not found: /Users/pky1030/Downloads/youandme/org.opros.tpl.taskmodel.edit/META-INF/MANIFEST.MF.",1360122254574
activated,view,org.eclipse.ui.views.log,1.0.200.v20110404,"org.eclipse.pde.runtime.LogView",1360122259590
activated,editor,org.eclipse.jdt.ui,3.7.2.v20120109-1427,"org.eclipse.jdt.ui.CompilationUnitEditor",1360122259712
executed,command,org.eclipse.ui.workbench.texteditor,3.7.0.v20110928-1504,"org.eclipse.ui.edit.text.select.lineEnd",1360122267434
executed,command,org.eclipse.ui,3.7.0.v20110928-1505,"org.eclipse.ui.edit.copy",1360122268058
executed,command,org.eclipse.ui,3.7.0.v20110928-1505,"org.eclipse.ui.edit.undo",1360122269137
executed,command,org.eclipse.ui,3.7.0.v20110928-1505,"org.eclipse.ui.edit.text.contentAssist.proposals",1360122272191
executed,command,org.eclipse.ui,3.7.0.v20110928-1505,"org.eclipse.ui.edit.paste",1360122272864
executed,command,org.eclipse.ui,3.7.0.v20110928-1505,"org.eclipse.ui.file.save",1360122275684
executed,command,,,"AUTOGEN:::org.eclipse.jdt.debug.CompilationUnitEditor.BreakpointRulerActions/org.eclipse.jdt.debug.ui.actions.ManageBreakpointRulerAction",1360122277909
deactivated,workbench,org.eclipse.ui.workbench,3.7.1.v20120104-1859,"",1360122278572
activated,workbench,org.eclipse.ui.workbench,3.7.1.v20120104-1859,"",1360122281573
activated,view,org.eclipse.debug.ui,3.7.102.v20111129-1423_r372,"org.eclipse.debug.ui.BreakpointView",1360122284878
activated,view,org.eclipse.debug.ui,3.7.102.v20111129-1423_r372,"org.eclipse.debug.ui.VariableView",1360122285982
activated,view,org.eclipse.ui.console,3.5.100.v20111007_r372,"org.eclipse.ui.console.ConsoleView",1360122289598
executed,command,org.eclipse.ui,3.7.0.v20110928-1505,"org.eclipse.ui.edit.copy",1360122292208
no handler,command,org.eclipse.jdt.ui,3.7.2.v20120109-1427,"org.eclipse.jdt.ui.edit.text.java.search.references.in.workspace",1360122293696
deactivated,workbench,org.eclipse.ui.workbench,3.7.1.v20120104-1859,"",1360122296158
activated,workbench,org.eclipse.ui.workbench,3.7.1.v20120104-1859,"",1360122298649
executed,command,org.eclipse.ui,3.7.0.v20110928-1505,"org.eclipse.ui.edit.copy",1360122299072
deactivated,workbench,org.eclipse.ui.workbench,3.7.1.v20120104-1859,"",1360122299443
activated,workbench,org.eclipse.ui.workbench,3.7.1.v20120104-1859,"",1360122300276
executed,command,org.eclipse.ui,3.7.0.v20110928-1505,"org.eclipse.ui.edit.copy",1360122302800
deactivated,workbench,org.eclipse.ui.workbench,3.7.1.v20120104-1859,"",1360122303130
activated,workbench,org.eclipse.ui.workbench,3.7.1.v20120104-1859,"",1360122348315
activated,editor,org.eclipse.jdt.ui,3.7.2.v20120109-1427,"org.eclipse.jdt.ui.CompilationUnitEditor",1360122349067
executed,command,org.eclipse.ui.workbench.texteditor,3.7.0.v20110928-1504,"org.eclipse.ui.edit.text.select.lineStart",1360122352649
executed,command,org.eclipse.ui.workbench.texteditor,3.7.0.v20110928-1504,"org.eclipse.ui.edit.text.select.lineStart",1360122352839
executed,command,org.eclipse.ui,3.7.0.v20110928-1505,"org.eclipse.ui.edit.paste",1360122356788
executed,command,org.eclipse.ui.workbench.texteditor,3.7.0.v20110928-1504,"org.eclipse.ui.edit.text.select.lineStart",1360122360271
executed,command,org.eclipse.ui,3.7.0.v20110928-1505,"org.eclipse.ui.file.save",1360122364014
deactivated,workbench,org.eclipse.ui.workbench,3.7.1.v20120104-1859,"",1360122365132
activated,workbench,org.eclipse.ui.workbench,3.7.1.v20120104-1859,"",1360122366755
deactivated,workbench,org.eclipse.ui.workbench,3.7.1.v20120104-1859,"",1360122370357
activated,workbench,org.eclipse.ui.workbench,3.7.1.v20120104-1859,"",1360122426029
executed,command,,,"AUTOGEN:::org.eclipse.jdt.debug.CompilationUnitEditor.BreakpointRulerActions/org.eclipse.jdt.debug.ui.actions.ManageBreakpointRulerAction",1360122428607
activated,view,org.eclipse.debug.ui,3.7.102.v20111129-1423_r372,"org.eclipse.debug.ui.DebugView",1360122430050
executed,command,org.eclipse.debug.ui,3.7.102.v20111129-1423_r372,"org.eclipse.debug.ui.commands.Resume",1360122430151
deactivated,workbench,org.eclipse.ui.workbench,3.7.1.v20120104-1859,"",1360122432019
activated,workbench,org.eclipse.ui.workbench,3.7.1.v20120104-1859,"",1360122432925
activated,view,org.eclipse.ui.console,3.5.100.v20111007_r372,"org.eclipse.ui.console.ConsoleView",1360122433645
executed,command,org.eclipse.ui,3.7.0.v20110928-1505,"org.eclipse.ui.edit.copy",1360122434757
deactivated,workbench,org.eclipse.ui.workbench,3.7.1.v20120104-1859,"",1360122435186
activated,workbench,org.eclipse.ui.workbench,3.7.1.v20120104-1859,"",1360122483855
deactivated,workbench,org.eclipse.ui.workbench,3.7.1.v20120104-1859,"",1360122489662
activated,workbench,org.eclipse.ui.workbench,3.7.1.v20120104-1859,"",1360122491777
deactivated,workbench,org.eclipse.ui.workbench,3.7.1.v20120104-1859,"",1360122493028
activated,workbench,org.eclipse.ui.workbench,3.7.1.v20120104-1859,"",1360122516206
executed,command,org.eclipse.ui,3.7.0.v20110928-1505,"org.eclipse.ui.edit.copy",1360122521169
deactivated,workbench,org.eclipse.ui.workbench,3.7.1.v20120104-1859,"",1360122523052
activated,workbench,org.eclipse.ui.workbench,3.7.1.v20120104-1859,"",1360122560641
activated,editor,org.eclipse.jdt.ui,3.7.2.v20120109-1427,"org.eclipse.jdt.ui.CompilationUnitEditor",1360122562925
executed,command,org.eclipse.ui,3.7.0.v20110928-1505,"org.eclipse.ui.edit.copy",1360122565623
deactivated,workbench,org.eclipse.ui.workbench,3.7.1.v20120104-1859,"",1360122565882
executed,command,org.eclipse.ui,3.7.0.v20110928-1505,"org.eclipse.ui.edit.findReplace",1360122565931
executed,command,org.eclipse.ui,3.7.0.v20110928-1505,"org.eclipse.ui.edit.paste",1360122566069
activated,workbench,org.eclipse.ui.workbench,3.7.1.v20120104-1859,"",1360122567193
deactivated,workbench,org.eclipse.ui.workbench,3.7.1.v20120104-1859,"",1360122568767
executed,command,org.eclipse.ui,3.7.0.v20110928-1505,"org.eclipse.ui.edit.findReplace",1360122568815
activated,workbench,org.eclipse.ui.workbench,3.7.1.v20120104-1859,"",1360122570217
deactivated,workbench,org.eclipse.ui.workbench,3.7.1.v20120104-1859,"",1360122570864
executed,command,org.eclipse.ui,3.7.0.v20110928-1505,"org.eclipse.ui.edit.findReplace",1360122570913
activated,workbench,org.eclipse.ui.workbench,3.7.1.v20120104-1859,"",1360122572630
error,log,,,"File not found: /Users/pky1030/Downloads/youandme/org.opros.tpl.scenario/META-INF/MANIFEST.MF.",1360122575690
error,log,,,"File not found: /Users/pky1030/Downloads/youandme/org.opros.tpl.taskmodel/META-INF/MANIFEST.MF.",1360122575789
error,log,,,"File not found: /Users/pky1030/Downloads/youandme/org.opros.tpl/META-INF/MANIFEST.MF.",1360122575790
error,log,,,"File not found: /Users/pky1030/Downloads/youandme/org.opros.tpl.taskmodel.edit/META-INF/MANIFEST.MF.",1360122575791
deactivated,workbench,org.eclipse.ui.workbench,3.7.1.v20120104-1859,"",1360122595316
activated,workbench,org.eclipse.ui.workbench,3.7.1.v20120104-1859,"",1360122622703
executed,command,org.eclipse.ui,3.7.0.v20110928-1505,"org.eclipse.ui.edit.undo",1360122624943
executed,command,org.eclipse.ui,3.7.0.v20110928-1505,"org.eclipse.ui.edit.redo",1360122626037
deactivated,workbench,org.eclipse.ui.workbench,3.7.1.v20120104-1859,"",1360122628262
executed,command,org.eclipse.ui,3.7.0.v20110928-1505,"org.eclipse.ui.edit.findReplace",1360122628313
executed,command,org.eclipse.ui,3.7.0.v20110928-1505,"org.eclipse.ui.edit.paste",1360122628423
activated,workbench,org.eclipse.ui.workbench,3.7.1.v20120104-1859,"",1360122630087
deactivated,workbench,org.eclipse.ui.workbench,3.7.1.v20120104-1859,"",1360122632419
executed,command,org.eclipse.ui,3.7.0.v20110928-1505,"org.eclipse.ui.edit.findReplace",1360122632461
activated,workbench,org.eclipse.ui.workbench,3.7.1.v20120104-1859,"",1360122634901
deactivated,workbench,org.eclipse.ui.workbench,3.7.1.v20120104-1859,"",1360122636490
executed,command,org.eclipse.ui,3.7.0.v20110928-1505,"org.eclipse.ui.edit.findReplace",1360122636548
activated,workbench,org.eclipse.ui.workbench,3.7.1.v20120104-1859,"",1360122640280
deactivated,workbench,org.eclipse.ui.workbench,3.7.1.v20120104-1859,"",1360122640916
activated,workbench,org.eclipse.ui.workbench,3.7.1.v20120104-1859,"",1360122642428
executed,command,org.eclipse.ui,3.7.0.v20110928-1505,"org.eclipse.ui.edit.copy",1360122643990
deactivated,workbench,org.eclipse.ui.workbench,3.7.1.v20120104-1859,"",1360122644268
activated,workbench,org.eclipse.ui.workbench,3.7.1.v20120104-1859,"",1360122648412
deactivated,workbench,org.eclipse.ui.workbench,3.7.1.v20120104-1859,"",1360122649116
activated,workbench,org.eclipse.ui.workbench,3.7.1.v20120104-1859,"",1360122652551
executed,command,org.eclipse.ui,3.7.0.v20110928-1505,"org.eclipse.ui.edit.copy",1360122653159
deactivated,workbench,org.eclipse.ui.workbench,3.7.1.v20120104-1859,"",1360122653439
activated,workbench,org.eclipse.ui.workbench,3.7.1.v20120104-1859,"",1360122657999
deactivated,workbench,org.eclipse.ui.workbench,3.7.1.v20120104-1859,"",1360122660855
activated,workbench,org.eclipse.ui.workbench,3.7.1.v20120104-1859,"",1360122708303
deactivated,workbench,org.eclipse.ui.workbench,3.7.1.v20120104-1859,"",1360122716037
executed,command,org.eclipse.ui,3.7.0.v20110928-1505,"org.eclipse.ui.edit.copy",1360122716867
activated,workbench,org.eclipse.ui.workbench,3.7.1.v20120104-1859,"",1360122816727
closed,workbench,org.eclipse.ui.workbench,3.7.1.v20120104-1859,"",1360122817632
error,log,,,"File not found: /Users/pky1030/Downloads/youandme/org.opros.tpl.scenario/META-INF/MANIFEST.MF.",1360122817718
error,log,,,"File not found: /Users/pky1030/Downloads/youandme/org.opros.tpl.taskmodel/META-INF/MANIFEST.MF.",1360122817720
error,log,,,"File not found: /Users/pky1030/Downloads/youandme/org.opros.tpl/META-INF/MANIFEST.MF.",1360122817720
error,log,,,"File not found: /Users/pky1030/Downloads/youandme/org.opros.tpl.taskmodel.edit/META-INF/MANIFEST.MF.",1360122817721
stopped,bundle,org.eclipse.mylyn.ide.ant,3.6.0.v20110608-1400,"org.eclipse.mylyn.ide.ant",1360122818522
stopped,bundle,org.eclipse.mylyn.pde.ui,3.6.0.v20110608-1400,"org.eclipse.mylyn.pde.ui",1360122818531
stopped,bundle,org.eclipse.pde.api.tools.ui,1.0.301.v20110803_r371,"org.eclipse.pde.api.tools.ui",1360122818531
stopped,bundle,org.eclipse.pde.ds.ui,1.0.100.v20111213-1754,"org.eclipse.pde.ds.ui",1360122818532
stopped,bundle,org.eclipse.pde.runtime,3.4.201.v20110928-1516,"org.eclipse.pde.runtime",1360122818533
stopped,bundle,org.eclipse.pde.ua.ui,1.0.100.v20110516,"org.eclipse.pde.ua.ui",1360122818538
stopped,bundle,org.eclipse.pde.ui.templates,3.4.400.v20110928-1516,"org.eclipse.pde.ui.templates",1360122818540
stopped,bundle,org.eclipse.rap.ui.launch,1.4.2.20120213-1325,"org.eclipse.rap.ui.launch",1360122818540
stopped,bundle,org.eclipse.rap.ui.templates,1.4.2.20120213-1325,"org.eclipse.rap.ui.templates",1360122818541
stopped,bundle,org.eclipse.pde.ui,3.6.100.v20120103_r372,"org.eclipse.pde.ui",1360122818541
stopped,bundle,org.eclipse.ant.ui,3.5.101.v20120110-1739,"org.eclipse.ant.ui",1360122818542
stopped,bundle,org.eclipse.ant.launching,1.0.101.v20120110-1739,"org.eclipse.ant.launching",1360122818543
stopped,bundle,org.eclipse.egit.mylyn.ui,1.3.0.201202151440-r,"org.eclipse.egit.mylyn.ui",1360122818544
stopped,bundle,org.eclipse.egit.ui,1.3.0.201202151440-r,"org.eclipse.egit.ui",1360122818544
stopped,bundle,org.eclipse.egit.core,1.3.0.201202151440-r,"org.eclipse.egit.core",1360122818545
stopped,bundle,org.eclipse.equinox.p2.ui.sdk,1.0.200.v20110815-1419,"org.eclipse.equinox.p2.ui.sdk",1360122818547
stopped,bundle,org.eclipse.mylyn.java.tasks,3.6.0.v20110608-1400,"org.eclipse.mylyn.java.tasks",1360122818547
stopped,bundle,org.eclipse.mylyn.java.ui,3.6.0.v20110608-1400,"org.eclipse.mylyn.java.ui",1360122818547
stopped,bundle,overlay.com.android.ide.eclipse.adt.overlay,21.0.1.v201212060256-543035,"overlay.com.android.ide.eclipse.adt.overlay",1360122818548
stopped,bundle,com.android.ide.eclipse.adt,21.0.1.v201212060256-543035,"com.android.ide.eclipse.adt",1360122818548
stopped,bundle,org.eclipse.jdt.junit,3.7.0.v20110928-1453,"org.eclipse.jdt.junit",1360122818548
stopped,bundle,org.eclipse.jdt.apt.ui,3.3.300.v20110305-1450,"org.eclipse.jdt.apt.ui",1360122818549
stopped,bundle,org.eclipse.rap.ui.launch.rwt,1.4.2.20120213-1325,"org.eclipse.rap.ui.launch.rwt",1360122818550
stopped,bundle,org.eclipse.jdt.debug.ui,3.6.1.v20111006_r372,"org.eclipse.jdt.debug.ui",1360122818550
stopped,bundle,org.eclipse.jdt.ui,3.7.2.v20120109-1427,"org.eclipse.jdt.ui",1360122818579
stopped,bundle,org.eclipse.wst.dtd.ui,1.0.600.v201103171359,"org.eclipse.wst.dtd.ui",1360122818581
stopped,bundle,org.eclipse.wst.xsd.ui,1.2.404.v201105050216,"org.eclipse.wst.xsd.ui",1360122818585
stopped,bundle,org.eclipse.wst.xml.ui,1.1.202.v201112071516,"org.eclipse.wst.xml.ui",1360122818587
stopped,bundle,org.eclipse.wst.common.ui,1.1.500.v200911190730,"org.eclipse.wst.common.ui",1360122818589
stopped,bundle,org.eclipse.wst.sse.ui,1.3.2.v201201041522,"org.eclipse.wst.sse.ui",1360122818591
stopped,bundle,org.eclipse.search,3.7.0.v20110928-1504,"org.eclipse.search",1360122818592
stopped,bundle,org.eclipse.mylyn.commons.team,0.8.0.v20110608-1400,"org.eclipse.mylyn.commons.team",1360122818595
stopped,bundle,org.eclipse.mylyn.team.ui,3.6.1.v20110825-0100,"org.eclipse.mylyn.team.ui",1360122818595
stopped,bundle,org.eclipse.ui.navigator.resources,3.4.300.v20110928-1505,"org.eclipse.ui.navigator.resources",1360122818597
stopped,bundle,org.eclipse.ltk.ui.refactoring,3.6.0.v20110928-1453,"org.eclipse.ltk.ui.refactoring",1360122818597
stopped,bundle,org.eclipse.mylyn.bugzilla.ui,3.6.0.v20110608-1400,"org.eclipse.mylyn.bugzilla.ui",1360122818597
stopped,bundle,org.eclipse.mylyn.ide.ui,3.6.0.v20110608-1400,"org.eclipse.mylyn.ide.ui",1360122818597
stopped,bundle,org.eclipse.mylyn.resources.ui,3.6.0.v20110608-1400,"org.eclipse.mylyn.resources.ui",1360122818599
