what,kind,bundleId,bundleVersion,description,time
executed,command,org.eclipse.ui,3.7.0.v20110928-1505,"org.eclipse.ui.edit.text.contentAssist.proposals",1370261307206
started,bundle,org.eclipse.help.base,3.6.2.v201202080800,"org.eclipse.help.base",1370261311517
started,bundle,org.eclipse.help.ui,3.5.101.r37_20110819,"org.eclipse.help.ui",1370261311525
started,bundle,org.eclipse.equinox.http.jetty,2.0.100.v20110502,"org.eclipse.equinox.http.jetty",1370261311552
started,bundle,org.eclipse.equinox.http.servlet,1.1.200.v20110502,"org.eclipse.equinox.http.servlet",1370261311591
started,bundle,org.eclipse.equinox.http.registry,1.1.100.v20110502,"org.eclipse.equinox.http.registry",1370261311685
executed,command,org.eclipse.ui,3.7.0.v20110928-1505,"org.eclipse.ui.edit.text.contentAssist.proposals",1370261312080
executed,command,org.eclipse.ui,3.7.0.v20110928-1505,"org.eclipse.ui.edit.text.contentAssist.proposals",1370261313215
executed,command,org.eclipse.ui,3.7.0.v20110928-1505,"org.eclipse.ui.edit.text.contentAssist.proposals",1370261322162
executed,command,org.eclipse.ui,3.7.0.v20110928-1505,"org.eclipse.ui.file.save",1370261337825
executed,command,org.eclipse.ui.workbench.texteditor,3.7.0.v20110928-1504,"org.eclipse.ui.edit.text.goto.lineEnd",1370261359384
executed,command,org.eclipse.ui.workbench.texteditor,3.7.0.v20110928-1504,"org.eclipse.ui.edit.text.select.lineStart",1370261359783
executed,command,org.eclipse.ui,3.7.0.v20110928-1505,"org.eclipse.ui.edit.copy",1370261359998
executed,command,org.eclipse.ui,3.7.0.v20110928-1505,"org.eclipse.ui.edit.copy",1370261367653
executed,command,org.eclipse.ui,3.7.0.v20110928-1505,"org.eclipse.ui.edit.copy",1370261394852
executed,command,org.eclipse.ui.workbench.texteditor,3.7.0.v20110928-1504,"org.eclipse.ui.edit.text.goto.lineEnd",1370261411184
executed,command,org.eclipse.ui,3.7.0.v20110928-1505,"org.eclipse.ui.edit.paste",1370261411620
executed,command,org.eclipse.ui.workbench.texteditor,3.7.0.v20110928-1504,"org.eclipse.ui.edit.text.select.lineStart",1370261417631
executed,command,org.eclipse.ui,3.7.0.v20110928-1505,"org.eclipse.ui.edit.text.contentAssist.proposals",1370261422513
executed,command,org.eclipse.ui,3.7.0.v20110928-1505,"org.eclipse.ui.edit.text.contentAssist.proposals",1370261425300
executed,command,org.eclipse.ui,3.7.0.v20110928-1505,"org.eclipse.ui.edit.text.contentAssist.proposals",1370261426963
executed,command,org.eclipse.jdt.ui,3.7.2.v20120109-1427,"org.eclipse.jdt.ui.edit.text.java.organize.imports",1370261428774
executed,command,org.eclipse.ui.workbench.texteditor,3.7.0.v20110928-1504,"org.eclipse.ui.edit.text.goto.lineEnd",1370261430235
executed,command,org.eclipse.ui.workbench.texteditor,3.7.0.v20110928-1504,"org.eclipse.ui.edit.text.select.lineEnd",1370261444392
executed,command,org.eclipse.ui,3.7.0.v20110928-1505,"org.eclipse.ui.edit.copy",1370261444673
executed,command,org.eclipse.ui,3.7.0.v20110928-1505,"org.eclipse.ui.edit.undo",1370261445001
executed,command,org.eclipse.ui,3.7.0.v20110928-1505,"org.eclipse.ui.edit.redo",1370261445688
executed,command,org.eclipse.ui.workbench.texteditor,3.7.0.v20110928-1504,"org.eclipse.ui.edit.text.goto.lineEnd",1370261446433
executed,command,org.eclipse.ui,3.7.0.v20110928-1505,"org.eclipse.ui.edit.paste",1370261447171
executed,command,org.eclipse.ui,3.7.0.v20110928-1505,"org.eclipse.ui.edit.copy",1370261459687
executed,command,org.eclipse.ui.workbench.texteditor,3.7.0.v20110928-1504,"org.eclipse.ui.edit.text.goto.lineEnd",1370261461227
executed,command,org.eclipse.ui,3.7.0.v20110928-1505,"org.eclipse.ui.edit.paste",1370261461971
executed,command,org.eclipse.ui,3.7.0.v20110928-1505,"org.eclipse.ui.edit.text.contentAssist.proposals",1370261476494
executed,command,org.eclipse.ui.workbench.texteditor,3.7.0.v20110928-1504,"org.eclipse.ui.edit.text.goto.lineEnd",1370261485829
executed,command,org.eclipse.ui,3.7.0.v20110928-1505,"org.eclipse.ui.edit.delete",1370261497775
executed,command,org.eclipse.ui,3.7.0.v20110928-1505,"org.eclipse.ui.file.save",1370261512626
activated,editor,org.eclipse.jdt.ui,3.7.2.v20120109-1427,"org.eclipse.jdt.ui.CompilationUnitEditor",1370261519016
deactivated,workbench,org.eclipse.ui.workbench,3.7.1.v20120104-1859,"",1370261524679
activated,workbench,org.eclipse.ui.workbench,3.7.1.v20120104-1859,"",1370261549438
deactivated,workbench,org.eclipse.ui.workbench,3.7.1.v20120104-1859,"",1370261552051
activated,workbench,org.eclipse.ui.workbench,3.7.1.v20120104-1859,"",1370261554517
executed,command,org.eclipse.ui.workbench.texteditor,3.7.0.v20110928-1504,"org.eclipse.ui.edit.text.goto.lineEnd",1370261556570
executed,command,org.eclipse.ui,3.7.0.v20110928-1505,"org.eclipse.ui.edit.text.contentAssist.proposals",1370261558676
executed,command,org.eclipse.ui,3.7.0.v20110928-1505,"org.eclipse.ui.edit.text.contentAssist.proposals",1370261562286
deactivated,workbench,org.eclipse.ui.workbench,3.7.1.v20120104-1859,"",1370261564862
activated,workbench,org.eclipse.ui.workbench,3.7.1.v20120104-1859,"",1370261574092
deactivated,workbench,org.eclipse.ui.workbench,3.7.1.v20120104-1859,"",1370261586352
activated,workbench,org.eclipse.ui.workbench,3.7.1.v20120104-1859,"",1370261591488
deactivated,workbench,org.eclipse.ui.workbench,3.7.1.v20120104-1859,"",1370261596281
activated,workbench,org.eclipse.ui.workbench,3.7.1.v20120104-1859,"",1370261610015
executed,command,org.eclipse.ui,3.7.0.v20110928-1505,"org.eclipse.ui.edit.paste",1370261611558
executed,command,org.eclipse.ui.workbench.texteditor,3.7.0.v20110928-1504,"org.eclipse.ui.edit.text.smartEnter",1370261612066
executed,command,org.eclipse.ui,3.7.0.v20110928-1505,"org.eclipse.ui.edit.undo",1370261612835
executed,command,org.eclipse.ui.workbench.texteditor,3.7.0.v20110928-1504,"org.eclipse.ui.edit.text.goto.lineEnd",1370261614164
executed,command,org.eclipse.ui.workbench.texteditor,3.7.0.v20110928-1504,"org.eclipse.ui.edit.text.goto.lineEnd",1370261622137
executed,command,org.eclipse.ui,3.7.0.v20110928-1505,"org.eclipse.ui.edit.text.contentAssist.proposals",1370261624328
activated,editor,org.eclipse.jdt.ui,3.7.2.v20120109-1427,"org.eclipse.jdt.ui.CompilationUnitEditor",1370261630010
activated,editor,org.eclipse.jdt.ui,3.7.2.v20120109-1427,"org.eclipse.jdt.ui.CompilationUnitEditor",1370261631827
executed,command,org.eclipse.ui,3.7.0.v20110928-1505,"org.eclipse.ui.navigate.backwardHistory",1370261631837
executed,command,org.eclipse.ui.workbench.texteditor,3.7.0.v20110928-1504,"org.eclipse.ui.edit.text.smartEnter",1370261634373
executed,command,org.eclipse.ui,3.7.0.v20110928-1505,"org.eclipse.ui.edit.undo",1370261635091
executed,command,org.eclipse.ui,3.7.0.v20110928-1505,"org.eclipse.ui.edit.undo",1370261635589
executed,command,org.eclipse.ui,3.7.0.v20110928-1505,"org.eclipse.ui.edit.text.contentAssist.proposals",1370261642715
executed,command,org.eclipse.ui,3.7.0.v20110928-1505,"org.eclipse.ui.edit.text.contentAssist.proposals",1370261650468
executed,command,org.eclipse.ui.workbench.texteditor,3.7.0.v20110928-1504,"org.eclipse.ui.edit.text.goto.lineEnd",1370261656650
executed,command,org.eclipse.ui.workbench.texteditor,3.7.0.v20110928-1504,"org.eclipse.ui.edit.text.select.lineStart",1370261658261
executed,command,org.eclipse.ui,3.7.0.v20110928-1505,"org.eclipse.ui.edit.copy",1370261658608
executed,command,org.eclipse.ui.workbench.texteditor,3.7.0.v20110928-1504,"org.eclipse.ui.edit.text.goto.lineEnd",1370261662403
executed,command,org.eclipse.ui.workbench.texteditor,3.7.0.v20110928-1504,"org.eclipse.ui.edit.text.select.lineStart",1370261663153
executed,command,org.eclipse.ui,3.7.0.v20110928-1505,"org.eclipse.ui.edit.copy",1370261664046
executed,command,org.eclipse.ui.workbench.texteditor,3.7.0.v20110928-1504,"org.eclipse.ui.edit.text.goto.lineEnd",1370261665267
executed,command,org.eclipse.ui.workbench.texteditor,3.7.0.v20110928-1504,"org.eclipse.ui.edit.text.select.lineStart",1370261666224
executed,command,org.eclipse.ui,3.7.0.v20110928-1505,"org.eclipse.ui.edit.copy",1370261666604
deactivated,workbench,org.eclipse.ui.workbench,3.7.1.v20120104-1859,"",1370261674524
activated,workbench,org.eclipse.ui.workbench,3.7.1.v20120104-1859,"",1370261678324
executed,command,org.eclipse.ui,3.7.0.v20110928-1505,"org.eclipse.ui.edit.copy",1370261683920
deactivated,workbench,org.eclipse.ui.workbench,3.7.1.v20120104-1859,"",1370261690645
activated,workbench,org.eclipse.ui.workbench,3.7.1.v20120104-1859,"",1370261709122
executed,command,org.eclipse.ui.workbench.texteditor,3.7.0.v20110928-1504,"org.eclipse.ui.edit.text.select.lineEnd",1370261710883
executed,command,org.eclipse.ui,3.7.0.v20110928-1505,"org.eclipse.ui.edit.copy",1370261711174
executed,command,org.eclipse.ui.workbench.texteditor,3.7.0.v20110928-1504,"org.eclipse.ui.edit.text.goto.lineStart",1370261711890
executed,command,org.eclipse.ui.workbench.texteditor,3.7.0.v20110928-1504,"org.eclipse.ui.edit.text.select.lineEnd",1370261712738
executed,command,org.eclipse.ui.workbench.texteditor,3.7.0.v20110928-1504,"org.eclipse.ui.edit.text.goto.lineEnd",1370261714782
executed,command,org.eclipse.ui.workbench.texteditor,3.7.0.v20110928-1504,"org.eclipse.ui.edit.text.select.lineStart",1370261715624
executed,command,org.eclipse.ui.workbench.texteditor,3.7.0.v20110928-1504,"org.eclipse.ui.edit.text.goto.lineEnd",1370261752737
executed,command,org.eclipse.ui.workbench.texteditor,3.7.0.v20110928-1504,"org.eclipse.ui.edit.text.select.lineStart",1370261753127
executed,command,org.eclipse.ui,3.7.0.v20110928-1505,"org.eclipse.ui.edit.copy",1370261753499
executed,command,org.eclipse.ui.workbench.texteditor,3.7.0.v20110928-1504,"org.eclipse.ui.edit.text.goto.lineEnd",1370261753799
deactivated,workbench,org.eclipse.ui.workbench,3.7.1.v20120104-1859,"",1370261754183
activated,workbench,org.eclipse.ui.workbench,3.7.1.v20120104-1859,"",1370261772079
deactivated,workbench,org.eclipse.ui.workbench,3.7.1.v20120104-1859,"",1370261775616
activated,workbench,org.eclipse.ui.workbench,3.7.1.v20120104-1859,"",1370261793698
executed,command,org.eclipse.ui,3.7.0.v20110928-1505,"org.eclipse.ui.edit.paste",1370261794600
executed,command,org.eclipse.ui,3.7.0.v20110928-1505,"org.eclipse.ui.edit.copy",1370261801265
executed,command,org.eclipse.ui.workbench.texteditor,3.7.0.v20110928-1504,"org.eclipse.ui.edit.text.goto.lineStart",1370261801945
executed,command,org.eclipse.ui,3.7.0.v20110928-1505,"org.eclipse.ui.edit.paste",1370261802285
executed,command,org.eclipse.ui.workbench.texteditor,3.7.0.v20110928-1504,"org.eclipse.ui.edit.text.goto.lineEnd",1370261803465
executed,command,org.eclipse.ui.workbench.texteditor,3.7.0.v20110928-1504,"org.eclipse.ui.edit.text.goto.lineEnd",1370261807328
executed,command,org.eclipse.ui,3.7.0.v20110928-1505,"org.eclipse.ui.edit.text.contentAssist.proposals",1370261812681
executed,command,org.eclipse.ui,3.7.0.v20110928-1505,"org.eclipse.ui.edit.text.contentAssist.proposals",1370261824472
executed,command,org.eclipse.ui,3.7.0.v20110928-1505,"org.eclipse.ui.edit.text.contentAssist.proposals",1370261837214
executed,command,org.eclipse.ui,3.7.0.v20110928-1505,"org.eclipse.ui.edit.text.contentAssist.proposals",1370261849184
executed,command,org.eclipse.ui,3.7.0.v20110928-1505,"org.eclipse.ui.edit.text.contentAssist.proposals",1370261857243
deactivated,workbench,org.eclipse.ui.workbench,3.7.1.v20120104-1859,"",1370261875147
activated,workbench,org.eclipse.ui.workbench,3.7.1.v20120104-1859,"",1370261877220
activated,editor,org.eclipse.jdt.ui,3.7.2.v20120109-1427,"org.eclipse.jdt.ui.CompilationUnitEditor",1370261890354
activated,view,org.eclipse.ui.views,3.6.0.v20110928-1505,"org.eclipse.ui.views.ContentOutline",1370261905470
activated,editor,org.eclipse.jdt.ui,3.7.2.v20120109-1427,"org.eclipse.jdt.ui.CompilationUnitEditor",1370261956296
executed,command,org.eclipse.ui,3.7.0.v20110928-1505,"org.eclipse.ui.navigate.backwardHistory",1370261956353
activated,editor,org.eclipse.jdt.ui,3.7.2.v20120109-1427,"org.eclipse.jdt.ui.CompilationUnitEditor",1370261959136
deactivated,workbench,org.eclipse.ui.workbench,3.7.1.v20120104-1859,"",1370261961632
activated,workbench,org.eclipse.ui.workbench,3.7.1.v20120104-1859,"",1370261964872
deactivated,workbench,org.eclipse.ui.workbench,3.7.1.v20120104-1859,"",1370261966516
activated,workbench,org.eclipse.ui.workbench,3.7.1.v20120104-1859,"",1370261968689
executed,command,org.eclipse.ui,3.7.0.v20110928-1505,"org.eclipse.ui.edit.text.contentAssist.proposals",1370261979392
deactivated,workbench,org.eclipse.ui.workbench,3.7.1.v20120104-1859,"",1370261981368
activated,workbench,org.eclipse.ui.workbench,3.7.1.v20120104-1859,"",1370261984549
executed,command,org.eclipse.ui,3.7.0.v20110928-1505,"org.eclipse.ui.edit.copy",1370262020290
executed,command,org.eclipse.ui.workbench.texteditor,3.7.0.v20110928-1504,"org.eclipse.ui.edit.text.goto.lineEnd",1370262020517
executed,command,org.eclipse.ui,3.7.0.v20110928-1505,"org.eclipse.ui.edit.paste",1370262021481
deactivated,workbench,org.eclipse.ui.workbench,3.7.1.v20120104-1859,"",1370262022702
activated,workbench,org.eclipse.ui.workbench,3.7.1.v20120104-1859,"",1370262025565
activated,editor,org.eclipse.jdt.ui,3.7.2.v20120109-1427,"org.eclipse.jdt.ui.CompilationUnitEditor",1370262029949
activated,editor,org.eclipse.jdt.ui,3.7.2.v20120109-1427,"org.eclipse.jdt.ui.CompilationUnitEditor",1370262036027
executed,command,org.eclipse.ui,3.7.0.v20110928-1505,"org.eclipse.ui.navigate.backwardHistory",1370262036037
executed,command,org.eclipse.ui.workbench.texteditor,3.7.0.v20110928-1504,"org.eclipse.ui.edit.text.goto.lineEnd",1370262050938
deactivated,workbench,org.eclipse.ui.workbench,3.7.1.v20120104-1859,"",1370262055857
activated,workbench,org.eclipse.ui.workbench,3.7.1.v20120104-1859,"",1370262056577
deactivated,workbench,org.eclipse.ui.workbench,3.7.1.v20120104-1859,"",1370262056858
activated,workbench,org.eclipse.ui.workbench,3.7.1.v20120104-1859,"",1370262058382
executed,command,org.eclipse.ui,3.7.0.v20110928-1505,"org.eclipse.ui.edit.text.contentAssist.proposals",1370262061300
deactivated,workbench,org.eclipse.ui.workbench,3.7.1.v20120104-1859,"",1370262063441
activated,workbench,org.eclipse.ui.workbench,3.7.1.v20120104-1859,"",1370262064034
executed,command,org.eclipse.ui,3.7.0.v20110928-1505,"org.eclipse.ui.edit.text.contentAssist.proposals",1370262064322
executed,command,org.eclipse.ui,3.7.0.v20110928-1505,"org.eclipse.ui.edit.undo",1370262066052
executed,command,org.eclipse.ui,3.7.0.v20110928-1505,"org.eclipse.ui.edit.text.contentAssist.proposals",1370262071748
executed,command,org.eclipse.ui.workbench.texteditor,3.7.0.v20110928-1504,"org.eclipse.ui.edit.text.goto.lineEnd",1370262076037
executed,command,org.eclipse.ui.workbench.texteditor,3.7.0.v20110928-1504,"org.eclipse.ui.edit.text.goto.lineStart",1370262076574
executed,command,org.eclipse.ui.workbench.texteditor,3.7.0.v20110928-1504,"org.eclipse.ui.edit.text.goto.lineEnd",1370262077542
executed,command,org.eclipse.ui.workbench.texteditor,3.7.0.v20110928-1504,"org.eclipse.ui.edit.text.goto.lineStart",1370262078270
deactivated,workbench,org.eclipse.ui.workbench,3.7.1.v20120104-1859,"",1370262079086
activated,workbench,org.eclipse.ui.workbench,3.7.1.v20120104-1859,"",1370262109405
deactivated,workbench,org.eclipse.ui.workbench,3.7.1.v20120104-1859,"",1370262112552
activated,workbench,org.eclipse.ui.workbench,3.7.1.v20120104-1859,"",1370262113746
deactivated,workbench,org.eclipse.ui.workbench,3.7.1.v20120104-1859,"",1370262114674
activated,workbench,org.eclipse.ui.workbench,3.7.1.v20120104-1859,"",1370262115981
deactivated,workbench,org.eclipse.ui.workbench,3.7.1.v20120104-1859,"",1370262117696
activated,workbench,org.eclipse.ui.workbench,3.7.1.v20120104-1859,"",1370262119609
deactivated,workbench,org.eclipse.ui.workbench,3.7.1.v20120104-1859,"",1370262120382
activated,workbench,org.eclipse.ui.workbench,3.7.1.v20120104-1859,"",1370262158691
deactivated,workbench,org.eclipse.ui.workbench,3.7.1.v20120104-1859,"",1370262161263
activated,workbench,org.eclipse.ui.workbench,3.7.1.v20120104-1859,"",1370262164593
executed,command,org.eclipse.ui.workbench.texteditor,3.7.0.v20110928-1504,"org.eclipse.ui.edit.text.goto.lineEnd",1370262166905
executed,command,org.eclipse.ui.workbench.texteditor,3.7.0.v20110928-1504,"org.eclipse.ui.edit.text.goto.lineStart",1370262167951
deactivated,workbench,org.eclipse.ui.workbench,3.7.1.v20120104-1859,"",1370262168331
activated,workbench,org.eclipse.ui.workbench,3.7.1.v20120104-1859,"",1370262169225
executed,command,org.eclipse.ui.workbench.texteditor,3.7.0.v20110928-1504,"org.eclipse.ui.edit.text.goto.lineEnd",1370262169911
executed,command,org.eclipse.ui.workbench.texteditor,3.7.0.v20110928-1504,"org.eclipse.ui.edit.text.select.lineEnd",1370262171142
executed,command,org.eclipse.ui,3.7.0.v20110928-1505,"org.eclipse.ui.edit.copy",1370262171290
executed,command,org.eclipse.ui,3.7.0.v20110928-1505,"org.eclipse.ui.edit.paste",1370262171842
executed,command,org.eclipse.ui.workbench.texteditor,3.7.0.v20110928-1504,"org.eclipse.ui.edit.text.goto.lineStart",1370262172635
deactivated,workbench,org.eclipse.ui.workbench,3.7.1.v20120104-1859,"",1370262177444
activated,workbench,org.eclipse.ui.workbench,3.7.1.v20120104-1859,"",1370262179457
executed,command,org.eclipse.ui,3.7.0.v20110928-1505,"org.eclipse.ui.edit.paste",1370262180694
executed,command,org.eclipse.ui.workbench.texteditor,3.7.0.v20110928-1504,"org.eclipse.ui.edit.text.select.lineEnd",1370262182922
deactivated,workbench,org.eclipse.ui.workbench,3.7.1.v20120104-1859,"",1370262184578
activated,workbench,org.eclipse.ui.workbench,3.7.1.v20120104-1859,"",1370262185574
executed,command,org.eclipse.ui,3.7.0.v20110928-1505,"org.eclipse.ui.edit.text.contentAssist.proposals",1370262188501
deactivated,workbench,org.eclipse.ui.workbench,3.7.1.v20120104-1859,"",1370262197632
activated,workbench,org.eclipse.ui.workbench,3.7.1.v20120104-1859,"",1370262198574
executed,command,org.eclipse.ui,3.7.0.v20110928-1505,"org.eclipse.ui.edit.text.contentAssist.proposals",1370262201115
deactivated,workbench,org.eclipse.ui.workbench,3.7.1.v20120104-1859,"",1370262205127
activated,workbench,org.eclipse.ui.workbench,3.7.1.v20120104-1859,"",1370262206119
executed,command,org.eclipse.ui,3.7.0.v20110928-1505,"org.eclipse.ui.edit.text.contentAssist.proposals",1370262207863
executed,command,org.eclipse.ui,3.7.0.v20110928-1505,"org.eclipse.ui.edit.text.contentAssist.proposals",1370262210427
deactivated,workbench,org.eclipse.ui.workbench,3.7.1.v20120104-1859,"",1370262212715
activated,workbench,org.eclipse.ui.workbench,3.7.1.v20120104-1859,"",1370262213690
deactivated,workbench,org.eclipse.ui.workbench,3.7.1.v20120104-1859,"",1370262214929
activated,workbench,org.eclipse.ui.workbench,3.7.1.v20120104-1859,"",1370262215415
deactivated,workbench,org.eclipse.ui.workbench,3.7.1.v20120104-1859,"",1370262221954
activated,workbench,org.eclipse.ui.workbench,3.7.1.v20120104-1859,"",1370262223173
deactivated,workbench,org.eclipse.ui.workbench,3.7.1.v20120104-1859,"",1370262226979
activated,workbench,org.eclipse.ui.workbench,3.7.1.v20120104-1859,"",1370262228261
executed,command,org.eclipse.ui,3.7.0.v20110928-1505,"org.eclipse.ui.edit.text.contentAssist.proposals",1370262230773
deactivated,workbench,org.eclipse.ui.workbench,3.7.1.v20120104-1859,"",1370262232839
activated,workbench,org.eclipse.ui.workbench,3.7.1.v20120104-1859,"",1370262233770
deactivated,workbench,org.eclipse.ui.workbench,3.7.1.v20120104-1859,"",1370262234592
activated,workbench,org.eclipse.ui.workbench,3.7.1.v20120104-1859,"",1370262236662
executed,command,org.eclipse.ui,3.7.0.v20110928-1505,"org.eclipse.ui.edit.paste",1370262244110
deactivated,workbench,org.eclipse.ui.workbench,3.7.1.v20120104-1859,"",1370262244887
activated,workbench,org.eclipse.ui.workbench,3.7.1.v20120104-1859,"",1370262246865
executed,command,org.eclipse.ui,3.7.0.v20110928-1505,"org.eclipse.ui.edit.text.contentAssist.proposals",1370262250386
executed,command,org.eclipse.ui,3.7.0.v20110928-1505,"org.eclipse.ui.edit.paste",1370262253356
executed,command,org.eclipse.ui,3.7.0.v20110928-1505,"org.eclipse.ui.edit.undo",1370262254193
executed,command,org.eclipse.ui,3.7.0.v20110928-1505,"org.eclipse.ui.edit.paste",1370262254872
deactivated,workbench,org.eclipse.ui.workbench,3.7.1.v20120104-1859,"",1370262255319
activated,workbench,org.eclipse.ui.workbench,3.7.1.v20120104-1859,"",1370262262963
deactivated,workbench,org.eclipse.ui.workbench,3.7.1.v20120104-1859,"",1370262267250
activated,workbench,org.eclipse.ui.workbench,3.7.1.v20120104-1859,"",1370262268624
deactivated,workbench,org.eclipse.ui.workbench,3.7.1.v20120104-1859,"",1370262270087
activated,workbench,org.eclipse.ui.workbench,3.7.1.v20120104-1859,"",1370262271448
executed,command,org.eclipse.ui,3.7.0.v20110928-1505,"org.eclipse.ui.edit.text.contentAssist.proposals",1370262273129
deactivated,workbench,org.eclipse.ui.workbench,3.7.1.v20120104-1859,"",1370262274962
activated,workbench,org.eclipse.ui.workbench,3.7.1.v20120104-1859,"",1370262275991
executed,command,org.eclipse.ui,3.7.0.v20110928-1505,"org.eclipse.ui.edit.text.contentAssist.proposals",1370262277017
deactivated,workbench,org.eclipse.ui.workbench,3.7.1.v20120104-1859,"",1370262277426
activated,workbench,org.eclipse.ui.workbench,3.7.1.v20120104-1859,"",1370262278977
executed,command,org.eclipse.ui,3.7.0.v20110928-1505,"org.eclipse.ui.edit.text.contentAssist.proposals",1370262279395
deactivated,workbench,org.eclipse.ui.workbench,3.7.1.v20120104-1859,"",1370262281873
activated,workbench,org.eclipse.ui.workbench,3.7.1.v20120104-1859,"",1370262282749
executed,command,org.eclipse.ui,3.7.0.v20110928-1505,"org.eclipse.ui.edit.text.contentAssist.proposals",1370262283146
executed,command,org.eclipse.ui,3.7.0.v20110928-1505,"org.eclipse.ui.edit.copy",1370262287836
executed,command,org.eclipse.ui,3.7.0.v20110928-1505,"org.eclipse.ui.edit.copy",1370262288499
executed,command,org.eclipse.ui,3.7.0.v20110928-1505,"org.eclipse.ui.edit.paste",1370262289931
executed,command,org.eclipse.ui,3.7.0.v20110928-1505,"org.eclipse.ui.edit.text.contentAssist.proposals",1370262294333
deactivated,workbench,org.eclipse.ui.workbench,3.7.1.v20120104-1859,"",1370262315445
activated,workbench,org.eclipse.ui.workbench,3.7.1.v20120104-1859,"",1370262319984
deactivated,workbench,org.eclipse.ui.workbench,3.7.1.v20120104-1859,"",1370262350274
activated,workbench,org.eclipse.ui.workbench,3.7.1.v20120104-1859,"",1370262354819
deactivated,workbench,org.eclipse.ui.workbench,3.7.1.v20120104-1859,"",1370262359920
activated,workbench,org.eclipse.ui.workbench,3.7.1.v20120104-1859,"",1370262361737
deactivated,workbench,org.eclipse.ui.workbench,3.7.1.v20120104-1859,"",1370262370242
activated,workbench,org.eclipse.ui.workbench,3.7.1.v20120104-1859,"",1370262379181
executed,command,org.eclipse.ui.workbench.texteditor,3.7.0.v20110928-1504,"org.eclipse.ui.edit.text.select.lineStart",1370262381147
executed,command,org.eclipse.ui.workbench.texteditor,3.7.0.v20110928-1504,"org.eclipse.ui.edit.text.goto.lineEnd",1370262382233
executed,command,org.eclipse.ui,3.7.0.v20110928-1505,"org.eclipse.ui.edit.paste",1370262382804
deactivated,workbench,org.eclipse.ui.workbench,3.7.1.v20120104-1859,"",1370262383675
activated,workbench,org.eclipse.ui.workbench,3.7.1.v20120104-1859,"",1370262389830
executed,command,org.eclipse.ui.workbench.texteditor,3.7.0.v20110928-1504,"org.eclipse.ui.edit.text.goto.lineEnd",1370262391471
executed,command,org.eclipse.ui,3.7.0.v20110928-1505,"org.eclipse.ui.edit.paste",1370262392009
executed,command,org.eclipse.ui.workbench.texteditor,3.7.0.v20110928-1504,"org.eclipse.ui.edit.text.goto.lineEnd",1370262393278
deactivated,workbench,org.eclipse.ui.workbench,3.7.1.v20120104-1859,"",1370262395286
activated,workbench,org.eclipse.ui.workbench,3.7.1.v20120104-1859,"",1370262395632
executed,command,org.eclipse.ui.workbench.texteditor,3.7.0.v20110928-1504,"org.eclipse.ui.edit.text.goto.lineStart",1370262395871
executed,command,org.eclipse.ui,3.7.0.v20110928-1505,"org.eclipse.ui.edit.cut",1370262402950
executed,command,org.eclipse.ui,3.7.0.v20110928-1505,"org.eclipse.ui.edit.text.contentAssist.proposals",1370262407634
executed,command,org.eclipse.ui,3.7.0.v20110928-1505,"org.eclipse.ui.edit.text.contentAssist.proposals",1370262411515
executed,command,org.eclipse.ui,3.7.0.v20110928-1505,"org.eclipse.ui.edit.text.contentAssist.proposals",1370262421965
executed,command,org.eclipse.ui,3.7.0.v20110928-1505,"org.eclipse.ui.edit.text.contentAssist.proposals",1370262426855
executed,command,org.eclipse.ui,3.7.0.v20110928-1505,"org.eclipse.ui.edit.text.contentAssist.proposals",1370262433388
executed,command,org.eclipse.ui,3.7.0.v20110928-1505,"org.eclipse.ui.edit.text.contentAssist.proposals",1370262444731
executed,command,org.eclipse.ui,3.7.0.v20110928-1505,"org.eclipse.ui.edit.text.contentAssist.proposals",1370262450674
deactivated,workbench,org.eclipse.ui.workbench,3.7.1.v20120104-1859,"",1370262457949
activated,workbench,org.eclipse.ui.workbench,3.7.1.v20120104-1859,"",1370262460198
executed,command,org.eclipse.ui,3.7.0.v20110928-1505,"org.eclipse.ui.edit.copy",1370262462413
executed,command,org.eclipse.ui,3.7.0.v20110928-1505,"org.eclipse.ui.edit.paste",1370262464558
executed,command,org.eclipse.ui,3.7.0.v20110928-1505,"org.eclipse.ui.edit.undo",1370262465040
executed,command,org.eclipse.ui,3.7.0.v20110928-1505,"org.eclipse.ui.edit.text.contentAssist.proposals",1370262471507
executed,command,org.eclipse.ui,3.7.0.v20110928-1505,"org.eclipse.ui.edit.text.contentAssist.proposals",1370262483665
executed,command,org.eclipse.ui,3.7.0.v20110928-1505,"org.eclipse.ui.edit.text.contentAssist.proposals",1370262491368
