what,kind,bundleId,bundleVersion,description,time
activated,workbench,org.eclipse.ui.workbench,3.7.1.v20120104-1859,"",1365600689899
activated,editor,org.eclipse.jdt.ui,3.7.2.v20120109-1427,"org.eclipse.jdt.ui.CompilationUnitEditor",1365600692175
executed,command,org.eclipse.ui,3.7.0.v20110928-1505,"org.eclipse.ui.file.save",1365600692559
activated,view,org.eclipse.debug.ui,3.7.102.v20111129-1423_r372,"org.eclipse.debug.ui.DebugView",1365600693911
executed,command,org.eclipse.debug.ui,3.7.102.v20111129-1423_r372,"org.eclipse.debug.ui.commands.Resume",1365600694019
deactivated,workbench,org.eclipse.ui.workbench,3.7.1.v20120104-1859,"",1365600695280
activated,workbench,org.eclipse.ui.workbench,3.7.1.v20120104-1859,"",1365600760524
deactivated,workbench,org.eclipse.ui.workbench,3.7.1.v20120104-1859,"",1365600765306
error,log,,,"File not found: /Users/pky1030/Desktop/workspace/xxx/META-INF/MANIFEST.MF.",1365600771454
activated,workbench,org.eclipse.ui.workbench,3.7.1.v20120104-1859,"",1365600774611
activated,editor,org.eclipse.jdt.ui,3.7.2.v20120109-1427,"org.eclipse.jdt.ui.CompilationUnitEditor",1365600779260
executed,command,org.eclipse.ui,3.7.0.v20110928-1505,"org.eclipse.ui.edit.undo",1365600782075
deactivated,workbench,org.eclipse.ui.workbench,3.7.1.v20120104-1859,"",1365600785161
activated,workbench,org.eclipse.ui.workbench,3.7.1.v20120104-1859,"",1365600786867
executed,command,org.eclipse.ui,3.7.0.v20110928-1505,"org.eclipse.ui.edit.copy",1365600792704
executed,command,org.eclipse.ui,3.7.0.v20110928-1505,"org.eclipse.ui.edit.paste",1365600794883
executed,command,org.eclipse.ui,3.7.0.v20110928-1505,"org.eclipse.ui.edit.paste",1365600795441
deactivated,workbench,org.eclipse.ui.workbench,3.7.1.v20120104-1859,"",1365600796019
activated,workbench,org.eclipse.ui.workbench,3.7.1.v20120104-1859,"",1365600797647
deactivated,workbench,org.eclipse.ui.workbench,3.7.1.v20120104-1859,"",1365600798001
activated,workbench,org.eclipse.ui.workbench,3.7.1.v20120104-1859,"",1365600800235
executed,command,org.eclipse.ui,3.7.0.v20110928-1505,"org.eclipse.ui.edit.paste",1365600801128
deactivated,workbench,org.eclipse.ui.workbench,3.7.1.v20120104-1859,"",1365600801693
activated,workbench,org.eclipse.ui.workbench,3.7.1.v20120104-1859,"",1365600802555
deactivated,workbench,org.eclipse.ui.workbench,3.7.1.v20120104-1859,"",1365600805212
activated,workbench,org.eclipse.ui.workbench,3.7.1.v20120104-1859,"",1365600807512
executed,command,org.eclipse.ui,3.7.0.v20110928-1505,"org.eclipse.ui.edit.text.contentAssist.proposals",1365600811072
deactivated,workbench,org.eclipse.ui.workbench,3.7.1.v20120104-1859,"",1365600813320
activated,workbench,org.eclipse.ui.workbench,3.7.1.v20120104-1859,"",1365600814684
deactivated,workbench,org.eclipse.ui.workbench,3.7.1.v20120104-1859,"",1365600816344
activated,workbench,org.eclipse.ui.workbench,3.7.1.v20120104-1859,"",1365600819507
executed,command,org.eclipse.ui,3.7.0.v20110928-1505,"org.eclipse.ui.edit.paste",1365600820327
executed,command,org.eclipse.ui,3.7.0.v20110928-1505,"org.eclipse.ui.edit.undo",1365600820727
executed,command,org.eclipse.ui,3.7.0.v20110928-1505,"org.eclipse.ui.edit.paste",1365600821355
deactivated,workbench,org.eclipse.ui.workbench,3.7.1.v20120104-1859,"",1365600821898
activated,workbench,org.eclipse.ui.workbench,3.7.1.v20120104-1859,"",1365600822842
executed,command,org.eclipse.ui,3.7.0.v20110928-1505,"org.eclipse.ui.edit.text.contentAssist.proposals",1365600825093
deactivated,workbench,org.eclipse.ui.workbench,3.7.1.v20120104-1859,"",1365600831027
activated,workbench,org.eclipse.ui.workbench,3.7.1.v20120104-1859,"",1365600833178
executed,command,org.eclipse.ui,3.7.0.v20110928-1505,"org.eclipse.ui.edit.text.contentAssist.proposals",1365600836456
executed,command,org.eclipse.ui,3.7.0.v20110928-1505,"org.eclipse.ui.edit.text.contentAssist.proposals",1365600837859
deactivated,workbench,org.eclipse.ui.workbench,3.7.1.v20120104-1859,"",1365600839353
activated,workbench,org.eclipse.ui.workbench,3.7.1.v20120104-1859,"",1365600840699
deactivated,workbench,org.eclipse.ui.workbench,3.7.1.v20120104-1859,"",1365600842140
activated,workbench,org.eclipse.ui.workbench,3.7.1.v20120104-1859,"",1365600843679
deactivated,workbench,org.eclipse.ui.workbench,3.7.1.v20120104-1859,"",1365600846363
activated,workbench,org.eclipse.ui.workbench,3.7.1.v20120104-1859,"",1365600848806
deactivated,workbench,org.eclipse.ui.workbench,3.7.1.v20120104-1859,"",1365600849279
activated,workbench,org.eclipse.ui.workbench,3.7.1.v20120104-1859,"",1365600850379
deactivated,workbench,org.eclipse.ui.workbench,3.7.1.v20120104-1859,"",1365600850649
activated,workbench,org.eclipse.ui.workbench,3.7.1.v20120104-1859,"",1365600856277
executed,command,org.eclipse.ui,3.7.0.v20110928-1505,"org.eclipse.ui.edit.paste",1365600857731
deactivated,workbench,org.eclipse.ui.workbench,3.7.1.v20120104-1859,"",1365600859181
activated,workbench,org.eclipse.ui.workbench,3.7.1.v20120104-1859,"",1365600866982
executed,command,org.eclipse.ui,3.7.0.v20110928-1505,"org.eclipse.ui.edit.paste",1365600869303
deactivated,workbench,org.eclipse.ui.workbench,3.7.1.v20120104-1859,"",1365600870555
activated,workbench,org.eclipse.ui.workbench,3.7.1.v20120104-1859,"",1365600871926
executed,command,org.eclipse.ui.workbench.texteditor,3.7.0.v20110928-1504,"org.eclipse.ui.edit.text.goto.lineEnd",1365600872316
executed,command,org.eclipse.ui,3.7.0.v20110928-1505,"org.eclipse.ui.edit.text.contentAssist.proposals",1365600875232
deactivated,workbench,org.eclipse.ui.workbench,3.7.1.v20120104-1859,"",1365600876575
activated,workbench,org.eclipse.ui.workbench,3.7.1.v20120104-1859,"",1365600877868
executed,command,org.eclipse.ui,3.7.0.v20110928-1505,"org.eclipse.ui.edit.text.contentAssist.proposals",1365600880300
deactivated,workbench,org.eclipse.ui.workbench,3.7.1.v20120104-1859,"",1365600882512
activated,workbench,org.eclipse.ui.workbench,3.7.1.v20120104-1859,"",1365600883178
executed,command,org.eclipse.ui,3.7.0.v20110928-1505,"org.eclipse.ui.edit.text.contentAssist.proposals",1365600885065
deactivated,workbench,org.eclipse.ui.workbench,3.7.1.v20120104-1859,"",1365600886990
activated,workbench,org.eclipse.ui.workbench,3.7.1.v20120104-1859,"",1365600888123
executed,command,org.eclipse.ui,3.7.0.v20110928-1505,"org.eclipse.ui.edit.text.contentAssist.proposals",1365600890993
deactivated,workbench,org.eclipse.ui.workbench,3.7.1.v20120104-1859,"",1365600893860
activated,workbench,org.eclipse.ui.workbench,3.7.1.v20120104-1859,"",1365600895237
executed,command,org.eclipse.ui,3.7.0.v20110928-1505,"org.eclipse.ui.edit.text.contentAssist.proposals",1365600896617
executed,command,org.eclipse.ui,3.7.0.v20110928-1505,"org.eclipse.ui.edit.text.contentAssist.proposals",1365600899971
executed,command,org.eclipse.ui.workbench.texteditor,3.7.0.v20110928-1504,"org.eclipse.ui.edit.text.goto.lineEnd",1365600911069
executed,command,org.eclipse.ui.workbench.texteditor,3.7.0.v20110928-1504,"org.eclipse.ui.edit.text.goto.lineEnd",1365600912403
deactivated,workbench,org.eclipse.ui.workbench,3.7.1.v20120104-1859,"",1365600913280
activated,workbench,org.eclipse.ui.workbench,3.7.1.v20120104-1859,"",1365600918461
deactivated,workbench,org.eclipse.ui.workbench,3.7.1.v20120104-1859,"",1365600921519
activated,workbench,org.eclipse.ui.workbench,3.7.1.v20120104-1859,"",1365600922908
executed,command,org.eclipse.ui,3.7.0.v20110928-1505,"org.eclipse.ui.edit.copy",1365600929438
executed,command,org.eclipse.ui,3.7.0.v20110928-1505,"org.eclipse.ui.edit.paste",1365600931580
deactivated,workbench,org.eclipse.ui.workbench,3.7.1.v20120104-1859,"",1365600931930
activated,workbench,org.eclipse.ui.workbench,3.7.1.v20120104-1859,"",1365600933790
deactivated,workbench,org.eclipse.ui.workbench,3.7.1.v20120104-1859,"",1365600935395
activated,workbench,org.eclipse.ui.workbench,3.7.1.v20120104-1859,"",1365600937192
executed,command,org.eclipse.ui,3.7.0.v20110928-1505,"org.eclipse.ui.edit.text.contentAssist.proposals",1365600941048
deactivated,workbench,org.eclipse.ui.workbench,3.7.1.v20120104-1859,"",1365600944355
activated,workbench,org.eclipse.ui.workbench,3.7.1.v20120104-1859,"",1365600945851
executed,command,org.eclipse.ui,3.7.0.v20110928-1505,"org.eclipse.ui.edit.paste",1365600946923
executed,command,org.eclipse.ui,3.7.0.v20110928-1505,"org.eclipse.ui.edit.paste",1365600947201
executed,command,org.eclipse.ui,3.7.0.v20110928-1505,"org.eclipse.ui.edit.undo",1365600947646
executed,command,org.eclipse.ui,3.7.0.v20110928-1505,"org.eclipse.ui.edit.undo",1365600948587
executed,command,org.eclipse.ui,3.7.0.v20110928-1505,"org.eclipse.ui.edit.paste",1365600949049
deactivated,workbench,org.eclipse.ui.workbench,3.7.1.v20120104-1859,"",1365600949551
activated,workbench,org.eclipse.ui.workbench,3.7.1.v20120104-1859,"",1365600952097
executed,command,org.eclipse.ui,3.7.0.v20110928-1505,"org.eclipse.ui.edit.text.contentAssist.proposals",1365600954478
deactivated,workbench,org.eclipse.ui.workbench,3.7.1.v20120104-1859,"",1365600958795
activated,workbench,org.eclipse.ui.workbench,3.7.1.v20120104-1859,"",1365600959635
executed,command,org.eclipse.ui,3.7.0.v20110928-1505,"org.eclipse.ui.edit.text.contentAssist.proposals",1365600960435
deactivated,workbench,org.eclipse.ui.workbench,3.7.1.v20120104-1859,"",1365600962199
activated,workbench,org.eclipse.ui.workbench,3.7.1.v20120104-1859,"",1365600963270
deactivated,workbench,org.eclipse.ui.workbench,3.7.1.v20120104-1859,"",1365600964730
activated,workbench,org.eclipse.ui.workbench,3.7.1.v20120104-1859,"",1365600965961
executed,command,org.eclipse.ui,3.7.0.v20110928-1505,"org.eclipse.ui.edit.text.contentAssist.proposals",1365600969234
executed,command,org.eclipse.ui,3.7.0.v20110928-1505,"org.eclipse.ui.edit.text.contentAssist.proposals",1365600970699
deactivated,workbench,org.eclipse.ui.workbench,3.7.1.v20120104-1859,"",1365600973770
activated,workbench,org.eclipse.ui.workbench,3.7.1.v20120104-1859,"",1365600975654
executed,command,org.eclipse.ui,3.7.0.v20110928-1505,"org.eclipse.ui.edit.text.contentAssist.proposals",1365600978428
executed,command,org.eclipse.ui,3.7.0.v20110928-1505,"org.eclipse.ui.edit.text.contentAssist.proposals",1365600986334
executed,command,org.eclipse.ui,3.7.0.v20110928-1505,"org.eclipse.ui.edit.text.contentAssist.proposals",1365600991075
executed,command,org.eclipse.ui.workbench.texteditor,3.7.0.v20110928-1504,"org.eclipse.ui.edit.text.goto.lineEnd",1365600994554
deactivated,workbench,org.eclipse.ui.workbench,3.7.1.v20120104-1859,"",1365600997520
activated,workbench,org.eclipse.ui.workbench,3.7.1.v20120104-1859,"",1365600997914
deactivated,workbench,org.eclipse.ui.workbench,3.7.1.v20120104-1859,"",1365600998593
activated,workbench,org.eclipse.ui.workbench,3.7.1.v20120104-1859,"",1365601000029
executed,command,org.eclipse.ui.workbench.texteditor,3.7.0.v20110928-1504,"org.eclipse.ui.edit.text.select.lineStart",1365601000640
executed,command,org.eclipse.ui,3.7.0.v20110928-1505,"org.eclipse.ui.edit.copy",1365601001154
executed,command,org.eclipse.ui,3.7.0.v20110928-1505,"org.eclipse.ui.edit.paste",1365601002584
deactivated,workbench,org.eclipse.ui.workbench,3.7.1.v20120104-1859,"",1365601004919
activated,workbench,org.eclipse.ui.workbench,3.7.1.v20120104-1859,"",1365601006041
executed,command,org.eclipse.ui.workbench.texteditor,3.7.0.v20110928-1504,"org.eclipse.ui.edit.text.select.lineEnd",1365601010137
deactivated,workbench,org.eclipse.ui.workbench,3.7.1.v20120104-1859,"",1365601018427
activated,workbench,org.eclipse.ui.workbench,3.7.1.v20120104-1859,"",1365601018806
executed,command,org.eclipse.ui,3.7.0.v20110928-1505,"org.eclipse.ui.edit.text.contentAssist.proposals",1365601022537
deactivated,workbench,org.eclipse.ui.workbench,3.7.1.v20120104-1859,"",1365601025391
activated,workbench,org.eclipse.ui.workbench,3.7.1.v20120104-1859,"",1365601026193
deactivated,workbench,org.eclipse.ui.workbench,3.7.1.v20120104-1859,"",1365601028362
activated,workbench,org.eclipse.ui.workbench,3.7.1.v20120104-1859,"",1365601029996
executed,command,org.eclipse.ui,3.7.0.v20110928-1505,"org.eclipse.ui.edit.paste",1365601030606
executed,command,org.eclipse.ui,3.7.0.v20110928-1505,"org.eclipse.ui.file.save",1365601032407
deactivated,workbench,org.eclipse.ui.workbench,3.7.1.v20120104-1859,"",1365601033691
activated,workbench,org.eclipse.ui.workbench,3.7.1.v20120104-1859,"",1365601038884
activated,view,org.eclipse.debug.ui,3.7.102.v20111129-1423_r372,"org.eclipse.debug.ui.VariableView",1365601041849
executed,command,org.eclipse.ui,3.7.0.v20110928-1505,"org.eclipse.ui.edit.selectAll",1365601042027
executed,command,org.eclipse.ui,3.7.0.v20110928-1505,"org.eclipse.ui.edit.copy",1365601042250
deactivated,workbench,org.eclipse.ui.workbench,3.7.1.v20120104-1859,"",1365601042613
activated,workbench,org.eclipse.ui.workbench,3.7.1.v20120104-1859,"",1365601045791
executed,command,org.eclipse.debug.ui,3.7.102.v20111129-1423_r372,"org.eclipse.debug.ui.commands.Resume",1365601045904
deactivated,workbench,org.eclipse.ui.workbench,3.7.1.v20120104-1859,"",1365601047556
activated,workbench,org.eclipse.ui.workbench,3.7.1.v20120104-1859,"",1365601054847
deactivated,workbench,org.eclipse.ui.workbench,3.7.1.v20120104-1859,"",1365601058883
activated,workbench,org.eclipse.ui.workbench,3.7.1.v20120104-1859,"",1365601085582
activated,editor,org.eclipse.jdt.ui,3.7.2.v20120109-1427,"org.eclipse.jdt.ui.CompilationUnitEditor",1365601087144
executed,command,,,"AUTOGEN:::org.eclipse.jdt.debug.CompilationUnitEditor.BreakpointRulerActions/org.eclipse.jdt.debug.ui.actions.ManageBreakpointRulerAction",1365601087413
activated,editor,org.eclipse.jdt.ui,3.7.2.v20120109-1427,"org.eclipse.jdt.ui.CompilationUnitEditor",1365601092197
executed,command,org.eclipse.ui.workbench.texteditor,3.7.0.v20110928-1504,"org.eclipse.ui.edit.text.goto.lineEnd",1365601097013
executed,command,org.eclipse.ui.workbench.texteditor,3.7.0.v20110928-1504,"org.eclipse.ui.edit.text.select.lineStart",1365601097254
executed,command,org.eclipse.ui,3.7.0.v20110928-1505,"org.eclipse.ui.edit.copy",1365601097647
executed,command,org.eclipse.ui,3.7.0.v20110928-1505,"org.eclipse.ui.edit.copy",1365601103173
activated,editor,org.eclipse.jdt.ui,3.7.2.v20120109-1427,"org.eclipse.jdt.ui.CompilationUnitEditor",1365601108304
activated,editor,org.eclipse.jdt.ui,3.7.2.v20120109-1427,"org.eclipse.jdt.ui.CompilationUnitEditor",1365601109423
executed,command,org.eclipse.ui,3.7.0.v20110928-1505,"org.eclipse.ui.edit.paste",1365601121022
executed,command,org.eclipse.ui,3.7.0.v20110928-1505,"org.eclipse.ui.file.save",1365601124205
activated,view,org.eclipse.debug.ui,3.7.102.v20111129-1423_r372,"org.eclipse.debug.ui.DebugView",1365601127148
executed,command,org.eclipse.debug.ui,3.7.102.v20111129-1423_r372,"org.eclipse.debug.ui.commands.Resume",1365601127257
deactivated,workbench,org.eclipse.ui.workbench,3.7.1.v20120104-1859,"",1365601129591
activated,workbench,org.eclipse.ui.workbench,3.7.1.v20120104-1859,"",1365601181131
deactivated,workbench,org.eclipse.ui.workbench,3.7.1.v20120104-1859,"",1365601181665
activated,workbench,org.eclipse.ui.workbench,3.7.1.v20120104-1859,"",1365601184180
opened,editor,org.eclipse.jdt.ui,3.7.2.v20120109-1427,"org.eclipse.jdt.ui.CompilationUnitEditor",1365601184386
activated,editor,org.eclipse.jdt.ui,3.7.2.v20120109-1427,"org.eclipse.jdt.ui.CompilationUnitEditor",1365601184512
executed,command,org.eclipse.ui.ide,3.7.0.v20110928-1505,"org.eclipse.ui.navigate.openResource",1365601184523
activated,view,org.eclipse.ui.views,3.6.0.v20110928-1505,"org.eclipse.ui.views.ContentOutline",1365601186854
activated,editor,org.eclipse.jdt.ui,3.7.2.v20120109-1427,"org.eclipse.jdt.ui.CompilationUnitEditor",1365601205757
deactivated,workbench,org.eclipse.ui.workbench,3.7.1.v20120104-1859,"",1365601228699
activated,workbench,org.eclipse.ui.workbench,3.7.1.v20120104-1859,"",1365601230605
deactivated,workbench,org.eclipse.ui.workbench,3.7.1.v20120104-1859,"",1365601230889
activated,workbench,org.eclipse.ui.workbench,3.7.1.v20120104-1859,"",1365601248205
deactivated,workbench,org.eclipse.ui.workbench,3.7.1.v20120104-1859,"",1365601248938
executed,command,org.eclipse.ui,3.7.0.v20110928-1505,"org.eclipse.ui.edit.findReplace",1365601248988
executed,command,org.eclipse.ui,3.7.0.v20110928-1505,"org.eclipse.ui.edit.paste",1365601249109
activated,workbench,org.eclipse.ui.workbench,3.7.1.v20120104-1859,"",1365601251608
activated,editor,org.eclipse.jdt.ui,3.7.2.v20120109-1427,"org.eclipse.jdt.ui.CompilationUnitEditor",1365601258207
deactivated,workbench,org.eclipse.ui.workbench,3.7.1.v20120104-1859,"",1365601263414
executed,command,org.eclipse.ui,3.7.0.v20110928-1505,"org.eclipse.ui.edit.findReplace",1365601263469
executed,command,org.eclipse.ui,3.7.0.v20110928-1505,"org.eclipse.ui.edit.paste",1365601263604
activated,workbench,org.eclipse.ui.workbench,3.7.1.v20120104-1859,"",1365601264859
deactivated,workbench,org.eclipse.ui.workbench,3.7.1.v20120104-1859,"",1365601280140
executed,command,org.eclipse.ui,3.7.0.v20110928-1505,"org.eclipse.ui.edit.findReplace",1365601280198
activated,workbench,org.eclipse.ui.workbench,3.7.1.v20120104-1859,"",1365601281596
deactivated,workbench,org.eclipse.ui.workbench,3.7.1.v20120104-1859,"",1365601282585
activated,workbench,org.eclipse.ui.workbench,3.7.1.v20120104-1859,"",1365601286323
activated,editor,org.eclipse.jdt.ui,3.7.2.v20120109-1427,"org.eclipse.jdt.ui.CompilationUnitEditor",1365601300944
deactivated,workbench,org.eclipse.ui.workbench,3.7.1.v20120104-1859,"",1365601303350
executed,command,org.eclipse.ui,3.7.0.v20110928-1505,"org.eclipse.ui.edit.findReplace",1365601303399
executed,command,org.eclipse.ui,3.7.0.v20110928-1505,"org.eclipse.ui.edit.paste",1365601303695
activated,workbench,org.eclipse.ui.workbench,3.7.1.v20120104-1859,"",1365601304645
deactivated,workbench,org.eclipse.ui.workbench,3.7.1.v20120104-1859,"",1365601305762
executed,command,org.eclipse.ui,3.7.0.v20110928-1505,"org.eclipse.ui.edit.paste",1365601307296
opened,view,org.eclipse.search,3.7.0.v20110928-1504,"org.eclipse.search.ui.views.SearchView",1365601307616
activated,view,org.eclipse.search,3.7.0.v20110928-1504,"org.eclipse.search.ui.views.SearchView",1365601307665
activated,workbench,org.eclipse.ui.workbench,3.7.1.v20120104-1859,"",1365601307865
executed,command,org.eclipse.search,3.7.0.v20110928-1504,"org.eclipse.search.ui.openSearchDialog",1365601308088
deactivated,workbench,org.eclipse.ui.workbench,3.7.1.v20120104-1859,"",1365601308913
error,log,,,"Problems encountered during text search.",1365601339228
error,log,,,"File not found: /Users/pky1030/Desktop/workspace/xxx/META-INF/MANIFEST.MF.",1365601339241
activated,workbench,org.eclipse.ui.workbench,3.7.1.v20120104-1859,"",1365601416104
deactivated,workbench,org.eclipse.ui.workbench,3.7.1.v20120104-1859,"",1365601418037
activated,workbench,org.eclipse.ui.workbench,3.7.1.v20120104-1859,"",1365601418222
activated,editor,org.eclipse.jdt.ui,3.7.2.v20120109-1427,"org.eclipse.jdt.ui.CompilationUnitEditor",1365601426565
executed,command,org.eclipse.ui.workbench.texteditor,3.7.0.v20110928-1504,"org.eclipse.ui.edit.text.goto.lineEnd",1365601432166
executed,command,org.eclipse.ui.workbench.texteditor,3.7.0.v20110928-1504,"org.eclipse.ui.edit.text.select.lineStart",1365601432501
executed,command,org.eclipse.ui,3.7.0.v20110928-1505,"org.eclipse.ui.edit.copy",1365601432788
executed,command,org.eclipse.ui,3.7.0.v20110928-1505,"org.eclipse.ui.edit.text.contentAssist.proposals",1365601445663
executed,command,org.eclipse.ui,3.7.0.v20110928-1505,"org.eclipse.ui.edit.text.contentAssist.proposals",1365601447571
executed,command,org.eclipse.ui,3.7.0.v20110928-1505,"org.eclipse.ui.edit.copy",1365601454541
executed,command,org.eclipse.ui,3.7.0.v20110928-1505,"org.eclipse.ui.edit.paste",1365601455334
executed,command,org.eclipse.ui,3.7.0.v20110928-1505,"org.eclipse.ui.edit.text.contentAssist.proposals",1365601458977
executed,command,org.eclipse.ui,3.7.0.v20110928-1505,"org.eclipse.ui.edit.copy",1365601464108
executed,command,org.eclipse.ui,3.7.0.v20110928-1505,"org.eclipse.ui.edit.paste",1365601465768
executed,command,org.eclipse.ui,3.7.0.v20110928-1505,"org.eclipse.ui.edit.paste",1365601470167
executed,command,org.eclipse.ui.workbench.texteditor,3.7.0.v20110928-1504,"org.eclipse.ui.edit.text.goto.lineEnd",1365601470821
executed,command,org.eclipse.ui.workbench.texteditor,3.7.0.v20110928-1504,"org.eclipse.ui.edit.text.select.lineEnd",1365601476456
executed,command,org.eclipse.ui,3.7.0.v20110928-1505,"org.eclipse.ui.edit.copy",1365601476831
executed,command,org.eclipse.ui,3.7.0.v20110928-1505,"org.eclipse.ui.edit.paste",1365601480414
deactivated,workbench,org.eclipse.ui.workbench,3.7.1.v20120104-1859,"",1365601480895
activated,workbench,org.eclipse.ui.workbench,3.7.1.v20120104-1859,"",1365601484966
executed,command,org.eclipse.ui,3.7.0.v20110928-1505,"org.eclipse.ui.edit.paste",1365601489446
executed,command,org.eclipse.ui,3.7.0.v20110928-1505,"org.eclipse.ui.edit.paste",1365601490908
deactivated,workbench,org.eclipse.ui.workbench,3.7.1.v20120104-1859,"",1365601492986
activated,workbench,org.eclipse.ui.workbench,3.7.1.v20120104-1859,"",1365601495285
executed,command,org.eclipse.ui,3.7.0.v20110928-1505,"org.eclipse.ui.file.save",1365601497035
deactivated,workbench,org.eclipse.ui.workbench,3.7.1.v20120104-1859,"",1365601498699
error,log,,,"File not found: /Users/pky1030/Desktop/workspace/xxx/META-INF/MANIFEST.MF.",1365601797041
activated,workbench,org.eclipse.ui.workbench,3.7.1.v20120104-1859,"",1365602915808
deactivated,workbench,org.eclipse.ui.workbench,3.7.1.v20120104-1859,"",1365602919190
activated,workbench,org.eclipse.ui.workbench,3.7.1.v20120104-1859,"",1365602920515
closed,workbench,org.eclipse.ui.workbench,3.7.1.v20120104-1859,"",1365602921700
error,log,,,"File not found: /Users/pky1030/Desktop/workspace/xxx/META-INF/MANIFEST.MF.",1365602921809
stopped,bundle,org.eclipse.mylyn.ide.ant,3.6.0.v20110608-1400,"org.eclipse.mylyn.ide.ant",1365602922847
stopped,bundle,org.eclipse.mylyn.pde.ui,3.6.0.v20110608-1400,"org.eclipse.mylyn.pde.ui",1365602922854
stopped,bundle,org.eclipse.pde.api.tools.ui,1.0.301.v20110803_r371,"org.eclipse.pde.api.tools.ui",1365602922854
stopped,bundle,org.eclipse.pde.ds.ui,1.0.100.v20111213-1754,"org.eclipse.pde.ds.ui",1365602922855
stopped,bundle,org.eclipse.pde.runtime,3.4.201.v20110928-1516,"org.eclipse.pde.runtime",1365602922856
stopped,bundle,org.eclipse.pde.ua.ui,1.0.100.v20110516,"org.eclipse.pde.ua.ui",1365602922856
stopped,bundle,org.eclipse.pde.ui.templates,3.4.400.v20110928-1516,"org.eclipse.pde.ui.templates",1365602922857
stopped,bundle,org.eclipse.rap.ui.launch,1.4.2.20120213-1325,"org.eclipse.rap.ui.launch",1365602922857
stopped,bundle,org.eclipse.rap.ui.templates,1.4.2.20120213-1325,"org.eclipse.rap.ui.templates",1365602922858
stopped,bundle,org.eclipse.pde.ui,3.6.100.v20120103_r372,"org.eclipse.pde.ui",1365602922858
stopped,bundle,org.eclipse.ant.ui,3.5.101.v20120110-1739,"org.eclipse.ant.ui",1365602922861
stopped,bundle,org.eclipse.ant.launching,1.0.101.v20120110-1739,"org.eclipse.ant.launching",1365602922863
stopped,bundle,org.eclipse.egit.mylyn.ui,1.3.0.201202151440-r,"org.eclipse.egit.mylyn.ui",1365602922863
stopped,bundle,org.eclipse.egit.ui,1.3.0.201202151440-r,"org.eclipse.egit.ui",1365602922864
stopped,bundle,org.eclipse.egit.core,1.3.0.201202151440-r,"org.eclipse.egit.core",1365602922865
stopped,bundle,org.eclipse.equinox.p2.ui.sdk,1.0.200.v20110815-1419,"org.eclipse.equinox.p2.ui.sdk",1365602922866
stopped,bundle,org.eclipse.mylyn.java.tasks,3.6.0.v20110608-1400,"org.eclipse.mylyn.java.tasks",1365602922866
stopped,bundle,org.eclipse.mylyn.java.ui,3.6.0.v20110608-1400,"org.eclipse.mylyn.java.ui",1365602922866
stopped,bundle,overlay.com.android.ide.eclipse.adt.overlay,21.0.1.v201212060256-543035,"overlay.com.android.ide.eclipse.adt.overlay",1365602922867
stopped,bundle,com.android.ide.eclipse.adt,21.0.1.v201212060256-543035,"com.android.ide.eclipse.adt",1365602922867
stopped,bundle,org.eclipse.jdt.junit,3.7.0.v20110928-1453,"org.eclipse.jdt.junit",1365602922867
stopped,bundle,org.eclipse.jdt.apt.ui,3.3.300.v20110305-1450,"org.eclipse.jdt.apt.ui",1365602922868
stopped,bundle,org.eclipse.rap.ui.launch.rwt,1.4.2.20120213-1325,"org.eclipse.rap.ui.launch.rwt",1365602922869
stopped,bundle,org.eclipse.jdt.debug.ui,3.6.1.v20111006_r372,"org.eclipse.jdt.debug.ui",1365602922870
stopped,bundle,org.eclipse.jdt.ui,3.7.2.v20120109-1427,"org.eclipse.jdt.ui",1365602922918
stopped,bundle,org.eclipse.wst.dtd.ui,1.0.600.v201103171359,"org.eclipse.wst.dtd.ui",1365602922919
stopped,bundle,org.eclipse.wst.xsd.ui,1.2.404.v201105050216,"org.eclipse.wst.xsd.ui",1365602922922
stopped,bundle,org.eclipse.wst.xml.ui,1.1.202.v201112071516,"org.eclipse.wst.xml.ui",1365602922923
stopped,bundle,org.eclipse.wst.common.ui,1.1.500.v200911190730,"org.eclipse.wst.common.ui",1365602922924
stopped,bundle,org.eclipse.wst.sse.ui,1.3.2.v201201041522,"org.eclipse.wst.sse.ui",1365602922925
stopped,bundle,org.eclipse.search,3.7.0.v20110928-1504,"org.eclipse.search",1365602922928
stopped,bundle,org.eclipse.mylyn.commons.team,0.8.0.v20110608-1400,"org.eclipse.mylyn.commons.team",1365602922929
stopped,bundle,org.eclipse.mylyn.team.ui,3.6.1.v20110825-0100,"org.eclipse.mylyn.team.ui",1365602922930
stopped,bundle,org.eclipse.ui.navigator.resources,3.4.300.v20110928-1505,"org.eclipse.ui.navigator.resources",1365602922932
stopped,bundle,org.eclipse.ltk.ui.refactoring,3.6.0.v20110928-1453,"org.eclipse.ltk.ui.refactoring",1365602922932
stopped,bundle,org.eclipse.mylyn.bugzilla.ui,3.6.0.v20110608-1400,"org.eclipse.mylyn.bugzilla.ui",1365602922933
stopped,bundle,org.eclipse.mylyn.ide.ui,3.6.0.v20110608-1400,"org.eclipse.mylyn.ide.ui",1365602922933
stopped,bundle,org.eclipse.mylyn.resources.ui,3.6.0.v20110608-1400,"org.eclipse.mylyn.resources.ui",1365602922935
stopped,bundle,org.eclipse.mylyn.wikitext.tasks.ui,1.5.0.v20110608-1400,"org.eclipse.mylyn.wikitext.tasks.ui",1365602922936
stopped,bundle,org.eclipse.mylyn.context.ui,3.6.1.v20120112-0100,"org.eclipse.mylyn.context.ui",1365602922937
stopped,bundle,org.eclipse.mylyn.help.ui,3.6.1.v20110830-0100,"org.eclipse.mylyn.help.ui",1365602922938
stopped,bundle,org.eclipse.mylyn.tasks.bugs,3.6.1.v20110825-0100,"org.eclipse.mylyn.tasks.bugs",1365602922940
stopped,bundle,org.eclipse.mylyn.tasks.ui,3.6.5.v20120215-0100,"org.eclipse.mylyn.tasks.ui",1365602922940
stopped,bundle,org.eclipse.team.cvs.ui,3.3.401.v20120126-1227,"org.eclipse.team.cvs.ui",1365602922941
stopped,bundle,org.eclipse.team.ui,3.6.101.R37x_v20111109-0800,"org.eclipse.team.ui",1365602922941
stopped,bundle,org.eclipse.compare,3.5.202.R37x_v20111109-0800,"org.eclipse.compare",1365602922941
stopped,bundle,org.eclipse.ui.externaltools,3.2.0.v20111007_r372,"org.eclipse.ui.externaltools",1365602922942
