what,kind,bundleId,bundleVersion,description,time
executed,command,org.eclipse.ui,3.7.0.v20110928-1505,"org.eclipse.ui.file.save",1360220583608
deactivated,workbench,org.eclipse.ui.workbench,3.7.1.v20120104-1859,"",1360220584094
activated,workbench,org.eclipse.ui.workbench,3.7.1.v20120104-1859,"",1360220584653
deactivated,workbench,org.eclipse.ui.workbench,3.7.1.v20120104-1859,"",1360220584950
activated,workbench,org.eclipse.ui.workbench,3.7.1.v20120104-1859,"",1360220607441
executed,command,org.eclipse.ui,3.7.0.v20110928-1505,"org.eclipse.ui.edit.text.contentAssist.proposals",1360220621441
executed,command,org.eclipse.ui,3.7.0.v20110928-1505,"org.eclipse.ui.file.save",1360220627268
deactivated,workbench,org.eclipse.ui.workbench,3.7.1.v20120104-1859,"",1360220627602
activated,workbench,org.eclipse.ui.workbench,3.7.1.v20120104-1859,"",1360220643816
activated,view,org.eclipse.ui.console,3.5.100.v20111007_r372,"org.eclipse.ui.console.ConsoleView",1360220649803
executed,command,org.eclipse.ui,3.7.0.v20110928-1505,"org.eclipse.ui.edit.copy",1360220656137
deactivated,workbench,org.eclipse.ui.workbench,3.7.1.v20120104-1859,"",1360220658619
error,log,,,"File not found: /Users/pky1030/Downloads/youandme/org.opros.tpl.scenario/META-INF/MANIFEST.MF.",1360220724650
error,log,,,"File not found: /Users/pky1030/Downloads/youandme/org.opros.tpl.taskmodel/META-INF/MANIFEST.MF.",1360220724652
error,log,,,"File not found: /Users/pky1030/Downloads/youandme/org.opros.tpl/META-INF/MANIFEST.MF.",1360220724653
error,log,,,"File not found: /Users/pky1030/Downloads/youandme/org.opros.tpl.taskmodel.edit/META-INF/MANIFEST.MF.",1360220724654
activated,view,org.eclipse.ui.views.log,1.0.200.v20110404,"org.eclipse.pde.runtime.LogView",1360220724681
activated,workbench,org.eclipse.ui.workbench,3.7.1.v20120104-1859,"",1360220886849
deactivated,workbench,org.eclipse.ui.workbench,3.7.1.v20120104-1859,"",1360220888829
activated,workbench,org.eclipse.ui.workbench,3.7.1.v20120104-1859,"",1360220890784
deactivated,workbench,org.eclipse.ui.workbench,3.7.1.v20120104-1859,"",1360220891694
activated,workbench,org.eclipse.ui.workbench,3.7.1.v20120104-1859,"",1360220894877
deactivated,workbench,org.eclipse.ui.workbench,3.7.1.v20120104-1859,"",1360220896591
activated,workbench,org.eclipse.ui.workbench,3.7.1.v20120104-1859,"",1360220955983
deactivated,workbench,org.eclipse.ui.workbench,3.7.1.v20120104-1859,"",1360220958110
activated,workbench,org.eclipse.ui.workbench,3.7.1.v20120104-1859,"",1360220960430
deactivated,workbench,org.eclipse.ui.workbench,3.7.1.v20120104-1859,"",1360220961183
activated,workbench,org.eclipse.ui.workbench,3.7.1.v20120104-1859,"",1360221152290
deactivated,workbench,org.eclipse.ui.workbench,3.7.1.v20120104-1859,"",1360221154338
activated,workbench,org.eclipse.ui.workbench,3.7.1.v20120104-1859,"",1360221154890
deactivated,workbench,org.eclipse.ui.workbench,3.7.1.v20120104-1859,"",1360221156033
activated,workbench,org.eclipse.ui.workbench,3.7.1.v20120104-1859,"",1360221167924
activated,editor,org.eclipse.jdt.ui,3.7.2.v20120109-1427,"org.eclipse.jdt.ui.CompilationUnitEditor",1360221168795
deactivated,workbench,org.eclipse.ui.workbench,3.7.1.v20120104-1859,"",1360221169389
activated,workbench,org.eclipse.ui.workbench,3.7.1.v20120104-1859,"",1360221171831
executed,command,org.eclipse.ui.workbench.texteditor,3.7.0.v20110928-1504,"org.eclipse.ui.edit.text.select.lineEnd",1360221180236
executed,command,org.eclipse.ui.workbench.texteditor,3.7.0.v20110928-1504,"org.eclipse.ui.edit.text.goto.lineEnd",1360221186562
executed,command,org.eclipse.ui,3.7.0.v20110928-1505,"org.eclipse.ui.edit.cut",1360221189127
executed,command,org.eclipse.ui,3.7.0.v20110928-1505,"org.eclipse.ui.file.save",1360221189464
deactivated,workbench,org.eclipse.ui.workbench,3.7.1.v20120104-1859,"",1360221191379
activated,workbench,org.eclipse.ui.workbench,3.7.1.v20120104-1859,"",1360221204639
deactivated,workbench,org.eclipse.ui.workbench,3.7.1.v20120104-1859,"",1360221205945
activated,workbench,org.eclipse.ui.workbench,3.7.1.v20120104-1859,"",1360221241427
deactivated,workbench,org.eclipse.ui.workbench,3.7.1.v20120104-1859,"",1360221241774
activated,workbench,org.eclipse.ui.workbench,3.7.1.v20120104-1859,"",1360221301313
deactivated,workbench,org.eclipse.ui.workbench,3.7.1.v20120104-1859,"",1360221302769
activated,workbench,org.eclipse.ui.workbench,3.7.1.v20120104-1859,"",1360221318630
executed,command,org.eclipse.ui,3.7.0.v20110928-1505,"org.eclipse.ui.file.save",1360221324078
deactivated,workbench,org.eclipse.ui.workbench,3.7.1.v20120104-1859,"",1360221326297
activated,workbench,org.eclipse.ui.workbench,3.7.1.v20120104-1859,"",1360221367304
deactivated,workbench,org.eclipse.ui.workbench,3.7.1.v20120104-1859,"",1360221370103
activated,workbench,org.eclipse.ui.workbench,3.7.1.v20120104-1859,"",1360221395026
executed,command,org.eclipse.ui,3.7.0.v20110928-1505,"org.eclipse.ui.file.save",1360221396752
deactivated,workbench,org.eclipse.ui.workbench,3.7.1.v20120104-1859,"",1360221398266
activated,workbench,org.eclipse.ui.workbench,3.7.1.v20120104-1859,"",1360221419589
executed,command,org.eclipse.ui,3.7.0.v20110928-1505,"org.eclipse.ui.file.save",1360221420841
deactivated,workbench,org.eclipse.ui.workbench,3.7.1.v20120104-1859,"",1360221421386
error,log,,,"File not found: /Users/pky1030/Downloads/youandme/org.opros.tpl.scenario/META-INF/MANIFEST.MF.",1360221489530
error,log,,,"File not found: /Users/pky1030/Downloads/youandme/org.opros.tpl.taskmodel/META-INF/MANIFEST.MF.",1360221489531
error,log,,,"File not found: /Users/pky1030/Downloads/youandme/org.opros.tpl/META-INF/MANIFEST.MF.",1360221489533
error,log,,,"File not found: /Users/pky1030/Downloads/youandme/org.opros.tpl.taskmodel.edit/META-INF/MANIFEST.MF.",1360221489534
activated,view,org.eclipse.ui.views.log,1.0.200.v20110404,"org.eclipse.pde.runtime.LogView",1360221521219
activated,workbench,org.eclipse.ui.workbench,3.7.1.v20120104-1859,"",1360221521326
activated,editor,org.eclipse.jdt.ui,3.7.2.v20120109-1427,"org.eclipse.jdt.ui.CompilationUnitEditor",1360221522751
deactivated,workbench,org.eclipse.ui.workbench,3.7.1.v20120104-1859,"",1360221523306
activated,workbench,org.eclipse.ui.workbench,3.7.1.v20120104-1859,"",1360221523957
executed,command,org.eclipse.ui,3.7.0.v20110928-1505,"org.eclipse.ui.file.save",1360221524856
deactivated,workbench,org.eclipse.ui.workbench,3.7.1.v20120104-1859,"",1360221525985
activated,workbench,org.eclipse.ui.workbench,3.7.1.v20120104-1859,"",1360221540261
deactivated,workbench,org.eclipse.ui.workbench,3.7.1.v20120104-1859,"",1360221540795
activated,workbench,org.eclipse.ui.workbench,3.7.1.v20120104-1859,"",1360221593304
deactivated,workbench,org.eclipse.ui.workbench,3.7.1.v20120104-1859,"",1360221594115
activated,workbench,org.eclipse.ui.workbench,3.7.1.v20120104-1859,"",1360221594970
executed,command,org.eclipse.ui,3.7.0.v20110928-1505,"org.eclipse.ui.file.save",1360221596326
deactivated,workbench,org.eclipse.ui.workbench,3.7.1.v20120104-1859,"",1360221601967
activated,workbench,org.eclipse.ui.workbench,3.7.1.v20120104-1859,"",1360221619989
deactivated,workbench,org.eclipse.ui.workbench,3.7.1.v20120104-1859,"",1360221621855
activated,workbench,org.eclipse.ui.workbench,3.7.1.v20120104-1859,"",1360221624241
deactivated,workbench,org.eclipse.ui.workbench,3.7.1.v20120104-1859,"",1360221625751
activated,workbench,org.eclipse.ui.workbench,3.7.1.v20120104-1859,"",1360221636937
deactivated,workbench,org.eclipse.ui.workbench,3.7.1.v20120104-1859,"",1360221639260
activated,workbench,org.eclipse.ui.workbench,3.7.1.v20120104-1859,"",1360221640342
executed,command,org.eclipse.ui,3.7.0.v20110928-1505,"org.eclipse.ui.file.save",1360221641118
deactivated,workbench,org.eclipse.ui.workbench,3.7.1.v20120104-1859,"",1360221644208
activated,workbench,org.eclipse.ui.workbench,3.7.1.v20120104-1859,"",1360221656494
deactivated,workbench,org.eclipse.ui.workbench,3.7.1.v20120104-1859,"",1360221657557
activated,workbench,org.eclipse.ui.workbench,3.7.1.v20120104-1859,"",1360221665408
executed,command,org.eclipse.ui,3.7.0.v20110928-1505,"org.eclipse.ui.file.save",1360221666994
deactivated,workbench,org.eclipse.ui.workbench,3.7.1.v20120104-1859,"",1360221667311
activated,workbench,org.eclipse.ui.workbench,3.7.1.v20120104-1859,"",1360221698007
deactivated,workbench,org.eclipse.ui.workbench,3.7.1.v20120104-1859,"",1360221698757
activated,workbench,org.eclipse.ui.workbench,3.7.1.v20120104-1859,"",1360221704794
executed,command,org.eclipse.ui,3.7.0.v20110928-1505,"org.eclipse.ui.file.save",1360221706390
deactivated,workbench,org.eclipse.ui.workbench,3.7.1.v20120104-1859,"",1360221706840
activated,workbench,org.eclipse.ui.workbench,3.7.1.v20120104-1859,"",1360221724639
deactivated,workbench,org.eclipse.ui.workbench,3.7.1.v20120104-1859,"",1360221725345
activated,workbench,org.eclipse.ui.workbench,3.7.1.v20120104-1859,"",1360221730164
executed,command,org.eclipse.ui,3.7.0.v20110928-1505,"org.eclipse.ui.file.save",1360221732933
deactivated,workbench,org.eclipse.ui.workbench,3.7.1.v20120104-1859,"",1360221733352
activated,workbench,org.eclipse.ui.workbench,3.7.1.v20120104-1859,"",1360221756526
executed,command,org.eclipse.ui,3.7.0.v20110928-1505,"org.eclipse.ui.file.save",1360221758961
deactivated,workbench,org.eclipse.ui.workbench,3.7.1.v20120104-1859,"",1360221759444
activated,workbench,org.eclipse.ui.workbench,3.7.1.v20120104-1859,"",1360221779207
deactivated,workbench,org.eclipse.ui.workbench,3.7.1.v20120104-1859,"",1360221780546
activated,workbench,org.eclipse.ui.workbench,3.7.1.v20120104-1859,"",1360221797182
executed,command,org.eclipse.ui,3.7.0.v20110928-1505,"org.eclipse.ui.file.save",1360221798962
deactivated,workbench,org.eclipse.ui.workbench,3.7.1.v20120104-1859,"",1360221799398
activated,workbench,org.eclipse.ui.workbench,3.7.1.v20120104-1859,"",1360221813481
deactivated,workbench,org.eclipse.ui.workbench,3.7.1.v20120104-1859,"",1360221814070
activated,workbench,org.eclipse.ui.workbench,3.7.1.v20120104-1859,"",1360221820932
executed,command,org.eclipse.ui,3.7.0.v20110928-1505,"org.eclipse.ui.file.save",1360221822106
deactivated,workbench,org.eclipse.ui.workbench,3.7.1.v20120104-1859,"",1360221822519
error,log,,,"File not found: /Users/pky1030/Downloads/youandme/org.opros.tpl.scenario/META-INF/MANIFEST.MF.",1360221824867
error,log,,,"File not found: /Users/pky1030/Downloads/youandme/org.opros.tpl.taskmodel/META-INF/MANIFEST.MF.",1360221824869
error,log,,,"File not found: /Users/pky1030/Downloads/youandme/org.opros.tpl/META-INF/MANIFEST.MF.",1360221824870
error,log,,,"File not found: /Users/pky1030/Downloads/youandme/org.opros.tpl.taskmodel.edit/META-INF/MANIFEST.MF.",1360221824871
activated,workbench,org.eclipse.ui.workbench,3.7.1.v20120104-1859,"",1360221902369
executed,command,org.eclipse.ui,3.7.0.v20110928-1505,"org.eclipse.ui.file.save",1360221904691
deactivated,workbench,org.eclipse.ui.workbench,3.7.1.v20120104-1859,"",1360221905080
activated,workbench,org.eclipse.ui.workbench,3.7.1.v20120104-1859,"",1360221926798
executed,command,org.eclipse.ui,3.7.0.v20110928-1505,"org.eclipse.ui.file.save",1360221928451
deactivated,workbench,org.eclipse.ui.workbench,3.7.1.v20120104-1859,"",1360221928898
activated,workbench,org.eclipse.ui.workbench,3.7.1.v20120104-1859,"",1360221949366
deactivated,workbench,org.eclipse.ui.workbench,3.7.1.v20120104-1859,"",1360221962255
activated,workbench,org.eclipse.ui.workbench,3.7.1.v20120104-1859,"",1360221969372
executed,command,org.eclipse.ui,3.7.0.v20110928-1505,"org.eclipse.ui.edit.text.contentAssist.proposals",1360221975959
executed,command,org.eclipse.ui,3.7.0.v20110928-1505,"org.eclipse.ui.edit.text.contentAssist.proposals",1360221980342
executed,command,org.eclipse.ui,3.7.0.v20110928-1505,"org.eclipse.ui.edit.copy",1360221985862
executed,command,org.eclipse.ui.workbench.texteditor,3.7.0.v20110928-1504,"org.eclipse.ui.edit.text.goto.lineEnd",1360221986613
executed,command,org.eclipse.ui,3.7.0.v20110928-1505,"org.eclipse.ui.edit.paste",1360221988746
executed,command,org.eclipse.ui,3.7.0.v20110928-1505,"org.eclipse.ui.edit.text.contentAssist.proposals",1360221990346
executed,command,org.eclipse.ui.workbench.texteditor,3.7.0.v20110928-1504,"org.eclipse.ui.edit.text.goto.lineStart",1360221993524
executed,command,org.eclipse.ui.workbench.texteditor,3.7.0.v20110928-1504,"org.eclipse.ui.edit.text.goto.lineEnd",1360221995654
executed,command,org.eclipse.ui,3.7.0.v20110928-1505,"org.eclipse.ui.file.save",1360221996386
deactivated,workbench,org.eclipse.ui.workbench,3.7.1.v20120104-1859,"",1360221996755
activated,workbench,org.eclipse.ui.workbench,3.7.1.v20120104-1859,"",1360222013490
deactivated,workbench,org.eclipse.ui.workbench,3.7.1.v20120104-1859,"",1360222019811
activated,workbench,org.eclipse.ui.workbench,3.7.1.v20120104-1859,"",1360222020469
deactivated,workbench,org.eclipse.ui.workbench,3.7.1.v20120104-1859,"",1360222022533
activated,workbench,org.eclipse.ui.workbench,3.7.1.v20120104-1859,"",1360222023836
deactivated,workbench,org.eclipse.ui.workbench,3.7.1.v20120104-1859,"",1360222025787
activated,workbench,org.eclipse.ui.workbench,3.7.1.v20120104-1859,"",1360222048329
activated,view,org.eclipse.ui.console,3.5.100.v20111007_r372,"org.eclipse.ui.console.ConsoleView",1360222049670
executed,command,org.eclipse.ui,3.7.0.v20110928-1505,"org.eclipse.ui.edit.copy",1360222051490
deactivated,workbench,org.eclipse.ui.workbench,3.7.1.v20120104-1859,"",1360222051883
activated,workbench,org.eclipse.ui.workbench,3.7.1.v20120104-1859,"",1360222059639
executed,command,org.eclipse.ui,3.7.0.v20110928-1505,"org.eclipse.ui.edit.copy",1360222059889
deactivated,workbench,org.eclipse.ui.workbench,3.7.1.v20120104-1859,"",1360222060428
activated,workbench,org.eclipse.ui.workbench,3.7.1.v20120104-1859,"",1360222087677
deactivated,workbench,org.eclipse.ui.workbench,3.7.1.v20120104-1859,"",1360222088821
activated,workbench,org.eclipse.ui.workbench,3.7.1.v20120104-1859,"",1360222090222
executed,command,org.eclipse.ui,3.7.0.v20110928-1505,"org.eclipse.ui.edit.copy",1360222099016
deactivated,workbench,org.eclipse.ui.workbench,3.7.1.v20120104-1859,"",1360222099346
activated,workbench,org.eclipse.ui.workbench,3.7.1.v20120104-1859,"",1360222110870
activated,editor,org.eclipse.jdt.ui,3.7.2.v20120109-1427,"org.eclipse.jdt.ui.CompilationUnitEditor",1360222115993
executed,command,org.eclipse.ui,3.7.0.v20110928-1505,"org.eclipse.ui.file.save",1360222117724
deactivated,workbench,org.eclipse.ui.workbench,3.7.1.v20120104-1859,"",1360222117986
activated,workbench,org.eclipse.ui.workbench,3.7.1.v20120104-1859,"",1360222131989
activated,view,org.eclipse.ui.console,3.5.100.v20111007_r372,"org.eclipse.ui.console.ConsoleView",1360222132923
executed,command,org.eclipse.ui,3.7.0.v20110928-1505,"org.eclipse.ui.edit.copy",1360222134576
deactivated,workbench,org.eclipse.ui.workbench,3.7.1.v20120104-1859,"",1360222134929
activated,workbench,org.eclipse.ui.workbench,3.7.1.v20120104-1859,"",1360222148913
activated,editor,org.eclipse.jdt.ui,3.7.2.v20120109-1427,"org.eclipse.jdt.ui.CompilationUnitEditor",1360222149868
executed,command,org.eclipse.ui,3.7.0.v20110928-1505,"org.eclipse.ui.edit.undo",1360222150171
executed,command,org.eclipse.ui,3.7.0.v20110928-1505,"org.eclipse.ui.edit.undo",1360222150767
executed,command,org.eclipse.ui,3.7.0.v20110928-1505,"org.eclipse.ui.edit.undo",1360222151364
executed,command,org.eclipse.ui,3.7.0.v20110928-1505,"org.eclipse.ui.edit.undo",1360222152204
executed,command,org.eclipse.ui,3.7.0.v20110928-1505,"org.eclipse.ui.edit.undo",1360222152503
executed,command,org.eclipse.ui,3.7.0.v20110928-1505,"org.eclipse.ui.edit.undo",1360222152785
executed,command,org.eclipse.ui,3.7.0.v20110928-1505,"org.eclipse.ui.edit.undo",1360222153038
executed,command,org.eclipse.ui,3.7.0.v20110928-1505,"org.eclipse.ui.edit.undo",1360222153378
executed,command,org.eclipse.ui,3.7.0.v20110928-1505,"org.eclipse.ui.edit.undo",1360222153624
executed,command,org.eclipse.ui,3.7.0.v20110928-1505,"org.eclipse.ui.edit.undo",1360222153894
executed,command,org.eclipse.ui,3.7.0.v20110928-1505,"org.eclipse.ui.edit.undo",1360222154235
executed,command,org.eclipse.ui,3.7.0.v20110928-1505,"org.eclipse.ui.edit.undo",1360222154494
executed,command,org.eclipse.ui,3.7.0.v20110928-1505,"org.eclipse.ui.edit.undo",1360222154841
executed,command,org.eclipse.ui,3.7.0.v20110928-1505,"org.eclipse.ui.edit.undo",1360222155134
executed,command,org.eclipse.ui,3.7.0.v20110928-1505,"org.eclipse.ui.edit.undo",1360222155460
executed,command,org.eclipse.ui,3.7.0.v20110928-1505,"org.eclipse.ui.edit.undo",1360222155742
executed,command,org.eclipse.ui,3.7.0.v20110928-1505,"org.eclipse.ui.edit.undo",1360222156047
executed,command,org.eclipse.ui,3.7.0.v20110928-1505,"org.eclipse.ui.edit.undo",1360222156370
executed,command,org.eclipse.ui,3.7.0.v20110928-1505,"org.eclipse.ui.edit.undo",1360222156704
deactivated,workbench,org.eclipse.ui.workbench,3.7.1.v20120104-1859,"",1360222160007
activated,workbench,org.eclipse.ui.workbench,3.7.1.v20120104-1859,"",1360222171023
deactivated,workbench,org.eclipse.ui.workbench,3.7.1.v20120104-1859,"",1360222172109
activated,workbench,org.eclipse.ui.workbench,3.7.1.v20120104-1859,"",1360222172541
deactivated,workbench,org.eclipse.ui.workbench,3.7.1.v20120104-1859,"",1360222173346
activated,workbench,org.eclipse.ui.workbench,3.7.1.v20120104-1859,"",1360222182899
deactivated,workbench,org.eclipse.ui.workbench,3.7.1.v20120104-1859,"",1360222186329
activated,workbench,org.eclipse.ui.workbench,3.7.1.v20120104-1859,"",1360222194975
deactivated,workbench,org.eclipse.ui.workbench,3.7.1.v20120104-1859,"",1360222199037
activated,workbench,org.eclipse.ui.workbench,3.7.1.v20120104-1859,"",1360222202223
deactivated,workbench,org.eclipse.ui.workbench,3.7.1.v20120104-1859,"",1360222203913
activated,workbench,org.eclipse.ui.workbench,3.7.1.v20120104-1859,"",1360222204472
error,log,,,"File not found: /Users/pky1030/Downloads/youandme/org.opros.tpl.scenario/META-INF/MANIFEST.MF.",1360222204756
error,log,,,"File not found: /Users/pky1030/Downloads/youandme/org.opros.tpl.taskmodel/META-INF/MANIFEST.MF.",1360222204758
error,log,,,"File not found: /Users/pky1030/Downloads/youandme/org.opros.tpl/META-INF/MANIFEST.MF.",1360222204759
error,log,,,"File not found: /Users/pky1030/Downloads/youandme/org.opros.tpl.taskmodel.edit/META-INF/MANIFEST.MF.",1360222204760
deactivated,workbench,org.eclipse.ui.workbench,3.7.1.v20120104-1859,"",1360222205978
activated,workbench,org.eclipse.ui.workbench,3.7.1.v20120104-1859,"",1360222217426
executed,command,org.eclipse.ui,3.7.0.v20110928-1505,"org.eclipse.ui.file.save",1360222219341
deactivated,workbench,org.eclipse.ui.workbench,3.7.1.v20120104-1859,"",1360222222145
error,log,,,"File not found: /Users/pky1030/Downloads/youandme/org.opros.tpl.scenario/META-INF/MANIFEST.MF.",1360222519347
error,log,,,"File not found: /Users/pky1030/Downloads/youandme/org.opros.tpl.taskmodel/META-INF/MANIFEST.MF.",1360222519349
error,log,,,"File not found: /Users/pky1030/Downloads/youandme/org.opros.tpl/META-INF/MANIFEST.MF.",1360222519350
error,log,,,"File not found: /Users/pky1030/Downloads/youandme/org.opros.tpl.taskmodel.edit/META-INF/MANIFEST.MF.",1360222519351
activated,view,org.eclipse.ui.views.log,1.0.200.v20110404,"org.eclipse.pde.runtime.LogView",1360222558546
activated,workbench,org.eclipse.ui.workbench,3.7.1.v20120104-1859,"",1360222558654
activated,view,org.eclipse.ui.views,3.6.0.v20110928-1505,"org.eclipse.ui.views.ContentOutline",1360222560979
activated,editor,org.eclipse.jdt.ui,3.7.2.v20120109-1427,"org.eclipse.jdt.ui.CompilationUnitEditor",1360222569646
executed,command,org.eclipse.ui,3.7.0.v20110928-1505,"org.eclipse.ui.navigate.backwardHistory",1360222571679
deactivated,workbench,org.eclipse.ui.workbench,3.7.1.v20120104-1859,"",1360222572046
activated,workbench,org.eclipse.ui.workbench,3.7.1.v20120104-1859,"",1360222572625
deactivated,workbench,org.eclipse.ui.workbench,3.7.1.v20120104-1859,"",1360222573528
activated,workbench,org.eclipse.ui.workbench,3.7.1.v20120104-1859,"",1360222605993
executed,command,org.eclipse.ui,3.7.0.v20110928-1505,"org.eclipse.ui.edit.undo",1360222611839
executed,command,org.eclipse.ui,3.7.0.v20110928-1505,"org.eclipse.ui.edit.undo",1360222612619
executed,command,org.eclipse.ui.workbench.texteditor,3.7.0.v20110928-1504,"org.eclipse.ui.edit.text.goto.lineStart",1360222613253
executed,command,org.eclipse.ui.workbench.texteditor,3.7.0.v20110928-1504,"org.eclipse.ui.edit.text.goto.lineEnd",1360222613950
executed,command,org.eclipse.ui.workbench.texteditor,3.7.0.v20110928-1504,"org.eclipse.ui.edit.text.goto.lineStart",1360222614963
activated,view,org.eclipse.ui.views,3.6.0.v20110928-1505,"org.eclipse.ui.views.ContentOutline",1360222621761
deactivated,workbench,org.eclipse.ui.workbench,3.7.1.v20120104-1859,"",1360222622387
activated,workbench,org.eclipse.ui.workbench,3.7.1.v20120104-1859,"",1360222747921
activated,editor,org.eclipse.jdt.ui,3.7.2.v20120109-1427,"org.eclipse.jdt.ui.CompilationUnitEditor",1360222748965
executed,command,org.eclipse.ui.workbench.texteditor,3.7.0.v20110928-1504,"org.eclipse.ui.edit.text.goto.lineEnd",1360222751185
executed,command,org.eclipse.ui.workbench.texteditor,3.7.0.v20110928-1504,"org.eclipse.ui.edit.text.goto.lineEnd",1360222751781
executed,command,org.eclipse.ui.workbench.texteditor,3.7.0.v20110928-1504,"org.eclipse.ui.edit.text.goto.lineEnd",1360222752511
executed,command,org.eclipse.ui,3.7.0.v20110928-1505,"org.eclipse.ui.edit.paste",1360222754514
executed,command,org.eclipse.ui,3.7.0.v20110928-1505,"org.eclipse.ui.edit.undo",1360222754901
executed,command,org.eclipse.ui,3.7.0.v20110928-1505,"org.eclipse.ui.edit.paste",1360222755562
executed,command,org.eclipse.ui,3.7.0.v20110928-1505,"org.eclipse.ui.edit.undo",1360222756349
executed,command,org.eclipse.ui,3.7.0.v20110928-1505,"org.eclipse.ui.edit.paste",1360222760803
deactivated,workbench,org.eclipse.ui.workbench,3.7.1.v20120104-1859,"",1360222766897
activated,workbench,org.eclipse.ui.workbench,3.7.1.v20120104-1859,"",1360222768599
executed,command,org.eclipse.ui,3.7.0.v20110928-1505,"org.eclipse.ui.edit.text.contentAssist.proposals",1360222772598
executed,command,org.eclipse.ui,3.7.0.v20110928-1505,"org.eclipse.ui.file.save",1360222777582
deactivated,workbench,org.eclipse.ui.workbench,3.7.1.v20120104-1859,"",1360222777916
activated,workbench,org.eclipse.ui.workbench,3.7.1.v20120104-1859,"",1360222798893
deactivated,workbench,org.eclipse.ui.workbench,3.7.1.v20120104-1859,"",1360222808553
activated,workbench,org.eclipse.ui.workbench,3.7.1.v20120104-1859,"",1360222810010
deactivated,workbench,org.eclipse.ui.workbench,3.7.1.v20120104-1859,"",1360222811036
activated,workbench,org.eclipse.ui.workbench,3.7.1.v20120104-1859,"",1360222849406
deactivated,workbench,org.eclipse.ui.workbench,3.7.1.v20120104-1859,"",1360222850102
activated,workbench,org.eclipse.ui.workbench,3.7.1.v20120104-1859,"",1360222850488
deactivated,workbench,org.eclipse.ui.workbench,3.7.1.v20120104-1859,"",1360222851854
activated,workbench,org.eclipse.ui.workbench,3.7.1.v20120104-1859,"",1360223047533
deactivated,workbench,org.eclipse.ui.workbench,3.7.1.v20120104-1859,"",1360223049111
activated,workbench,org.eclipse.ui.workbench,3.7.1.v20120104-1859,"",1360223049657
deactivated,workbench,org.eclipse.ui.workbench,3.7.1.v20120104-1859,"",1360223050647
activated,workbench,org.eclipse.ui.workbench,3.7.1.v20120104-1859,"",1360223052797
activated,view,org.eclipse.ui.console,3.5.100.v20111007_r372,"org.eclipse.ui.console.ConsoleView",1360223053283
executed,command,org.eclipse.ui,3.7.0.v20110928-1505,"org.eclipse.ui.edit.copy",1360223054767
deactivated,workbench,org.eclipse.ui.workbench,3.7.1.v20120104-1859,"",1360223055360
activated,workbench,org.eclipse.ui.workbench,3.7.1.v20120104-1859,"",1360223057286
executed,command,org.eclipse.ui,3.7.0.v20110928-1505,"org.eclipse.ui.edit.copy",1360223063342
deactivated,workbench,org.eclipse.ui.workbench,3.7.1.v20120104-1859,"",1360223063672
error,log,,,"File not found: /Users/pky1030/Downloads/youandme/org.opros.tpl.scenario/META-INF/MANIFEST.MF.",1360223077641
error,log,,,"File not found: /Users/pky1030/Downloads/youandme/org.opros.tpl.taskmodel/META-INF/MANIFEST.MF.",1360223077741
error,log,,,"File not found: /Users/pky1030/Downloads/youandme/org.opros.tpl/META-INF/MANIFEST.MF.",1360223077742
error,log,,,"File not found: /Users/pky1030/Downloads/youandme/org.opros.tpl.taskmodel.edit/META-INF/MANIFEST.MF.",1360223077744
activated,view,org.eclipse.ui.views.log,1.0.200.v20110404,"org.eclipse.pde.runtime.LogView",1360223077763
activated,workbench,org.eclipse.ui.workbench,3.7.1.v20120104-1859,"",1360224090240
activated,perspective,org.eclipse.jdt.ui,3.7.2.v20120109-1427,"org.eclipse.jdt.ui.JavaPerspective",1360224094797
activated,view,org.eclipse.ui.console,3.5.100.v20111007_r372,"org.eclipse.ui.console.ConsoleView",1360224094801
deactivated,workbench,org.eclipse.ui.workbench,3.7.1.v20120104-1859,"",1360224098483
activated,workbench,org.eclipse.ui.workbench,3.7.1.v20120104-1859,"",1360224448782
activated,editor,org.eclipse.jdt.ui,3.7.2.v20120109-1427,"org.eclipse.jdt.ui.CompilationUnitEditor",1360224450176
executed,command,org.eclipse.ui,3.7.0.v20110928-1505,"org.eclipse.ui.edit.undo",1360224450441
executed,command,org.eclipse.ui,3.7.0.v20110928-1505,"org.eclipse.ui.edit.undo",1360224450862
executed,command,org.eclipse.ui,3.7.0.v20110928-1505,"org.eclipse.ui.edit.undo",1360224451333
executed,command,org.eclipse.ui,3.7.0.v20110928-1505,"org.eclipse.ui.edit.undo",1360224451970
executed,command,org.eclipse.ui,3.7.0.v20110928-1505,"org.eclipse.ui.edit.undo",1360224452307
executed,command,org.eclipse.ui,3.7.0.v20110928-1505,"org.eclipse.ui.edit.undo",1360224452513
executed,command,org.eclipse.ui,3.7.0.v20110928-1505,"org.eclipse.ui.edit.undo",1360224452559
executed,command,org.eclipse.ui,3.7.0.v20110928-1505,"org.eclipse.ui.edit.undo",1360224452599
