what,kind,bundleId,bundleVersion,description,time
executed,command,org.eclipse.ui.workbench.texteditor,3.7.0.v20110928-1504,"org.eclipse.ui.edit.text.select.lineStart",1364434191588
executed,command,org.eclipse.ui,3.7.0.v20110928-1505,"org.eclipse.ui.edit.copy",1364434191881
executed,command,org.eclipse.ui,3.7.0.v20110928-1505,"org.eclipse.ui.edit.paste",1364434192463
deactivated,workbench,org.eclipse.ui.workbench,3.7.1.v20120104-1859,"",1364434192790
activated,workbench,org.eclipse.ui.workbench,3.7.1.v20120104-1859,"",1364434198559
deactivated,workbench,org.eclipse.ui.workbench,3.7.1.v20120104-1859,"",1364434199250
activated,workbench,org.eclipse.ui.workbench,3.7.1.v20120104-1859,"",1364434200381
executed,command,org.eclipse.ui,3.7.0.v20110928-1505,"org.eclipse.ui.edit.text.contentAssist.proposals",1364434202185
deactivated,workbench,org.eclipse.ui.workbench,3.7.1.v20120104-1859,"",1364434202689
activated,workbench,org.eclipse.ui.workbench,3.7.1.v20120104-1859,"",1364434205333
executed,command,org.eclipse.ui,3.7.0.v20110928-1505,"org.eclipse.ui.edit.text.contentAssist.proposals",1364434206864
deactivated,workbench,org.eclipse.ui.workbench,3.7.1.v20120104-1859,"",1364434209177
activated,workbench,org.eclipse.ui.workbench,3.7.1.v20120104-1859,"",1364434211362
executed,command,org.eclipse.ui,3.7.0.v20110928-1505,"org.eclipse.ui.edit.text.contentAssist.proposals",1364434211738
deactivated,workbench,org.eclipse.ui.workbench,3.7.1.v20120104-1859,"",1364434212929
activated,workbench,org.eclipse.ui.workbench,3.7.1.v20120104-1859,"",1364434214190
executed,command,org.eclipse.ui,3.7.0.v20110928-1505,"org.eclipse.ui.edit.text.contentAssist.proposals",1364434215674
deactivated,workbench,org.eclipse.ui.workbench,3.7.1.v20120104-1859,"",1364434216122
activated,workbench,org.eclipse.ui.workbench,3.7.1.v20120104-1859,"",1364434216950
executed,command,org.eclipse.ui,3.7.0.v20110928-1505,"org.eclipse.ui.edit.text.contentAssist.proposals",1364434219752
deactivated,workbench,org.eclipse.ui.workbench,3.7.1.v20120104-1859,"",1364434220567
activated,workbench,org.eclipse.ui.workbench,3.7.1.v20120104-1859,"",1364434221726
executed,command,org.eclipse.ui,3.7.0.v20110928-1505,"org.eclipse.ui.edit.text.contentAssist.proposals",1364434222948
deactivated,workbench,org.eclipse.ui.workbench,3.7.1.v20120104-1859,"",1364434223440
activated,workbench,org.eclipse.ui.workbench,3.7.1.v20120104-1859,"",1364434224898
executed,command,org.eclipse.ui,3.7.0.v20110928-1505,"org.eclipse.ui.edit.text.contentAssist.proposals",1364434226464
deactivated,workbench,org.eclipse.ui.workbench,3.7.1.v20120104-1859,"",1364434227403
activated,workbench,org.eclipse.ui.workbench,3.7.1.v20120104-1859,"",1364434228231
executed,command,org.eclipse.ui,3.7.0.v20110928-1505,"org.eclipse.ui.edit.text.contentAssist.proposals",1364434228541
deactivated,workbench,org.eclipse.ui.workbench,3.7.1.v20120104-1859,"",1364434229950
activated,workbench,org.eclipse.ui.workbench,3.7.1.v20120104-1859,"",1364434231465
deactivated,workbench,org.eclipse.ui.workbench,3.7.1.v20120104-1859,"",1364434234018
activated,workbench,org.eclipse.ui.workbench,3.7.1.v20120104-1859,"",1364434234894
executed,command,org.eclipse.ui,3.7.0.v20110928-1505,"org.eclipse.ui.edit.text.contentAssist.proposals",1364434236296
deactivated,workbench,org.eclipse.ui.workbench,3.7.1.v20120104-1859,"",1364434237521
activated,workbench,org.eclipse.ui.workbench,3.7.1.v20120104-1859,"",1364434238622
executed,command,org.eclipse.ui,3.7.0.v20110928-1505,"org.eclipse.ui.edit.text.contentAssist.proposals",1364434239433
deactivated,workbench,org.eclipse.ui.workbench,3.7.1.v20120104-1859,"",1364434242145
activated,workbench,org.eclipse.ui.workbench,3.7.1.v20120104-1859,"",1364434244282
executed,command,org.eclipse.ui,3.7.0.v20110928-1505,"org.eclipse.ui.edit.text.contentAssist.proposals",1364434245709
deactivated,workbench,org.eclipse.ui.workbench,3.7.1.v20120104-1859,"",1364434246229
activated,workbench,org.eclipse.ui.workbench,3.7.1.v20120104-1859,"",1364434247308
executed,command,org.eclipse.ui,3.7.0.v20110928-1505,"org.eclipse.ui.edit.text.contentAssist.proposals",1364434248170
deactivated,workbench,org.eclipse.ui.workbench,3.7.1.v20120104-1859,"",1364434249411
activated,workbench,org.eclipse.ui.workbench,3.7.1.v20120104-1859,"",1364434250584
deactivated,workbench,org.eclipse.ui.workbench,3.7.1.v20120104-1859,"",1364434252463
activated,workbench,org.eclipse.ui.workbench,3.7.1.v20120104-1859,"",1364434253775
executed,command,org.eclipse.ui,3.7.0.v20110928-1505,"org.eclipse.ui.edit.text.contentAssist.proposals",1364434254156
executed,command,org.eclipse.ui,3.7.0.v20110928-1505,"org.eclipse.ui.edit.text.contentAssist.proposals",1364434255662
executed,command,org.eclipse.ui.workbench.texteditor,3.7.0.v20110928-1504,"org.eclipse.ui.edit.text.goto.lineEnd",1364434257458
executed,command,org.eclipse.ui,3.7.0.v20110928-1505,"org.eclipse.ui.file.save",1364434261433
deactivated,workbench,org.eclipse.ui.workbench,3.7.1.v20120104-1859,"",1364434262850
activated,workbench,org.eclipse.ui.workbench,3.7.1.v20120104-1859,"",1364434266161
executed,command,org.eclipse.ui.workbench.texteditor,3.7.0.v20110928-1504,"org.eclipse.ui.edit.text.select.lineEnd",1364434267905
executed,command,org.eclipse.ui,3.7.0.v20110928-1505,"org.eclipse.ui.edit.copy",1364434268218
executed,command,org.eclipse.ui,3.7.0.v20110928-1505,"org.eclipse.ui.edit.paste",1364434269476
deactivated,workbench,org.eclipse.ui.workbench,3.7.1.v20120104-1859,"",1364434270213
activated,workbench,org.eclipse.ui.workbench,3.7.1.v20120104-1859,"",1364434271881
deactivated,workbench,org.eclipse.ui.workbench,3.7.1.v20120104-1859,"",1364434273454
activated,workbench,org.eclipse.ui.workbench,3.7.1.v20120104-1859,"",1364434274710
executed,command,org.eclipse.ui,3.7.0.v20110928-1505,"org.eclipse.ui.edit.text.contentAssist.proposals",1364434277340
deactivated,workbench,org.eclipse.ui.workbench,3.7.1.v20120104-1859,"",1364434277896
activated,workbench,org.eclipse.ui.workbench,3.7.1.v20120104-1859,"",1364434279070
executed,command,org.eclipse.ui,3.7.0.v20110928-1505,"org.eclipse.ui.edit.text.contentAssist.proposals",1364434279672
deactivated,workbench,org.eclipse.ui.workbench,3.7.1.v20120104-1859,"",1364434281643
activated,workbench,org.eclipse.ui.workbench,3.7.1.v20120104-1859,"",1364434282633
executed,command,org.eclipse.ui,3.7.0.v20110928-1505,"org.eclipse.ui.file.save",1364434283168
activated,view,org.eclipse.debug.ui,3.7.102.v20111129-1423_r372,"org.eclipse.debug.ui.DebugView",1364434284415
executed,command,org.eclipse.debug.ui,3.7.102.v20111129-1423_r372,"org.eclipse.debug.ui.commands.Terminate",1364434284508
deactivated,workbench,org.eclipse.ui.workbench,3.7.1.v20120104-1859,"",1364434285438
activated,workbench,org.eclipse.ui.workbench,3.7.1.v20120104-1859,"",1364434286542
deactivated,workbench,org.eclipse.ui.workbench,3.7.1.v20120104-1859,"",1364434286992
activated,workbench,org.eclipse.ui.workbench,3.7.1.v20120104-1859,"",1364434289448
activated,editor,org.eclipse.jdt.ui,3.7.2.v20120109-1427,"org.eclipse.jdt.ui.CompilationUnitEditor",1364434291005
activated,view,org.eclipse.ui.views,3.6.0.v20110928-1505,"org.eclipse.ui.views.ContentOutline",1364434294000
activated,editor,org.eclipse.jdt.ui,3.7.2.v20120109-1427,"org.eclipse.jdt.ui.CompilationUnitEditor",1364434295523
executed,command,org.eclipse.ui.workbench.texteditor,3.7.0.v20110928-1504,"org.eclipse.ui.edit.text.goto.lineEnd",1364434297041
deactivated,workbench,org.eclipse.ui.workbench,3.7.1.v20120104-1859,"",1364434300055
activated,workbench,org.eclipse.ui.workbench,3.7.1.v20120104-1859,"",1364434300577
deactivated,workbench,org.eclipse.ui.workbench,3.7.1.v20120104-1859,"",1364434303632
activated,workbench,org.eclipse.ui.workbench,3.7.1.v20120104-1859,"",1364434306408
executed,command,org.eclipse.ui.workbench.texteditor,3.7.0.v20110928-1504,"org.eclipse.ui.edit.text.goto.lineEnd",1364434312256
deactivated,workbench,org.eclipse.ui.workbench,3.7.1.v20120104-1859,"",1364434316511
activated,workbench,org.eclipse.ui.workbench,3.7.1.v20120104-1859,"",1364434318591
executed,command,org.eclipse.ui,3.7.0.v20110928-1505,"org.eclipse.ui.edit.text.contentAssist.proposals",1364434319868
executed,command,org.eclipse.ui,3.7.0.v20110928-1505,"org.eclipse.ui.edit.text.contentAssist.proposals",1364434322170
deactivated,workbench,org.eclipse.ui.workbench,3.7.1.v20120104-1859,"",1364434323465
activated,workbench,org.eclipse.ui.workbench,3.7.1.v20120104-1859,"",1364434325207
executed,command,org.eclipse.ui,3.7.0.v20110928-1505,"org.eclipse.ui.edit.text.contentAssist.proposals",1364434325553
executed,command,org.eclipse.ui.workbench.texteditor,3.7.0.v20110928-1504,"org.eclipse.ui.edit.text.goto.lineEnd",1364434327208
executed,command,org.eclipse.ui.workbench.texteditor,3.7.0.v20110928-1504,"org.eclipse.ui.edit.text.goto.lineEnd",1364434330703
deactivated,workbench,org.eclipse.ui.workbench,3.7.1.v20120104-1859,"",1364434332923
activated,workbench,org.eclipse.ui.workbench,3.7.1.v20120104-1859,"",1364434335084
deactivated,workbench,org.eclipse.ui.workbench,3.7.1.v20120104-1859,"",1364434336843
activated,workbench,org.eclipse.ui.workbench,3.7.1.v20120104-1859,"",1364434337920
deactivated,workbench,org.eclipse.ui.workbench,3.7.1.v20120104-1859,"",1364434340058
activated,workbench,org.eclipse.ui.workbench,3.7.1.v20120104-1859,"",1364434340958
deactivated,workbench,org.eclipse.ui.workbench,3.7.1.v20120104-1859,"",1364434346441
activated,workbench,org.eclipse.ui.workbench,3.7.1.v20120104-1859,"",1364434347325
deactivated,workbench,org.eclipse.ui.workbench,3.7.1.v20120104-1859,"",1364434352016
activated,workbench,org.eclipse.ui.workbench,3.7.1.v20120104-1859,"",1364434353031
deactivated,workbench,org.eclipse.ui.workbench,3.7.1.v20120104-1859,"",1364434355276
activated,workbench,org.eclipse.ui.workbench,3.7.1.v20120104-1859,"",1364434357036
deactivated,workbench,org.eclipse.ui.workbench,3.7.1.v20120104-1859,"",1364434361873
activated,workbench,org.eclipse.ui.workbench,3.7.1.v20120104-1859,"",1364434363657
deactivated,workbench,org.eclipse.ui.workbench,3.7.1.v20120104-1859,"",1364434365368
activated,workbench,org.eclipse.ui.workbench,3.7.1.v20120104-1859,"",1364434366767
deactivated,workbench,org.eclipse.ui.workbench,3.7.1.v20120104-1859,"",1364434369441
activated,workbench,org.eclipse.ui.workbench,3.7.1.v20120104-1859,"",1364434370520
executed,command,org.eclipse.ui,3.7.0.v20110928-1505,"org.eclipse.ui.edit.text.contentAssist.proposals",1364434372041
executed,command,org.eclipse.ui,3.7.0.v20110928-1505,"org.eclipse.ui.edit.text.contentAssist.proposals",1364434373474
deactivated,workbench,org.eclipse.ui.workbench,3.7.1.v20120104-1859,"",1364434375238
activated,workbench,org.eclipse.ui.workbench,3.7.1.v20120104-1859,"",1364434380530
executed,command,org.eclipse.ui.workbench.texteditor,3.7.0.v20110928-1504,"org.eclipse.ui.edit.text.select.lineStart",1364434380926
executed,command,org.eclipse.ui,3.7.0.v20110928-1505,"org.eclipse.ui.edit.text.contentAssist.proposals",1364434382421
executed,command,org.eclipse.ui.workbench.texteditor,3.7.0.v20110928-1504,"org.eclipse.ui.edit.text.goto.lineEnd",1364434386445
executed,command,org.eclipse.ui,3.7.0.v20110928-1505,"org.eclipse.ui.edit.text.contentAssist.proposals",1364434391128
executed,command,org.eclipse.ui,3.7.0.v20110928-1505,"org.eclipse.ui.edit.text.contentAssist.proposals",1364434392303
executed,command,org.eclipse.ui,3.7.0.v20110928-1505,"org.eclipse.ui.edit.text.contentAssist.proposals",1364434394186
deactivated,workbench,org.eclipse.ui.workbench,3.7.1.v20120104-1859,"",1364434397288
activated,workbench,org.eclipse.ui.workbench,3.7.1.v20120104-1859,"",1364434421514
deactivated,workbench,org.eclipse.ui.workbench,3.7.1.v20120104-1859,"",1364434422612
activated,workbench,org.eclipse.ui.workbench,3.7.1.v20120104-1859,"",1364434423854
executed,command,org.eclipse.ui,3.7.0.v20110928-1505,"org.eclipse.ui.edit.cut",1364434426953
executed,command,org.eclipse.ui,3.7.0.v20110928-1505,"org.eclipse.ui.file.save",1364434427895
deactivated,workbench,org.eclipse.ui.workbench,3.7.1.v20120104-1859,"",1364434428783
activated,workbench,org.eclipse.ui.workbench,3.7.1.v20120104-1859,"",1364434443090
deactivated,workbench,org.eclipse.ui.workbench,3.7.1.v20120104-1859,"",1364434448278
activated,workbench,org.eclipse.ui.workbench,3.7.1.v20120104-1859,"",1364434489995
deactivated,workbench,org.eclipse.ui.workbench,3.7.1.v20120104-1859,"",1364434492751
activated,workbench,org.eclipse.ui.workbench,3.7.1.v20120104-1859,"",1364434499244
deactivated,workbench,org.eclipse.ui.workbench,3.7.1.v20120104-1859,"",1364434500199
activated,workbench,org.eclipse.ui.workbench,3.7.1.v20120104-1859,"",1364434502427
opened,editor,org.eclipse.jdt.ui,3.7.2.v20120109-1427,"org.eclipse.jdt.ui.CompilationUnitEditor",1364434502630
activated,editor,org.eclipse.jdt.ui,3.7.2.v20120109-1427,"org.eclipse.jdt.ui.CompilationUnitEditor",1364434502754
executed,command,org.eclipse.ui.ide,3.7.0.v20110928-1505,"org.eclipse.ui.navigate.openResource",1364434502768
executed,command,org.eclipse.jdt.ui,3.7.2.v20120109-1427,"org.eclipse.jdt.ui.edit.text.java.toggle.comment",1364434507395
executed,command,org.eclipse.ui,3.7.0.v20110928-1505,"org.eclipse.ui.file.save",1364434507845
activated,view,org.eclipse.debug.ui,3.7.102.v20111129-1423_r372,"org.eclipse.debug.ui.DebugView",1364434508704
executed,command,org.eclipse.debug.ui,3.7.102.v20111129-1423_r372,"org.eclipse.debug.ui.commands.Terminate",1364434508866
activated,editor,org.eclipse.jdt.ui,3.7.2.v20120109-1427,"org.eclipse.jdt.ui.CompilationUnitEditor",1364434511015
deactivated,workbench,org.eclipse.ui.workbench,3.7.1.v20120104-1859,"",1364434511328
activated,workbench,org.eclipse.ui.workbench,3.7.1.v20120104-1859,"",1364434512061
deactivated,workbench,org.eclipse.ui.workbench,3.7.1.v20120104-1859,"",1364434514797
activated,workbench,org.eclipse.ui.workbench,3.7.1.v20120104-1859,"",1364434532446
activated,perspective,org.eclipse.jdt.ui,3.7.2.v20120109-1427,"org.eclipse.jdt.ui.JavaPerspective",1364434534166
deactivated,workbench,org.eclipse.ui.workbench,3.7.1.v20120104-1859,"",1364434536411
activated,view,org.eclipse.jdt.ui,3.7.2.v20120109-1427,"org.eclipse.jdt.ui.PackageExplorer",1364434605420
activated,workbench,org.eclipse.ui.workbench,3.7.1.v20120104-1859,"",1364434605538
activated,editor,org.eclipse.jdt.ui,3.7.2.v20120109-1427,"org.eclipse.jdt.ui.CompilationUnitEditor",1364434605686
activated,view,org.eclipse.jdt.ui,3.7.2.v20120109-1427,"org.eclipse.jdt.ui.PackageExplorer",1364434612274
deactivated,workbench,org.eclipse.ui.workbench,3.7.1.v20120104-1859,"",1364434617385
activated,workbench,org.eclipse.ui.workbench,3.7.1.v20120104-1859,"",1364434726228
activated,editor,org.eclipse.jdt.ui,3.7.2.v20120109-1427,"org.eclipse.jdt.ui.CompilationUnitEditor",1364434733511
activated,editor,org.eclipse.jdt.ui,3.7.2.v20120109-1427,"org.eclipse.jdt.ui.CompilationUnitEditor",1364434735207
deactivated,workbench,org.eclipse.ui.workbench,3.7.1.v20120104-1859,"",1364434779862
activated,workbench,org.eclipse.ui.workbench,3.7.1.v20120104-1859,"",1364434799147
activated,editor,org.eclipse.jdt.ui,3.7.2.v20120109-1427,"org.eclipse.jdt.ui.CompilationUnitEditor",1364434801454
deactivated,workbench,org.eclipse.ui.workbench,3.7.1.v20120104-1859,"",1364434803749
activated,workbench,org.eclipse.ui.workbench,3.7.1.v20120104-1859,"",1364434805437
activated,editor,org.eclipse.jdt.ui,3.7.2.v20120109-1427,"org.eclipse.jdt.ui.CompilationUnitEditor",1364434810744
executed,command,org.eclipse.ui,3.7.0.v20110928-1505,"org.eclipse.ui.edit.undo",1364434812918
executed,command,org.eclipse.ui,3.7.0.v20110928-1505,"org.eclipse.ui.edit.undo",1364434813145
executed,command,org.eclipse.ui,3.7.0.v20110928-1505,"org.eclipse.ui.edit.undo",1364434813359
executed,command,org.eclipse.ui,3.7.0.v20110928-1505,"org.eclipse.ui.edit.undo",1364434813660
executed,command,org.eclipse.ui,3.7.0.v20110928-1505,"org.eclipse.ui.edit.undo",1364434813912
executed,command,org.eclipse.ui,3.7.0.v20110928-1505,"org.eclipse.ui.edit.undo",1364434813967
executed,command,org.eclipse.ui,3.7.0.v20110928-1505,"org.eclipse.ui.edit.undo",1364434814009
executed,command,org.eclipse.ui,3.7.0.v20110928-1505,"org.eclipse.ui.edit.undo",1364434814081
executed,command,org.eclipse.ui,3.7.0.v20110928-1505,"org.eclipse.ui.edit.undo",1364434814125
executed,command,org.eclipse.ui,3.7.0.v20110928-1505,"org.eclipse.ui.edit.undo",1364434814163
executed,command,org.eclipse.ui,3.7.0.v20110928-1505,"org.eclipse.ui.edit.undo",1364434814201
executed,command,org.eclipse.ui,3.7.0.v20110928-1505,"org.eclipse.ui.edit.undo",1364434814246
executed,command,org.eclipse.ui,3.7.0.v20110928-1505,"org.eclipse.ui.edit.undo",1364434814286
executed,command,org.eclipse.ui,3.7.0.v20110928-1505,"org.eclipse.ui.edit.undo",1364434814504
executed,command,org.eclipse.ui,3.7.0.v20110928-1505,"org.eclipse.ui.edit.undo",1364434814786
executed,command,org.eclipse.ui,3.7.0.v20110928-1505,"org.eclipse.ui.edit.undo",1364434814853
executed,command,org.eclipse.ui,3.7.0.v20110928-1505,"org.eclipse.ui.edit.undo",1364434814892
executed,command,org.eclipse.ui,3.7.0.v20110928-1505,"org.eclipse.ui.edit.undo",1364434814930
executed,command,org.eclipse.ui,3.7.0.v20110928-1505,"org.eclipse.ui.edit.undo",1364434814970
executed,command,org.eclipse.ui,3.7.0.v20110928-1505,"org.eclipse.ui.edit.undo",1364434815010
executed,command,org.eclipse.ui,3.7.0.v20110928-1505,"org.eclipse.ui.edit.undo",1364434815054
executed,command,org.eclipse.ui,3.7.0.v20110928-1505,"org.eclipse.ui.edit.undo",1364434815094
executed,command,org.eclipse.ui,3.7.0.v20110928-1505,"org.eclipse.ui.edit.undo",1364434815135
executed,command,org.eclipse.ui,3.7.0.v20110928-1505,"org.eclipse.ui.edit.undo",1364434815202
executed,command,org.eclipse.ui,3.7.0.v20110928-1505,"org.eclipse.ui.edit.undo",1364434815255
executed,command,org.eclipse.ui,3.7.0.v20110928-1505,"org.eclipse.ui.edit.undo",1364434815308
executed,command,org.eclipse.ui,3.7.0.v20110928-1505,"org.eclipse.ui.edit.undo",1364434815347
executed,command,org.eclipse.ui,3.7.0.v20110928-1505,"org.eclipse.ui.edit.undo",1364434815385
executed,command,org.eclipse.ui,3.7.0.v20110928-1505,"org.eclipse.ui.edit.undo",1364434815440
executed,command,org.eclipse.ui,3.7.0.v20110928-1505,"org.eclipse.ui.edit.undo",1364434815482
executed,command,org.eclipse.ui,3.7.0.v20110928-1505,"org.eclipse.ui.edit.undo",1364434815519
executed,command,org.eclipse.ui,3.7.0.v20110928-1505,"org.eclipse.ui.edit.undo",1364434815559
executed,command,org.eclipse.ui,3.7.0.v20110928-1505,"org.eclipse.ui.edit.undo",1364434815602
executed,command,org.eclipse.ui,3.7.0.v20110928-1505,"org.eclipse.ui.edit.undo",1364434815641
executed,command,org.eclipse.ui,3.7.0.v20110928-1505,"org.eclipse.ui.edit.undo",1364434815682
executed,command,org.eclipse.ui,3.7.0.v20110928-1505,"org.eclipse.ui.edit.undo",1364434815735
executed,command,org.eclipse.ui,3.7.0.v20110928-1505,"org.eclipse.ui.edit.undo",1364434815831
executed,command,org.eclipse.ui,3.7.0.v20110928-1505,"org.eclipse.ui.edit.undo",1364434815890
executed,command,org.eclipse.ui,3.7.0.v20110928-1505,"org.eclipse.ui.edit.undo",1364434815933
executed,command,org.eclipse.ui,3.7.0.v20110928-1505,"org.eclipse.ui.edit.undo",1364434816008
executed,command,org.eclipse.ui,3.7.0.v20110928-1505,"org.eclipse.ui.edit.undo",1364434816072
executed,command,org.eclipse.ui,3.7.0.v20110928-1505,"org.eclipse.ui.edit.undo",1364434816112
executed,command,org.eclipse.ui,3.7.0.v20110928-1505,"org.eclipse.ui.edit.undo",1364434816156
executed,command,org.eclipse.ui,3.7.0.v20110928-1505,"org.eclipse.ui.edit.undo",1364434816197
executed,command,org.eclipse.ui,3.7.0.v20110928-1505,"org.eclipse.ui.edit.undo",1364434816243
executed,command,org.eclipse.ui,3.7.0.v20110928-1505,"org.eclipse.ui.edit.undo",1364434816293
executed,command,org.eclipse.ui,3.7.0.v20110928-1505,"org.eclipse.ui.edit.undo",1364434816361
executed,command,org.eclipse.ui,3.7.0.v20110928-1505,"org.eclipse.ui.edit.undo",1364434816404
executed,command,org.eclipse.ui,3.7.0.v20110928-1505,"org.eclipse.ui.edit.undo",1364434816441
executed,command,org.eclipse.ui,3.7.0.v20110928-1505,"org.eclipse.ui.edit.undo",1364434816483
executed,command,org.eclipse.ui,3.7.0.v20110928-1505,"org.eclipse.ui.edit.undo",1364434816525
executed,command,org.eclipse.ui,3.7.0.v20110928-1505,"org.eclipse.ui.edit.undo",1364434816568
executed,command,org.eclipse.ui,3.7.0.v20110928-1505,"org.eclipse.ui.edit.undo",1364434816608
executed,command,org.eclipse.ui,3.7.0.v20110928-1505,"org.eclipse.ui.edit.undo",1364434816649
executed,command,org.eclipse.ui,3.7.0.v20110928-1505,"org.eclipse.ui.edit.undo",1364434816924
executed,command,org.eclipse.ui,3.7.0.v20110928-1505,"org.eclipse.ui.edit.undo",1364434817299
executed,command,org.eclipse.ui,3.7.0.v20110928-1505,"org.eclipse.ui.edit.undo",1364434817715
executed,command,org.eclipse.ui,3.7.0.v20110928-1505,"org.eclipse.ui.edit.undo",1364434818107
executed,command,org.eclipse.ui,3.7.0.v20110928-1505,"org.eclipse.ui.edit.undo",1364434818466
executed,command,org.eclipse.ui,3.7.0.v20110928-1505,"org.eclipse.ui.edit.redo",1364434819622
executed,command,org.eclipse.ui,3.7.0.v20110928-1505,"org.eclipse.ui.edit.copy",1364434823009
executed,command,org.eclipse.ui,3.7.0.v20110928-1505,"org.eclipse.ui.edit.copy",1364434826760
executed,command,org.eclipse.ui,3.7.0.v20110928-1505,"org.eclipse.ui.file.save",1364434833791
deactivated,workbench,org.eclipse.ui.workbench,3.7.1.v20120104-1859,"",1364434842288
activated,workbench,org.eclipse.ui.workbench,3.7.1.v20120104-1859,"",1364434844377
deactivated,workbench,org.eclipse.ui.workbench,3.7.1.v20120104-1859,"",1364434845166
activated,workbench,org.eclipse.ui.workbench,3.7.1.v20120104-1859,"",1364434985681
deactivated,workbench,org.eclipse.ui.workbench,3.7.1.v20120104-1859,"",1364434986618
activated,workbench,org.eclipse.ui.workbench,3.7.1.v20120104-1859,"",1364434994236
activated,editor,org.eclipse.jdt.ui,3.7.2.v20120109-1427,"org.eclipse.jdt.ui.CompilationUnitEditor",1364434994392
executed,command,org.eclipse.ui.ide,3.7.0.v20110928-1505,"org.eclipse.ui.navigate.openResource",1364434994394
deactivated,workbench,org.eclipse.ui.workbench,3.7.1.v20120104-1859,"",1364434995126
activated,workbench,org.eclipse.ui.workbench,3.7.1.v20120104-1859,"",1364434997339
activated,editor,org.eclipse.jdt.ui,3.7.2.v20120109-1427,"org.eclipse.jdt.ui.CompilationUnitEditor",1364434997477
executed,command,org.eclipse.ui.ide,3.7.0.v20110928-1505,"org.eclipse.ui.navigate.openResource",1364434997478
deactivated,workbench,org.eclipse.ui.workbench,3.7.1.v20120104-1859,"",1364434999757
activated,workbench,org.eclipse.ui.workbench,3.7.1.v20120104-1859,"",1364435001020
executed,command,org.eclipse.ui,3.7.0.v20110928-1505,"org.eclipse.ui.edit.paste",1364435002125
executed,command,org.eclipse.ui.workbench.texteditor,3.7.0.v20110928-1504,"org.eclipse.ui.edit.text.select.lineEnd",1364435005171
executed,command,org.eclipse.ui,3.7.0.v20110928-1505,"org.eclipse.ui.edit.cut",1364435005674
executed,command,org.eclipse.ui,3.7.0.v20110928-1505,"org.eclipse.ui.edit.undo",1364435006871
executed,command,org.eclipse.ui,3.7.0.v20110928-1505,"org.eclipse.ui.edit.undo",1364435007159
executed,command,org.eclipse.ui,3.7.0.v20110928-1505,"org.eclipse.ui.edit.undo",1364435007524
deactivated,workbench,org.eclipse.ui.workbench,3.7.1.v20120104-1859,"",1364435008239
activated,workbench,org.eclipse.ui.workbench,3.7.1.v20120104-1859,"",1364435014140
deactivated,workbench,org.eclipse.ui.workbench,3.7.1.v20120104-1859,"",1364435016078
activated,workbench,org.eclipse.ui.workbench,3.7.1.v20120104-1859,"",1364435016534
executed,command,org.eclipse.ui,3.7.0.v20110928-1505,"org.eclipse.ui.edit.text.contentAssist.proposals",1364435018184
deactivated,workbench,org.eclipse.ui.workbench,3.7.1.v20120104-1859,"",1364435019709
activated,workbench,org.eclipse.ui.workbench,3.7.1.v20120104-1859,"",1364435020528
deactivated,workbench,org.eclipse.ui.workbench,3.7.1.v20120104-1859,"",1364435021613
activated,workbench,org.eclipse.ui.workbench,3.7.1.v20120104-1859,"",1364435050155
deactivated,workbench,org.eclipse.ui.workbench,3.7.1.v20120104-1859,"",1364435052613
activated,workbench,org.eclipse.ui.workbench,3.7.1.v20120104-1859,"",1364435054726
deactivated,workbench,org.eclipse.ui.workbench,3.7.1.v20120104-1859,"",1364435056571
activated,workbench,org.eclipse.ui.workbench,3.7.1.v20120104-1859,"",1364435059070
opened,editor,org.eclipse.jdt.ui,3.7.2.v20120109-1427,"org.eclipse.jdt.ui.CompilationUnitEditor",1364435059257
activated,editor,org.eclipse.jdt.ui,3.7.2.v20120109-1427,"org.eclipse.jdt.ui.CompilationUnitEditor",1364435059387
executed,command,org.eclipse.ui.ide,3.7.0.v20110928-1505,"org.eclipse.ui.navigate.openResource",1364435059398
deactivated,workbench,org.eclipse.ui.workbench,3.7.1.v20120104-1859,"",1364435062714
activated,workbench,org.eclipse.ui.workbench,3.7.1.v20120104-1859,"",1364435079030
activated,editor,org.eclipse.jdt.ui,3.7.2.v20120109-1427,"org.eclipse.jdt.ui.CompilationUnitEditor",1364435081831
executed,command,org.eclipse.ui,3.7.0.v20110928-1505,"org.eclipse.ui.edit.paste",1364435085909
executed,command,org.eclipse.ui,3.7.0.v20110928-1505,"org.eclipse.ui.edit.undo",1364435092486
deactivated,workbench,org.eclipse.ui.workbench,3.7.1.v20120104-1859,"",1364435092936
activated,workbench,org.eclipse.ui.workbench,3.7.1.v20120104-1859,"",1364435095860
activated,editor,org.eclipse.jdt.ui,3.7.2.v20120109-1427,"org.eclipse.jdt.ui.CompilationUnitEditor",1364435097188
deactivated,workbench,org.eclipse.ui.workbench,3.7.1.v20120104-1859,"",1364435101378
activated,workbench,org.eclipse.ui.workbench,3.7.1.v20120104-1859,"",1364435103169
executed,command,org.eclipse.ui,3.7.0.v20110928-1505,"org.eclipse.ui.edit.text.contentAssist.proposals",1364435105138
executed,command,org.eclipse.ui.workbench.texteditor,3.7.0.v20110928-1504,"org.eclipse.ui.edit.text.select.lineStart",1364435110656
deactivated,workbench,org.eclipse.ui.workbench,3.7.1.v20120104-1859,"",1364435111797
activated,workbench,org.eclipse.ui.workbench,3.7.1.v20120104-1859,"",1364435117820
deactivated,workbench,org.eclipse.ui.workbench,3.7.1.v20120104-1859,"",1364435121949
