what,kind,bundleId,bundleVersion,description,time
deactivated,workbench,org.eclipse.ui.workbench,3.7.1.v20120104-1859,"",1365575689772
activated,workbench,org.eclipse.ui.workbench,3.7.1.v20120104-1859,"",1365575691739
executed,command,org.eclipse.search,3.7.0.v20110928-1504,"org.eclipse.search.ui.openSearchDialog",1365575691788
opened,editor,org.eclipse.jdt.ui,3.7.2.v20120109-1427,"org.eclipse.jdt.ui.CompilationUnitEditor",1365575693689
closed,editor,org.eclipse.jdt.ui,3.7.2.v20120109-1427,"org.eclipse.jdt.ui.ClassFileEditor",1365575693775
activated,editor,org.eclipse.jdt.ui,3.7.2.v20120109-1427,"org.eclipse.jdt.ui.CompilationUnitEditor",1365575708141
error,log,,,"Exception loading preferences from: /xxx/.settings/org.eclipse.jdt.core.prefs.",1365575719441
error,log,,,"Exception loading preferences from: /Users/pky1030/Desktop/workspace/xxx/.settings/org.eclipse.jdt.core.prefs.",1365575719444
opened,view,org.eclipse.jdt.ui,3.7.2.v20120109-1427,"org.eclipse.jdt.ui.PackageExplorer",1365575719531
opened,view,org.eclipse.mylyn.tasks.ui,3.6.5.v20120215-0100,"org.eclipse.mylyn.tasks.ui.views.tasks",1365575719849
activated,perspective,org.eclipse.jdt.ui,3.7.2.v20120109-1427,"org.eclipse.jdt.ui.JavaPerspective",1365575719948
activated,view,org.eclipse.jdt.ui,3.7.2.v20120109-1427,"org.eclipse.jdt.ui.PackageExplorer",1365575726037
activated,editor,org.eclipse.jdt.ui,3.7.2.v20120109-1427,"org.eclipse.jdt.ui.CompilationUnitEditor",1365575728821
deactivated,workbench,org.eclipse.ui.workbench,3.7.1.v20120104-1859,"",1365575729182
activated,workbench,org.eclipse.ui.workbench,3.7.1.v20120104-1859,"",1365575731043
activated,perspective,org.eclipse.debug.ui,3.7.102.v20111129-1423_r372,"org.eclipse.debug.ui.DebugPerspective",1365575732668
activated,view,org.eclipse.debug.ui,3.7.102.v20111129-1423_r372,"org.eclipse.debug.ui.DebugView",1365575733457
executed,command,org.eclipse.debug.ui,3.7.102.v20111129-1423_r372,"org.eclipse.debug.ui.commands.Resume",1365575733574
deactivated,workbench,org.eclipse.ui.workbench,3.7.1.v20120104-1859,"",1365575734246
activated,workbench,org.eclipse.ui.workbench,3.7.1.v20120104-1859,"",1365575736009
opened,editor,org.eclipse.jdt.ui,3.7.2.v20120109-1427,"org.eclipse.jdt.ui.ClassFileEditor",1365575738189
closed,editor,org.eclipse.jdt.ui,3.7.2.v20120109-1427,"org.eclipse.jdt.ui.CompilationUnitEditor",1365575738300
executed,command,org.eclipse.debug.ui,3.7.102.v20111129-1423_r372,"org.eclipse.debug.ui.commands.Resume",1365575742977
deactivated,workbench,org.eclipse.ui.workbench,3.7.1.v20120104-1859,"",1365575743694
activated,workbench,org.eclipse.ui.workbench,3.7.1.v20120104-1859,"",1365575745888
deactivated,workbench,org.eclipse.ui.workbench,3.7.1.v20120104-1859,"",1365575750312
activated,workbench,org.eclipse.ui.workbench,3.7.1.v20120104-1859,"",1365575755869
activated,editor,org.eclipse.jdt.ui,3.7.2.v20120109-1427,"org.eclipse.jdt.ui.CompilationUnitEditor",1365575756011
executed,command,org.eclipse.ui.ide,3.7.0.v20110928-1505,"org.eclipse.ui.navigate.openResource",1365575756202
deactivated,workbench,org.eclipse.ui.workbench,3.7.1.v20120104-1859,"",1365575759436
executed,command,org.eclipse.ui,3.7.0.v20110928-1505,"org.eclipse.ui.edit.findReplace",1365575759491
activated,workbench,org.eclipse.ui.workbench,3.7.1.v20120104-1859,"",1365575769642
deactivated,workbench,org.eclipse.ui.workbench,3.7.1.v20120104-1859,"",1365575774630
activated,workbench,org.eclipse.ui.workbench,3.7.1.v20120104-1859,"",1365575776350
activated,editor,org.eclipse.jdt.ui,3.7.2.v20120109-1427,"org.eclipse.jdt.ui.ClassFileEditor",1365575776527
closed,editor,org.eclipse.jdt.ui,3.7.2.v20120109-1427,"org.eclipse.jdt.ui.CompilationUnitEditor",1365575776599
activated,editor,org.eclipse.jdt.ui,3.7.2.v20120109-1427,"org.eclipse.jdt.ui.CompilationUnitEditor",1365575777733
executed,command,,,"AUTOGEN:::org.eclipse.jdt.debug.CompilationUnitEditor.BreakpointRulerActions/org.eclipse.jdt.debug.ui.actions.ManageBreakpointRulerAction",1365575790415
deactivated,workbench,org.eclipse.ui.workbench,3.7.1.v20120104-1859,"",1365575790977
activated,workbench,org.eclipse.ui.workbench,3.7.1.v20120104-1859,"",1365575791764
activated,view,org.eclipse.debug.ui,3.7.102.v20111129-1423_r372,"org.eclipse.debug.ui.VariableView",1365575794277
activated,view,org.eclipse.debug.ui,3.7.102.v20111129-1423_r372,"org.eclipse.debug.ui.DebugView",1365575796226
executed,command,org.eclipse.debug.ui,3.7.102.v20111129-1423_r372,"org.eclipse.debug.ui.commands.Resume",1365575796333
deactivated,workbench,org.eclipse.ui.workbench,3.7.1.v20120104-1859,"",1365575797077
activated,workbench,org.eclipse.ui.workbench,3.7.1.v20120104-1859,"",1365575801724
deactivated,workbench,org.eclipse.ui.workbench,3.7.1.v20120104-1859,"",1365575809725
activated,workbench,org.eclipse.ui.workbench,3.7.1.v20120104-1859,"",1365575815245
executed,command,org.eclipse.ui.ide,3.7.0.v20110928-1505,"org.eclipse.ui.navigate.openResource",1365575815295
deactivated,workbench,org.eclipse.ui.workbench,3.7.1.v20120104-1859,"",1365575816149
activated,workbench,org.eclipse.ui.workbench,3.7.1.v20120104-1859,"",1365575820286
opened,editor,org.eclipse.jdt.ui,3.7.2.v20120109-1427,"org.eclipse.jdt.ui.CompilationUnitEditor",1365575820463
activated,editor,org.eclipse.jdt.ui,3.7.2.v20120109-1427,"org.eclipse.jdt.ui.CompilationUnitEditor",1365575820564
executed,command,org.eclipse.ui.ide,3.7.0.v20110928-1505,"org.eclipse.ui.navigate.openResource",1365575820581
activated,view,org.eclipse.ui.views,3.6.0.v20110928-1505,"org.eclipse.ui.views.ContentOutline",1365575829198
activated,editor,org.eclipse.jdt.ui,3.7.2.v20120109-1427,"org.eclipse.jdt.ui.CompilationUnitEditor",1365575830438
executed,command,,,"AUTOGEN:::org.eclipse.jdt.debug.CompilationUnitEditor.BreakpointRulerActions/org.eclipse.jdt.debug.ui.actions.ManageBreakpointRulerAction",1365575833566
activated,view,org.eclipse.debug.ui,3.7.102.v20111129-1423_r372,"org.eclipse.debug.ui.DebugView",1365575834929
executed,command,org.eclipse.debug.ui,3.7.102.v20111129-1423_r372,"org.eclipse.debug.ui.commands.Resume",1365575835047
deactivated,workbench,org.eclipse.ui.workbench,3.7.1.v20120104-1859,"",1365575835734
activated,workbench,org.eclipse.ui.workbench,3.7.1.v20120104-1859,"",1365575839516
executed,command,org.eclipse.debug.ui,3.7.102.v20111129-1423_r372,"org.eclipse.debug.ui.commands.Resume",1365575842080
activated,editor,org.eclipse.jdt.ui,3.7.2.v20120109-1427,"org.eclipse.jdt.ui.CompilationUnitEditor",1365575843249
executed,command,,,"AUTOGEN:::org.eclipse.jdt.debug.CompilationUnitEditor.BreakpointRulerActions/org.eclipse.jdt.debug.ui.actions.ManageBreakpointRulerAction",1365575843664
activated,view,org.eclipse.debug.ui,3.7.102.v20111129-1423_r372,"org.eclipse.debug.ui.VariableView",1365575845538
activated,view,org.eclipse.debug.ui,3.7.102.v20111129-1423_r372,"org.eclipse.debug.ui.DebugView",1365575848051
executed,command,org.eclipse.debug.ui,3.7.102.v20111129-1423_r372,"org.eclipse.debug.ui.commands.Resume",1365575848166
deactivated,workbench,org.eclipse.ui.workbench,3.7.1.v20120104-1859,"",1365575848603
activated,workbench,org.eclipse.ui.workbench,3.7.1.v20120104-1859,"",1365575853428
opened,editor,org.eclipse.jdt.ui,3.7.2.v20120109-1427,"org.eclipse.jdt.ui.CompilationUnitEditor",1365575853670
closed,editor,org.eclipse.jdt.ui,3.7.2.v20120109-1427,"org.eclipse.jdt.ui.ClassFileEditor",1365575853763
executed,command,org.eclipse.debug.ui,3.7.102.v20111129-1423_r372,"org.eclipse.debug.ui.commands.Resume",1365575860640
deactivated,workbench,org.eclipse.ui.workbench,3.7.1.v20120104-1859,"",1365575861598
activated,workbench,org.eclipse.ui.workbench,3.7.1.v20120104-1859,"",1365575863497
deactivated,workbench,org.eclipse.ui.workbench,3.7.1.v20120104-1859,"",1365575870326
error,log,,,"File not found: /Users/pky1030/Desktop/workspace/xxx/META-INF/MANIFEST.MF.",1365575872040
activated,workbench,org.eclipse.ui.workbench,3.7.1.v20120104-1859,"",1365575874827
opened,editor,org.eclipse.jdt.ui,3.7.2.v20120109-1427,"org.eclipse.jdt.ui.CompilationUnitEditor",1365575875123
activated,editor,org.eclipse.jdt.ui,3.7.2.v20120109-1427,"org.eclipse.jdt.ui.CompilationUnitEditor",1365575875353
executed,command,org.eclipse.ui.ide,3.7.0.v20110928-1505,"org.eclipse.ui.navigate.openResource",1365575875379
activated,view,org.eclipse.ui.views,3.6.0.v20110928-1505,"org.eclipse.ui.views.ContentOutline",1365575876012
activated,editor,org.eclipse.jdt.ui,3.7.2.v20120109-1427,"org.eclipse.jdt.ui.CompilationUnitEditor",1365575878919
opened,editor,org.eclipse.jdt.ui,3.7.2.v20120109-1427,"org.eclipse.jdt.ui.ClassFileEditor",1365575886365
activated,editor,org.eclipse.jdt.ui,3.7.2.v20120109-1427,"org.eclipse.jdt.ui.ClassFileEditor",1365575886579
activated,editor,org.eclipse.jdt.ui,3.7.2.v20120109-1427,"org.eclipse.jdt.ui.CompilationUnitEditor",1365575888408
executed,command,org.eclipse.ui,3.7.0.v20110928-1505,"org.eclipse.ui.navigate.backwardHistory",1365575888421
executed,command,org.eclipse.ui,3.7.0.v20110928-1505,"org.eclipse.ui.edit.copy",1365575890922
opened,editor,org.eclipse.jdt.ui,3.7.2.v20120109-1427,"org.eclipse.jdt.ui.ClassFileEditor",1365575892327
activated,editor,org.eclipse.jdt.ui,3.7.2.v20120109-1427,"org.eclipse.jdt.ui.ClassFileEditor",1365575892457
activated,editor,org.eclipse.jdt.ui,3.7.2.v20120109-1427,"org.eclipse.jdt.ui.CompilationUnitEditor",1365575893812
executed,command,org.eclipse.ui,3.7.0.v20110928-1505,"org.eclipse.ui.navigate.backwardHistory",1365575893820
executed,command,org.eclipse.ui,3.7.0.v20110928-1505,"org.eclipse.ui.edit.copy",1365575896266
deactivated,workbench,org.eclipse.ui.workbench,3.7.1.v20120104-1859,"",1365575898132
activated,workbench,org.eclipse.ui.workbench,3.7.1.v20120104-1859,"",1365575901701
activated,editor,org.eclipse.jdt.ui,3.7.2.v20120109-1427,"org.eclipse.jdt.ui.CompilationUnitEditor",1365575901849
executed,command,org.eclipse.ui.ide,3.7.0.v20110928-1505,"org.eclipse.ui.navigate.openResource",1365575901858
executed,command,org.eclipse.ui,3.7.0.v20110928-1505,"org.eclipse.ui.edit.undo",1365575907334
executed,command,org.eclipse.ui,3.7.0.v20110928-1505,"org.eclipse.ui.edit.undo",1365575907552
executed,command,org.eclipse.ui,3.7.0.v20110928-1505,"org.eclipse.ui.edit.undo",1365575907624
executed,command,org.eclipse.ui,3.7.0.v20110928-1505,"org.eclipse.ui.edit.undo",1365575907676
executed,command,org.eclipse.ui,3.7.0.v20110928-1505,"org.eclipse.ui.edit.undo",1365575907703
executed,command,org.eclipse.ui,3.7.0.v20110928-1505,"org.eclipse.ui.edit.undo",1365575907736
executed,command,org.eclipse.ui,3.7.0.v20110928-1505,"org.eclipse.ui.edit.undo",1365575907770
executed,command,org.eclipse.ui,3.7.0.v20110928-1505,"org.eclipse.ui.edit.undo",1365575907805
executed,command,org.eclipse.ui,3.7.0.v20110928-1505,"org.eclipse.ui.edit.undo",1365575907837
executed,command,org.eclipse.ui,3.7.0.v20110928-1505,"org.eclipse.ui.edit.undo",1365575907870
executed,command,org.eclipse.ui,3.7.0.v20110928-1505,"org.eclipse.ui.edit.undo",1365575907904
executed,command,org.eclipse.ui,3.7.0.v20110928-1505,"org.eclipse.ui.edit.undo",1365575907937
executed,command,org.eclipse.ui,3.7.0.v20110928-1505,"org.eclipse.ui.edit.undo",1365575908012
executed,command,org.eclipse.ui,3.7.0.v20110928-1505,"org.eclipse.ui.edit.text.contentAssist.proposals",1365575916875
executed,command,org.eclipse.ui,3.7.0.v20110928-1505,"org.eclipse.ui.edit.text.contentAssist.proposals",1365575920026
activated,view,org.eclipse.ui.views,3.6.0.v20110928-1505,"org.eclipse.ui.views.ContentOutline",1365575933377
activated,editor,org.eclipse.jdt.ui,3.7.2.v20120109-1427,"org.eclipse.jdt.ui.CompilationUnitEditor",1365575935390
executed,command,org.eclipse.ui,3.7.0.v20110928-1505,"org.eclipse.ui.edit.copy",1365575938436
deactivated,workbench,org.eclipse.ui.workbench,3.7.1.v20120104-1859,"",1365575938713
executed,command,org.eclipse.ui,3.7.0.v20110928-1505,"org.eclipse.ui.edit.findReplace",1365575938768
executed,command,org.eclipse.ui,3.7.0.v20110928-1505,"org.eclipse.ui.edit.paste",1365575938956
activated,workbench,org.eclipse.ui.workbench,3.7.1.v20120104-1859,"",1365575940859
deactivated,workbench,org.eclipse.ui.workbench,3.7.1.v20120104-1859,"",1365575965895
activated,workbench,org.eclipse.ui.workbench,3.7.1.v20120104-1859,"",1365575967287
activated,editor,org.eclipse.jdt.ui,3.7.2.v20120109-1427,"org.eclipse.jdt.ui.CompilationUnitEditor",1365575967456
executed,command,,,"AUTOGEN:::org.eclipse.jdt.debug.CompilationUnitEditor.BreakpointRulerActions/org.eclipse.jdt.debug.ui.actions.ManageBreakpointRulerAction",1365575970262
activated,view,org.eclipse.debug.ui,3.7.102.v20111129-1423_r372,"org.eclipse.debug.ui.DebugView",1365575971985
executed,command,org.eclipse.debug.ui,3.7.102.v20111129-1423_r372,"org.eclipse.debug.ui.commands.Resume",1365575972074
deactivated,workbench,org.eclipse.ui.workbench,3.7.1.v20120104-1859,"",1365575972694
activated,workbench,org.eclipse.ui.workbench,3.7.1.v20120104-1859,"",1365575976833
activated,editor,org.eclipse.jdt.ui,3.7.2.v20120109-1427,"org.eclipse.jdt.ui.CompilationUnitEditor",1365575978455
executed,command,org.eclipse.ui,3.7.0.v20110928-1505,"org.eclipse.ui.navigate.backwardHistory",1365575978472
deactivated,workbench,org.eclipse.ui.workbench,3.7.1.v20120104-1859,"",1365575989586
activated,workbench,org.eclipse.ui.workbench,3.7.1.v20120104-1859,"",1365576017575
deactivated,workbench,org.eclipse.ui.workbench,3.7.1.v20120104-1859,"",1365576027142
activated,view,org.eclipse.search,3.7.0.v20110928-1504,"org.eclipse.search.ui.views.SearchView",1365576032509
activated,workbench,org.eclipse.ui.workbench,3.7.1.v20120104-1859,"",1365576032634
executed,command,org.eclipse.search,3.7.0.v20110928-1504,"org.eclipse.search.ui.openSearchDialog",1365576032813
deactivated,workbench,org.eclipse.ui.workbench,3.7.1.v20120104-1859,"",1365576033459
activated,workbench,org.eclipse.ui.workbench,3.7.1.v20120104-1859,"",1365576035901
deactivated,workbench,org.eclipse.ui.workbench,3.7.1.v20120104-1859,"",1365576071064
activated,workbench,org.eclipse.ui.workbench,3.7.1.v20120104-1859,"",1365576080378
deactivated,workbench,org.eclipse.ui.workbench,3.7.1.v20120104-1859,"",1365576090599
activated,workbench,org.eclipse.ui.workbench,3.7.1.v20120104-1859,"",1365576102438
activated,editor,org.eclipse.jdt.ui,3.7.2.v20120109-1427,"org.eclipse.jdt.ui.CompilationUnitEditor",1365576102828
activated,view,org.eclipse.search,3.7.0.v20110928-1504,"org.eclipse.search.ui.views.SearchView",1365576103160
activated,editor,org.eclipse.jdt.ui,3.7.2.v20120109-1427,"org.eclipse.jdt.ui.CompilationUnitEditor",1365576103440
activated,view,org.eclipse.search,3.7.0.v20110928-1504,"org.eclipse.search.ui.views.SearchView",1365576105401
deactivated,workbench,org.eclipse.ui.workbench,3.7.1.v20120104-1859,"",1365576105589
activated,workbench,org.eclipse.ui.workbench,3.7.1.v20120104-1859,"",1365576108130
activated,editor,org.eclipse.jdt.ui,3.7.2.v20120109-1427,"org.eclipse.jdt.ui.CompilationUnitEditor",1365576115435
activated,editor,org.eclipse.jdt.ui,3.7.2.v20120109-1427,"org.eclipse.jdt.ui.CompilationUnitEditor",1365576130983
executed,command,org.eclipse.ui,3.7.0.v20110928-1505,"org.eclipse.ui.edit.undo",1365576135212
executed,command,org.eclipse.ui,3.7.0.v20110928-1505,"org.eclipse.ui.edit.undo",1365576135889
deactivated,workbench,org.eclipse.ui.workbench,3.7.1.v20120104-1859,"",1365576140841
activated,workbench,org.eclipse.ui.workbench,3.7.1.v20120104-1859,"",1365576172466
deactivated,workbench,org.eclipse.ui.workbench,3.7.1.v20120104-1859,"",1365576175603
activated,workbench,org.eclipse.ui.workbench,3.7.1.v20120104-1859,"",1365576177623
deactivated,workbench,org.eclipse.ui.workbench,3.7.1.v20120104-1859,"",1365576180703
activated,workbench,org.eclipse.ui.workbench,3.7.1.v20120104-1859,"",1365576184562
executed,command,org.eclipse.ui,3.7.0.v20110928-1505,"org.eclipse.ui.file.save",1365576186522
activated,view,org.eclipse.ui.views,3.6.0.v20110928-1505,"org.eclipse.ui.views.ContentOutline",1365576195805
activated,editor,org.eclipse.jdt.ui,3.7.2.v20120109-1427,"org.eclipse.jdt.ui.CompilationUnitEditor",1365576197282
deactivated,workbench,org.eclipse.ui.workbench,3.7.1.v20120104-1859,"",1365576197986
activated,workbench,org.eclipse.ui.workbench,3.7.1.v20120104-1859,"",1365576201368
deactivated,workbench,org.eclipse.ui.workbench,3.7.1.v20120104-1859,"",1365576207034
activated,workbench,org.eclipse.ui.workbench,3.7.1.v20120104-1859,"",1365576219458
activated,view,org.eclipse.ui.views,3.6.0.v20110928-1505,"org.eclipse.ui.views.ContentOutline",1365576235395
activated,editor,org.eclipse.jdt.ui,3.7.2.v20120109-1427,"org.eclipse.jdt.ui.CompilationUnitEditor",1365576239120
opened,editor,org.eclipse.jdt.ui,3.7.2.v20120109-1427,"org.eclipse.jdt.ui.ClassFileEditor",1365576239378
activated,editor,org.eclipse.jdt.ui,3.7.2.v20120109-1427,"org.eclipse.jdt.ui.ClassFileEditor",1365576239550
activated,editor,org.eclipse.jdt.ui,3.7.2.v20120109-1427,"org.eclipse.jdt.ui.CompilationUnitEditor",1365576241657
executed,command,org.eclipse.ui,3.7.0.v20110928-1505,"org.eclipse.ui.navigate.backwardHistory",1365576241671
executed,command,org.eclipse.ui,3.7.0.v20110928-1505,"org.eclipse.ui.edit.copy",1365576243311
executed,command,org.eclipse.ui,3.7.0.v20110928-1505,"org.eclipse.ui.edit.copy",1365576245710
activated,editor,org.eclipse.jdt.ui,3.7.2.v20120109-1427,"org.eclipse.jdt.ui.CompilationUnitEditor",1365576249089
deactivated,workbench,org.eclipse.ui.workbench,3.7.1.v20120104-1859,"",1365576250047
executed,command,org.eclipse.ui,3.7.0.v20110928-1505,"org.eclipse.ui.edit.findReplace",1365576250092
executed,command,org.eclipse.ui,3.7.0.v20110928-1505,"org.eclipse.ui.edit.paste",1365576250361
activated,workbench,org.eclipse.ui.workbench,3.7.1.v20120104-1859,"",1365576252822
activated,editor,org.eclipse.jdt.ui,3.7.2.v20120109-1427,"org.eclipse.jdt.ui.ClassFileEditor",1365576254946
activated,editor,org.eclipse.jdt.ui,3.7.2.v20120109-1427,"org.eclipse.jdt.ui.CompilationUnitEditor",1365576256880
executed,command,org.eclipse.ui,3.7.0.v20110928-1505,"org.eclipse.ui.navigate.backwardHistory",1365576256888
activated,editor,org.eclipse.jdt.ui,3.7.2.v20120109-1427,"org.eclipse.jdt.ui.CompilationUnitEditor",1365576261799
executed,command,org.eclipse.ui,3.7.0.v20110928-1505,"org.eclipse.ui.file.save",1365576269385
deactivated,workbench,org.eclipse.ui.workbench,3.7.1.v20120104-1859,"",1365576271388
activated,workbench,org.eclipse.ui.workbench,3.7.1.v20120104-1859,"",1365576275955
activated,view,org.eclipse.debug.ui,3.7.102.v20111129-1423_r372,"org.eclipse.debug.ui.DebugView",1365576277708
executed,command,org.eclipse.debug.ui,3.7.102.v20111129-1423_r372,"org.eclipse.debug.ui.commands.Terminate",1365576277809
activated,editor,org.eclipse.jdt.ui,3.7.2.v20120109-1427,"org.eclipse.jdt.ui.CompilationUnitEditor",1365576278600
executed,command,org.eclipse.ui,3.7.0.v20110928-1505,"org.eclipse.ui.edit.undo",1365576278788
executed,command,org.eclipse.ui,3.7.0.v20110928-1505,"org.eclipse.ui.edit.undo",1365576279257
executed,command,org.eclipse.ui,3.7.0.v20110928-1505,"org.eclipse.ui.edit.undo",1365576279754
executed,command,org.eclipse.ui,3.7.0.v20110928-1505,"org.eclipse.ui.edit.undo",1365576280185
executed,command,org.eclipse.ui,3.7.0.v20110928-1505,"org.eclipse.ui.edit.undo",1365576280569
executed,command,org.eclipse.ui,3.7.0.v20110928-1505,"org.eclipse.ui.file.save",1365576281794
deactivated,workbench,org.eclipse.ui.workbench,3.7.1.v20120104-1859,"",1365576288717
activated,workbench,org.eclipse.ui.workbench,3.7.1.v20120104-1859,"",1365576291234
opened,editor,org.eclipse.jdt.ui,3.7.2.v20120109-1427,"org.eclipse.jdt.ui.CompilationUnitEditor",1365576294048
activated,editor,org.eclipse.jdt.ui,3.7.2.v20120109-1427,"org.eclipse.jdt.ui.CompilationUnitEditor",1365576294250
activated,editor,org.eclipse.jdt.ui,3.7.2.v20120109-1427,"org.eclipse.jdt.ui.CompilationUnitEditor",1365576298681
activated,perspective,org.eclipse.jdt.ui,3.7.2.v20120109-1427,"org.eclipse.jdt.ui.JavaPerspective",1365576310788
deactivated,workbench,org.eclipse.ui.workbench,3.7.1.v20120104-1859,"",1365576320554
activated,workbench,org.eclipse.ui.workbench,3.7.1.v20120104-1859,"",1365576323521
opened,editor,org.eclipse.jdt.ui,3.7.2.v20120109-1427,"org.eclipse.jdt.ui.CompilationUnitEditor",1365576323691
activated,editor,org.eclipse.jdt.ui,3.7.2.v20120109-1427,"org.eclipse.jdt.ui.CompilationUnitEditor",1365576323786
executed,command,org.eclipse.ui.ide,3.7.0.v20110928-1505,"org.eclipse.ui.navigate.openResource",1365576323800
opened,editor,org.eclipse.jdt.ui,3.7.2.v20120109-1427,"org.eclipse.jdt.ui.CompilationUnitEditor",1365576336126
activated,editor,org.eclipse.jdt.ui,3.7.2.v20120109-1427,"org.eclipse.jdt.ui.CompilationUnitEditor",1365576336221
activated,view,org.eclipse.jdt.ui,3.7.2.v20120109-1427,"org.eclipse.jdt.ui.PackageExplorer",1365576342942
opened,editor,org.eclipse.jdt.ui,3.7.2.v20120109-1427,"org.eclipse.jdt.ui.CompilationUnitEditor",1365576345121
opened,editor,org.eclipse.jdt.ui,3.7.2.v20120109-1427,"org.eclipse.jdt.ui.CompilationUnitEditor",1365576346292
opened,editor,org.eclipse.jdt.ui,3.7.2.v20120109-1427,"org.eclipse.jdt.ui.CompilationUnitEditor",1365576347296
activated,editor,org.eclipse.jdt.ui,3.7.2.v20120109-1427,"org.eclipse.jdt.ui.CompilationUnitEditor",1365576352336
executed,command,,,"AUTOGEN:::org.eclipse.jdt.debug.CompilationUnitEditor.BreakpointRulerActions/org.eclipse.jdt.debug.ui.actions.ManageBreakpointRulerAction",1365576352494
deactivated,workbench,org.eclipse.ui.workbench,3.7.1.v20120104-1859,"",1365576353211
activated,perspective,org.eclipse.debug.ui,3.7.102.v20111129-1423_r372,"org.eclipse.debug.ui.DebugPerspective",1365576361334
activated,workbench,org.eclipse.ui.workbench,3.7.1.v20120104-1859,"",1365576361540
activated,view,org.eclipse.debug.ui,3.7.102.v20111129-1423_r372,"org.eclipse.debug.ui.DebugView",1365576363457
executed,command,org.eclipse.debug.ui,3.7.102.v20111129-1423_r372,"org.eclipse.debug.ui.commands.Resume",1365576363552
deactivated,workbench,org.eclipse.ui.workbench,3.7.1.v20120104-1859,"",1365576364317
activated,workbench,org.eclipse.ui.workbench,3.7.1.v20120104-1859,"",1365576365888
opened,editor,org.eclipse.jdt.ui,3.7.2.v20120109-1427,"org.eclipse.jdt.ui.ClassFileEditor",1365576367934
closed,editor,org.eclipse.jdt.ui,3.7.2.v20120109-1427,"org.eclipse.jdt.ui.CompilationUnitEditor",1365576368042
deactivated,workbench,org.eclipse.ui.workbench,3.7.1.v20120104-1859,"",1365576377717
activated,workbench,org.eclipse.ui.workbench,3.7.1.v20120104-1859,"",1365576380523
activated,editor,org.eclipse.jdt.ui,3.7.2.v20120109-1427,"org.eclipse.jdt.ui.CompilationUnitEditor",1365576380657
executed,command,org.eclipse.ui.ide,3.7.0.v20110928-1505,"org.eclipse.ui.navigate.openResource",1365576380679
activated,view,org.eclipse.ui.views,3.6.0.v20110928-1505,"org.eclipse.ui.views.ContentOutline",1365576382069
activated,editor,org.eclipse.jdt.ui,3.7.2.v20120109-1427,"org.eclipse.jdt.ui.CompilationUnitEditor",1365576385526
deactivated,workbench,org.eclipse.ui.workbench,3.7.1.v20120104-1859,"",1365576385889
executed,command,org.eclipse.ui,3.7.0.v20110928-1505,"org.eclipse.ui.edit.findReplace",1365576385944
activated,workbench,org.eclipse.ui.workbench,3.7.1.v20120104-1859,"",1365576391129
activated,editor,org.eclipse.jdt.ui,3.7.2.v20120109-1427,"org.eclipse.jdt.ui.CompilationUnitEditor",1365576392941
activated,editor,org.eclipse.jdt.ui,3.7.2.v20120109-1427,"org.eclipse.jdt.ui.CompilationUnitEditor",1365576394666
activated,editor,org.eclipse.jdt.ui,3.7.2.v20120109-1427,"org.eclipse.jdt.ui.CompilationUnitEditor",1365576395879
deactivated,workbench,org.eclipse.ui.workbench,3.7.1.v20120104-1859,"",1365576397330
activated,workbench,org.eclipse.ui.workbench,3.7.1.v20120104-1859,"",1365576400273
activated,editor,org.eclipse.jdt.ui,3.7.2.v20120109-1427,"org.eclipse.jdt.ui.CompilationUnitEditor",1365576400413
executed,command,org.eclipse.ui.ide,3.7.0.v20110928-1505,"org.eclipse.ui.navigate.openResource",1365576400415
executed,command,org.eclipse.ui,3.7.0.v20110928-1505,"org.eclipse.ui.edit.text.contentAssist.proposals",1365576402566
executed,command,,,"AUTOGEN:::org.eclipse.jdt.debug.CompilationUnitEditor.BreakpointRulerActions/org.eclipse.jdt.debug.ui.actions.ManageBreakpointRulerAction",1365576408528
activated,view,org.eclipse.debug.ui,3.7.102.v20111129-1423_r372,"org.eclipse.debug.ui.DebugView",1365576410395
executed,command,org.eclipse.debug.ui,3.7.102.v20111129-1423_r372,"org.eclipse.debug.ui.commands.Terminate",1365576411148
deactivated,workbench,org.eclipse.ui.workbench,3.7.1.v20120104-1859,"",1365576412656
activated,workbench,org.eclipse.ui.workbench,3.7.1.v20120104-1859,"",1365576413459
deactivated,workbench,org.eclipse.ui.workbench,3.7.1.v20120104-1859,"",1365576417768
activated,workbench,org.eclipse.ui.workbench,3.7.1.v20120104-1859,"",1365576430445
activated,view,org.eclipse.debug.ui,3.7.102.v20111129-1423_r372,"org.eclipse.debug.ui.VariableView",1365576432609
activated,view,org.eclipse.debug.ui,3.7.102.v20111129-1423_r372,"org.eclipse.debug.ui.DebugView",1365576435332
executed,command,org.eclipse.debug.ui,3.7.102.v20111129-1423_r372,"org.eclipse.debug.ui.commands.Resume",1365576435402
deactivated,workbench,org.eclipse.ui.workbench,3.7.1.v20120104-1859,"",1365576436057
activated,workbench,org.eclipse.ui.workbench,3.7.1.v20120104-1859,"",1365576438069
activated,view,org.eclipse.debug.ui,3.7.102.v20111129-1423_r372,"org.eclipse.debug.ui.VariableView",1365576443656
activated,view,org.eclipse.debug.ui,3.7.102.v20111129-1423_r372,"org.eclipse.debug.ui.DebugView",1365576451615
