what,kind,bundleId,bundleVersion,description,time
activated,workbench,org.eclipse.ui.workbench,3.7.1.v20120104-1859,"",1359707945614
executed,command,org.eclipse.ui,3.7.0.v20110928-1505,"org.eclipse.ui.edit.paste",1359707947268
deactivated,workbench,org.eclipse.ui.workbench,3.7.1.v20120104-1859,"",1359707948000
activated,workbench,org.eclipse.ui.workbench,3.7.1.v20120104-1859,"",1359707953070
executed,command,org.eclipse.ui,3.7.0.v20110928-1505,"org.eclipse.ui.edit.paste",1359707954526
executed,command,org.eclipse.ui,3.7.0.v20110928-1505,"org.eclipse.ui.edit.undo",1359707954960
executed,command,org.eclipse.ui.workbench.texteditor,3.7.0.v20110928-1504,"org.eclipse.ui.edit.text.select.lineEnd",1359707956202
executed,command,org.eclipse.ui,3.7.0.v20110928-1505,"org.eclipse.ui.edit.paste",1359707957564
executed,command,org.eclipse.ui.workbench.texteditor,3.7.0.v20110928-1504,"org.eclipse.ui.edit.text.select.lineStart",1359707958930
executed,command,org.eclipse.ui,3.7.0.v20110928-1505,"org.eclipse.ui.edit.copy",1359707959200
executed,command,org.eclipse.ui,3.7.0.v20110928-1505,"org.eclipse.ui.edit.paste",1359707959991
executed,command,org.eclipse.ui,3.7.0.v20110928-1505,"org.eclipse.ui.edit.copy",1359707963760
executed,command,org.eclipse.ui,3.7.0.v20110928-1505,"org.eclipse.ui.edit.paste",1359707964958
executed,command,org.eclipse.ui.workbench.texteditor,3.7.0.v20110928-1504,"org.eclipse.ui.edit.text.goto.lineEnd",1359707965554
error,log,,,"File not found: /Users/pky1030/Downloads/youandme/org.opros.tpl.scenario/META-INF/MANIFEST.MF.",1359707975210
error,log,,,"File not found: /Users/pky1030/Downloads/youandme/org.opros.tpl.taskmodel/META-INF/MANIFEST.MF.",1359707975307
error,log,,,"File not found: /Users/pky1030/Downloads/youandme/org.opros.tpl/META-INF/MANIFEST.MF.",1359707975308
error,log,,,"File not found: /Users/pky1030/Downloads/youandme/org.opros.tpl.taskmodel.edit/META-INF/MANIFEST.MF.",1359707975309
deactivated,workbench,org.eclipse.ui.workbench,3.7.1.v20120104-1859,"",1359707981353
activated,workbench,org.eclipse.ui.workbench,3.7.1.v20120104-1859,"",1359707983300
executed,command,org.eclipse.ui,3.7.0.v20110928-1505,"org.eclipse.ui.edit.copy",1359707993946
executed,command,org.eclipse.ui,3.7.0.v20110928-1505,"org.eclipse.ui.edit.paste",1359707994988
executed,command,org.eclipse.ui,3.7.0.v20110928-1505,"org.eclipse.ui.file.save",1359707996243
activated,view,org.eclipse.debug.ui,3.7.102.v20111129-1423_r372,"org.eclipse.debug.ui.DebugView",1359707999003
executed,command,org.eclipse.debug.ui,3.7.102.v20111129-1423_r372,"org.eclipse.debug.ui.commands.Resume",1359707999105
executed,command,org.eclipse.debug.ui,3.7.102.v20111129-1423_r372,"org.eclipse.debug.ui.commands.StepOver",1359708001984
executed,command,org.eclipse.debug.ui,3.7.102.v20111129-1423_r372,"org.eclipse.debug.ui.commands.StepOver",1359708002839
executed,command,org.eclipse.debug.ui,3.7.102.v20111129-1423_r372,"org.eclipse.debug.ui.commands.StepOver",1359708003539
executed,command,org.eclipse.debug.ui,3.7.102.v20111129-1423_r372,"org.eclipse.debug.ui.commands.StepOver",1359708004207
executed,command,org.eclipse.debug.ui,3.7.102.v20111129-1423_r372,"org.eclipse.debug.ui.commands.StepOver",1359708004982
executed,command,org.eclipse.debug.ui,3.7.102.v20111129-1423_r372,"org.eclipse.debug.ui.commands.StepOver",1359708005737
executed,command,org.eclipse.debug.ui,3.7.102.v20111129-1423_r372,"org.eclipse.debug.ui.commands.StepOver",1359708006451
executed,command,org.eclipse.debug.ui,3.7.102.v20111129-1423_r372,"org.eclipse.debug.ui.commands.StepOver",1359708007052
executed,command,org.eclipse.debug.ui,3.7.102.v20111129-1423_r372,"org.eclipse.debug.ui.commands.StepOver",1359708007797
executed,command,org.eclipse.debug.ui,3.7.102.v20111129-1423_r372,"org.eclipse.debug.ui.commands.StepOver",1359708008568
executed,command,org.eclipse.debug.ui,3.7.102.v20111129-1423_r372,"org.eclipse.debug.ui.commands.StepOver",1359708009300
executed,command,org.eclipse.debug.ui,3.7.102.v20111129-1423_r372,"org.eclipse.debug.ui.commands.StepOver",1359708009985
executed,command,org.eclipse.debug.ui,3.7.102.v20111129-1423_r372,"org.eclipse.debug.ui.commands.StepOver",1359708010704
executed,command,org.eclipse.debug.ui,3.7.102.v20111129-1423_r372,"org.eclipse.debug.ui.commands.StepOver",1359708011486
executed,command,org.eclipse.debug.ui,3.7.102.v20111129-1423_r372,"org.eclipse.debug.ui.commands.StepOver",1359708012237
executed,command,org.eclipse.debug.ui,3.7.102.v20111129-1423_r372,"org.eclipse.debug.ui.commands.StepOver",1359708013074
executed,command,org.eclipse.debug.ui,3.7.102.v20111129-1423_r372,"org.eclipse.debug.ui.commands.StepOver",1359708017422
executed,command,org.eclipse.debug.ui,3.7.102.v20111129-1423_r372,"org.eclipse.debug.ui.commands.StepOver",1359708018612
activated,editor,org.eclipse.jdt.ui,3.7.2.v20120109-1427,"org.eclipse.jdt.ui.CompilationUnitEditor",1359708021711
executed,command,org.eclipse.ui,3.7.0.v20110928-1505,"org.eclipse.ui.edit.copy",1359708023076
executed,command,org.eclipse.ui.workbench.texteditor,3.7.0.v20110928-1504,"org.eclipse.ui.edit.text.goto.lineEnd",1359708026407
executed,command,org.eclipse.ui.workbench.texteditor,3.7.0.v20110928-1504,"org.eclipse.ui.edit.text.select.lineStart",1359708026894
executed,command,org.eclipse.ui.workbench.texteditor,3.7.0.v20110928-1504,"org.eclipse.ui.edit.text.select.lineStart",1359708027054
executed,command,org.eclipse.jdt.ui,3.7.2.v20120109-1427,"org.eclipse.jdt.ui.edit.text.java.toggle.comment",1359708028746
executed,command,org.eclipse.ui.workbench.texteditor,3.7.0.v20110928-1504,"org.eclipse.ui.edit.text.goto.lineEnd",1359708029478
executed,command,org.eclipse.ui.workbench.texteditor,3.7.0.v20110928-1504,"org.eclipse.ui.edit.text.select.lineEnd",1359708035214
executed,command,org.eclipse.ui,3.7.0.v20110928-1505,"org.eclipse.ui.edit.text.contentAssist.proposals",1359708037851
executed,command,org.eclipse.ui,3.7.0.v20110928-1505,"org.eclipse.ui.navigate.backwardHistory",1359708079796
executed,command,org.eclipse.ui,3.7.0.v20110928-1505,"org.eclipse.ui.edit.copy",1359708084988
executed,command,org.eclipse.ui,3.7.0.v20110928-1505,"org.eclipse.ui.edit.paste",1359708088272
executed,command,org.eclipse.ui,3.7.0.v20110928-1505,"org.eclipse.ui.edit.copy",1359708090063
executed,command,org.eclipse.ui,3.7.0.v20110928-1505,"org.eclipse.ui.edit.paste",1359708092151
executed,command,org.eclipse.ui,3.7.0.v20110928-1505,"org.eclipse.ui.edit.copy",1359708097050
executed,command,org.eclipse.ui.workbench.texteditor,3.7.0.v20110928-1504,"org.eclipse.ui.edit.text.goto.lineEnd",1359708097846
executed,command,org.eclipse.ui,3.7.0.v20110928-1505,"org.eclipse.ui.edit.paste",1359708107302
executed,command,org.eclipse.ui.workbench.texteditor,3.7.0.v20110928-1504,"org.eclipse.ui.edit.text.goto.lineEnd",1359708108548
executed,command,org.eclipse.ui,3.7.0.v20110928-1505,"org.eclipse.ui.edit.text.contentAssist.proposals",1359708115429
executed,command,org.eclipse.ui.workbench.texteditor,3.7.0.v20110928-1504,"org.eclipse.ui.edit.text.goto.lineStart",1359708117212
executed,command,org.eclipse.ui.workbench.texteditor,3.7.0.v20110928-1504,"org.eclipse.ui.edit.text.goto.lineStart",1359708117983
executed,command,org.eclipse.ui.workbench.texteditor,3.7.0.v20110928-1504,"org.eclipse.ui.edit.text.select.lineEnd",1359708128348
executed,command,org.eclipse.ui.workbench.texteditor,3.7.0.v20110928-1504,"org.eclipse.ui.edit.text.select.lineEnd",1359708129709
executed,command,org.eclipse.ui,3.7.0.v20110928-1505,"org.eclipse.ui.edit.selectAll",1359708130705
executed,command,org.eclipse.ui,3.7.0.v20110928-1505,"org.eclipse.ui.edit.undo",1359708132492
executed,command,org.eclipse.ui.workbench.texteditor,3.7.0.v20110928-1504,"org.eclipse.ui.edit.text.select.lineEnd",1359708135052
executed,command,org.eclipse.ui,3.7.0.v20110928-1505,"org.eclipse.ui.edit.selectAll",1359708135757
executed,command,org.eclipse.jdt.ui,3.7.2.v20120109-1427,"org.eclipse.jdt.ui.edit.text.java.indent",1359708136010
executed,command,org.eclipse.ui,3.7.0.v20110928-1505,"org.eclipse.ui.navigate.backwardHistory",1359708139244
activated,view,org.eclipse.debug.ui,3.7.102.v20111129-1423_r372,"org.eclipse.debug.ui.VariableView",1359708148642
activated,view,org.eclipse.debug.ui,3.7.102.v20111129-1423_r372,"org.eclipse.debug.ui.DebugView",1359708152832
executed,command,org.eclipse.debug.ui,3.7.102.v20111129-1423_r372,"org.eclipse.debug.ui.commands.Resume",1359708152939
activated,editor,org.eclipse.jdt.ui,3.7.2.v20120109-1427,"org.eclipse.jdt.ui.CompilationUnitEditor",1359708173504
executed,command,,,"AUTOGEN:::org.eclipse.jdt.debug.CompilationUnitEditor.BreakpointRulerActions/org.eclipse.jdt.debug.ui.actions.ManageBreakpointRulerAction",1359708173751
activated,view,org.eclipse.debug.ui,3.7.102.v20111129-1423_r372,"org.eclipse.debug.ui.DebugView",1359708175041
executed,command,org.eclipse.debug.ui,3.7.102.v20111129-1423_r372,"org.eclipse.debug.ui.commands.Resume",1359708175140
activated,editor,org.eclipse.jdt.ui,3.7.2.v20120109-1427,"org.eclipse.jdt.ui.CompilationUnitEditor",1359708181985
executed,command,,,"AUTOGEN:::org.eclipse.jdt.debug.CompilationUnitEditor.BreakpointRulerActions/org.eclipse.jdt.debug.ui.actions.ManageBreakpointRulerAction",1359708182269
executed,command,org.eclipse.ui,3.7.0.v20110928-1505,"org.eclipse.ui.file.save",1359708184196
deactivated,workbench,org.eclipse.ui.workbench,3.7.1.v20120104-1859,"",1359708184496
activated,workbench,org.eclipse.ui.workbench,3.7.1.v20120104-1859,"",1359708186350
deactivated,workbench,org.eclipse.ui.workbench,3.7.1.v20120104-1859,"",1359708190939
activated,workbench,org.eclipse.ui.workbench,3.7.1.v20120104-1859,"",1359708241360
deactivated,workbench,org.eclipse.ui.workbench,3.7.1.v20120104-1859,"",1359708246717
activated,workbench,org.eclipse.ui.workbench,3.7.1.v20120104-1859,"",1359708247702
deactivated,workbench,org.eclipse.ui.workbench,3.7.1.v20120104-1859,"",1359708278383
error,log,,,"File not found: /Users/pky1030/Downloads/youandme/org.opros.tpl.scenario/META-INF/MANIFEST.MF.",1359708296131
error,log,,,"File not found: /Users/pky1030/Downloads/youandme/org.opros.tpl.taskmodel/META-INF/MANIFEST.MF.",1359708296134
error,log,,,"File not found: /Users/pky1030/Downloads/youandme/org.opros.tpl/META-INF/MANIFEST.MF.",1359708296134
error,log,,,"File not found: /Users/pky1030/Downloads/youandme/org.opros.tpl.taskmodel.edit/META-INF/MANIFEST.MF.",1359708296135
activated,workbench,org.eclipse.ui.workbench,3.7.1.v20120104-1859,"",1359708300141
activated,view,org.eclipse.jdt.ui,3.7.2.v20120109-1427,"org.eclipse.jdt.callhierarchy.view",1359708309692
executed,command,org.eclipse.jdt.ui,3.7.2.v20120109-1427,"org.eclipse.jdt.ui.edit.text.java.open.call.hierarchy",1359708310103
deactivated,workbench,org.eclipse.ui.workbench,3.7.1.v20120104-1859,"",1359708315311
activated,workbench,org.eclipse.ui.workbench,3.7.1.v20120104-1859,"",1359708318195
deactivated,workbench,org.eclipse.ui.workbench,3.7.1.v20120104-1859,"",1359708320618
activated,workbench,org.eclipse.ui.workbench,3.7.1.v20120104-1859,"",1359708322132
activated,view,org.eclipse.ui.console,3.5.100.v20111007_r372,"org.eclipse.ui.console.ConsoleView",1359708326498
activated,editor,org.eclipse.jdt.ui,3.7.2.v20120109-1427,"org.eclipse.jdt.ui.CompilationUnitEditor",1359708326720
activated,editor,org.eclipse.jdt.ui,3.7.2.v20120109-1427,"org.eclipse.jdt.ui.CompilationUnitEditor",1359708327858
activated,view,org.eclipse.debug.ui,3.7.102.v20111129-1423_r372,"org.eclipse.debug.ui.DebugView",1359708330245
executed,command,org.eclipse.debug.ui,3.7.102.v20111129-1423_r372,"org.eclipse.debug.ui.commands.StepOver",1359708330383
activated,view,org.eclipse.debug.ui,3.7.102.v20111129-1423_r372,"org.eclipse.debug.ui.VariableView",1359708333173
activated,editor,org.eclipse.jdt.ui,3.7.2.v20120109-1427,"org.eclipse.jdt.ui.CompilationUnitEditor",1359708336436
executed,command,org.eclipse.ui,3.7.0.v20110928-1505,"org.eclipse.ui.edit.copy",1359708337576
executed,command,org.eclipse.ui,3.7.0.v20110928-1505,"org.eclipse.ui.edit.copy",1359708345921
executed,command,org.eclipse.ui,3.7.0.v20110928-1505,"org.eclipse.ui.edit.paste",1359708346886
activated,view,org.eclipse.debug.ui,3.7.102.v20111129-1423_r372,"org.eclipse.debug.ui.VariableView",1359708355515
activated,editor,org.eclipse.jdt.ui,3.7.2.v20120109-1427,"org.eclipse.jdt.ui.CompilationUnitEditor",1359708361416
executed,command,org.eclipse.ui.workbench.texteditor,3.7.0.v20110928-1504,"org.eclipse.ui.edit.text.select.lineStart",1359708372649
executed,command,org.eclipse.ui,3.7.0.v20110928-1505,"org.eclipse.ui.edit.text.contentAssist.proposals",1359708389015
executed,command,org.eclipse.ui,3.7.0.v20110928-1505,"org.eclipse.ui.edit.cut",1359708408936
executed,command,org.eclipse.ui,3.7.0.v20110928-1505,"org.eclipse.ui.edit.paste",1359708415198
executed,command,org.eclipse.ui.workbench.texteditor,3.7.0.v20110928-1504,"org.eclipse.ui.edit.text.goto.lineEnd",1359708415561
executed,command,org.eclipse.ui,3.7.0.v20110928-1505,"org.eclipse.ui.edit.undo",1359708417362
executed,command,org.eclipse.ui,3.7.0.v20110928-1505,"org.eclipse.ui.edit.undo",1359708420489
executed,command,org.eclipse.ui,3.7.0.v20110928-1505,"org.eclipse.ui.edit.undo",1359708420999
executed,command,org.eclipse.ui.workbench.texteditor,3.7.0.v20110928-1504,"org.eclipse.ui.edit.text.goto.lineEnd",1359708421713
executed,command,org.eclipse.ui,3.7.0.v20110928-1505,"org.eclipse.ui.file.save",1359708426008
activated,view,org.eclipse.debug.ui,3.7.102.v20111129-1423_r372,"org.eclipse.debug.ui.DebugView",1359708428051
executed,command,org.eclipse.debug.ui,3.7.102.v20111129-1423_r372,"org.eclipse.debug.ui.commands.Resume",1359708428177
deactivated,workbench,org.eclipse.ui.workbench,3.7.1.v20120104-1859,"",1359708430021
activated,workbench,org.eclipse.ui.workbench,3.7.1.v20120104-1859,"",1359708431259
activated,view,org.eclipse.debug.ui,3.7.102.v20111129-1423_r372,"org.eclipse.debug.ui.BreakpointView",1359708434219
activated,view,org.eclipse.debug.ui,3.7.102.v20111129-1423_r372,"org.eclipse.debug.ui.DebugView",1359708437493
executed,command,org.eclipse.debug.ui,3.7.102.v20111129-1423_r372,"org.eclipse.debug.ui.commands.Resume",1359708437607
deactivated,workbench,org.eclipse.ui.workbench,3.7.1.v20120104-1859,"",1359708438467
activated,workbench,org.eclipse.ui.workbench,3.7.1.v20120104-1859,"",1359708439140
deactivated,workbench,org.eclipse.ui.workbench,3.7.1.v20120104-1859,"",1359708440208
activated,workbench,org.eclipse.ui.workbench,3.7.1.v20120104-1859,"",1359708442023
activated,editor,org.eclipse.jdt.ui,3.7.2.v20120109-1427,"org.eclipse.jdt.ui.CompilationUnitEditor",1359708453147
executed,command,org.eclipse.ui,3.7.0.v20110928-1505,"org.eclipse.ui.file.save",1359708461074
deactivated,workbench,org.eclipse.ui.workbench,3.7.1.v20120104-1859,"",1359708461144
activated,workbench,org.eclipse.ui.workbench,3.7.1.v20120104-1859,"",1359708491434
executed,command,org.eclipse.ui,3.7.0.v20110928-1505,"org.eclipse.ui.edit.undo",1359708495001
executed,command,org.eclipse.ui,3.7.0.v20110928-1505,"org.eclipse.ui.edit.redo",1359708495832
executed,command,org.eclipse.ui,3.7.0.v20110928-1505,"org.eclipse.ui.edit.cut",1359708508364
deactivated,workbench,org.eclipse.ui.workbench,3.7.1.v20120104-1859,"",1359708511975
activated,workbench,org.eclipse.ui.workbench,3.7.1.v20120104-1859,"",1359708512718
deactivated,workbench,org.eclipse.ui.workbench,3.7.1.v20120104-1859,"",1359708516659
activated,workbench,org.eclipse.ui.workbench,3.7.1.v20120104-1859,"",1359708517698
activated,editor,org.eclipse.jdt.ui,3.7.2.v20120109-1427,"org.eclipse.jdt.ui.CompilationUnitEditor",1359708521614
executed,command,org.eclipse.ui.workbench.texteditor,3.7.0.v20110928-1504,"org.eclipse.ui.edit.text.select.lineEnd",1359708523630
activated,editor,org.eclipse.jdt.ui,3.7.2.v20120109-1427,"org.eclipse.jdt.ui.CompilationUnitEditor",1359708525316
executed,command,org.eclipse.ui,3.7.0.v20110928-1505,"org.eclipse.ui.edit.paste",1359708528875
executed,command,org.eclipse.ui.workbench.texteditor,3.7.0.v20110928-1504,"org.eclipse.ui.edit.text.goto.lineEnd",1359708534230
executed,command,org.eclipse.ui.workbench.texteditor,3.7.0.v20110928-1504,"org.eclipse.ui.edit.text.goto.lineStart",1359708535406
executed,command,org.eclipse.ui,3.7.0.v20110928-1505,"org.eclipse.ui.edit.copy",1359708538286
executed,command,org.eclipse.ui.workbench.texteditor,3.7.0.v20110928-1504,"org.eclipse.ui.edit.text.select.lineStart",1359708543944
executed,command,org.eclipse.ui,3.7.0.v20110928-1505,"org.eclipse.ui.edit.paste",1359708544245
activated,editor,org.eclipse.jdt.ui,3.7.2.v20120109-1427,"org.eclipse.jdt.ui.CompilationUnitEditor",1359708558649
activated,editor,org.eclipse.jdt.ui,3.7.2.v20120109-1427,"org.eclipse.jdt.ui.CompilationUnitEditor",1359708559949
executed,command,org.eclipse.ui,3.7.0.v20110928-1505,"org.eclipse.ui.edit.undo",1359708562683
executed,command,org.eclipse.ui,3.7.0.v20110928-1505,"org.eclipse.ui.edit.undo",1359708563493
executed,command,org.eclipse.ui,3.7.0.v20110928-1505,"org.eclipse.ui.edit.undo",1359708564258
executed,command,org.eclipse.ui,3.7.0.v20110928-1505,"org.eclipse.ui.edit.undo",1359708564800
deactivated,workbench,org.eclipse.ui.workbench,3.7.1.v20120104-1859,"",1359708568719
activated,workbench,org.eclipse.ui.workbench,3.7.1.v20120104-1859,"",1359708570883
deactivated,workbench,org.eclipse.ui.workbench,3.7.1.v20120104-1859,"",1359708573943
activated,workbench,org.eclipse.ui.workbench,3.7.1.v20120104-1859,"",1359708574548
deactivated,workbench,org.eclipse.ui.workbench,3.7.1.v20120104-1859,"",1359708580371
activated,workbench,org.eclipse.ui.workbench,3.7.1.v20120104-1859,"",1359708581078
deactivated,workbench,org.eclipse.ui.workbench,3.7.1.v20120104-1859,"",1359708584365
activated,workbench,org.eclipse.ui.workbench,3.7.1.v20120104-1859,"",1359708586637
activated,view,org.eclipse.debug.ui,3.7.102.v20111129-1423_r372,"org.eclipse.debug.ui.BreakpointView",1359708587983
activated,view,org.eclipse.debug.ui,3.7.102.v20111129-1423_r372,"org.eclipse.debug.ui.DebugView",1359708597558
executed,command,org.eclipse.debug.ui,3.7.102.v20111129-1423_r372,"org.eclipse.debug.ui.commands.Resume",1359708601913
executed,command,org.eclipse.debug.ui,3.7.102.v20111129-1423_r372,"org.eclipse.debug.ui.commands.StepOver",1359708604846
activated,view,org.eclipse.debug.ui,3.7.102.v20111129-1423_r372,"org.eclipse.debug.ui.VariableView",1359708605887
activated,editor,org.eclipse.jdt.ui,3.7.2.v20120109-1427,"org.eclipse.jdt.ui.CompilationUnitEditor",1359708615731
executed,command,org.eclipse.ui,3.7.0.v20110928-1505,"org.eclipse.ui.edit.text.contentAssist.proposals",1359708619254
executed,command,org.eclipse.ui,3.7.0.v20110928-1505,"org.eclipse.ui.file.save",1359708635398
activated,view,org.eclipse.debug.ui,3.7.102.v20111129-1423_r372,"org.eclipse.debug.ui.DebugView",1359708637257
executed,command,org.eclipse.debug.ui,3.7.102.v20111129-1423_r372,"org.eclipse.debug.ui.commands.Resume",1359708637379
activated,editor,org.eclipse.jdt.ui,3.7.2.v20120109-1427,"org.eclipse.jdt.ui.CompilationUnitEditor",1359708640584
executed,command,,,"AUTOGEN:::org.eclipse.jdt.debug.CompilationUnitEditor.BreakpointRulerActions/org.eclipse.jdt.debug.ui.actions.ManageBreakpointRulerAction",1359708640870
activated,view,org.eclipse.debug.ui,3.7.102.v20111129-1423_r372,"org.eclipse.debug.ui.DebugView",1359708642405
executed,command,org.eclipse.debug.ui,3.7.102.v20111129-1423_r372,"org.eclipse.debug.ui.commands.Resume",1359708642538
deactivated,workbench,org.eclipse.ui.workbench,3.7.1.v20120104-1859,"",1359708643795
activated,workbench,org.eclipse.ui.workbench,3.7.1.v20120104-1859,"",1359708644613
activated,editor,org.eclipse.jdt.ui,3.7.2.v20120109-1427,"org.eclipse.jdt.ui.CompilationUnitEditor",1359708645891
executed,command,,,"AUTOGEN:::org.eclipse.jdt.debug.CompilationUnitEditor.BreakpointRulerActions/org.eclipse.jdt.debug.ui.actions.ManageBreakpointRulerAction",1359708646163
activated,view,org.eclipse.debug.ui,3.7.102.v20111129-1423_r372,"org.eclipse.debug.ui.DebugView",1359708647460
executed,command,org.eclipse.debug.ui,3.7.102.v20111129-1423_r372,"org.eclipse.debug.ui.commands.Resume",1359708647585
deactivated,workbench,org.eclipse.ui.workbench,3.7.1.v20120104-1859,"",1359708648364
activated,workbench,org.eclipse.ui.workbench,3.7.1.v20120104-1859,"",1359708655497
activated,editor,org.eclipse.jdt.ui,3.7.2.v20120109-1427,"org.eclipse.jdt.ui.CompilationUnitEditor",1359708659956
activated,editor,org.eclipse.jdt.ui,3.7.2.v20120109-1427,"org.eclipse.jdt.ui.CompilationUnitEditor",1359708662767
deactivated,workbench,org.eclipse.ui.workbench,3.7.1.v20120104-1859,"",1359708676452
activated,workbench,org.eclipse.ui.workbench,3.7.1.v20120104-1859,"",1359708677204
deactivated,workbench,org.eclipse.ui.workbench,3.7.1.v20120104-1859,"",1359708677683
activated,workbench,org.eclipse.ui.workbench,3.7.1.v20120104-1859,"",1359708683834
activated,editor,org.eclipse.jdt.ui,3.7.2.v20120109-1427,"org.eclipse.jdt.ui.CompilationUnitEditor",1359708686455
deactivated,workbench,org.eclipse.ui.workbench,3.7.1.v20120104-1859,"",1359708688842
activated,workbench,org.eclipse.ui.workbench,3.7.1.v20120104-1859,"",1359708692626
activated,editor,org.eclipse.jdt.ui,3.7.2.v20120109-1427,"org.eclipse.jdt.ui.CompilationUnitEditor",1359708694700
activated,view,org.eclipse.debug.ui,3.7.102.v20111129-1423_r372,"org.eclipse.debug.ui.BreakpointView",1359708699867
deactivated,workbench,org.eclipse.ui.workbench,3.7.1.v20120104-1859,"",1359708702042
activated,workbench,org.eclipse.ui.workbench,3.7.1.v20120104-1859,"",1359708705468
activated,editor,org.eclipse.jdt.ui,3.7.2.v20120109-1427,"org.eclipse.jdt.ui.CompilationUnitEditor",1359708707405
executed,command,org.eclipse.ui,3.7.0.v20110928-1505,"org.eclipse.ui.file.save",1359708707886
deactivated,workbench,org.eclipse.ui.workbench,3.7.1.v20120104-1859,"",1359708708856
error,log,,,"File not found: /Users/pky1030/Downloads/youandme/org.opros.tpl.scenario/META-INF/MANIFEST.MF.",1359708725986
error,log,,,"File not found: /Users/pky1030/Downloads/youandme/org.opros.tpl.taskmodel/META-INF/MANIFEST.MF.",1359708726068
error,log,,,"File not found: /Users/pky1030/Downloads/youandme/org.opros.tpl/META-INF/MANIFEST.MF.",1359708726069
error,log,,,"File not found: /Users/pky1030/Downloads/youandme/org.opros.tpl.taskmodel.edit/META-INF/MANIFEST.MF.",1359708726069
activated,workbench,org.eclipse.ui.workbench,3.7.1.v20120104-1859,"",1359708749778
executed,command,org.eclipse.ui.workbench.texteditor,3.7.0.v20110928-1504,"org.eclipse.ui.edit.text.select.lineStart",1359708780820
executed,command,org.eclipse.ui,3.7.0.v20110928-1505,"org.eclipse.ui.file.save",1359708806907
deactivated,workbench,org.eclipse.ui.workbench,3.7.1.v20120104-1859,"",1359708809586
activated,workbench,org.eclipse.ui.workbench,3.7.1.v20120104-1859,"",1359708890670
deactivated,workbench,org.eclipse.ui.workbench,3.7.1.v20120104-1859,"",1359708892349
activated,workbench,org.eclipse.ui.workbench,3.7.1.v20120104-1859,"",1359708895357
executed,command,,,"AUTOGEN:::org.eclipse.jdt.debug.CompilationUnitEditor.BreakpointRulerActions/org.eclipse.jdt.debug.ui.actions.ManageBreakpointRulerAction",1359708902210
deactivated,workbench,org.eclipse.ui.workbench,3.7.1.v20120104-1859,"",1359708904035
activated,workbench,org.eclipse.ui.workbench,3.7.1.v20120104-1859,"",1359708904608
deactivated,workbench,org.eclipse.ui.workbench,3.7.1.v20120104-1859,"",1359708919568
activated,workbench,org.eclipse.ui.workbench,3.7.1.v20120104-1859,"",1359709013391
deactivated,workbench,org.eclipse.ui.workbench,3.7.1.v20120104-1859,"",1359709015584
activated,workbench,org.eclipse.ui.workbench,3.7.1.v20120104-1859,"",1359709019466
activated,view,org.eclipse.debug.ui,3.7.102.v20111129-1423_r372,"org.eclipse.debug.ui.DebugView",1359709021693
executed,command,org.eclipse.debug.ui,3.7.102.v20111129-1423_r372,"org.eclipse.debug.ui.commands.Terminate",1359709021803
activated,editor,org.eclipse.jdt.ui,3.7.2.v20120109-1427,"org.eclipse.jdt.ui.CompilationUnitEditor",1359709025130
deactivated,workbench,org.eclipse.ui.workbench,3.7.1.v20120104-1859,"",1359709026547
activated,workbench,org.eclipse.ui.workbench,3.7.1.v20120104-1859,"",1359709033503
executed,command,,,"AUTOGEN:::org.eclipse.jdt.debug.CompilationUnitEditor.BreakpointRulerActions/org.eclipse.jdt.debug.ui.actions.ManageBreakpointRulerAction",1359709034296
executed,command,org.eclipse.ui.workbench.texteditor,3.7.0.v20110928-1504,"org.eclipse.ui.edit.text.select.lineStart",1359709044573
executed,command,org.eclipse.ui,3.7.0.v20110928-1505,"org.eclipse.ui.file.save",1359709046619
deactivated,workbench,org.eclipse.ui.workbench,3.7.1.v20120104-1859,"",1359709046825
activated,workbench,org.eclipse.ui.workbench,3.7.1.v20120104-1859,"",1359709059364
deactivated,workbench,org.eclipse.ui.workbench,3.7.1.v20120104-1859,"",1359709061247
activated,workbench,org.eclipse.ui.workbench,3.7.1.v20120104-1859,"",1359709065551
deactivated,workbench,org.eclipse.ui.workbench,3.7.1.v20120104-1859,"",1359709067414
error,log,,,"File not found: /Users/pky1030/Downloads/youandme/org.opros.tpl.scenario/META-INF/MANIFEST.MF.",1359709106908
error,log,,,"File not found: /Users/pky1030/Downloads/youandme/org.opros.tpl.taskmodel/META-INF/MANIFEST.MF.",1359709107005
error,log,,,"File not found: /Users/pky1030/Downloads/youandme/org.opros.tpl/META-INF/MANIFEST.MF.",1359709107006
error,log,,,"File not found: /Users/pky1030/Downloads/youandme/org.opros.tpl.taskmodel.edit/META-INF/MANIFEST.MF.",1359709107006
activated,workbench,org.eclipse.ui.workbench,3.7.1.v20120104-1859,"",1359709117424
deactivated,workbench,org.eclipse.ui.workbench,3.7.1.v20120104-1859,"",1359709125156
activated,workbench,org.eclipse.ui.workbench,3.7.1.v20120104-1859,"",1359709187848
deactivated,workbench,org.eclipse.ui.workbench,3.7.1.v20120104-1859,"",1359709190795
activated,workbench,org.eclipse.ui.workbench,3.7.1.v20120104-1859,"",1359709207519
executed,command,org.eclipse.ui,3.7.0.v20110928-1505,"org.eclipse.ui.edit.copy",1359709216009
executed,command,org.eclipse.ui,3.7.0.v20110928-1505,"org.eclipse.ui.edit.paste",1359709220045
executed,command,org.eclipse.ui,3.7.0.v20110928-1505,"org.eclipse.ui.edit.undo",1359709221642
executed,command,org.eclipse.ui,3.7.0.v20110928-1505,"org.eclipse.ui.edit.undo",1359709222157
deactivated,workbench,org.eclipse.ui.workbench,3.7.1.v20120104-1859,"",1359709224005
