what,kind,bundleId,bundleVersion,description,time
executed,command,org.eclipse.ui.workbench.texteditor,3.7.0.v20110928-1504,"org.eclipse.ui.edit.text.goto.lineEnd",1359686553268
activated,editor,org.eclipse.jdt.ui,3.7.2.v20120109-1427,"org.eclipse.jdt.ui.CompilationUnitEditor",1359686556154
executed,command,org.eclipse.ui,3.7.0.v20110928-1505,"org.eclipse.ui.file.save",1359686556735
deactivated,workbench,org.eclipse.ui.workbench,3.7.1.v20120104-1859,"",1359686557540
activated,workbench,org.eclipse.ui.workbench,3.7.1.v20120104-1859,"",1359686559324
deactivated,workbench,org.eclipse.ui.workbench,3.7.1.v20120104-1859,"",1359686560146
activated,workbench,org.eclipse.ui.workbench,3.7.1.v20120104-1859,"",1359686561217
deactivated,workbench,org.eclipse.ui.workbench,3.7.1.v20120104-1859,"",1359686561834
activated,workbench,org.eclipse.ui.workbench,3.7.1.v20120104-1859,"",1359686562386
activated,editor,org.eclipse.jdt.ui,3.7.2.v20120109-1427,"org.eclipse.jdt.ui.CompilationUnitEditor",1359686563211
deactivated,workbench,org.eclipse.ui.workbench,3.7.1.v20120104-1859,"",1359686564996
activated,workbench,org.eclipse.ui.workbench,3.7.1.v20120104-1859,"",1359686566143
executed,command,org.eclipse.ui,3.7.0.v20110928-1505,"org.eclipse.ui.file.save",1359686570209
executed,command,,,"AUTOGEN:::org.eclipse.jdt.debug.CompilationUnitEditor.BreakpointRulerActions/org.eclipse.jdt.debug.ui.actions.ManageBreakpointRulerAction",1359686571903
deactivated,workbench,org.eclipse.ui.workbench,3.7.1.v20120104-1859,"",1359686572385
activated,workbench,org.eclipse.ui.workbench,3.7.1.v20120104-1859,"",1359686576615
deactivated,workbench,org.eclipse.ui.workbench,3.7.1.v20120104-1859,"",1359686578636
activated,workbench,org.eclipse.ui.workbench,3.7.1.v20120104-1859,"",1359686582054
activated,editor,org.eclipse.jdt.ui,3.7.2.v20120109-1427,"org.eclipse.jdt.ui.CompilationUnitEditor",1359686582217
executed,command,org.eclipse.ui.ide,3.7.0.v20110928-1505,"org.eclipse.ui.navigate.openResource",1359686582219
executed,command,org.eclipse.jdt.ui,3.7.2.v20120109-1427,"org.eclipse.jdt.ui.edit.text.java.toggle.comment",1359686584775
executed,command,org.eclipse.ui,3.7.0.v20110928-1505,"org.eclipse.ui.edit.undo",1359686585907
executed,command,org.eclipse.jdt.ui,3.7.2.v20120109-1427,"org.eclipse.jdt.ui.edit.text.java.toggle.comment",1359686588200
executed,command,org.eclipse.ui,3.7.0.v20110928-1505,"org.eclipse.ui.edit.cut",1359686590970
executed,command,org.eclipse.ui,3.7.0.v20110928-1505,"org.eclipse.ui.edit.undo",1359686593074
executed,command,org.eclipse.jdt.ui,3.7.2.v20120109-1427,"org.eclipse.jdt.ui.edit.text.java.toggle.comment",1359686596867
executed,command,org.eclipse.ui,3.7.0.v20110928-1505,"org.eclipse.ui.file.save",1359686597311
deactivated,workbench,org.eclipse.ui.workbench,3.7.1.v20120104-1859,"",1359686597612
activated,workbench,org.eclipse.ui.workbench,3.7.1.v20120104-1859,"",1359686599712
executed,command,org.eclipse.jdt.ui,3.7.2.v20120109-1427,"org.eclipse.jdt.ui.edit.text.java.organize.imports",1359686601662
executed,command,org.eclipse.ui,3.7.0.v20110928-1505,"org.eclipse.ui.file.save",1359686602166
deactivated,workbench,org.eclipse.ui.workbench,3.7.1.v20120104-1859,"",1359686603028
activated,workbench,org.eclipse.ui.workbench,3.7.1.v20120104-1859,"",1359686604798
deactivated,workbench,org.eclipse.ui.workbench,3.7.1.v20120104-1859,"",1359686607144
activated,workbench,org.eclipse.ui.workbench,3.7.1.v20120104-1859,"",1359686802010
activated,view,org.eclipse.ui.console,3.5.100.v20111007_r372,"org.eclipse.ui.console.ConsoleView",1359686806741
activated,editor,org.eclipse.jdt.ui,3.7.2.v20120109-1427,"org.eclipse.jdt.ui.CompilationUnitEditor",1359686806997
deactivated,workbench,org.eclipse.ui.workbench,3.7.1.v20120104-1859,"",1359686811829
error,log,,,"File not found: /Users/pky1030/Downloads/youandme/org.opros.tpl.scenario/META-INF/MANIFEST.MF.",1359686856726
error,log,,,"File not found: /Users/pky1030/Downloads/youandme/org.opros.tpl.taskmodel/META-INF/MANIFEST.MF.",1359686856727
error,log,,,"File not found: /Users/pky1030/Downloads/youandme/org.opros.tpl/META-INF/MANIFEST.MF.",1359686856728
error,log,,,"File not found: /Users/pky1030/Downloads/youandme/org.opros.tpl.taskmodel.edit/META-INF/MANIFEST.MF.",1359686856728
activated,workbench,org.eclipse.ui.workbench,3.7.1.v20120104-1859,"",1359686863491
activated,editor,org.eclipse.jdt.ui,3.7.2.v20120109-1427,"org.eclipse.jdt.ui.CompilationUnitEditor",1359686863958
activated,view,org.eclipse.debug.ui,3.7.102.v20111129-1423_r372,"org.eclipse.debug.ui.VariableView",1359686865753
activated,view,org.eclipse.debug.ui,3.7.102.v20111129-1423_r372,"org.eclipse.debug.ui.DebugView",1359686868836
executed,command,org.eclipse.debug.ui,3.7.102.v20111129-1423_r372,"org.eclipse.debug.ui.commands.Resume",1359686868927
deactivated,workbench,org.eclipse.ui.workbench,3.7.1.v20120104-1859,"",1359686869870
activated,workbench,org.eclipse.ui.workbench,3.7.1.v20120104-1859,"",1359686883822
deactivated,workbench,org.eclipse.ui.workbench,3.7.1.v20120104-1859,"",1359686887197
activated,workbench,org.eclipse.ui.workbench,3.7.1.v20120104-1859,"",1359686894115
deactivated,workbench,org.eclipse.ui.workbench,3.7.1.v20120104-1859,"",1359686894627
activated,workbench,org.eclipse.ui.workbench,3.7.1.v20120104-1859,"",1359686932050
activated,editor,org.eclipse.jdt.ui,3.7.2.v20120109-1427,"org.eclipse.jdt.ui.CompilationUnitEditor",1359686934041
executed,command,org.eclipse.ui.workbench.texteditor,3.7.0.v20110928-1504,"org.eclipse.ui.edit.text.select.lineStart",1359686935501
executed,command,org.eclipse.ui.workbench.texteditor,3.7.0.v20110928-1504,"org.eclipse.ui.edit.text.goto.lineEnd",1359686938561
deactivated,workbench,org.eclipse.ui.workbench,3.7.1.v20120104-1859,"",1359686944090
activated,workbench,org.eclipse.ui.workbench,3.7.1.v20120104-1859,"",1359686944917
deactivated,workbench,org.eclipse.ui.workbench,3.7.1.v20120104-1859,"",1359686945681
activated,workbench,org.eclipse.ui.workbench,3.7.1.v20120104-1859,"",1359686968606
executed,command,org.eclipse.ui,3.7.0.v20110928-1505,"org.eclipse.ui.edit.text.contentAssist.proposals",1359686978334
executed,command,org.eclipse.ui,3.7.0.v20110928-1505,"org.eclipse.ui.edit.text.contentAssist.proposals",1359686980683
executed,command,org.eclipse.ui,3.7.0.v20110928-1505,"org.eclipse.ui.edit.text.contentAssist.proposals",1359686985654
executed,command,org.eclipse.ui,3.7.0.v20110928-1505,"org.eclipse.ui.edit.text.contentAssist.proposals",1359686987565
executed,command,org.eclipse.ui.workbench.texteditor,3.7.0.v20110928-1504,"org.eclipse.ui.edit.text.goto.lineEnd",1359686992475
executed,command,org.eclipse.ui,3.7.0.v20110928-1505,"org.eclipse.ui.edit.text.contentAssist.proposals",1359686995665
deactivated,workbench,org.eclipse.ui.workbench,3.7.1.v20120104-1859,"",1359687000952
activated,workbench,org.eclipse.ui.workbench,3.7.1.v20120104-1859,"",1359687015475
deactivated,workbench,org.eclipse.ui.workbench,3.7.1.v20120104-1859,"",1359687015959
activated,workbench,org.eclipse.ui.workbench,3.7.1.v20120104-1859,"",1359687055068
executed,command,org.eclipse.ui,3.7.0.v20110928-1505,"org.eclipse.ui.file.save",1359687056138
activated,view,org.eclipse.debug.ui,3.7.102.v20111129-1423_r372,"org.eclipse.debug.ui.DebugView",1359687058349
executed,command,org.eclipse.debug.ui,3.7.102.v20111129-1423_r372,"org.eclipse.debug.ui.commands.Resume",1359687058442
deactivated,workbench,org.eclipse.ui.workbench,3.7.1.v20120104-1859,"",1359687061204
activated,workbench,org.eclipse.ui.workbench,3.7.1.v20120104-1859,"",1359687103645
activated,editor,org.eclipse.jdt.ui,3.7.2.v20120109-1427,"org.eclipse.jdt.ui.CompilationUnitEditor",1359687122074
executed,command,org.eclipse.ui.workbench.texteditor,3.7.0.v20110928-1504,"org.eclipse.ui.edit.text.select.lineEnd",1359687139417
executed,command,org.eclipse.ui,3.7.0.v20110928-1505,"org.eclipse.ui.edit.cut",1359687139683
executed,command,org.eclipse.ui.workbench.texteditor,3.7.0.v20110928-1504,"org.eclipse.ui.edit.text.goto.lineEnd",1359687140906
executed,command,org.eclipse.ui,3.7.0.v20110928-1505,"org.eclipse.ui.edit.paste",1359687141366
deactivated,workbench,org.eclipse.ui.workbench,3.7.1.v20120104-1859,"",1359687147368
activated,workbench,org.eclipse.ui.workbench,3.7.1.v20120104-1859,"",1359687167645
executed,command,org.eclipse.ui.workbench.texteditor,3.7.0.v20110928-1504,"org.eclipse.ui.edit.text.goto.lineEnd",1359687186150
executed,command,org.eclipse.ui.workbench.texteditor,3.7.0.v20110928-1504,"org.eclipse.ui.edit.text.select.lineEnd",1359687203638
executed,command,org.eclipse.ui,3.7.0.v20110928-1505,"org.eclipse.ui.edit.copy",1359687204813
executed,command,org.eclipse.ui,3.7.0.v20110928-1505,"org.eclipse.ui.edit.paste",1359687209905
executed,command,org.eclipse.ui.workbench.texteditor,3.7.0.v20110928-1504,"org.eclipse.ui.edit.text.select.lineStart",1359687215782
executed,command,org.eclipse.ui,3.7.0.v20110928-1505,"org.eclipse.ui.edit.copy",1359687216061
executed,command,org.eclipse.ui,3.7.0.v20110928-1505,"org.eclipse.ui.edit.paste",1359687218666
executed,command,org.eclipse.ui.workbench.texteditor,3.7.0.v20110928-1504,"org.eclipse.ui.edit.text.goto.lineEnd",1359687219789
deactivated,workbench,org.eclipse.ui.workbench,3.7.1.v20120104-1859,"",1359687246462
activated,workbench,org.eclipse.ui.workbench,3.7.1.v20120104-1859,"",1359687257102
executed,command,org.eclipse.ui.workbench.texteditor,3.7.0.v20110928-1504,"org.eclipse.ui.edit.text.select.lineEnd",1359687268354
executed,command,org.eclipse.ui.workbench.texteditor,3.7.0.v20110928-1504,"org.eclipse.ui.edit.text.select.lineEnd",1359687280462
executed,command,org.eclipse.ui,3.7.0.v20110928-1505,"org.eclipse.ui.edit.copy",1359687281622
deactivated,workbench,org.eclipse.ui.workbench,3.7.1.v20120104-1859,"",1359687287295
activated,workbench,org.eclipse.ui.workbench,3.7.1.v20120104-1859,"",1359687288789
deactivated,workbench,org.eclipse.ui.workbench,3.7.1.v20120104-1859,"",1359687288915
activated,workbench,org.eclipse.ui.workbench,3.7.1.v20120104-1859,"",1359687297111
executed,command,org.eclipse.ui,3.7.0.v20110928-1505,"org.eclipse.ui.edit.copy",1359687314343
executed,command,org.eclipse.ui,3.7.0.v20110928-1505,"org.eclipse.ui.edit.undo",1359687316758
executed,command,org.eclipse.ui,3.7.0.v20110928-1505,"org.eclipse.ui.edit.redo",1359687318158
executed,command,org.eclipse.ui,3.7.0.v20110928-1505,"org.eclipse.ui.edit.paste",1359687325133
activated,editor,org.eclipse.jdt.ui,3.7.2.v20120109-1427,"org.eclipse.jdt.ui.CompilationUnitEditor",1359687335183
executed,command,org.eclipse.ui,3.7.0.v20110928-1505,"org.eclipse.ui.edit.copy",1359687337593
deactivated,workbench,org.eclipse.ui.workbench,3.7.1.v20120104-1859,"",1359687339681
activated,workbench,org.eclipse.ui.workbench,3.7.1.v20120104-1859,"",1359687347691
activated,editor,org.eclipse.jdt.ui,3.7.2.v20120109-1427,"org.eclipse.jdt.ui.CompilationUnitEditor",1359687350269
executed,command,org.eclipse.ui,3.7.0.v20110928-1505,"org.eclipse.ui.navigate.backwardHistory",1359687350284
executed,command,org.eclipse.ui,3.7.0.v20110928-1505,"org.eclipse.ui.edit.undo",1359687353518
executed,command,org.eclipse.ui,3.7.0.v20110928-1505,"org.eclipse.ui.edit.redo",1359687354047
error,log,,,"File not found: /Users/pky1030/Downloads/youandme/org.opros.tpl.scenario/META-INF/MANIFEST.MF.",1359687356138
error,log,,,"File not found: /Users/pky1030/Downloads/youandme/org.opros.tpl.taskmodel/META-INF/MANIFEST.MF.",1359687356236
error,log,,,"File not found: /Users/pky1030/Downloads/youandme/org.opros.tpl/META-INF/MANIFEST.MF.",1359687356237
error,log,,,"File not found: /Users/pky1030/Downloads/youandme/org.opros.tpl.taskmodel.edit/META-INF/MANIFEST.MF.",1359687356238
executed,command,org.eclipse.ui,3.7.0.v20110928-1505,"org.eclipse.ui.edit.text.contentAssist.proposals",1359687365678
deactivated,workbench,org.eclipse.ui.workbench,3.7.1.v20120104-1859,"",1359687370212
activated,workbench,org.eclipse.ui.workbench,3.7.1.v20120104-1859,"",1359687371230
executed,command,org.eclipse.ui,3.7.0.v20110928-1505,"org.eclipse.ui.edit.text.contentAssist.proposals",1359687375964
deactivated,workbench,org.eclipse.ui.workbench,3.7.1.v20120104-1859,"",1359687381588
activated,workbench,org.eclipse.ui.workbench,3.7.1.v20120104-1859,"",1359687382003
executed,command,org.eclipse.ui,3.7.0.v20110928-1505,"org.eclipse.ui.edit.text.contentAssist.proposals",1359687383040
executed,command,org.eclipse.ui.workbench.texteditor,3.7.0.v20110928-1504,"org.eclipse.ui.edit.text.select.lineEnd",1359687393416
deactivated,workbench,org.eclipse.ui.workbench,3.7.1.v20120104-1859,"",1359687394849
activated,workbench,org.eclipse.ui.workbench,3.7.1.v20120104-1859,"",1359687395633
deactivated,workbench,org.eclipse.ui.workbench,3.7.1.v20120104-1859,"",1359687396007
activated,workbench,org.eclipse.ui.workbench,3.7.1.v20120104-1859,"",1359687398433
deactivated,workbench,org.eclipse.ui.workbench,3.7.1.v20120104-1859,"",1359687401532
activated,workbench,org.eclipse.ui.workbench,3.7.1.v20120104-1859,"",1359687421645
activated,editor,org.eclipse.jdt.ui,3.7.2.v20120109-1427,"org.eclipse.jdt.ui.CompilationUnitEditor",1359687423661
executed,command,org.eclipse.ui.workbench.texteditor,3.7.0.v20110928-1504,"org.eclipse.ui.edit.text.select.lineStart",1359687429055
executed,command,org.eclipse.ui,3.7.0.v20110928-1505,"org.eclipse.ui.edit.copy",1359687429304
deactivated,workbench,org.eclipse.ui.workbench,3.7.1.v20120104-1859,"",1359687430085
activated,workbench,org.eclipse.ui.workbench,3.7.1.v20120104-1859,"",1359687431654
executed,command,org.eclipse.ui.workbench.texteditor,3.7.0.v20110928-1504,"org.eclipse.ui.edit.text.select.lineStart",1359687437318
executed,command,org.eclipse.jdt.ui,3.7.2.v20120109-1427,"org.eclipse.jdt.ui.edit.text.java.toggle.comment",1359687437569
executed,command,org.eclipse.ui,3.7.0.v20110928-1505,"org.eclipse.ui.edit.undo",1359687438596
executed,command,org.eclipse.ui,3.7.0.v20110928-1505,"org.eclipse.ui.edit.undo",1359687439050
executed,command,org.eclipse.ui.workbench.texteditor,3.7.0.v20110928-1504,"org.eclipse.ui.edit.text.select.lineEnd",1359687439714
executed,command,org.eclipse.ui,3.7.0.v20110928-1505,"org.eclipse.ui.edit.copy",1359687440068
executed,command,org.eclipse.ui,3.7.0.v20110928-1505,"org.eclipse.ui.edit.paste",1359687440472
deactivated,workbench,org.eclipse.ui.workbench,3.7.1.v20120104-1859,"",1359687443538
activated,workbench,org.eclipse.ui.workbench,3.7.1.v20120104-1859,"",1359687445287
deactivated,workbench,org.eclipse.ui.workbench,3.7.1.v20120104-1859,"",1359687446671
activated,workbench,org.eclipse.ui.workbench,3.7.1.v20120104-1859,"",1359687447799
deactivated,workbench,org.eclipse.ui.workbench,3.7.1.v20120104-1859,"",1359687448832
activated,workbench,org.eclipse.ui.workbench,3.7.1.v20120104-1859,"",1359687450417
executed,command,org.eclipse.ui.workbench.texteditor,3.7.0.v20110928-1504,"org.eclipse.ui.edit.text.goto.lineEnd",1359687451094
executed,command,org.eclipse.ui.workbench.texteditor,3.7.0.v20110928-1504,"org.eclipse.ui.edit.text.select.lineStart",1359687451407
executed,command,org.eclipse.ui,3.7.0.v20110928-1505,"org.eclipse.ui.edit.copy",1359687451563
executed,command,org.eclipse.ui,3.7.0.v20110928-1505,"org.eclipse.ui.edit.paste",1359687452188
executed,command,org.eclipse.ui.workbench.texteditor,3.7.0.v20110928-1504,"org.eclipse.ui.edit.text.goto.lineEnd",1359687457567
deactivated,workbench,org.eclipse.ui.workbench,3.7.1.v20120104-1859,"",1359687459842
activated,workbench,org.eclipse.ui.workbench,3.7.1.v20120104-1859,"",1359687462546
executed,command,org.eclipse.ui.workbench.texteditor,3.7.0.v20110928-1504,"org.eclipse.ui.edit.text.select.lineStart",1359687468886
executed,command,org.eclipse.ui,3.7.0.v20110928-1505,"org.eclipse.ui.edit.copy",1359687469103
executed,command,org.eclipse.ui,3.7.0.v20110928-1505,"org.eclipse.ui.edit.paste",1359687469635
executed,command,org.eclipse.ui.workbench.texteditor,3.7.0.v20110928-1504,"org.eclipse.ui.edit.text.goto.lineEnd",1359687473667
executed,command,org.eclipse.ui.workbench.texteditor,3.7.0.v20110928-1504,"org.eclipse.ui.edit.text.select.lineStart",1359687473981
executed,command,org.eclipse.ui,3.7.0.v20110928-1505,"org.eclipse.ui.edit.cut",1359687475370
executed,command,org.eclipse.ui.workbench.texteditor,3.7.0.v20110928-1504,"org.eclipse.ui.edit.text.goto.lineEnd",1359687476889
executed,command,org.eclipse.ui,3.7.0.v20110928-1505,"org.eclipse.ui.edit.paste",1359687477295
deactivated,workbench,org.eclipse.ui.workbench,3.7.1.v20120104-1859,"",1359687477754
activated,workbench,org.eclipse.ui.workbench,3.7.1.v20120104-1859,"",1359687492499
executed,command,org.eclipse.ui.workbench.texteditor,3.7.0.v20110928-1504,"org.eclipse.ui.edit.text.goto.lineStart",1359687494094
executed,command,org.eclipse.ui,3.7.0.v20110928-1505,"org.eclipse.ui.file.save",1359687498452
deactivated,workbench,org.eclipse.ui.workbench,3.7.1.v20120104-1859,"",1359687499170
activated,workbench,org.eclipse.ui.workbench,3.7.1.v20120104-1859,"",1359687500842
activated,editor,org.eclipse.jdt.ui,3.7.2.v20120109-1427,"org.eclipse.jdt.ui.CompilationUnitEditor",1359687501402
deactivated,workbench,org.eclipse.ui.workbench,3.7.1.v20120104-1859,"",1359687503438
activated,workbench,org.eclipse.ui.workbench,3.7.1.v20120104-1859,"",1359687505714
activated,editor,org.eclipse.jdt.ui,3.7.2.v20120109-1427,"org.eclipse.jdt.ui.CompilationUnitEditor",1359687507077
executed,command,org.eclipse.ui,3.7.0.v20110928-1505,"org.eclipse.ui.navigate.backwardHistory",1359687507163
deactivated,workbench,org.eclipse.ui.workbench,3.7.1.v20120104-1859,"",1359687508083
executed,command,org.eclipse.ui,3.7.0.v20110928-1505,"org.eclipse.ui.edit.findReplace",1359687508128
activated,workbench,org.eclipse.ui.workbench,3.7.1.v20120104-1859,"",1359687509701
executed,command,org.eclipse.ui.workbench.texteditor,3.7.0.v20110928-1504,"org.eclipse.ui.edit.text.select.lineStart",1359687516895
executed,command,org.eclipse.ui,3.7.0.v20110928-1505,"org.eclipse.ui.edit.copy",1359687517200
executed,command,org.eclipse.ui,3.7.0.v20110928-1505,"org.eclipse.ui.edit.copy",1359687517470
executed,command,org.eclipse.ui,3.7.0.v20110928-1505,"org.eclipse.ui.edit.paste",1359687518267
executed,command,org.eclipse.ui,3.7.0.v20110928-1505,"org.eclipse.ui.file.save",1359687526868
activated,editor,org.eclipse.jdt.ui,3.7.2.v20120109-1427,"org.eclipse.jdt.ui.CompilationUnitEditor",1359687528709
executed,command,org.eclipse.ui,3.7.0.v20110928-1505,"org.eclipse.ui.navigate.backwardHistory",1359687528719
executed,command,org.eclipse.ui,3.7.0.v20110928-1505,"org.eclipse.ui.edit.text.contentAssist.proposals",1359687531578
executed,command,org.eclipse.ui,3.7.0.v20110928-1505,"org.eclipse.ui.edit.text.contentAssist.proposals",1359687535119
executed,command,org.eclipse.ui,3.7.0.v20110928-1505,"org.eclipse.ui.edit.text.contentAssist.proposals",1359687537309
executed,command,org.eclipse.ui,3.7.0.v20110928-1505,"org.eclipse.ui.edit.text.contentAssist.proposals",1359687539135
executed,command,org.eclipse.ui,3.7.0.v20110928-1505,"org.eclipse.ui.edit.text.contentAssist.proposals",1359687541939
executed,command,org.eclipse.ui,3.7.0.v20110928-1505,"org.eclipse.ui.edit.text.contentAssist.proposals",1359687551290
deactivated,workbench,org.eclipse.ui.workbench,3.7.1.v20120104-1859,"",1359687554354
activated,workbench,org.eclipse.ui.workbench,3.7.1.v20120104-1859,"",1359687556941
executed,command,org.eclipse.ui,3.7.0.v20110928-1505,"org.eclipse.ui.edit.text.contentAssist.proposals",1359687558853
executed,command,org.eclipse.ui,3.7.0.v20110928-1505,"org.eclipse.ui.edit.text.contentAssist.proposals",1359687560269
activated,editor,org.eclipse.jdt.ui,3.7.2.v20120109-1427,"org.eclipse.jdt.ui.CompilationUnitEditor",1359687569291
activated,editor,org.eclipse.jdt.ui,3.7.2.v20120109-1427,"org.eclipse.jdt.ui.CompilationUnitEditor",1359687571660
executed,command,org.eclipse.ui,3.7.0.v20110928-1505,"org.eclipse.ui.navigate.backwardHistory",1359687571671
deactivated,workbench,org.eclipse.ui.workbench,3.7.1.v20120104-1859,"",1359687579775
activated,workbench,org.eclipse.ui.workbench,3.7.1.v20120104-1859,"",1359687581259
executed,command,org.eclipse.ui,3.7.0.v20110928-1505,"org.eclipse.ui.edit.text.contentAssist.proposals",1359687581810
executed,command,org.eclipse.ui,3.7.0.v20110928-1505,"org.eclipse.ui.edit.text.contentAssist.proposals",1359687586789
deactivated,workbench,org.eclipse.ui.workbench,3.7.1.v20120104-1859,"",1359687590843
activated,workbench,org.eclipse.ui.workbench,3.7.1.v20120104-1859,"",1359687593858
executed,command,org.eclipse.ui,3.7.0.v20110928-1505,"org.eclipse.ui.edit.text.contentAssist.proposals",1359687595817
executed,command,org.eclipse.ui,3.7.0.v20110928-1505,"org.eclipse.ui.edit.text.contentAssist.proposals",1359687599533
deactivated,workbench,org.eclipse.ui.workbench,3.7.1.v20120104-1859,"",1359687601599
activated,workbench,org.eclipse.ui.workbench,3.7.1.v20120104-1859,"",1359687602752
executed,command,org.eclipse.ui,3.7.0.v20110928-1505,"org.eclipse.ui.edit.text.contentAssist.proposals",1359687606019
executed,command,org.eclipse.ui,3.7.0.v20110928-1505,"org.eclipse.ui.edit.text.contentAssist.proposals",1359687607124
deactivated,workbench,org.eclipse.ui.workbench,3.7.1.v20120104-1859,"",1359687611447
activated,workbench,org.eclipse.ui.workbench,3.7.1.v20120104-1859,"",1359687614308
deactivated,workbench,org.eclipse.ui.workbench,3.7.1.v20120104-1859,"",1359687616362
activated,workbench,org.eclipse.ui.workbench,3.7.1.v20120104-1859,"",1359687617359
executed,command,org.eclipse.ui,3.7.0.v20110928-1505,"org.eclipse.ui.edit.text.contentAssist.proposals",1359687619539
deactivated,workbench,org.eclipse.ui.workbench,3.7.1.v20120104-1859,"",1359687623007
activated,workbench,org.eclipse.ui.workbench,3.7.1.v20120104-1859,"",1359687623777
executed,command,org.eclipse.ui,3.7.0.v20110928-1505,"org.eclipse.ui.edit.text.contentAssist.proposals",1359687624415
deactivated,workbench,org.eclipse.ui.workbench,3.7.1.v20120104-1859,"",1359687628865
activated,workbench,org.eclipse.ui.workbench,3.7.1.v20120104-1859,"",1359687630032
deactivated,workbench,org.eclipse.ui.workbench,3.7.1.v20120104-1859,"",1359687645237
activated,workbench,org.eclipse.ui.workbench,3.7.1.v20120104-1859,"",1359687650172
activated,editor,org.eclipse.jdt.ui,3.7.2.v20120109-1427,"org.eclipse.jdt.ui.CompilationUnitEditor",1359687658198
deactivated,workbench,org.eclipse.ui.workbench,3.7.1.v20120104-1859,"",1359687659285
executed,command,org.eclipse.ui,3.7.0.v20110928-1505,"org.eclipse.ui.edit.findReplace",1359687659338
activated,workbench,org.eclipse.ui.workbench,3.7.1.v20120104-1859,"",1359687660186
executed,command,org.eclipse.ui,3.7.0.v20110928-1505,"org.eclipse.ui.edit.copy",1359687661407
activated,editor,org.eclipse.jdt.ui,3.7.2.v20120109-1427,"org.eclipse.jdt.ui.CompilationUnitEditor",1359687662397
executed,command,org.eclipse.ui,3.7.0.v20110928-1505,"org.eclipse.ui.navigate.backwardHistory",1359687662408
executed,command,org.eclipse.ui,3.7.0.v20110928-1505,"org.eclipse.ui.edit.text.contentAssist.proposals",1359687667010
executed,command,org.eclipse.ui,3.7.0.v20110928-1505,"org.eclipse.ui.edit.paste",1359687669741
deactivated,workbench,org.eclipse.ui.workbench,3.7.1.v20120104-1859,"",1359687671067
activated,workbench,org.eclipse.ui.workbench,3.7.1.v20120104-1859,"",1359687672151
deactivated,workbench,org.eclipse.ui.workbench,3.7.1.v20120104-1859,"",1359687677367
activated,workbench,org.eclipse.ui.workbench,3.7.1.v20120104-1859,"",1359687678192
executed,command,org.eclipse.ui,3.7.0.v20110928-1505,"org.eclipse.ui.edit.cut",1359687681233
executed,command,org.eclipse.ui.workbench.texteditor,3.7.0.v20110928-1504,"org.eclipse.ui.edit.text.goto.lineStart",1359687682077
executed,command,org.eclipse.ui.workbench.texteditor,3.7.0.v20110928-1504,"org.eclipse.ui.edit.text.goto.lineEnd",1359687683093
executed,command,org.eclipse.ui,3.7.0.v20110928-1505,"org.eclipse.ui.edit.paste",1359687683944
executed,command,org.eclipse.ui.workbench.texteditor,3.7.0.v20110928-1504,"org.eclipse.ui.edit.text.goto.lineEnd",1359687697390
activated,editor,org.eclipse.jdt.ui,3.7.2.v20120109-1427,"org.eclipse.jdt.ui.CompilationUnitEditor",1359687708907
executed,command,org.eclipse.ui,3.7.0.v20110928-1505,"org.eclipse.ui.edit.copy",1359687711819
executed,command,org.eclipse.ui,3.7.0.v20110928-1505,"org.eclipse.ui.edit.copy",1359687726086
activated,editor,org.eclipse.jdt.ui,3.7.2.v20120109-1427,"org.eclipse.jdt.ui.CompilationUnitEditor",1359687727989
executed,command,org.eclipse.ui,3.7.0.v20110928-1505,"org.eclipse.ui.navigate.backwardHistory",1359687728002
executed,command,org.eclipse.ui,3.7.0.v20110928-1505,"org.eclipse.ui.edit.paste",1359687730468
executed,command,org.eclipse.ui.workbench.texteditor,3.7.0.v20110928-1504,"org.eclipse.ui.edit.text.goto.lineEnd",1359687735123
executed,command,org.eclipse.ui.workbench.texteditor,3.7.0.v20110928-1504,"org.eclipse.ui.edit.text.goto.lineStart",1359687735935
executed,command,org.eclipse.ui.workbench.texteditor,3.7.0.v20110928-1504,"org.eclipse.ui.edit.text.goto.lineEnd",1359687736653
executed,command,org.eclipse.ui.workbench.texteditor,3.7.0.v20110928-1504,"org.eclipse.ui.edit.text.goto.lineStart",1359687737211
executed,command,org.eclipse.ui.workbench.texteditor,3.7.0.v20110928-1504,"org.eclipse.ui.edit.text.goto.lineEnd",1359687738082
executed,command,org.eclipse.ui.workbench.texteditor,3.7.0.v20110928-1504,"org.eclipse.ui.edit.text.goto.lineStart",1359687739218
