what,kind,bundleId,bundleVersion,description,time
executed,command,org.eclipse.debug.ui,3.7.102.v20111129-1423_r372,"org.eclipse.debug.ui.commands.StepOver",1360551273226
executed,command,org.eclipse.debug.ui,3.7.102.v20111129-1423_r372,"org.eclipse.debug.ui.commands.StepOver",1360551274157
executed,command,org.eclipse.debug.ui,3.7.102.v20111129-1423_r372,"org.eclipse.debug.ui.commands.StepOver",1360551275200
executed,command,org.eclipse.debug.ui,3.7.102.v20111129-1423_r372,"org.eclipse.debug.ui.commands.StepOver",1360551276211
executed,command,org.eclipse.debug.ui,3.7.102.v20111129-1423_r372,"org.eclipse.debug.ui.commands.StepOver",1360551277212
executed,command,org.eclipse.debug.ui,3.7.102.v20111129-1423_r372,"org.eclipse.debug.ui.commands.StepOver",1360551278541
activated,editor,org.eclipse.jdt.ui,3.7.2.v20120109-1427,"org.eclipse.jdt.ui.CompilationUnitEditor",1360551308392
executed,command,org.eclipse.ui,3.7.0.v20110928-1505,"org.eclipse.ui.edit.cut",1360551310322
executed,command,org.eclipse.ui,3.7.0.v20110928-1505,"org.eclipse.ui.edit.paste",1360551311745
executed,command,org.eclipse.ui.workbench.texteditor,3.7.0.v20110928-1504,"org.eclipse.ui.edit.text.goto.lineEnd",1360551313446
executed,command,org.eclipse.ui,3.7.0.v20110928-1505,"org.eclipse.ui.edit.cut",1360551319403
executed,command,org.eclipse.ui,3.7.0.v20110928-1505,"org.eclipse.ui.file.save",1360551320948
activated,view,org.eclipse.debug.ui,3.7.102.v20111129-1423_r372,"org.eclipse.debug.ui.DebugView",1360551323618
executed,command,org.eclipse.debug.ui,3.7.102.v20111129-1423_r372,"org.eclipse.debug.ui.commands.Resume",1360551324457
deactivated,workbench,org.eclipse.ui.workbench,3.7.1.v20120104-1859,"",1360551325632
activated,workbench,org.eclipse.ui.workbench,3.7.1.v20120104-1859,"",1360551331485
executed,command,org.eclipse.debug.ui,3.7.102.v20111129-1423_r372,"org.eclipse.debug.ui.commands.Resume",1360551334260
executed,command,org.eclipse.debug.ui,3.7.102.v20111129-1423_r372,"org.eclipse.debug.ui.commands.Resume",1360551337000
activated,editor,org.eclipse.jdt.ui,3.7.2.v20120109-1427,"org.eclipse.jdt.ui.CompilationUnitEditor",1360551338868
executed,command,,,"AUTOGEN:::org.eclipse.jdt.internal.ui.CompilationUnitEditor.ruler.actions/org.eclipse.jdt.internal.ui.javaeditor.JavaSelectRulerAction",1360551339371
executed,command,,,"AUTOGEN:::org.eclipse.jdt.internal.ui.CompilationUnitEditor.ruler.actions/org.eclipse.jdt.internal.ui.javaeditor.JavaSelectRulerAction",1360551339924
activated,view,org.eclipse.debug.ui,3.7.102.v20111129-1423_r372,"org.eclipse.debug.ui.DebugView",1360551341539
executed,command,org.eclipse.debug.ui,3.7.102.v20111129-1423_r372,"org.eclipse.debug.ui.commands.Resume",1360551341646
activated,view,org.eclipse.ui.console,3.5.100.v20111007_r372,"org.eclipse.ui.console.ConsoleView",1360551344649
executed,command,org.eclipse.ui,3.7.0.v20110928-1505,"org.eclipse.ui.edit.copy",1360551346760
activated,editor,org.eclipse.jdt.ui,3.7.2.v20120109-1427,"org.eclipse.jdt.ui.CompilationUnitEditor",1360551348490
executed,command,org.eclipse.ui,3.7.0.v20110928-1505,"org.eclipse.ui.edit.paste",1360551349129
executed,command,org.eclipse.ui,3.7.0.v20110928-1505,"org.eclipse.ui.file.save",1360551350353
activated,view,org.eclipse.debug.ui,3.7.102.v20111129-1423_r372,"org.eclipse.debug.ui.BreakpointView",1360551352384
executed,command,org.eclipse.ui,3.7.0.v20110928-1505,"org.eclipse.ui.edit.selectAll",1360551353298
no handler,command,org.eclipse.ui,3.7.0.v20110928-1505,"org.eclipse.ui.edit.delete",1360551355149
activated,view,org.eclipse.debug.ui,3.7.102.v20111129-1423_r372,"org.eclipse.debug.ui.DebugView",1360551356597
executed,command,org.eclipse.debug.ui,3.7.102.v20111129-1423_r372,"org.eclipse.debug.ui.commands.Resume",1360551356732
deactivated,workbench,org.eclipse.ui.workbench,3.7.1.v20120104-1859,"",1360551357698
activated,workbench,org.eclipse.ui.workbench,3.7.1.v20120104-1859,"",1360551360738
deactivated,workbench,org.eclipse.ui.workbench,3.7.1.v20120104-1859,"",1360551361856
activated,workbench,org.eclipse.ui.workbench,3.7.1.v20120104-1859,"",1360551371666
deactivated,workbench,org.eclipse.ui.workbench,3.7.1.v20120104-1859,"",1360551372722
activated,workbench,org.eclipse.ui.workbench,3.7.1.v20120104-1859,"",1360551391063
activated,editor,org.eclipse.jdt.ui,3.7.2.v20120109-1427,"org.eclipse.jdt.ui.CompilationUnitEditor",1360551403603
activated,editor,org.eclipse.jdt.ui,3.7.2.v20120109-1427,"org.eclipse.jdt.ui.CompilationUnitEditor",1360551405773
deactivated,workbench,org.eclipse.ui.workbench,3.7.1.v20120104-1859,"",1360551410827
executed,command,org.eclipse.ui,3.7.0.v20110928-1505,"org.eclipse.ui.edit.findReplace",1360551410887
activated,workbench,org.eclipse.ui.workbench,3.7.1.v20120104-1859,"",1360551413814
executed,command,org.eclipse.jdt.ui,3.7.2.v20120109-1427,"org.eclipse.jdt.ui.edit.text.java.toggle.comment",1360551415172
executed,command,org.eclipse.ui,3.7.0.v20110928-1505,"org.eclipse.ui.file.save",1360551415690
deactivated,workbench,org.eclipse.ui.workbench,3.7.1.v20120104-1859,"",1360551416242
activated,workbench,org.eclipse.ui.workbench,3.7.1.v20120104-1859,"",1360551451171
deactivated,workbench,org.eclipse.ui.workbench,3.7.1.v20120104-1859,"",1360551453289
activated,workbench,org.eclipse.ui.workbench,3.7.1.v20120104-1859,"",1360551460703
deactivated,workbench,org.eclipse.ui.workbench,3.7.1.v20120104-1859,"",1360551462628
activated,workbench,org.eclipse.ui.workbench,3.7.1.v20120104-1859,"",1360551466431
activated,view,org.eclipse.debug.ui,3.7.102.v20111129-1423_r372,"org.eclipse.debug.ui.DebugView",1360551468275
executed,command,org.eclipse.debug.ui,3.7.102.v20111129-1423_r372,"org.eclipse.debug.ui.commands.Terminate",1360551468384
deactivated,workbench,org.eclipse.ui.workbench,3.7.1.v20120104-1859,"",1360551472913
activated,workbench,org.eclipse.ui.workbench,3.7.1.v20120104-1859,"",1360551497260
deactivated,workbench,org.eclipse.ui.workbench,3.7.1.v20120104-1859,"",1360551499641
activated,workbench,org.eclipse.ui.workbench,3.7.1.v20120104-1859,"",1360551565105
deactivated,workbench,org.eclipse.ui.workbench,3.7.1.v20120104-1859,"",1360551566765
activated,workbench,org.eclipse.ui.workbench,3.7.1.v20120104-1859,"",1360551574796
activated,editor,org.eclipse.jdt.ui,3.7.2.v20120109-1427,"org.eclipse.jdt.ui.CompilationUnitEditor",1360551576235
executed,command,org.eclipse.jdt.ui,3.7.2.v20120109-1427,"org.eclipse.jdt.ui.edit.text.java.toggle.comment",1360551577305
executed,command,org.eclipse.ui,3.7.0.v20110928-1505,"org.eclipse.ui.file.save",1360551577919
deactivated,workbench,org.eclipse.ui.workbench,3.7.1.v20120104-1859,"",1360551578370
activated,workbench,org.eclipse.ui.workbench,3.7.1.v20120104-1859,"",1360551668345
deactivated,workbench,org.eclipse.ui.workbench,3.7.1.v20120104-1859,"",1360551682850
activated,workbench,org.eclipse.ui.workbench,3.7.1.v20120104-1859,"",1360551820375
deactivated,workbench,org.eclipse.ui.workbench,3.7.1.v20120104-1859,"",1360551825397
activated,workbench,org.eclipse.ui.workbench,3.7.1.v20120104-1859,"",1360551828434
deactivated,workbench,org.eclipse.ui.workbench,3.7.1.v20120104-1859,"",1360551829458
activated,workbench,org.eclipse.ui.workbench,3.7.1.v20120104-1859,"",1360551900710
executed,command,org.eclipse.ui,3.7.0.v20110928-1505,"org.eclipse.ui.edit.paste",1360551905979
executed,command,org.eclipse.ui,3.7.0.v20110928-1505,"org.eclipse.ui.file.save",1360551909075
deactivated,workbench,org.eclipse.ui.workbench,3.7.1.v20120104-1859,"",1360551909721
activated,workbench,org.eclipse.ui.workbench,3.7.1.v20120104-1859,"",1360552266678
deactivated,workbench,org.eclipse.ui.workbench,3.7.1.v20120104-1859,"",1360552269489
activated,workbench,org.eclipse.ui.workbench,3.7.1.v20120104-1859,"",1360552332149
deactivated,workbench,org.eclipse.ui.workbench,3.7.1.v20120104-1859,"",1360552333759
activated,workbench,org.eclipse.ui.workbench,3.7.1.v20120104-1859,"",1360552337233
activated,editor,org.eclipse.jdt.ui,3.7.2.v20120109-1427,"org.eclipse.jdt.ui.CompilationUnitEditor",1360552337417
executed,command,org.eclipse.ui.ide,3.7.0.v20110928-1505,"org.eclipse.ui.navigate.openResource",1360552337418
executed,command,org.eclipse.ui.workbench.texteditor,3.7.0.v20110928-1504,"org.eclipse.ui.edit.text.goto.lineEnd",1360552342332
executed,command,org.eclipse.ui.workbench.texteditor,3.7.0.v20110928-1504,"org.eclipse.ui.edit.text.select.lineStart",1360552342615
executed,command,org.eclipse.ui,3.7.0.v20110928-1505,"org.eclipse.ui.edit.copy",1360552342878
executed,command,org.eclipse.ui,3.7.0.v20110928-1505,"org.eclipse.ui.edit.paste",1360552343549
deactivated,workbench,org.eclipse.ui.workbench,3.7.1.v20120104-1859,"",1360552343910
activated,workbench,org.eclipse.ui.workbench,3.7.1.v20120104-1859,"",1360552347541
executed,command,org.eclipse.ui,3.7.0.v20110928-1505,"org.eclipse.ui.edit.paste",1360552354125
executed,command,org.eclipse.ui,3.7.0.v20110928-1505,"org.eclipse.ui.edit.undo",1360552361681
executed,command,org.eclipse.ui,3.7.0.v20110928-1505,"org.eclipse.ui.edit.paste",1360552364523
executed,command,org.eclipse.ui,3.7.0.v20110928-1505,"org.eclipse.ui.edit.copy",1360552366511
executed,command,org.eclipse.ui,3.7.0.v20110928-1505,"org.eclipse.ui.edit.paste",1360552368026
executed,command,org.eclipse.ui.workbench.texteditor,3.7.0.v20110928-1504,"org.eclipse.ui.edit.text.select.lineEnd",1360552372991
executed,command,org.eclipse.ui,3.7.0.v20110928-1505,"org.eclipse.ui.edit.text.contentAssist.proposals",1360552377821
executed,command,org.eclipse.ui,3.7.0.v20110928-1505,"org.eclipse.ui.edit.text.contentAssist.proposals",1360552380678
executed,command,org.eclipse.ui,3.7.0.v20110928-1505,"org.eclipse.ui.edit.text.contentAssist.proposals",1360552385018
executed,command,org.eclipse.ui,3.7.0.v20110928-1505,"org.eclipse.ui.edit.text.contentAssist.proposals",1360552398219
executed,command,org.eclipse.ui,3.7.0.v20110928-1505,"org.eclipse.ui.edit.text.contentAssist.proposals",1360552407833
executed,command,org.eclipse.ui,3.7.0.v20110928-1505,"org.eclipse.ui.edit.text.contentAssist.proposals",1360552415443
executed,command,org.eclipse.ui,3.7.0.v20110928-1505,"org.eclipse.ui.edit.text.contentAssist.proposals",1360552425783
executed,command,org.eclipse.ui,3.7.0.v20110928-1505,"org.eclipse.ui.edit.undo",1360552427841
executed,command,org.eclipse.ui,3.7.0.v20110928-1505,"org.eclipse.ui.edit.text.contentAssist.proposals",1360552428907
executed,command,org.eclipse.ui,3.7.0.v20110928-1505,"org.eclipse.ui.edit.text.contentAssist.proposals",1360552431424
executed,command,org.eclipse.ui,3.7.0.v20110928-1505,"org.eclipse.ui.edit.text.contentAssist.proposals",1360552442861
executed,command,org.eclipse.ui,3.7.0.v20110928-1505,"org.eclipse.ui.edit.text.contentAssist.proposals",1360552446527
executed,command,org.eclipse.ui,3.7.0.v20110928-1505,"org.eclipse.ui.edit.text.contentAssist.proposals",1360552450127
executed,command,org.eclipse.ui.workbench.texteditor,3.7.0.v20110928-1504,"org.eclipse.ui.edit.text.select.lineStart",1360552454541
executed,command,org.eclipse.ui.workbench.texteditor,3.7.0.v20110928-1504,"org.eclipse.ui.edit.text.select.lineStart",1360552454837
executed,command,org.eclipse.ui,3.7.0.v20110928-1505,"org.eclipse.ui.edit.cut",1360552455349
executed,command,org.eclipse.ui,3.7.0.v20110928-1505,"org.eclipse.ui.file.save",1360552457036
deactivated,workbench,org.eclipse.ui.workbench,3.7.1.v20120104-1859,"",1360552457603
activated,workbench,org.eclipse.ui.workbench,3.7.1.v20120104-1859,"",1360552458165
executed,command,,,"AUTOGEN:::org.eclipse.jdt.debug.CompilationUnitEditor.BreakpointRulerActions/org.eclipse.jdt.debug.ui.actions.ManageBreakpointRulerAction",1360552459148
deactivated,workbench,org.eclipse.ui.workbench,3.7.1.v20120104-1859,"",1360552460710
activated,workbench,org.eclipse.ui.workbench,3.7.1.v20120104-1859,"",1360552476008
activated,view,org.eclipse.debug.ui,3.7.102.v20111129-1423_r372,"org.eclipse.debug.ui.VariableView",1360552477995
activated,editor,org.eclipse.jdt.ui,3.7.2.v20120109-1427,"org.eclipse.jdt.ui.CompilationUnitEditor",1360552485352
executed,command,org.eclipse.ui.workbench.texteditor,3.7.0.v20110928-1504,"org.eclipse.ui.edit.text.goto.lineEnd",1360552485772
executed,command,org.eclipse.ui,3.7.0.v20110928-1505,"org.eclipse.ui.edit.text.contentAssist.proposals",1360552489117
executed,command,org.eclipse.ui,3.7.0.v20110928-1505,"org.eclipse.ui.edit.text.contentAssist.proposals",1360552493671
executed,command,org.eclipse.ui,3.7.0.v20110928-1505,"org.eclipse.ui.edit.text.contentAssist.proposals",1360552495159
executed,command,org.eclipse.ui,3.7.0.v20110928-1505,"org.eclipse.ui.file.save",1360552498902
activated,view,org.eclipse.debug.ui,3.7.102.v20111129-1423_r372,"org.eclipse.debug.ui.DebugView",1360552501143
executed,command,org.eclipse.debug.ui,3.7.102.v20111129-1423_r372,"org.eclipse.debug.ui.commands.Resume",1360552501262
executed,command,org.eclipse.debug.ui,3.7.102.v20111129-1423_r372,"org.eclipse.debug.ui.commands.Resume",1360552502287
executed,command,org.eclipse.debug.ui,3.7.102.v20111129-1423_r372,"org.eclipse.debug.ui.commands.Resume",1360552503511
activated,editor,org.eclipse.jdt.ui,3.7.2.v20120109-1427,"org.eclipse.jdt.ui.CompilationUnitEditor",1360552504999
executed,command,,,"AUTOGEN:::org.eclipse.jdt.debug.CompilationUnitEditor.BreakpointRulerActions/org.eclipse.jdt.debug.ui.actions.ManageBreakpointRulerAction",1360552505250
activated,view,org.eclipse.debug.ui,3.7.102.v20111129-1423_r372,"org.eclipse.debug.ui.DebugView",1360552506498
executed,command,org.eclipse.debug.ui,3.7.102.v20111129-1423_r372,"org.eclipse.debug.ui.commands.Resume",1360552506633
deactivated,workbench,org.eclipse.ui.workbench,3.7.1.v20120104-1859,"",1360552507503
activated,workbench,org.eclipse.ui.workbench,3.7.1.v20120104-1859,"",1360552512667
deactivated,workbench,org.eclipse.ui.workbench,3.7.1.v20120104-1859,"",1360552513644
activated,workbench,org.eclipse.ui.workbench,3.7.1.v20120104-1859,"",1360552527850
activated,editor,org.eclipse.jdt.ui,3.7.2.v20120109-1427,"org.eclipse.jdt.ui.CompilationUnitEditor",1360552529867
deactivated,workbench,org.eclipse.ui.workbench,3.7.1.v20120104-1859,"",1360552540612
activated,workbench,org.eclipse.ui.workbench,3.7.1.v20120104-1859,"",1360552692391
deactivated,workbench,org.eclipse.ui.workbench,3.7.1.v20120104-1859,"",1360552693257
activated,workbench,org.eclipse.ui.workbench,3.7.1.v20120104-1859,"",1360552698335
activated,editor,org.eclipse.jdt.ui,3.7.2.v20120109-1427,"org.eclipse.jdt.ui.CompilationUnitEditor",1360552701535
executed,command,org.eclipse.ui.workbench.texteditor,3.7.0.v20110928-1504,"org.eclipse.ui.edit.text.select.lineStart",1360552714919
executed,command,org.eclipse.ui.workbench.texteditor,3.7.0.v20110928-1504,"org.eclipse.ui.edit.text.select.lineStart",1360552715771
executed,command,org.eclipse.ui,3.7.0.v20110928-1505,"org.eclipse.ui.edit.undo",1360552717495
executed,command,org.eclipse.ui,3.7.0.v20110928-1505,"org.eclipse.ui.file.save",1360552718554
deactivated,workbench,org.eclipse.ui.workbench,3.7.1.v20120104-1859,"",1360552719144
activated,workbench,org.eclipse.ui.workbench,3.7.1.v20120104-1859,"",1360552750104
executed,command,org.eclipse.ui,3.7.0.v20110928-1505,"org.eclipse.ui.edit.undo",1360552753363
executed,command,org.eclipse.ui,3.7.0.v20110928-1505,"org.eclipse.ui.edit.text.contentAssist.proposals",1360552764230
executed,command,org.eclipse.ui,3.7.0.v20110928-1505,"org.eclipse.ui.edit.text.contentAssist.proposals",1360552765549
executed,command,org.eclipse.ui,3.7.0.v20110928-1505,"org.eclipse.ui.file.save",1360552777552
deactivated,workbench,org.eclipse.ui.workbench,3.7.1.v20120104-1859,"",1360552779767
activated,workbench,org.eclipse.ui.workbench,3.7.1.v20120104-1859,"",1360552809620
executed,command,org.eclipse.ui,3.7.0.v20110928-1505,"org.eclipse.ui.edit.copy",1360552819821
executed,command,org.eclipse.ui,3.7.0.v20110928-1505,"org.eclipse.ui.edit.paste",1360552821508
executed,command,org.eclipse.ui,3.7.0.v20110928-1505,"org.eclipse.ui.edit.undo",1360552822956
executed,command,org.eclipse.ui,3.7.0.v20110928-1505,"org.eclipse.ui.edit.paste",1360552823587
executed,command,org.eclipse.ui.workbench.texteditor,3.7.0.v20110928-1504,"org.eclipse.ui.edit.text.goto.lineEnd",1360552844307
executed,command,org.eclipse.ui.workbench.texteditor,3.7.0.v20110928-1504,"org.eclipse.ui.edit.text.select.lineEnd",1360552860963
executed,command,org.eclipse.ui,3.7.0.v20110928-1505,"org.eclipse.ui.edit.cut",1360552862996
executed,command,org.eclipse.ui.workbench.texteditor,3.7.0.v20110928-1504,"org.eclipse.ui.edit.text.goto.lineEnd",1360552864195
executed,command,org.eclipse.ui,3.7.0.v20110928-1505,"org.eclipse.ui.edit.paste",1360552866119
executed,command,org.eclipse.ui,3.7.0.v20110928-1505,"org.eclipse.ui.file.save",1360552866948
deactivated,workbench,org.eclipse.ui.workbench,3.7.1.v20120104-1859,"",1360552868515
activated,workbench,org.eclipse.ui.workbench,3.7.1.v20120104-1859,"",1360552884867
deactivated,workbench,org.eclipse.ui.workbench,3.7.1.v20120104-1859,"",1360552890778
activated,workbench,org.eclipse.ui.workbench,3.7.1.v20120104-1859,"",1360552929299
deactivated,workbench,org.eclipse.ui.workbench,3.7.1.v20120104-1859,"",1360552929865
activated,workbench,org.eclipse.ui.workbench,3.7.1.v20120104-1859,"",1360552930390
deactivated,workbench,org.eclipse.ui.workbench,3.7.1.v20120104-1859,"",1360552933280
activated,workbench,org.eclipse.ui.workbench,3.7.1.v20120104-1859,"",1360552943221
activated,perspective,org.eclipse.jdt.ui,3.7.2.v20120109-1427,"org.eclipse.jdt.ui.JavaPerspective",1360552949871
deactivated,workbench,org.eclipse.ui.workbench,3.7.1.v20120104-1859,"",1360552953248
activated,workbench,org.eclipse.ui.workbench,3.7.1.v20120104-1859,"",1360553931745
deactivated,workbench,org.eclipse.ui.workbench,3.7.1.v20120104-1859,"",1360553932408
activated,workbench,org.eclipse.ui.workbench,3.7.1.v20120104-1859,"",1360553937514
deactivated,workbench,org.eclipse.ui.workbench,3.7.1.v20120104-1859,"",1360553938908
activated,workbench,org.eclipse.ui.workbench,3.7.1.v20120104-1859,"",1360553941771
deactivated,workbench,org.eclipse.ui.workbench,3.7.1.v20120104-1859,"",1360553943518
activated,workbench,org.eclipse.ui.workbench,3.7.1.v20120104-1859,"",1360553947681
deactivated,workbench,org.eclipse.ui.workbench,3.7.1.v20120104-1859,"",1360553948647
activated,workbench,org.eclipse.ui.workbench,3.7.1.v20120104-1859,"",1360553983266
deactivated,workbench,org.eclipse.ui.workbench,3.7.1.v20120104-1859,"",1360553988086
activated,workbench,org.eclipse.ui.workbench,3.7.1.v20120104-1859,"",1360553990273
activated,editor,org.eclipse.jdt.ui,3.7.2.v20120109-1427,"org.eclipse.jdt.ui.CompilationUnitEditor",1360553990482
executed,command,org.eclipse.ui.ide,3.7.0.v20110928-1505,"org.eclipse.ui.navigate.openResource",1360553990483
activated,editor,org.eclipse.jdt.ui,3.7.2.v20120109-1427,"org.eclipse.jdt.ui.CompilationUnitEditor",1360553999046
deactivated,workbench,org.eclipse.ui.workbench,3.7.1.v20120104-1859,"",1360554010702
activated,workbench,org.eclipse.ui.workbench,3.7.1.v20120104-1859,"",1360554013484
activated,editor,org.eclipse.jdt.ui,3.7.2.v20120109-1427,"org.eclipse.jdt.ui.CompilationUnitEditor",1360554013703
executed,command,org.eclipse.ui.ide,3.7.0.v20110928-1505,"org.eclipse.ui.navigate.openResource",1360554013704
activated,editor,org.eclipse.jdt.ui,3.7.2.v20120109-1427,"org.eclipse.jdt.ui.CompilationUnitEditor",1360554057087
activated,editor,org.eclipse.jdt.ui,3.7.2.v20120109-1427,"org.eclipse.jdt.ui.CompilationUnitEditor",1360554061784
deactivated,workbench,org.eclipse.ui.workbench,3.7.1.v20120104-1859,"",1360554062588
activated,workbench,org.eclipse.ui.workbench,3.7.1.v20120104-1859,"",1360554068923
activated,editor,org.eclipse.jdt.ui,3.7.2.v20120109-1427,"org.eclipse.jdt.ui.CompilationUnitEditor",1360554069125
executed,command,org.eclipse.ui.ide,3.7.0.v20110928-1505,"org.eclipse.ui.navigate.openResource",1360554069126
activated,view,org.eclipse.ui.views,3.6.0.v20110928-1505,"org.eclipse.ui.views.ContentOutline",1360554071044
activated,editor,org.eclipse.jdt.ui,3.7.2.v20120109-1427,"org.eclipse.jdt.ui.CompilationUnitEditor",1360554072813
activated,view,org.eclipse.jdt.ui,3.7.2.v20120109-1427,"org.eclipse.jdt.callhierarchy.view",1360554074615
executed,command,org.eclipse.jdt.ui,3.7.2.v20120109-1427,"org.eclipse.jdt.ui.edit.text.java.open.call.hierarchy",1360554074968
activated,editor,org.eclipse.jdt.ui,3.7.2.v20120109-1427,"org.eclipse.jdt.ui.CompilationUnitEditor",1360554078237
executed,command,org.eclipse.ui,3.7.0.v20110928-1505,"org.eclipse.ui.navigate.backwardHistory",1360554083797
deactivated,workbench,org.eclipse.ui.workbench,3.7.1.v20120104-1859,"",1360554086106
activated,workbench,org.eclipse.ui.workbench,3.7.1.v20120104-1859,"",1360554094641
deactivated,workbench,org.eclipse.ui.workbench,3.7.1.v20120104-1859,"",1360554095550
activated,workbench,org.eclipse.ui.workbench,3.7.1.v20120104-1859,"",1360554097680
activated,editor,org.eclipse.jdt.ui,3.7.2.v20120109-1427,"org.eclipse.jdt.ui.CompilationUnitEditor",1360554097881
executed,command,org.eclipse.ui.ide,3.7.0.v20110928-1505,"org.eclipse.ui.navigate.openResource",1360554097882
activated,editor,org.eclipse.jdt.ui,3.7.2.v20120109-1427,"org.eclipse.jdt.ui.CompilationUnitEditor",1360554126409
activated,editor,org.eclipse.jdt.ui,3.7.2.v20120109-1427,"org.eclipse.jdt.ui.CompilationUnitEditor",1360554129261
deactivated,workbench,org.eclipse.ui.workbench,3.7.1.v20120104-1859,"",1360554144411
activated,workbench,org.eclipse.ui.workbench,3.7.1.v20120104-1859,"",1360554190733
deactivated,workbench,org.eclipse.ui.workbench,3.7.1.v20120104-1859,"",1360554191380
activated,workbench,org.eclipse.ui.workbench,3.7.1.v20120104-1859,"",1360554193317
activated,editor,org.eclipse.jdt.ui,3.7.2.v20120109-1427,"org.eclipse.jdt.ui.CompilationUnitEditor",1360554193509
executed,command,org.eclipse.ui.ide,3.7.0.v20110928-1505,"org.eclipse.ui.navigate.openResource",1360554193510
deactivated,workbench,org.eclipse.ui.workbench,3.7.1.v20120104-1859,"",1360554212075
activated,workbench,org.eclipse.ui.workbench,3.7.1.v20120104-1859,"",1360554213283
executed,command,org.eclipse.ui.ide,3.7.0.v20110928-1505,"org.eclipse.ui.navigate.openResource",1360554213386
activated,view,org.eclipse.jdt.ui,3.7.2.v20120109-1427,"org.eclipse.jdt.ui.PackageExplorer",1360554214775
opened,editor,org.eclipse.jdt.ui,3.7.2.v20120109-1427,"org.eclipse.jdt.ui.CompilationUnitEditor",1360554216229
activated,editor,org.eclipse.jdt.ui,3.7.2.v20120109-1427,"org.eclipse.jdt.ui.CompilationUnitEditor",1360554216379
activated,editor,org.eclipse.jdt.ui,3.7.2.v20120109-1427,"org.eclipse.jdt.ui.CompilationUnitEditor",1360554228514
activated,editor,org.eclipse.jdt.ui,3.7.2.v20120109-1427,"org.eclipse.jdt.ui.CompilationUnitEditor",1360554237941
executed,command,org.eclipse.ui,3.7.0.v20110928-1505,"org.eclipse.ui.navigate.backwardHistory",1360554237960
activated,editor,org.eclipse.jdt.ui,3.7.2.v20120109-1427,"org.eclipse.jdt.ui.CompilationUnitEditor",1360554246011
executed,command,org.eclipse.ui,3.7.0.v20110928-1505,"org.eclipse.ui.edit.copy",1360554253259
executed,command,org.eclipse.ui,3.7.0.v20110928-1505,"org.eclipse.ui.edit.copy",1360554255290
activated,editor,org.eclipse.jdt.ui,3.7.2.v20120109-1427,"org.eclipse.jdt.ui.CompilationUnitEditor",1360554257217
executed,command,org.eclipse.ui,3.7.0.v20110928-1505,"org.eclipse.ui.navigate.backwardHistory",1360554257239
activated,editor,org.eclipse.jdt.ui,3.7.2.v20120109-1427,"org.eclipse.jdt.ui.CompilationUnitEditor",1360554268535
executed,command,org.eclipse.ui,3.7.0.v20110928-1505,"org.eclipse.ui.edit.text.contentAssist.proposals",1360554278722
executed,command,org.eclipse.ui,3.7.0.v20110928-1505,"org.eclipse.ui.edit.undo",1360554282518
executed,command,org.eclipse.ui,3.7.0.v20110928-1505,"org.eclipse.ui.edit.undo",1360554282929
executed,command,org.eclipse.ui,3.7.0.v20110928-1505,"org.eclipse.ui.edit.copy",1360554287217
activated,editor,org.eclipse.jdt.ui,3.7.2.v20120109-1427,"org.eclipse.jdt.ui.CompilationUnitEditor",1360554288683
executed,command,org.eclipse.ui,3.7.0.v20110928-1505,"org.eclipse.ui.navigate.backwardHistory",1360554288703
executed,command,org.eclipse.ui,3.7.0.v20110928-1505,"org.eclipse.ui.edit.paste",1360554291433
activated,editor,org.eclipse.jdt.ui,3.7.2.v20120109-1427,"org.eclipse.jdt.ui.CompilationUnitEditor",1360554299529
executed,command,org.eclipse.ui,3.7.0.v20110928-1505,"org.eclipse.ui.navigate.forwardHistory",1360554299549
executed,command,org.eclipse.ui.workbench.texteditor,3.7.0.v20110928-1504,"org.eclipse.ui.edit.text.select.lineEnd",1360554301704
executed,command,org.eclipse.ui,3.7.0.v20110928-1505,"org.eclipse.ui.edit.copy",1360554302826
activated,editor,org.eclipse.jdt.ui,3.7.2.v20120109-1427,"org.eclipse.jdt.ui.CompilationUnitEditor",1360554303622
executed,command,org.eclipse.ui,3.7.0.v20110928-1505,"org.eclipse.ui.navigate.backwardHistory",1360554303641
executed,command,org.eclipse.ui,3.7.0.v20110928-1505,"org.eclipse.ui.edit.paste",1360554305635
executed,command,org.eclipse.ui.workbench.texteditor,3.7.0.v20110928-1504,"org.eclipse.ui.edit.text.select.lineEnd",1360554319479
executed,command,org.eclipse.ui,3.7.0.v20110928-1505,"org.eclipse.ui.edit.cut",1360554319996
executed,command,org.eclipse.ui,3.7.0.v20110928-1505,"org.eclipse.ui.edit.paste",1360554322158
activated,editor,org.eclipse.jdt.ui,3.7.2.v20120109-1427,"org.eclipse.jdt.ui.CompilationUnitEditor",1360554330692
executed,command,org.eclipse.jdt.ui,3.7.2.v20120109-1427,"org.eclipse.jdt.ui.edit.text.java.toggle.comment",1360554334078
