what,kind,bundleId,bundleVersion,description,time
activated,workbench,org.eclipse.ui.workbench,3.7.1.v20120104-1859,"",1353079711492
activated,editor,org.eclipse.jdt.ui,3.7.2.v20120109-1427,"org.eclipse.jdt.ui.CompilationUnitEditor",1353079716276
activated,editor,org.eclipse.jdt.ui,3.7.2.v20120109-1427,"org.eclipse.jdt.ui.CompilationUnitEditor",1353079716408
executed,command,org.eclipse.ui,3.7.0.v20110928-1505,"org.eclipse.ui.file.save",1353079720283
deactivated,workbench,org.eclipse.ui.workbench,3.7.1.v20120104-1859,"",1353079720654
activated,workbench,org.eclipse.ui.workbench,3.7.1.v20120104-1859,"",1353079724458
executed,command,org.eclipse.ui,3.7.0.v20110928-1505,"org.eclipse.ui.file.save",1353079732033
deactivated,workbench,org.eclipse.ui.workbench,3.7.1.v20120104-1859,"",1353079732460
activated,workbench,org.eclipse.ui.workbench,3.7.1.v20120104-1859,"",1353079753328
executed,command,org.eclipse.ui,3.7.0.v20110928-1505,"org.eclipse.ui.edit.undo",1353079759217
executed,command,org.eclipse.ui,3.7.0.v20110928-1505,"org.eclipse.ui.file.save",1353079760299
deactivated,workbench,org.eclipse.ui.workbench,3.7.1.v20120104-1859,"",1353079760924
activated,view,org.eclipse.jdt.ui,3.7.2.v20120109-1427,"org.eclipse.jdt.ui.PackageExplorer",1353079834363
activated,workbench,org.eclipse.ui.workbench,3.7.1.v20120104-1859,"",1353079834472
deactivated,workbench,org.eclipse.ui.workbench,3.7.1.v20120104-1859,"",1353079856135
activated,workbench,org.eclipse.ui.workbench,3.7.1.v20120104-1859,"",1353079862051
deactivated,workbench,org.eclipse.ui.workbench,3.7.1.v20120104-1859,"",1353079863993
activated,workbench,org.eclipse.ui.workbench,3.7.1.v20120104-1859,"",1353079876251
activated,editor,org.eclipse.jdt.ui,3.7.2.v20120109-1427,"org.eclipse.jdt.ui.CompilationUnitEditor",1353079878116
executed,command,,,"AUTOGEN:::org.eclipse.jdt.debug.CompilationUnitEditor.BreakpointRulerActions/org.eclipse.jdt.debug.ui.actions.ManageBreakpointRulerAction",1353079878381
executed,command,org.eclipse.ui,3.7.0.v20110928-1505,"org.eclipse.ui.edit.undo",1353079882810
executed,command,org.eclipse.ui,3.7.0.v20110928-1505,"org.eclipse.ui.edit.copy",1353079886015
executed,command,org.eclipse.ui,3.7.0.v20110928-1505,"org.eclipse.ui.edit.paste",1353079902223
executed,command,org.eclipse.ui,3.7.0.v20110928-1505,"org.eclipse.ui.file.save",1353079904283
deactivated,workbench,org.eclipse.ui.workbench,3.7.1.v20120104-1859,"",1353079904885
activated,workbench,org.eclipse.ui.workbench,3.7.1.v20120104-1859,"",1353079910007
deactivated,workbench,org.eclipse.ui.workbench,3.7.1.v20120104-1859,"",1353079912064
activated,workbench,org.eclipse.ui.workbench,3.7.1.v20120104-1859,"",1353079939449
deactivated,workbench,org.eclipse.ui.workbench,3.7.1.v20120104-1859,"",1353079943073
activated,workbench,org.eclipse.ui.workbench,3.7.1.v20120104-1859,"",1353079961228
executed,command,org.eclipse.ui,3.7.0.v20110928-1505,"org.eclipse.ui.edit.cut",1353079970944
executed,command,org.eclipse.ui,3.7.0.v20110928-1505,"org.eclipse.ui.edit.cut",1353079973828
executed,command,org.eclipse.ui,3.7.0.v20110928-1505,"org.eclipse.ui.file.save",1353079974766
deactivated,workbench,org.eclipse.ui.workbench,3.7.1.v20120104-1859,"",1353079975115
activated,workbench,org.eclipse.ui.workbench,3.7.1.v20120104-1859,"",1353079983514
deactivated,workbench,org.eclipse.ui.workbench,3.7.1.v20120104-1859,"",1353079985593
activated,workbench,org.eclipse.ui.workbench,3.7.1.v20120104-1859,"",1353080001936
executed,command,org.eclipse.ui,3.7.0.v20110928-1505,"org.eclipse.ui.edit.copy",1353080009978
executed,command,org.eclipse.ui,3.7.0.v20110928-1505,"org.eclipse.ui.edit.paste",1353080013757
executed,command,org.eclipse.ui.workbench.texteditor,3.7.0.v20110928-1504,"org.eclipse.ui.edit.text.goto.lineStart",1353080014347
executed,command,org.eclipse.ui.workbench.texteditor,3.7.0.v20110928-1504,"org.eclipse.ui.edit.text.goto.lineEnd",1353080016889
executed,command,org.eclipse.ui.workbench.texteditor,3.7.0.v20110928-1504,"org.eclipse.ui.edit.text.select.lineEnd",1353080019314
deactivated,workbench,org.eclipse.ui.workbench,3.7.1.v20120104-1859,"",1353080021504
executed,command,org.eclipse.ui,3.7.0.v20110928-1505,"org.eclipse.ui.file.save",1353080021543
activated,workbench,org.eclipse.ui.workbench,3.7.1.v20120104-1859,"",1353080032710
executed,command,org.eclipse.ui.workbench.texteditor,3.7.0.v20110928-1504,"org.eclipse.ui.edit.text.select.lineEnd",1353080034874
executed,command,org.eclipse.ui,3.7.0.v20110928-1505,"org.eclipse.ui.file.save",1353080036474
deactivated,workbench,org.eclipse.ui.workbench,3.7.1.v20120104-1859,"",1353080037091
activated,workbench,org.eclipse.ui.workbench,3.7.1.v20120104-1859,"",1353080039755
deactivated,workbench,org.eclipse.ui.workbench,3.7.1.v20120104-1859,"",1353080041431
activated,workbench,org.eclipse.ui.workbench,3.7.1.v20120104-1859,"",1353080059398
executed,command,org.eclipse.ui.workbench.texteditor,3.7.0.v20110928-1504,"org.eclipse.ui.edit.text.select.lineStart",1353080061857
executed,command,org.eclipse.ui,3.7.0.v20110928-1505,"org.eclipse.ui.edit.cut",1353080062201
executed,command,org.eclipse.ui.workbench.texteditor,3.7.0.v20110928-1504,"org.eclipse.ui.edit.text.select.lineEnd",1353080062913
executed,command,org.eclipse.ui,3.7.0.v20110928-1505,"org.eclipse.ui.edit.cut",1353080063179
executed,command,org.eclipse.ui.workbench.texteditor,3.7.0.v20110928-1504,"org.eclipse.ui.edit.text.goto.lineEnd",1353080063932
executed,command,org.eclipse.ui,3.7.0.v20110928-1505,"org.eclipse.ui.file.save",1353080064850
deactivated,workbench,org.eclipse.ui.workbench,3.7.1.v20120104-1859,"",1353080065310
activated,workbench,org.eclipse.ui.workbench,3.7.1.v20120104-1859,"",1353080066708
executed,command,org.eclipse.ui.workbench.texteditor,3.7.0.v20110928-1504,"org.eclipse.ui.edit.text.goto.lineEnd",1353080068127
deactivated,workbench,org.eclipse.ui.workbench,3.7.1.v20120104-1859,"",1353080071169
executed,command,org.eclipse.ui,3.7.0.v20110928-1505,"org.eclipse.ui.file.save",1353080071233
activated,workbench,org.eclipse.ui.workbench,3.7.1.v20120104-1859,"",1353080073942
executed,command,org.eclipse.ui,3.7.0.v20110928-1505,"org.eclipse.ui.file.save",1353080075636
deactivated,workbench,org.eclipse.ui.workbench,3.7.1.v20120104-1859,"",1353080075839
activated,workbench,org.eclipse.ui.workbench,3.7.1.v20120104-1859,"",1353080079128
deactivated,workbench,org.eclipse.ui.workbench,3.7.1.v20120104-1859,"",1353080081166
executed,command,org.eclipse.ui,3.7.0.v20110928-1505,"org.eclipse.ui.file.save",1353080081304
activated,workbench,org.eclipse.ui.workbench,3.7.1.v20120104-1859,"",1353080087714
activated,view,org.eclipse.jdt.ui,3.7.2.v20120109-1427,"org.eclipse.jdt.ui.PackageExplorer",1353080089483
activated,editor,org.eclipse.jdt.ui,3.7.2.v20120109-1427,"org.eclipse.jdt.ui.CompilationUnitEditor",1353080091743
executed,command,org.eclipse.ui,3.7.0.v20110928-1505,"org.eclipse.ui.edit.cut",1353080093294
executed,command,org.eclipse.ui,3.7.0.v20110928-1505,"org.eclipse.ui.file.save",1353080093843
deactivated,workbench,org.eclipse.ui.workbench,3.7.1.v20120104-1859,"",1353080094288
activated,workbench,org.eclipse.ui.workbench,3.7.1.v20120104-1859,"",1353080098444
deactivated,workbench,org.eclipse.ui.workbench,3.7.1.v20120104-1859,"",1353080099157
activated,workbench,org.eclipse.ui.workbench,3.7.1.v20120104-1859,"",1353080110294
executed,command,org.eclipse.ui,3.7.0.v20110928-1505,"org.eclipse.ui.edit.undo",1353080111248
executed,command,org.eclipse.ui,3.7.0.v20110928-1505,"org.eclipse.ui.edit.cut",1353080114768
executed,command,org.eclipse.ui,3.7.0.v20110928-1505,"org.eclipse.ui.file.save",1353080115638
deactivated,workbench,org.eclipse.ui.workbench,3.7.1.v20120104-1859,"",1353080115846
activated,workbench,org.eclipse.ui.workbench,3.7.1.v20120104-1859,"",1353080121364
executed,command,org.eclipse.ui,3.7.0.v20110928-1505,"org.eclipse.ui.edit.undo",1353080121614
executed,command,org.eclipse.ui,3.7.0.v20110928-1505,"org.eclipse.ui.file.save",1353080123905
deactivated,workbench,org.eclipse.ui.workbench,3.7.1.v20120104-1859,"",1353080124225
activated,workbench,org.eclipse.ui.workbench,3.7.1.v20120104-1859,"",1353080149092
deactivated,workbench,org.eclipse.ui.workbench,3.7.1.v20120104-1859,"",1353080150258
activated,workbench,org.eclipse.ui.workbench,3.7.1.v20120104-1859,"",1353080153113
executed,command,org.eclipse.ui.workbench.texteditor,3.7.0.v20110928-1504,"org.eclipse.ui.edit.text.select.lineStart",1353080156175
executed,command,org.eclipse.ui,3.7.0.v20110928-1505,"org.eclipse.ui.edit.copy",1353080156498
executed,command,org.eclipse.ui,3.7.0.v20110928-1505,"org.eclipse.ui.edit.paste",1353080157459
executed,command,org.eclipse.ui.workbench.texteditor,3.7.0.v20110928-1504,"org.eclipse.ui.edit.text.goto.lineEnd",1353080160534
executed,command,org.eclipse.ui,3.7.0.v20110928-1505,"org.eclipse.ui.edit.paste",1353080161089
executed,command,org.eclipse.ui,3.7.0.v20110928-1505,"org.eclipse.ui.edit.paste",1353080161555
executed,command,org.eclipse.ui,3.7.0.v20110928-1505,"org.eclipse.ui.edit.paste",1353080162075
executed,command,org.eclipse.ui,3.7.0.v20110928-1505,"org.eclipse.ui.edit.paste",1353080162402
executed,command,org.eclipse.ui,3.7.0.v20110928-1505,"org.eclipse.ui.edit.paste",1353080162698
executed,command,org.eclipse.ui,3.7.0.v20110928-1505,"org.eclipse.ui.edit.paste",1353080162963
executed,command,org.eclipse.ui,3.7.0.v20110928-1505,"org.eclipse.ui.edit.paste",1353080163217
executed,command,org.eclipse.ui,3.7.0.v20110928-1505,"org.eclipse.ui.edit.paste",1353080163465
executed,command,org.eclipse.ui,3.7.0.v20110928-1505,"org.eclipse.ui.edit.paste",1353080163720
executed,command,org.eclipse.ui,3.7.0.v20110928-1505,"org.eclipse.ui.edit.paste",1353080164115
executed,command,org.eclipse.ui,3.7.0.v20110928-1505,"org.eclipse.ui.edit.paste",1353080164403
executed,command,org.eclipse.ui,3.7.0.v20110928-1505,"org.eclipse.ui.edit.paste",1353080164638
executed,command,org.eclipse.ui,3.7.0.v20110928-1505,"org.eclipse.ui.file.save",1353080165110
deactivated,workbench,org.eclipse.ui.workbench,3.7.1.v20120104-1859,"",1353080165471
activated,workbench,org.eclipse.ui.workbench,3.7.1.v20120104-1859,"",1353080167381
deactivated,workbench,org.eclipse.ui.workbench,3.7.1.v20120104-1859,"",1353080168960
activated,workbench,org.eclipse.ui.workbench,3.7.1.v20120104-1859,"",1353080191175
executed,command,org.eclipse.ui,3.7.0.v20110928-1505,"org.eclipse.ui.file.save",1353080194189
deactivated,workbench,org.eclipse.ui.workbench,3.7.1.v20120104-1859,"",1353080194631
activated,workbench,org.eclipse.ui.workbench,3.7.1.v20120104-1859,"",1353080236503
deactivated,workbench,org.eclipse.ui.workbench,3.7.1.v20120104-1859,"",1353080239245
activated,workbench,org.eclipse.ui.workbench,3.7.1.v20120104-1859,"",1353080246655
deactivated,workbench,org.eclipse.ui.workbench,3.7.1.v20120104-1859,"",1353080247382
activated,workbench,org.eclipse.ui.workbench,3.7.1.v20120104-1859,"",1353080327428
activated,view,org.eclipse.jdt.ui,3.7.2.v20120109-1427,"org.eclipse.jdt.ui.PackageExplorer",1353080330720
activated,editor,org.eclipse.jdt.ui,3.7.2.v20120109-1427,"org.eclipse.jdt.ui.CompilationUnitEditor",1353080356006
executed,command,org.eclipse.ui,3.7.0.v20110928-1505,"org.eclipse.ui.file.save",1353080357745
deactivated,workbench,org.eclipse.ui.workbench,3.7.1.v20120104-1859,"",1353080357946
activated,workbench,org.eclipse.ui.workbench,3.7.1.v20120104-1859,"",1353080368863
deactivated,workbench,org.eclipse.ui.workbench,3.7.1.v20120104-1859,"",1353080369605
activated,workbench,org.eclipse.ui.workbench,3.7.1.v20120104-1859,"",1353080377060
executed,command,org.eclipse.ui,3.7.0.v20110928-1505,"org.eclipse.ui.edit.undo",1353080377546
executed,command,org.eclipse.ui,3.7.0.v20110928-1505,"org.eclipse.ui.edit.undo",1353080377991
executed,command,org.eclipse.ui,3.7.0.v20110928-1505,"org.eclipse.ui.file.save",1353080379057
opened,editor,org.eclipse.jdt.ui,3.7.2.v20120109-1427,"org.eclipse.jdt.ui.ClassFileEditor",1353080385063
activated,editor,org.eclipse.jdt.ui,3.7.2.v20120109-1427,"org.eclipse.jdt.ui.ClassFileEditor",1353080385174
activated,editor,org.eclipse.jdt.ui,3.7.2.v20120109-1427,"org.eclipse.jdt.ui.CompilationUnitEditor",1353080387002
executed,command,org.eclipse.ui,3.7.0.v20110928-1505,"org.eclipse.ui.navigate.backwardHistory",1353080387012
opened,editor,org.eclipse.jdt.ui,3.7.2.v20120109-1427,"org.eclipse.jdt.ui.ClassFileEditor",1353080388208
activated,editor,org.eclipse.jdt.ui,3.7.2.v20120109-1427,"org.eclipse.jdt.ui.ClassFileEditor",1353080388395
activated,editor,org.eclipse.jdt.ui,3.7.2.v20120109-1427,"org.eclipse.jdt.ui.CompilationUnitEditor",1353080389748
executed,command,org.eclipse.ui,3.7.0.v20110928-1505,"org.eclipse.ui.navigate.backwardHistory",1353080389758
executed,command,org.eclipse.ui,3.7.0.v20110928-1505,"org.eclipse.ui.edit.copy",1353080397146
deactivated,workbench,org.eclipse.ui.workbench,3.7.1.v20120104-1859,"",1353080397677
executed,command,org.eclipse.ui,3.7.0.v20110928-1505,"org.eclipse.ui.edit.findReplace",1353080397734
executed,command,org.eclipse.ui,3.7.0.v20110928-1505,"org.eclipse.ui.edit.paste",1353080397858
activated,workbench,org.eclipse.ui.workbench,3.7.1.v20120104-1859,"",1353080399099
deactivated,workbench,org.eclipse.ui.workbench,3.7.1.v20120104-1859,"",1353080404594
activated,workbench,org.eclipse.ui.workbench,3.7.1.v20120104-1859,"",1353080406353
deactivated,workbench,org.eclipse.ui.workbench,3.7.1.v20120104-1859,"",1353080411323
activated,workbench,org.eclipse.ui.workbench,3.7.1.v20120104-1859,"",1353080431662
deactivated,workbench,org.eclipse.ui.workbench,3.7.1.v20120104-1859,"",1353080434978
activated,view,org.eclipse.jdt.ui,3.7.2.v20120109-1427,"org.eclipse.jdt.ui.PackageExplorer",1353080438014
activated,editor,org.eclipse.jdt.ui,3.7.2.v20120109-1427,"org.eclipse.jdt.ui.CompilationUnitEditor",1353080438185
activated,workbench,org.eclipse.ui.workbench,3.7.1.v20120104-1859,"",1353080438213
activated,view,org.eclipse.jdt.ui,3.7.2.v20120109-1427,"org.eclipse.jdt.ui.PackageExplorer",1353080439072
opened,editor,org.eclipse.jdt.ui,3.7.2.v20120109-1427,"org.eclipse.jdt.ui.CompilationUnitEditor",1353080439318
activated,editor,org.eclipse.jdt.ui,3.7.2.v20120109-1427,"org.eclipse.jdt.ui.CompilationUnitEditor",1353080465597
executed,command,org.eclipse.ui,3.7.0.v20110928-1505,"org.eclipse.ui.edit.selectAll",1353080466107
opened,view,org.eclipse.ui.ide,3.7.0.v20110928-1505,"org.eclipse.ui.views.ProblemView",1353080466696
executed,command,org.eclipse.jdt.ui,3.7.2.v20120109-1427,"org.eclipse.jdt.ui.edit.text.java.indent",1353080466846
executed,command,org.eclipse.ui,3.7.0.v20110928-1505,"org.eclipse.ui.file.save",1353080467680
activated,editor,org.eclipse.jdt.ui,3.7.2.v20120109-1427,"org.eclipse.jdt.ui.CompilationUnitEditor",1353080476266
executed,command,,,"AUTOGEN:::org.eclipse.jdt.debug.CompilationUnitEditor.BreakpointRulerActions/org.eclipse.jdt.debug.ui.actions.ManageBreakpointRulerAction",1353080487368
activated,perspective,org.eclipse.debug.ui,3.7.102.v20111129-1423_r372,"org.eclipse.debug.ui.DebugPerspective",1353080490120
activated,view,org.eclipse.debug.ui,3.7.102.v20111129-1423_r372,"org.eclipse.debug.ui.BreakpointView",1353080491156
executed,command,org.eclipse.ui,3.7.0.v20110928-1505,"org.eclipse.ui.edit.selectAll",1353080491345
no handler,command,org.eclipse.ui,3.7.0.v20110928-1505,"org.eclipse.ui.edit.delete",1353080491949
activated,editor,org.eclipse.jdt.ui,3.7.2.v20120109-1427,"org.eclipse.jdt.ui.CompilationUnitEditor",1353080494842
executed,command,,,"AUTOGEN:::org.eclipse.jdt.debug.CompilationUnitEditor.BreakpointRulerActions/org.eclipse.jdt.debug.ui.actions.ManageBreakpointRulerAction",1353080495112
deactivated,workbench,org.eclipse.ui.workbench,3.7.1.v20120104-1859,"",1353080496781
activated,workbench,org.eclipse.ui.workbench,3.7.1.v20120104-1859,"",1353080658950
deactivated,workbench,org.eclipse.ui.workbench,3.7.1.v20120104-1859,"",1353080662234
activated,workbench,org.eclipse.ui.workbench,3.7.1.v20120104-1859,"",1353080665345
activated,view,org.eclipse.debug.ui,3.7.102.v20111129-1423_r372,"org.eclipse.debug.ui.DebugView",1353080665559
activated,view,org.eclipse.debug.ui,3.7.102.v20111129-1423_r372,"org.eclipse.debug.ui.VariableView",1353080667753
activated,view,org.eclipse.debug.ui,3.7.102.v20111129-1423_r372,"org.eclipse.debug.ui.DebugView",1353080668899
executed,command,org.eclipse.debug.ui,3.7.102.v20111129-1423_r372,"org.eclipse.debug.ui.commands.Resume",1353080673606
executed,command,org.eclipse.debug.ui,3.7.102.v20111129-1423_r372,"org.eclipse.debug.ui.commands.Resume",1353080674517
activated,editor,org.eclipse.jdt.ui,3.7.2.v20120109-1427,"org.eclipse.jdt.ui.CompilationUnitEditor",1353080675963
executed,command,,,"AUTOGEN:::org.eclipse.jdt.debug.CompilationUnitEditor.BreakpointRulerActions/org.eclipse.jdt.debug.ui.actions.ManageBreakpointRulerAction",1353080676261
activated,view,org.eclipse.debug.ui,3.7.102.v20111129-1423_r372,"org.eclipse.debug.ui.DebugView",1353080677227
executed,command,org.eclipse.debug.ui,3.7.102.v20111129-1423_r372,"org.eclipse.debug.ui.commands.Resume",1353080677345
deactivated,workbench,org.eclipse.ui.workbench,3.7.1.v20120104-1859,"",1353080678425
activated,workbench,org.eclipse.ui.workbench,3.7.1.v20120104-1859,"",1353080851764
executed,command,org.eclipse.debug.ui,3.7.102.v20111129-1423_r372,"org.eclipse.debug.ui.commands.Terminate",1353080852564
activated,perspective,org.eclipse.jdt.ui,3.7.2.v20120109-1427,"org.eclipse.jdt.ui.JavaPerspective",1353080855275
activated,editor,org.eclipse.jdt.ui,3.7.2.v20120109-1427,"org.eclipse.jdt.ui.CompilationUnitEditor",1353080855296
activated,editor,org.eclipse.jdt.ui,3.7.2.v20120109-1427,"org.eclipse.jdt.ui.CompilationUnitEditor",1353081076258
activated,editor,org.eclipse.jdt.ui,3.7.2.v20120109-1427,"org.eclipse.jdt.ui.CompilationUnitEditor",1353081079091
activated,editor,org.eclipse.jdt.ui,3.7.2.v20120109-1427,"org.eclipse.jdt.ui.CompilationUnitEditor",1353081080051
activated,editor,org.eclipse.jdt.ui,3.7.2.v20120109-1427,"org.eclipse.jdt.ui.CompilationUnitEditor",1353081080932
activated,editor,org.eclipse.jdt.ui,3.7.2.v20120109-1427,"org.eclipse.jdt.ui.CompilationUnitEditor",1353081088262
activated,view,org.eclipse.jdt.ui,3.7.2.v20120109-1427,"org.eclipse.jdt.ui.PackageExplorer",1353081096458
activated,editor,org.eclipse.jdt.ui,3.7.2.v20120109-1427,"org.eclipse.jdt.ui.CompilationUnitEditor",1353081099299
executed,command,,,"AUTOGEN:::org.eclipse.jdt.debug.CompilationUnitEditor.BreakpointRulerActions/org.eclipse.jdt.debug.ui.actions.ManageBreakpointRulerAction",1353081099538
deactivated,workbench,org.eclipse.ui.workbench,3.7.1.v20120104-1859,"",1353081100275
activated,workbench,org.eclipse.ui.workbench,3.7.1.v20120104-1859,"",1353081104300
deactivated,workbench,org.eclipse.ui.workbench,3.7.1.v20120104-1859,"",1353081105819
activated,perspective,org.eclipse.debug.ui,3.7.102.v20111129-1423_r372,"org.eclipse.debug.ui.DebugPerspective",1353081107649
activated,workbench,org.eclipse.ui.workbench,3.7.1.v20120104-1859,"",1353081107825
activated,view,org.eclipse.debug.ui,3.7.102.v20111129-1423_r372,"org.eclipse.debug.ui.DebugView",1353081109147
executed,command,org.eclipse.debug.ui,3.7.102.v20111129-1423_r372,"org.eclipse.debug.ui.commands.Resume",1353081109795
deactivated,workbench,org.eclipse.ui.workbench,3.7.1.v20120104-1859,"",1353081110841
activated,workbench,org.eclipse.ui.workbench,3.7.1.v20120104-1859,"",1353081112780
executed,command,org.eclipse.debug.ui,3.7.102.v20111129-1423_r372,"org.eclipse.debug.ui.commands.Resume",1353081114022
executed,command,org.eclipse.debug.ui,3.7.102.v20111129-1423_r372,"org.eclipse.debug.ui.commands.Resume",1353081114846
executed,command,org.eclipse.debug.ui,3.7.102.v20111129-1423_r372,"org.eclipse.debug.ui.commands.Resume",1353081115651
executed,command,org.eclipse.debug.ui,3.7.102.v20111129-1423_r372,"org.eclipse.debug.ui.commands.Resume",1353081116128
executed,command,org.eclipse.debug.ui,3.7.102.v20111129-1423_r372,"org.eclipse.debug.ui.commands.Resume",1353081116815
executed,command,org.eclipse.debug.ui,3.7.102.v20111129-1423_r372,"org.eclipse.debug.ui.commands.Resume",1353081117708
executed,command,org.eclipse.debug.ui,3.7.102.v20111129-1423_r372,"org.eclipse.debug.ui.commands.Resume",1353081118424
executed,command,org.eclipse.debug.ui,3.7.102.v20111129-1423_r372,"org.eclipse.debug.ui.commands.Resume",1353081119237
executed,command,org.eclipse.debug.ui,3.7.102.v20111129-1423_r372,"org.eclipse.debug.ui.commands.Resume",1353081119871
executed,command,org.eclipse.debug.ui,3.7.102.v20111129-1423_r372,"org.eclipse.debug.ui.commands.Resume",1353081120451
executed,command,org.eclipse.debug.ui,3.7.102.v20111129-1423_r372,"org.eclipse.debug.ui.commands.Resume",1353081121159
activated,view,org.eclipse.debug.ui,3.7.102.v20111129-1423_r372,"org.eclipse.debug.ui.BreakpointView",1353081122445
activated,view,org.eclipse.debug.ui,3.7.102.v20111129-1423_r372,"org.eclipse.debug.ui.DebugView",1353081124577
executed,command,org.eclipse.debug.ui,3.7.102.v20111129-1423_r372,"org.eclipse.debug.ui.commands.Resume",1353081124742
activated,view,org.eclipse.debug.ui,3.7.102.v20111129-1423_r372,"org.eclipse.debug.ui.BreakpointView",1353081125765
deactivated,workbench,org.eclipse.ui.workbench,3.7.1.v20120104-1859,"",1353081126270
activated,workbench,org.eclipse.ui.workbench,3.7.1.v20120104-1859,"",1353081129584
activated,view,org.eclipse.debug.ui,3.7.102.v20111129-1423_r372,"org.eclipse.debug.ui.VariableView",1353081131504
activated,editor,org.eclipse.jdt.ui,3.7.2.v20120109-1427,"org.eclipse.jdt.ui.CompilationUnitEditor",1353081141889
executed,command,org.eclipse.ui,3.7.0.v20110928-1505,"org.eclipse.ui.edit.copy",1353081142812
executed,command,org.eclipse.ui,3.7.0.v20110928-1505,"org.eclipse.ui.edit.copy",1353081148254
executed,command,org.eclipse.ui,3.7.0.v20110928-1505,"org.eclipse.ui.edit.paste",1353081151576
executed,command,org.eclipse.ui,3.7.0.v20110928-1505,"org.eclipse.ui.edit.undo",1353081153562
executed,command,org.eclipse.ui,3.7.0.v20110928-1505,"org.eclipse.ui.edit.undo",1353081153930
executed,command,org.eclipse.ui.workbench.texteditor,3.7.0.v20110928-1504,"org.eclipse.ui.edit.text.goto.lineStart",1353081165572
executed,command,org.eclipse.ui.workbench.texteditor,3.7.0.v20110928-1504,"org.eclipse.ui.edit.text.select.lineEnd",1353081165988
executed,command,org.eclipse.ui,3.7.0.v20110928-1505,"org.eclipse.ui.edit.copy",1353081166254
executed,command,org.eclipse.ui,3.7.0.v20110928-1505,"org.eclipse.ui.edit.paste",1353081166856
executed,command,org.eclipse.ui.workbench.texteditor,3.7.0.v20110928-1504,"org.eclipse.ui.edit.text.goto.lineStart",1353081167812
executed,command,org.eclipse.ui,3.7.0.v20110928-1505,"org.eclipse.ui.edit.copy",1353081179515
executed,command,org.eclipse.ui,3.7.0.v20110928-1505,"org.eclipse.ui.edit.paste",1353081180630
executed,command,org.eclipse.ui,3.7.0.v20110928-1505,"org.eclipse.ui.edit.text.contentAssist.proposals",1353081183197
executed,command,org.eclipse.ui,3.7.0.v20110928-1505,"org.eclipse.ui.file.save",1353081186115
activated,view,org.eclipse.debug.ui,3.7.102.v20111129-1423_r372,"org.eclipse.debug.ui.DebugView",1353081187486
executed,command,org.eclipse.debug.ui,3.7.102.v20111129-1423_r372,"org.eclipse.debug.ui.commands.Resume",1353081187666
executed,command,org.eclipse.debug.ui,3.7.102.v20111129-1423_r372,"org.eclipse.debug.ui.commands.Resume",1353081188654
deactivated,workbench,org.eclipse.ui.workbench,3.7.1.v20120104-1859,"",1353081189865
activated,workbench,org.eclipse.ui.workbench,3.7.1.v20120104-1859,"",1353081196343
activated,editor,org.eclipse.jdt.ui,3.7.2.v20120109-1427,"org.eclipse.jdt.ui.CompilationUnitEditor",1353081200534
activated,editor,org.eclipse.jdt.ui,3.7.2.v20120109-1427,"org.eclipse.jdt.ui.CompilationUnitEditor",1353081203316
executed,command,org.eclipse.ui,3.7.0.v20110928-1505,"org.eclipse.ui.edit.copy",1353081208044
executed,command,org.eclipse.ui,3.7.0.v20110928-1505,"org.eclipse.ui.edit.paste",1353081210218
executed,command,org.eclipse.ui,3.7.0.v20110928-1505,"org.eclipse.ui.file.save",1353081211366
deactivated,workbench,org.eclipse.ui.workbench,3.7.1.v20120104-1859,"",1353081212048
activated,view,org.eclipse.debug.ui,3.7.102.v20111129-1423_r372,"org.eclipse.debug.ui.DebugView",1353081220786
activated,workbench,org.eclipse.ui.workbench,3.7.1.v20120104-1859,"",1353081220894
executed,command,org.eclipse.debug.ui,3.7.102.v20111129-1423_r372,"org.eclipse.debug.ui.commands.Terminate",1353081221985
deactivated,workbench,org.eclipse.ui.workbench,3.7.1.v20120104-1859,"",1353081223656
activated,workbench,org.eclipse.ui.workbench,3.7.1.v20120104-1859,"",1353081286372
activated,editor,org.eclipse.jdt.ui,3.7.2.v20120109-1427,"org.eclipse.jdt.ui.CompilationUnitEditor",1353081286563
executed,command,org.eclipse.ui,3.7.0.v20110928-1505,"org.eclipse.ui.navigate.backwardHistory",1353081286600
activated,editor,org.eclipse.jdt.ui,3.7.2.v20120109-1427,"org.eclipse.jdt.ui.CompilationUnitEditor",1353081288076
executed,command,org.eclipse.ui,3.7.0.v20110928-1505,"org.eclipse.ui.navigate.forwardHistory",1353081288082
