what,kind,bundleId,bundleVersion,description,time
deactivated,workbench,org.eclipse.ui.workbench,3.7.1.v20120104-1859,"",1362653368583
activated,workbench,org.eclipse.ui.workbench,3.7.1.v20120104-1859,"",1362653386194
executed,command,org.eclipse.ui.workbench.texteditor,3.7.0.v20110928-1504,"org.eclipse.ui.edit.text.select.lineEnd",1362653389379
executed,command,org.eclipse.ui,3.7.0.v20110928-1505,"org.eclipse.ui.edit.copy",1362653389777
deactivated,workbench,org.eclipse.ui.workbench,3.7.1.v20120104-1859,"",1362653393552
executed,command,org.eclipse.ui,3.7.0.v20110928-1505,"org.eclipse.ui.edit.paste",1362653396993
activated,workbench,org.eclipse.ui.workbench,3.7.1.v20120104-1859,"",1362653397267
deactivated,workbench,org.eclipse.ui.workbench,3.7.1.v20120104-1859,"",1362653397474
activated,workbench,org.eclipse.ui.workbench,3.7.1.v20120104-1859,"",1362653398849
deactivated,workbench,org.eclipse.ui.workbench,3.7.1.v20120104-1859,"",1362653401873
executed,command,org.eclipse.ui,3.7.0.v20110928-1505,"org.eclipse.ui.edit.paste",1362653407417
executed,command,org.eclipse.ui,3.7.0.v20110928-1505,"org.eclipse.ui.edit.selectAll",1362653408273
executed,command,org.eclipse.ui,3.7.0.v20110928-1505,"org.eclipse.ui.edit.copy",1362653408619
activated,workbench,org.eclipse.ui.workbench,3.7.1.v20120104-1859,"",1362653413429
executed,command,org.eclipse.ui.workbench.texteditor,3.7.0.v20110928-1504,"org.eclipse.ui.edit.text.select.lineStart",1362653416379
executed,command,org.eclipse.ui,3.7.0.v20110928-1505,"org.eclipse.ui.edit.copy",1362653416769
deactivated,workbench,org.eclipse.ui.workbench,3.7.1.v20120104-1859,"",1362653417210
activated,workbench,org.eclipse.ui.workbench,3.7.1.v20120104-1859,"",1362653423477
executed,command,org.eclipse.ui.workbench.texteditor,3.7.0.v20110928-1504,"org.eclipse.ui.edit.text.select.lineStart",1362653427690
executed,command,org.eclipse.ui,3.7.0.v20110928-1505,"org.eclipse.ui.edit.paste",1362653428024
executed,command,org.eclipse.ui,3.7.0.v20110928-1505,"org.eclipse.ui.file.save",1362653431199
activated,view,org.eclipse.ui.views,3.6.0.v20110928-1505,"org.eclipse.ui.views.ContentOutline",1362653435477
activated,editor,org.eclipse.jdt.ui,3.7.2.v20120109-1427,"org.eclipse.jdt.ui.CompilationUnitEditor",1362653436645
deactivated,workbench,org.eclipse.ui.workbench,3.7.1.v20120104-1859,"",1362653436761
activated,workbench,org.eclipse.ui.workbench,3.7.1.v20120104-1859,"",1362653442179
executed,command,org.eclipse.ui,3.7.0.v20110928-1505,"org.eclipse.ui.edit.paste",1362653443748
executed,command,org.eclipse.ui,3.7.0.v20110928-1505,"org.eclipse.ui.edit.selectAll",1362653446858
executed,command,org.eclipse.jdt.ui,3.7.2.v20120109-1427,"org.eclipse.jdt.ui.edit.text.java.indent",1362653447214
executed,command,org.eclipse.ui,3.7.0.v20110928-1505,"org.eclipse.ui.file.save",1362653448466
executed,command,org.eclipse.ui,3.7.0.v20110928-1505,"org.eclipse.ui.edit.cut",1362653461554
executed,command,org.eclipse.ui,3.7.0.v20110928-1505,"org.eclipse.ui.file.save",1362653463176
deactivated,workbench,org.eclipse.ui.workbench,3.7.1.v20120104-1859,"",1362653466248
activated,workbench,org.eclipse.ui.workbench,3.7.1.v20120104-1859,"",1362653467476
activated,view,org.eclipse.ui.console,3.5.100.v20111007_r372,"org.eclipse.ui.console.ConsoleView",1362653468149
deactivated,workbench,org.eclipse.ui.workbench,3.7.1.v20120104-1859,"",1362653473082
activated,workbench,org.eclipse.ui.workbench,3.7.1.v20120104-1859,"",1362653486297
deactivated,workbench,org.eclipse.ui.workbench,3.7.1.v20120104-1859,"",1362653487457
activated,workbench,org.eclipse.ui.workbench,3.7.1.v20120104-1859,"",1362653493311
activated,view,org.eclipse.ui.views,3.6.0.v20110928-1505,"org.eclipse.ui.views.ContentOutline",1362653498269
activated,editor,org.eclipse.jdt.ui,3.7.2.v20120109-1427,"org.eclipse.jdt.ui.CompilationUnitEditor",1362653500108
deactivated,workbench,org.eclipse.ui.workbench,3.7.1.v20120104-1859,"",1362653509522
activated,workbench,org.eclipse.ui.workbench,3.7.1.v20120104-1859,"",1362653516294
deactivated,workbench,org.eclipse.ui.workbench,3.7.1.v20120104-1859,"",1362653518898
activated,workbench,org.eclipse.ui.workbench,3.7.1.v20120104-1859,"",1362653527218
deactivated,workbench,org.eclipse.ui.workbench,3.7.1.v20120104-1859,"",1362653527910
activated,workbench,org.eclipse.ui.workbench,3.7.1.v20120104-1859,"",1362653531540
deactivated,workbench,org.eclipse.ui.workbench,3.7.1.v20120104-1859,"",1362653534844
activated,workbench,org.eclipse.ui.workbench,3.7.1.v20120104-1859,"",1362653542648
activated,view,org.eclipse.ui.views,3.6.0.v20110928-1505,"org.eclipse.ui.views.ContentOutline",1362653547517
activated,editor,org.eclipse.jdt.ui,3.7.2.v20120109-1427,"org.eclipse.jdt.ui.CompilationUnitEditor",1362653549192
executed,command,,,"AUTOGEN:::org.eclipse.jdt.debug.CompilationUnitEditor.BreakpointRulerActions/org.eclipse.jdt.debug.ui.actions.ManageBreakpointRulerAction",1362653550451
deactivated,workbench,org.eclipse.ui.workbench,3.7.1.v20120104-1859,"",1362653551027
activated,workbench,org.eclipse.ui.workbench,3.7.1.v20120104-1859,"",1362653556702
deactivated,workbench,org.eclipse.ui.workbench,3.7.1.v20120104-1859,"",1362653558519
activated,perspective,org.eclipse.debug.ui,3.7.102.v20111129-1423_r372,"org.eclipse.debug.ui.DebugPerspective",1362653558790
activated,workbench,org.eclipse.ui.workbench,3.7.1.v20120104-1859,"",1362653559065
activated,view,org.eclipse.debug.ui,3.7.102.v20111129-1423_r372,"org.eclipse.debug.ui.DebugView",1362653561456
executed,command,org.eclipse.debug.ui,3.7.102.v20111129-1423_r372,"org.eclipse.debug.ui.commands.StepOver",1362653561547
activated,editor,org.eclipse.jdt.ui,3.7.2.v20120109-1427,"org.eclipse.jdt.ui.CompilationUnitEditor",1362653563702
activated,view,org.eclipse.debug.ui,3.7.102.v20111129-1423_r372,"org.eclipse.debug.ui.DebugView",1362653565704
executed,command,org.eclipse.debug.ui,3.7.102.v20111129-1423_r372,"org.eclipse.debug.ui.commands.Resume",1362653565803
activated,editor,org.eclipse.jdt.ui,3.7.2.v20120109-1427,"org.eclipse.jdt.ui.CompilationUnitEditor",1362653567482
executed,command,,,"AUTOGEN:::org.eclipse.jdt.debug.CompilationUnitEditor.BreakpointRulerActions/org.eclipse.jdt.debug.ui.actions.ManageBreakpointRulerAction",1362653567653
executed,command,,,"AUTOGEN:::org.eclipse.jdt.debug.CompilationUnitEditor.BreakpointRulerActions/org.eclipse.jdt.debug.ui.actions.ManageBreakpointRulerAction",1362653568661
activated,view,org.eclipse.debug.ui,3.7.102.v20111129-1423_r372,"org.eclipse.debug.ui.DebugView",1362653569870
executed,command,org.eclipse.debug.ui,3.7.102.v20111129-1423_r372,"org.eclipse.debug.ui.commands.Resume",1362653569959
deactivated,workbench,org.eclipse.ui.workbench,3.7.1.v20120104-1859,"",1362653570812
activated,workbench,org.eclipse.ui.workbench,3.7.1.v20120104-1859,"",1362653600216
activated,view,org.eclipse.ui.views,3.6.0.v20110928-1505,"org.eclipse.ui.views.ContentOutline",1362653612432
activated,editor,org.eclipse.jdt.ui,3.7.2.v20120109-1427,"org.eclipse.jdt.ui.CompilationUnitEditor",1362653621973
executed,command,org.eclipse.ui,3.7.0.v20110928-1505,"org.eclipse.ui.navigate.next",1362653639771
activated,view,org.eclipse.ui.views,3.6.0.v20110928-1505,"org.eclipse.ui.views.ContentOutline",1362653642178
activated,editor,org.eclipse.jdt.ui,3.7.2.v20120109-1427,"org.eclipse.jdt.ui.CompilationUnitEditor",1362653646088
executed,command,org.eclipse.jdt.ui,3.7.2.v20120109-1427,"org.eclipse.jdt.ui.edit.text.java.toggle.comment",1362653648105
deactivated,workbench,org.eclipse.ui.workbench,3.7.1.v20120104-1859,"",1362653648923
executed,command,org.eclipse.ui,3.7.0.v20110928-1505,"org.eclipse.ui.file.save",1362653649187
activated,workbench,org.eclipse.ui.workbench,3.7.1.v20120104-1859,"",1362653654824
executed,command,org.eclipse.ui,3.7.0.v20110928-1505,"org.eclipse.ui.edit.undo",1362653655494
executed,command,org.eclipse.jdt.ui,3.7.2.v20120109-1427,"org.eclipse.jdt.ui.edit.text.java.toggle.comment",1362653657166
executed,command,org.eclipse.ui,3.7.0.v20110928-1505,"org.eclipse.ui.file.save",1362653658248
deactivated,workbench,org.eclipse.ui.workbench,3.7.1.v20120104-1859,"",1362653661365
activated,workbench,org.eclipse.ui.workbench,3.7.1.v20120104-1859,"",1362653667527
deactivated,workbench,org.eclipse.ui.workbench,3.7.1.v20120104-1859,"",1362653668872
activated,workbench,org.eclipse.ui.workbench,3.7.1.v20120104-1859,"",1362653680513
deactivated,workbench,org.eclipse.ui.workbench,3.7.1.v20120104-1859,"",1362653680890
activated,workbench,org.eclipse.ui.workbench,3.7.1.v20120104-1859,"",1362653683611
deactivated,workbench,org.eclipse.ui.workbench,3.7.1.v20120104-1859,"",1362653684970
activated,workbench,org.eclipse.ui.workbench,3.7.1.v20120104-1859,"",1362653690928
deactivated,workbench,org.eclipse.ui.workbench,3.7.1.v20120104-1859,"",1362653696882
activated,workbench,org.eclipse.ui.workbench,3.7.1.v20120104-1859,"",1362653813347
activated,view,org.eclipse.ui.views,3.6.0.v20110928-1505,"org.eclipse.ui.views.ContentOutline",1362653815164
activated,editor,org.eclipse.jdt.ui,3.7.2.v20120109-1427,"org.eclipse.jdt.ui.CompilationUnitEditor",1362653816712
executed,command,org.eclipse.jdt.ui,3.7.2.v20120109-1427,"org.eclipse.jdt.ui.edit.text.java.toggle.comment",1362653817394
executed,command,org.eclipse.ui.workbench.texteditor,3.7.0.v20110928-1504,"org.eclipse.ui.edit.text.goto.lineEnd",1362653818193
executed,command,org.eclipse.ui,3.7.0.v20110928-1505,"org.eclipse.ui.file.save",1362653823242
activated,view,org.eclipse.debug.ui,3.7.102.v20111129-1423_r372,"org.eclipse.debug.ui.DebugView",1362653825773
executed,command,org.eclipse.debug.ui,3.7.102.v20111129-1423_r372,"org.eclipse.debug.ui.commands.Terminate",1362653825862
activated,editor,org.eclipse.jdt.ui,3.7.2.v20120109-1427,"org.eclipse.jdt.ui.CompilationUnitEditor",1362653827037
executed,command,org.eclipse.ui,3.7.0.v20110928-1505,"org.eclipse.ui.edit.copy",1362653830587
deactivated,workbench,org.eclipse.ui.workbench,3.7.1.v20120104-1859,"",1362653832445
activated,workbench,org.eclipse.ui.workbench,3.7.1.v20120104-1859,"",1362653917866
executed,command,org.eclipse.ui,3.7.0.v20110928-1505,"org.eclipse.ui.file.save",1362653927858
deactivated,workbench,org.eclipse.ui.workbench,3.7.1.v20120104-1859,"",1362653927958
activated,workbench,org.eclipse.ui.workbench,3.7.1.v20120104-1859,"",1362653938136
executed,command,org.eclipse.ui,3.7.0.v20110928-1505,"org.eclipse.ui.edit.text.contentAssist.proposals",1362653946983
executed,command,org.eclipse.ui,3.7.0.v20110928-1505,"org.eclipse.ui.edit.text.contentAssist.proposals",1362653950125
deactivated,workbench,org.eclipse.ui.workbench,3.7.1.v20120104-1859,"",1362653956363
activated,workbench,org.eclipse.ui.workbench,3.7.1.v20120104-1859,"",1362653956572
executed,command,,,"AUTOGEN:::org.eclipse.jdt.debug.CompilationUnitEditor.BreakpointRulerActions/org.eclipse.jdt.debug.ui.actions.ManageBreakpointRulerAction",1362653958964
executed,command,org.eclipse.ui,3.7.0.v20110928-1505,"org.eclipse.ui.file.save",1362653960459
deactivated,workbench,org.eclipse.ui.workbench,3.7.1.v20120104-1859,"",1362653961096
activated,workbench,org.eclipse.ui.workbench,3.7.1.v20120104-1859,"",1362653966999
deactivated,workbench,org.eclipse.ui.workbench,3.7.1.v20120104-1859,"",1362653970739
activated,workbench,org.eclipse.ui.workbench,3.7.1.v20120104-1859,"",1362653979474
activated,view,org.eclipse.debug.ui,3.7.102.v20111129-1423_r372,"org.eclipse.debug.ui.VariableView",1362653984406
activated,view,org.eclipse.debug.ui,3.7.102.v20111129-1423_r372,"org.eclipse.debug.ui.DebugView",1362653985664
executed,command,org.eclipse.debug.ui,3.7.102.v20111129-1423_r372,"org.eclipse.debug.ui.commands.Resume",1362653985744
executed,command,org.eclipse.debug.ui,3.7.102.v20111129-1423_r372,"org.eclipse.debug.ui.commands.Resume",1362653988690
deactivated,workbench,org.eclipse.ui.workbench,3.7.1.v20120104-1859,"",1362653990462
activated,workbench,org.eclipse.ui.workbench,3.7.1.v20120104-1859,"",1362653991460
activated,editor,org.eclipse.jdt.ui,3.7.2.v20120109-1427,"org.eclipse.jdt.ui.CompilationUnitEditor",1362653993049
executed,command,org.eclipse.ui.workbench.texteditor,3.7.0.v20110928-1504,"org.eclipse.ui.edit.text.select.lineStart",1362653994299
executed,command,org.eclipse.ui,3.7.0.v20110928-1505,"org.eclipse.ui.edit.text.contentAssist.proposals",1362653995586
deactivated,workbench,org.eclipse.ui.workbench,3.7.1.v20120104-1859,"",1362654004223
activated,workbench,org.eclipse.ui.workbench,3.7.1.v20120104-1859,"",1362654004440
executed,command,,,"AUTOGEN:::org.eclipse.jdt.debug.CompilationUnitEditor.BreakpointRulerActions/org.eclipse.jdt.debug.ui.actions.ManageBreakpointRulerAction",1362654007283
executed,command,,,"AUTOGEN:::org.eclipse.jdt.debug.CompilationUnitEditor.BreakpointRulerActions/org.eclipse.jdt.debug.ui.actions.ManageBreakpointRulerAction",1362654009516
activated,view,org.eclipse.debug.ui,3.7.102.v20111129-1423_r372,"org.eclipse.debug.ui.DebugView",1362654011160
executed,command,org.eclipse.debug.ui,3.7.102.v20111129-1423_r372,"org.eclipse.debug.ui.commands.Terminate",1362654011242
deactivated,workbench,org.eclipse.ui.workbench,3.7.1.v20120104-1859,"",1362654012626
activated,workbench,org.eclipse.ui.workbench,3.7.1.v20120104-1859,"",1362654013940
deactivated,workbench,org.eclipse.ui.workbench,3.7.1.v20120104-1859,"",1362654018067
activated,workbench,org.eclipse.ui.workbench,3.7.1.v20120104-1859,"",1362654026381
executed,command,org.eclipse.debug.ui,3.7.102.v20111129-1423_r372,"org.eclipse.debug.ui.commands.Resume",1362654028711
deactivated,workbench,org.eclipse.ui.workbench,3.7.1.v20120104-1859,"",1362654030072
activated,workbench,org.eclipse.ui.workbench,3.7.1.v20120104-1859,"",1362654031266
no handler,command,org.eclipse.ui,3.7.0.v20110928-1505,"org.eclipse.ui.edit.undo",1362654032480
activated,editor,org.eclipse.jdt.ui,3.7.2.v20120109-1427,"org.eclipse.jdt.ui.CompilationUnitEditor",1362654033180
executed,command,org.eclipse.ui,3.7.0.v20110928-1505,"org.eclipse.ui.edit.undo",1362654033600
executed,command,org.eclipse.ui,3.7.0.v20110928-1505,"org.eclipse.ui.edit.redo",1362654034176
deactivated,workbench,org.eclipse.ui.workbench,3.7.1.v20120104-1859,"",1362654035905
activated,workbench,org.eclipse.ui.workbench,3.7.1.v20120104-1859,"",1362654036296
executed,command,,,"AUTOGEN:::org.eclipse.jdt.debug.CompilationUnitEditor.BreakpointRulerActions/org.eclipse.jdt.debug.ui.actions.ManageBreakpointRulerAction",1362654037887
executed,command,,,"AUTOGEN:::org.eclipse.jdt.debug.CompilationUnitEditor.BreakpointRulerActions/org.eclipse.jdt.debug.ui.actions.ManageBreakpointRulerAction",1362654039276
deactivated,workbench,org.eclipse.ui.workbench,3.7.1.v20120104-1859,"",1362654040049
activated,workbench,org.eclipse.ui.workbench,3.7.1.v20120104-1859,"",1362654041792
executed,command,,,"AUTOGEN:::org.eclipse.jdt.debug.CompilationUnitEditor.BreakpointRulerActions/org.eclipse.jdt.debug.ui.actions.ManageBreakpointRulerAction",1362654045308
activated,view,org.eclipse.debug.ui,3.7.102.v20111129-1423_r372,"org.eclipse.debug.ui.DebugView",1362654046728
executed,command,org.eclipse.debug.ui,3.7.102.v20111129-1423_r372,"org.eclipse.debug.ui.commands.Resume",1362654046807
activated,editor,org.eclipse.jdt.ui,3.7.2.v20120109-1427,"org.eclipse.jdt.ui.CompilationUnitEditor",1362654048355
executed,command,org.eclipse.ui,3.7.0.v20110928-1505,"org.eclipse.ui.edit.undo",1362654048726
executed,command,org.eclipse.ui,3.7.0.v20110928-1505,"org.eclipse.ui.edit.redo",1362654049299
executed,command,org.eclipse.jdt.ui,3.7.2.v20120109-1427,"org.eclipse.jdt.ui.edit.text.java.toggle.comment",1362654051826
executed,command,org.eclipse.ui,3.7.0.v20110928-1505,"org.eclipse.ui.file.save",1362654052647
deactivated,workbench,org.eclipse.ui.workbench,3.7.1.v20120104-1859,"",1362654052730
activated,workbench,org.eclipse.ui.workbench,3.7.1.v20120104-1859,"",1362654055763
executed,command,org.eclipse.ui.workbench.texteditor,3.7.0.v20110928-1504,"org.eclipse.ui.edit.text.select.lineStart",1362654056992
executed,command,org.eclipse.ui,3.7.0.v20110928-1505,"org.eclipse.ui.edit.text.contentAssist.proposals",1362654057672
deactivated,workbench,org.eclipse.ui.workbench,3.7.1.v20120104-1859,"",1362654066240
activated,workbench,org.eclipse.ui.workbench,3.7.1.v20120104-1859,"",1362654066457
executed,command,org.eclipse.ui,3.7.0.v20110928-1505,"org.eclipse.ui.edit.undo",1362654067324
executed,command,org.eclipse.ui,3.7.0.v20110928-1505,"org.eclipse.ui.edit.text.contentAssist.proposals",1362654069168
executed,command,org.eclipse.ui,3.7.0.v20110928-1505,"org.eclipse.ui.edit.undo",1362654073411
executed,command,org.eclipse.ui,3.7.0.v20110928-1505,"org.eclipse.ui.file.save",1362654074394
deactivated,workbench,org.eclipse.ui.workbench,3.7.1.v20120104-1859,"",1362654083215
activated,workbench,org.eclipse.ui.workbench,3.7.1.v20120104-1859,"",1362665377782
deactivated,workbench,org.eclipse.ui.workbench,3.7.1.v20120104-1859,"",1362665387733
activated,workbench,org.eclipse.ui.workbench,3.7.1.v20120104-1859,"",1362665895441
activated,view,org.eclipse.ui.console,3.5.100.v20111007_r372,"org.eclipse.ui.console.ConsoleView",1362665899230
opened,editor,org.eclipse.jdt.ui,3.7.2.v20120109-1427,"org.eclipse.jdt.ui.CompilationUnitEditor",1362665900022
activated,editor,org.eclipse.jdt.ui,3.7.2.v20120109-1427,"org.eclipse.jdt.ui.CompilationUnitEditor",1362665900183
activated,view,org.eclipse.debug.ui,3.7.102.v20111129-1423_r372,"org.eclipse.debug.ui.DebugView",1362665903503
executed,command,org.eclipse.debug.ui,3.7.102.v20111129-1423_r372,"org.eclipse.debug.ui.commands.Terminate",1362665903595
activated,editor,org.eclipse.jdt.ui,3.7.2.v20120109-1427,"org.eclipse.jdt.ui.CompilationUnitEditor",1362665906031
deactivated,workbench,org.eclipse.ui.workbench,3.7.1.v20120104-1859,"",1362665908629
activated,workbench,org.eclipse.ui.workbench,3.7.1.v20120104-1859,"",1362665936520
deactivated,workbench,org.eclipse.ui.workbench,3.7.1.v20120104-1859,"",1362665939862
activated,workbench,org.eclipse.ui.workbench,3.7.1.v20120104-1859,"",1362669387990
started,bundle,org.eclipse.epp.usagedata.ui,1.3.1.R201106061540,"org.eclipse.epp.usagedata.ui",1362669388180
activated,view,org.eclipse.debug.ui,3.7.102.v20111129-1423_r372,"org.eclipse.debug.ui.DebugView",1362669388376
executed,command,org.eclipse.debug.ui,3.7.102.v20111129-1423_r372,"org.eclipse.debug.ui.commands.Terminate",1362669388623
deactivated,workbench,org.eclipse.ui.workbench,3.7.1.v20120104-1859,"",1362669390734
activated,workbench,org.eclipse.ui.workbench,3.7.1.v20120104-1859,"",1362669393580
deactivated,workbench,org.eclipse.ui.workbench,3.7.1.v20120104-1859,"",1362669395363
activated,workbench,org.eclipse.ui.workbench,3.7.1.v20120104-1859,"",1362669397314
closed,workbench,org.eclipse.ui.workbench,3.7.1.v20120104-1859,"",1362669401990
stopped,bundle,org.eclipse.mylyn.ide.ant,3.6.0.v20110608-1400,"org.eclipse.mylyn.ide.ant",1362669405530
stopped,bundle,org.eclipse.mylyn.pde.ui,3.6.0.v20110608-1400,"org.eclipse.mylyn.pde.ui",1362669405555
stopped,bundle,org.eclipse.pde.api.tools.ui,1.0.301.v20110803_r371,"org.eclipse.pde.api.tools.ui",1362669405556
stopped,bundle,org.eclipse.pde.ds.ui,1.0.100.v20111213-1754,"org.eclipse.pde.ds.ui",1362669405559
stopped,bundle,org.eclipse.pde.runtime,3.4.201.v20110928-1516,"org.eclipse.pde.runtime",1362669405562
stopped,bundle,org.eclipse.pde.ua.ui,1.0.100.v20110516,"org.eclipse.pde.ua.ui",1362669405565
stopped,bundle,org.eclipse.pde.ui.templates,3.4.400.v20110928-1516,"org.eclipse.pde.ui.templates",1362669405568
stopped,bundle,org.eclipse.rap.ui.launch,1.4.2.20120213-1325,"org.eclipse.rap.ui.launch",1362669405569
stopped,bundle,org.eclipse.rap.ui.templates,1.4.2.20120213-1325,"org.eclipse.rap.ui.templates",1362669405571
stopped,bundle,org.eclipse.pde.ui,3.6.100.v20120103_r372,"org.eclipse.pde.ui",1362669405575
stopped,bundle,org.eclipse.ant.ui,3.5.101.v20120110-1739,"org.eclipse.ant.ui",1362669405583
stopped,bundle,org.eclipse.ant.launching,1.0.101.v20120110-1739,"org.eclipse.ant.launching",1362669405589
stopped,bundle,org.eclipse.egit.mylyn.ui,1.3.0.201202151440-r,"org.eclipse.egit.mylyn.ui",1362669405591
stopped,bundle,org.eclipse.egit.ui,1.3.0.201202151440-r,"org.eclipse.egit.ui",1362669405592
stopped,bundle,org.eclipse.egit.core,1.3.0.201202151440-r,"org.eclipse.egit.core",1362669405592
stopped,bundle,org.eclipse.equinox.p2.ui.sdk,1.0.200.v20110815-1419,"org.eclipse.equinox.p2.ui.sdk",1362669405596
stopped,bundle,org.eclipse.mylyn.java.tasks,3.6.0.v20110608-1400,"org.eclipse.mylyn.java.tasks",1362669405596
stopped,bundle,org.eclipse.mylyn.java.ui,3.6.0.v20110608-1400,"org.eclipse.mylyn.java.ui",1362669405596
stopped,bundle,overlay.com.android.ide.eclipse.adt.overlay,21.0.1.v201212060256-543035,"overlay.com.android.ide.eclipse.adt.overlay",1362669405598
stopped,bundle,com.android.ide.eclipse.adt,21.0.1.v201212060256-543035,"com.android.ide.eclipse.adt",1362669405598
stopped,bundle,org.eclipse.jdt.junit,3.7.0.v20110928-1453,"org.eclipse.jdt.junit",1362669405598
stopped,bundle,org.eclipse.jdt.apt.ui,3.3.300.v20110305-1450,"org.eclipse.jdt.apt.ui",1362669405602
stopped,bundle,org.eclipse.rap.ui.launch.rwt,1.4.2.20120213-1325,"org.eclipse.rap.ui.launch.rwt",1362669405606
stopped,bundle,org.eclipse.jdt.debug.ui,3.6.1.v20111006_r372,"org.eclipse.jdt.debug.ui",1362669405607
stopped,bundle,org.eclipse.jdt.ui,3.7.2.v20120109-1427,"org.eclipse.jdt.ui",1362669405766
stopped,bundle,org.eclipse.wst.dtd.ui,1.0.600.v201103171359,"org.eclipse.wst.dtd.ui",1362669405770
stopped,bundle,org.eclipse.wst.xsd.ui,1.2.404.v201105050216,"org.eclipse.wst.xsd.ui",1362669405781
stopped,bundle,org.eclipse.wst.xml.ui,1.1.202.v201112071516,"org.eclipse.wst.xml.ui",1362669405785
stopped,bundle,org.eclipse.wst.common.ui,1.1.500.v200911190730,"org.eclipse.wst.common.ui",1362669405793
stopped,bundle,org.eclipse.wst.sse.ui,1.3.2.v201201041522,"org.eclipse.wst.sse.ui",1362669405801
stopped,bundle,org.eclipse.search,3.7.0.v20110928-1504,"org.eclipse.search",1362669405803
stopped,bundle,org.eclipse.mylyn.commons.team,0.8.0.v20110608-1400,"org.eclipse.mylyn.commons.team",1362669405806
stopped,bundle,org.eclipse.mylyn.team.ui,3.6.1.v20110825-0100,"org.eclipse.mylyn.team.ui",1362669405808
stopped,bundle,org.eclipse.ui.navigator.resources,3.4.300.v20110928-1505,"org.eclipse.ui.navigator.resources",1362669405813
stopped,bundle,org.eclipse.ltk.ui.refactoring,3.6.0.v20110928-1453,"org.eclipse.ltk.ui.refactoring",1362669405814
stopped,bundle,org.eclipse.mylyn.bugzilla.ui,3.6.0.v20110608-1400,"org.eclipse.mylyn.bugzilla.ui",1362669405814
stopped,bundle,org.eclipse.mylyn.ide.ui,3.6.0.v20110608-1400,"org.eclipse.mylyn.ide.ui",1362669405815
stopped,bundle,org.eclipse.mylyn.resources.ui,3.6.0.v20110608-1400,"org.eclipse.mylyn.resources.ui",1362669405819
stopped,bundle,org.eclipse.mylyn.wikitext.tasks.ui,1.5.0.v20110608-1400,"org.eclipse.mylyn.wikitext.tasks.ui",1362669405828
stopped,bundle,org.eclipse.mylyn.context.ui,3.6.1.v20120112-0100,"org.eclipse.mylyn.context.ui",1362669405848
stopped,bundle,org.eclipse.mylyn.help.ui,3.6.1.v20110830-0100,"org.eclipse.mylyn.help.ui",1362669405855
stopped,bundle,org.eclipse.mylyn.tasks.bugs,3.6.1.v20110825-0100,"org.eclipse.mylyn.tasks.bugs",1362669405859
stopped,bundle,org.eclipse.mylyn.tasks.ui,3.6.5.v20120215-0100,"org.eclipse.mylyn.tasks.ui",1362669405861
stopped,bundle,org.eclipse.team.cvs.ui,3.3.401.v20120126-1227,"org.eclipse.team.cvs.ui",1362669405884
stopped,bundle,org.eclipse.team.ui,3.6.101.R37x_v20111109-0800,"org.eclipse.team.ui",1362669405885
stopped,bundle,org.eclipse.compare,3.5.202.R37x_v20111109-0800,"org.eclipse.compare",1362669405885
stopped,bundle,org.eclipse.ui.externaltools,3.2.0.v20111007_r372,"org.eclipse.ui.externaltools",1362669405984
stopped,bundle,org.eclipse.debug.ui,3.7.102.v20111129-1423_r372,"org.eclipse.debug.ui",1362669405987
stopped,bundle,org.eclipse.mylyn.wikitext.ui,1.5.0.v20110608-1400,"org.eclipse.mylyn.wikitext.ui",1362669405992
activated,perspective,org.eclipse.debug.ui,,"org.eclipse.debug.ui.DebugPerspective",1362886451085
started,bundle,org.eclipse.osgi,3.7.2.v20120110-1415,"org.eclipse.osgi",1362886451089
started,bundle,org.eclipse.equinox.simpleconfigurator,1.0.200.v20110815-1438,"org.eclipse.equinox.simpleconfigurator",1362886451090
started,bundle,com.ibm.icu,4.4.2.v20110823,"com.ibm.icu",1362886451091
started,bundle,org.eclipse.compare.core,3.5.200.I20110208-0800,"org.eclipse.compare.core",1362886451093
started,bundle,org.eclipse.core.contenttype,3.4.100.v20110423-0524,"org.eclipse.core.contenttype",1362886451094
started,bundle,org.eclipse.core.databinding.observable,1.4.0.I20110222-0800,"org.eclipse.core.databinding.observable",1362886451095
started,bundle,org.eclipse.core.expressions,3.4.300.v20110228,"org.eclipse.core.expressions",1362886451099
started,bundle,org.eclipse.core.filebuffers,3.5.200.v20110928-1504,"org.eclipse.core.filebuffers",1362886451099
started,bundle,org.eclipse.core.filesystem,1.3.100.v20110423-0524,"org.eclipse.core.filesystem",1362886451100
started,bundle,org.eclipse.core.jobs,3.5.101.v20120113-1953,"org.eclipse.core.jobs",1362886451100
started,bundle,org.eclipse.core.net,1.2.100.I20110511-0800,"org.eclipse.core.net",1362886451101
started,bundle,org.eclipse.core.resources,3.7.101.v20120125-1505,"org.eclipse.core.resources",1362886451102
started,bundle,org.eclipse.core.runtime,3.7.0.v20110110,"org.eclipse.core.runtime",1362886451103
started,bundle,org.eclipse.core.runtime.compatibility,3.2.100.v20100505,"org.eclipse.core.runtime.compatibility",1362886451104
started,bundle,org.eclipse.core.runtime.compatibility.auth,3.2.200.v20110110,"org.eclipse.core.runtime.compatibility.auth",1362886451104
started,bundle,org.eclipse.core.variables,3.2.500.v20110928-1503,"org.eclipse.core.variables",1362886451105
started,bundle,org.eclipse.debug.core,3.7.1.v20111129-2031,"org.eclipse.debug.core",1362886451105
started,bundle,org.eclipse.debug.ui,3.7.102.v20111129-1423_r372,"org.eclipse.debug.ui",1362886451107
started,bundle,org.eclipse.egit.core,1.3.0.201202151440-r,"org.eclipse.egit.core",1362886451108
started,bundle,org.eclipse.egit.ui,1.3.0.201202151440-r,"org.eclipse.egit.ui",1362886451110
started,bundle,org.eclipse.epp.mpc.ui,1.1.1.I20110907-0947,"org.eclipse.epp.mpc.ui",1362886451111
started,bundle,org.eclipse.epp.usagedata.gathering,1.3.1.R201106061540,"org.eclipse.epp.usagedata.gathering",1362886451112
started,bundle,org.eclipse.epp.usagedata.recording,1.3.1.R201106061540,"org.eclipse.epp.usagedata.recording",1362886451112
started,bundle,org.eclipse.equinox.app,1.3.100.v20110321,"org.eclipse.equinox.app",1362886451113
