what,kind,bundleId,bundleVersion,description,time
executed,command,,,"AUTOGEN:::org.eclipse.jdt.debug.CompilationUnitEditor.BreakpointRulerActions/org.eclipse.jdt.debug.ui.actions.ManageBreakpointRulerAction",1352552793528
deactivated,workbench,org.eclipse.ui.workbench,3.7.1.v20120104-1859,"",1352552793820
activated,workbench,org.eclipse.ui.workbench,3.7.1.v20120104-1859,"",1352552799148
executed,command,org.eclipse.ui,3.7.0.v20110928-1505,"org.eclipse.ui.edit.cut",1352552805796
executed,command,org.eclipse.ui,3.7.0.v20110928-1505,"org.eclipse.ui.edit.paste",1352552808247
executed,command,org.eclipse.ui,3.7.0.v20110928-1505,"org.eclipse.ui.file.save",1352552808572
deactivated,workbench,org.eclipse.ui.workbench,3.7.1.v20120104-1859,"",1352552809017
activated,workbench,org.eclipse.ui.workbench,3.7.1.v20120104-1859,"",1352552814766
deactivated,workbench,org.eclipse.ui.workbench,3.7.1.v20120104-1859,"",1352552821800
activated,workbench,org.eclipse.ui.workbench,3.7.1.v20120104-1859,"",1352552832782
executed,command,,,"AUTOGEN:::org.eclipse.jdt.debug.CompilationUnitEditor.BreakpointRulerActions/org.eclipse.jdt.debug.ui.actions.ManageBreakpointRulerAction",1352552833064
deactivated,workbench,org.eclipse.ui.workbench,3.7.1.v20120104-1859,"",1352552833574
activated,workbench,org.eclipse.ui.workbench,3.7.1.v20120104-1859,"",1352552856553
executed,command,org.eclipse.ui,3.7.0.v20110928-1505,"org.eclipse.ui.edit.cut",1352552864502
executed,command,org.eclipse.ui,3.7.0.v20110928-1505,"org.eclipse.ui.file.save",1352552864976
activated,perspective,org.eclipse.jdt.ui,3.7.2.v20120109-1427,"org.eclipse.jdt.ui.JavaPerspective",1352552867349
activated,view,org.eclipse.jdt.ui,3.7.2.v20120109-1427,"org.eclipse.jdt.ui.PackageExplorer",1352552874001
opened,editor,org.eclipse.jdt.ui,3.7.2.v20120109-1427,"org.eclipse.jdt.ui.CompilationUnitEditor",1352552874152
opened,editor,org.eclipse.jdt.ui,3.7.2.v20120109-1427,"org.eclipse.jdt.ui.CompilationUnitEditor",1352552875819
activated,editor,org.eclipse.jdt.ui,3.7.2.v20120109-1427,"org.eclipse.jdt.ui.CompilationUnitEditor",1352552885200
executed,command,org.eclipse.ui,3.7.0.v20110928-1505,"org.eclipse.ui.edit.paste",1352552886658
executed,command,org.eclipse.ui,3.7.0.v20110928-1505,"org.eclipse.ui.edit.copy",1352552890743
executed,command,org.eclipse.ui,3.7.0.v20110928-1505,"org.eclipse.ui.edit.paste",1352552896367
deactivated,workbench,org.eclipse.ui.workbench,3.7.1.v20120104-1859,"",1352552919962
activated,workbench,org.eclipse.ui.workbench,3.7.1.v20120104-1859,"",1352552920319
executed,command,org.eclipse.ui,3.7.0.v20110928-1505,"org.eclipse.ui.edit.copy",1352552931686
executed,command,org.eclipse.ui,3.7.0.v20110928-1505,"org.eclipse.ui.edit.paste",1352552932233
executed,command,org.eclipse.ui.workbench.texteditor,3.7.0.v20110928-1504,"org.eclipse.ui.edit.text.select.lineStart",1352552946030
executed,command,org.eclipse.ui,3.7.0.v20110928-1505,"org.eclipse.ui.edit.cut",1352552951634
deactivated,workbench,org.eclipse.ui.workbench,3.7.1.v20120104-1859,"",1352552952805
activated,workbench,org.eclipse.ui.workbench,3.7.1.v20120104-1859,"",1352552957324
deactivated,workbench,org.eclipse.ui.workbench,3.7.1.v20120104-1859,"",1352552957496
activated,workbench,org.eclipse.ui.workbench,3.7.1.v20120104-1859,"",1352552977974
executed,command,org.eclipse.ui,3.7.0.v20110928-1505,"org.eclipse.ui.edit.copy",1352552980611
executed,command,org.eclipse.ui,3.7.0.v20110928-1505,"org.eclipse.ui.edit.paste",1352552981331
deactivated,workbench,org.eclipse.ui.workbench,3.7.1.v20120104-1859,"",1352553001466
activated,workbench,org.eclipse.ui.workbench,3.7.1.v20120104-1859,"",1352553017742
executed,command,org.eclipse.ui.workbench.texteditor,3.7.0.v20110928-1504,"org.eclipse.ui.edit.text.select.lineStart",1352553018768
executed,command,org.eclipse.ui,3.7.0.v20110928-1505,"org.eclipse.ui.edit.text.contentAssist.proposals",1352553020349
deactivated,workbench,org.eclipse.ui.workbench,3.7.1.v20120104-1859,"",1352553021135
activated,workbench,org.eclipse.ui.workbench,3.7.1.v20120104-1859,"",1352553022170
executed,command,org.eclipse.ui.workbench.texteditor,3.7.0.v20110928-1504,"org.eclipse.ui.edit.text.select.lineStart",1352553029084
executed,command,org.eclipse.ui,3.7.0.v20110928-1505,"org.eclipse.ui.edit.text.contentAssist.proposals",1352553040090
executed,command,org.eclipse.ui.workbench.texteditor,3.7.0.v20110928-1504,"org.eclipse.ui.edit.text.select.lineStart",1352553049883
deactivated,workbench,org.eclipse.ui.workbench,3.7.1.v20120104-1859,"",1352553061855
activated,workbench,org.eclipse.ui.workbench,3.7.1.v20120104-1859,"",1352553086674
activated,editor,org.eclipse.jdt.ui,3.7.2.v20120109-1427,"org.eclipse.jdt.ui.CompilationUnitEditor",1352553121388
activated,editor,org.eclipse.jdt.ui,3.7.2.v20120109-1427,"org.eclipse.jdt.ui.CompilationUnitEditor",1352553123664
executed,command,org.eclipse.ui,3.7.0.v20110928-1505,"org.eclipse.ui.navigate.backwardHistory",1352553123677
executed,command,org.eclipse.ui,3.7.0.v20110928-1505,"org.eclipse.ui.file.save",1352553149901
deactivated,workbench,org.eclipse.ui.workbench,3.7.1.v20120104-1859,"",1352553152526
activated,workbench,org.eclipse.ui.workbench,3.7.1.v20120104-1859,"",1352553179230
executed,command,org.eclipse.ui,3.7.0.v20110928-1505,"org.eclipse.ui.edit.copy",1352553188147
executed,command,org.eclipse.ui,3.7.0.v20110928-1505,"org.eclipse.ui.edit.paste",1352553189136
executed,command,org.eclipse.ui,3.7.0.v20110928-1505,"org.eclipse.ui.edit.text.contentAssist.proposals",1352553193556
executed,command,org.eclipse.ui,3.7.0.v20110928-1505,"org.eclipse.ui.edit.copy",1352553206902
deactivated,workbench,org.eclipse.ui.workbench,3.7.1.v20120104-1859,"",1352553207667
error,log,,,"Unhandled event loop exception",1352553240949
activated,workbench,org.eclipse.ui.workbench,3.7.1.v20120104-1859,"",1352553252488
deactivated,workbench,org.eclipse.ui.workbench,3.7.1.v20120104-1859,"",1352553254495
executed,command,org.eclipse.ui,3.7.0.v20110928-1505,"org.eclipse.ui.edit.findReplace",1352553254553
activated,workbench,org.eclipse.ui.workbench,3.7.1.v20120104-1859,"",1352553257240
executed,command,org.eclipse.ui,3.7.0.v20110928-1505,"org.eclipse.ui.edit.text.contentAssist.proposals",1352553260998
deactivated,workbench,org.eclipse.ui.workbench,3.7.1.v20120104-1859,"",1352553264144
activated,workbench,org.eclipse.ui.workbench,3.7.1.v20120104-1859,"",1352553266981
executed,command,org.eclipse.ui,3.7.0.v20110928-1505,"org.eclipse.ui.edit.text.contentAssist.proposals",1352553268590
executed,command,org.eclipse.ui.workbench.texteditor,3.7.0.v20110928-1504,"org.eclipse.ui.edit.text.select.lineStart",1352553271340
executed,command,org.eclipse.ui,3.7.0.v20110928-1505,"org.eclipse.ui.file.save",1352553279160
activated,view,org.eclipse.jdt.ui,3.7.2.v20120109-1427,"org.eclipse.jdt.ui.PackageExplorer",1352553280290
activated,editor,org.eclipse.jdt.ui,3.7.2.v20120109-1427,"org.eclipse.jdt.ui.CompilationUnitEditor",1352553282538
executed,command,org.eclipse.ui,3.7.0.v20110928-1505,"org.eclipse.ui.edit.undo",1352553282780
executed,command,org.eclipse.ui,3.7.0.v20110928-1505,"org.eclipse.ui.edit.undo",1352553283030
executed,command,org.eclipse.ui,3.7.0.v20110928-1505,"org.eclipse.ui.file.save",1352553283885
executed,command,org.eclipse.ui.workbench.texteditor,3.7.0.v20110928-1504,"org.eclipse.ui.edit.text.select.lineEnd",1352553287052
deactivated,workbench,org.eclipse.ui.workbench,3.7.1.v20120104-1859,"",1352553289159
activated,workbench,org.eclipse.ui.workbench,3.7.1.v20120104-1859,"",1352553289872
executed,command,,,"AUTOGEN:::org.eclipse.jdt.internal.ui.CompilationUnitEditor.ruler.actions/org.eclipse.jdt.internal.ui.javaeditor.JavaSelectRulerAction",1352553295292
deactivated,workbench,org.eclipse.ui.workbench,3.7.1.v20120104-1859,"",1352553297859
activated,workbench,org.eclipse.ui.workbench,3.7.1.v20120104-1859,"",1352553299193
executed,command,org.eclipse.ui.workbench.texteditor,3.7.0.v20110928-1504,"org.eclipse.ui.edit.text.select.lineStart",1352553300475
executed,command,org.eclipse.ui,3.7.0.v20110928-1505,"org.eclipse.ui.file.save",1352553302041
deactivated,workbench,org.eclipse.ui.workbench,3.7.1.v20120104-1859,"",1352553302410
activated,workbench,org.eclipse.ui.workbench,3.7.1.v20120104-1859,"",1352553317644
deactivated,workbench,org.eclipse.ui.workbench,3.7.1.v20120104-1859,"",1352553319786
activated,workbench,org.eclipse.ui.workbench,3.7.1.v20120104-1859,"",1352553328792
deactivated,workbench,org.eclipse.ui.workbench,3.7.1.v20120104-1859,"",1352553333534
activated,workbench,org.eclipse.ui.workbench,3.7.1.v20120104-1859,"",1352553334262
deactivated,workbench,org.eclipse.ui.workbench,3.7.1.v20120104-1859,"",1352553338485
activated,workbench,org.eclipse.ui.workbench,3.7.1.v20120104-1859,"",1352553353839
activated,view,org.eclipse.jdt.ui,3.7.2.v20120109-1427,"org.eclipse.jdt.ui.PackageExplorer",1352553357937
activated,editor,org.eclipse.jdt.ui,3.7.2.v20120109-1427,"org.eclipse.jdt.ui.CompilationUnitEditor",1352553361995
executed,command,org.eclipse.ui,3.7.0.v20110928-1505,"org.eclipse.ui.edit.paste",1352553362885
deactivated,workbench,org.eclipse.ui.workbench,3.7.1.v20120104-1859,"",1352553366603
activated,workbench,org.eclipse.ui.workbench,3.7.1.v20120104-1859,"",1352553368003
deactivated,workbench,org.eclipse.ui.workbench,3.7.1.v20120104-1859,"",1352553369038
activated,workbench,org.eclipse.ui.workbench,3.7.1.v20120104-1859,"",1352553371582
executed,command,org.eclipse.jdt.ui,3.7.2.v20120109-1427,"org.eclipse.jdt.ui.edit.text.java.organize.imports",1352553371750
executed,command,org.eclipse.ui,3.7.0.v20110928-1505,"org.eclipse.ui.edit.undo",1352553374797
executed,command,org.eclipse.ui,3.7.0.v20110928-1505,"org.eclipse.ui.edit.undo",1352553375340
deactivated,workbench,org.eclipse.ui.workbench,3.7.1.v20120104-1859,"",1352553376337
activated,workbench,org.eclipse.ui.workbench,3.7.1.v20120104-1859,"",1352553381255
activated,view,org.eclipse.jdt.ui,3.7.2.v20120109-1427,"org.eclipse.jdt.ui.PackageExplorer",1352553382419
activated,editor,org.eclipse.jdt.ui,3.7.2.v20120109-1427,"org.eclipse.jdt.ui.CompilationUnitEditor",1352553390269
executed,command,org.eclipse.ui,3.7.0.v20110928-1505,"org.eclipse.ui.edit.paste",1352553396590
deactivated,workbench,org.eclipse.ui.workbench,3.7.1.v20120104-1859,"",1352553398273
activated,workbench,org.eclipse.ui.workbench,3.7.1.v20120104-1859,"",1352553401535
executed,command,org.eclipse.jdt.ui,3.7.2.v20120109-1427,"org.eclipse.jdt.ui.edit.text.java.organize.imports",1352553401719
executed,command,org.eclipse.ui,3.7.0.v20110928-1505,"org.eclipse.ui.edit.undo",1352553403628
executed,command,org.eclipse.ui,3.7.0.v20110928-1505,"org.eclipse.ui.edit.undo",1352553404474
executed,command,org.eclipse.ui,3.7.0.v20110928-1505,"org.eclipse.ui.edit.undo",1352553405439
deactivated,workbench,org.eclipse.ui.workbench,3.7.1.v20120104-1859,"",1352553406181
activated,workbench,org.eclipse.ui.workbench,3.7.1.v20120104-1859,"",1352553434251
executed,command,org.eclipse.ui,3.7.0.v20110928-1505,"org.eclipse.ui.edit.paste",1352553437809
executed,command,org.eclipse.ui,3.7.0.v20110928-1505,"org.eclipse.ui.edit.undo",1352553438745
executed,command,org.eclipse.ui,3.7.0.v20110928-1505,"org.eclipse.ui.edit.paste",1352553440529
executed,command,org.eclipse.ui,3.7.0.v20110928-1505,"org.eclipse.ui.edit.text.contentAssist.proposals",1352553441071
executed,command,org.eclipse.ui,3.7.0.v20110928-1505,"org.eclipse.ui.edit.undo",1352553442249
deactivated,workbench,org.eclipse.ui.workbench,3.7.1.v20120104-1859,"",1352553442852
activated,workbench,org.eclipse.ui.workbench,3.7.1.v20120104-1859,"",1352553443802
executed,command,org.eclipse.ui,3.7.0.v20110928-1505,"org.eclipse.ui.edit.text.contentAssist.proposals",1352553446892
deactivated,workbench,org.eclipse.ui.workbench,3.7.1.v20120104-1859,"",1352553450242
activated,workbench,org.eclipse.ui.workbench,3.7.1.v20120104-1859,"",1352553453895
executed,command,org.eclipse.ui,3.7.0.v20110928-1505,"org.eclipse.ui.edit.undo",1352553455299
deactivated,workbench,org.eclipse.ui.workbench,3.7.1.v20120104-1859,"",1352553459576
activated,workbench,org.eclipse.ui.workbench,3.7.1.v20120104-1859,"",1352553460860
deactivated,workbench,org.eclipse.ui.workbench,3.7.1.v20120104-1859,"",1352553460988
activated,workbench,org.eclipse.ui.workbench,3.7.1.v20120104-1859,"",1352553471584
executed,command,org.eclipse.ui,3.7.0.v20110928-1505,"org.eclipse.ui.edit.paste",1352553472475
deactivated,workbench,org.eclipse.ui.workbench,3.7.1.v20120104-1859,"",1352553473409
activated,workbench,org.eclipse.ui.workbench,3.7.1.v20120104-1859,"",1352553477195
executed,command,org.eclipse.ui,3.7.0.v20110928-1505,"org.eclipse.ui.edit.cut",1352553480679
activated,view,org.eclipse.jdt.ui,3.7.2.v20120109-1427,"org.eclipse.jdt.ui.PackageExplorer",1352553483073
activated,editor,org.eclipse.jdt.ui,3.7.2.v20120109-1427,"org.eclipse.jdt.ui.CompilationUnitEditor",1352553487480
executed,command,org.eclipse.ui,3.7.0.v20110928-1505,"org.eclipse.ui.edit.copy",1352553494155
executed,command,org.eclipse.ui,3.7.0.v20110928-1505,"org.eclipse.ui.edit.paste",1352553494811
executed,command,org.eclipse.ui,3.7.0.v20110928-1505,"org.eclipse.ui.edit.text.contentAssist.proposals",1352553499011
deactivated,workbench,org.eclipse.ui.workbench,3.7.1.v20120104-1859,"",1352553502331
activated,workbench,org.eclipse.ui.workbench,3.7.1.v20120104-1859,"",1352553505869
deactivated,workbench,org.eclipse.ui.workbench,3.7.1.v20120104-1859,"",1352553512243
activated,workbench,org.eclipse.ui.workbench,3.7.1.v20120104-1859,"",1352553512987
executed,command,org.eclipse.ui,3.7.0.v20110928-1505,"org.eclipse.ui.edit.text.contentAssist.proposals",1352553515361
executed,command,org.eclipse.ui.workbench.texteditor,3.7.0.v20110928-1504,"org.eclipse.ui.edit.text.select.lineStart",1352553526166
executed,command,org.eclipse.ui,3.7.0.v20110928-1505,"org.eclipse.ui.file.save",1352553528334
deactivated,workbench,org.eclipse.ui.workbench,3.7.1.v20120104-1859,"",1352553528677
activated,workbench,org.eclipse.ui.workbench,3.7.1.v20120104-1859,"",1352553557191
executed,command,org.eclipse.ui,3.7.0.v20110928-1505,"org.eclipse.ui.edit.paste",1352553558242
executed,command,,,"AUTOGEN:::org.eclipse.jdt.internal.ui.CompilationUnitEditor.ruler.actions/org.eclipse.jdt.internal.ui.javaeditor.JavaSelectRulerAction",1352553562476
executed,command,org.eclipse.ui,3.7.0.v20110928-1505,"org.eclipse.ui.edit.undo",1352553563537
executed,command,org.eclipse.ui,3.7.0.v20110928-1505,"org.eclipse.ui.edit.undo",1352553563864
executed,command,org.eclipse.ui,3.7.0.v20110928-1505,"org.eclipse.ui.edit.undo",1352553564128
executed,command,org.eclipse.ui,3.7.0.v20110928-1505,"org.eclipse.ui.edit.undo",1352553564394
executed,command,org.eclipse.ui,3.7.0.v20110928-1505,"org.eclipse.ui.edit.undo",1352553564635
deactivated,workbench,org.eclipse.ui.workbench,3.7.1.v20120104-1859,"",1352553567251
activated,workbench,org.eclipse.ui.workbench,3.7.1.v20120104-1859,"",1352553568136
opened,editor,org.eclipse.jdt.ui,3.7.2.v20120109-1427,"org.eclipse.jdt.ui.ClassFileEditor",1352553569459
activated,editor,org.eclipse.jdt.ui,3.7.2.v20120109-1427,"org.eclipse.jdt.ui.ClassFileEditor",1352553569554
activated,editor,org.eclipse.jdt.ui,3.7.2.v20120109-1427,"org.eclipse.jdt.ui.CompilationUnitEditor",1352553571305
executed,command,org.eclipse.ui,3.7.0.v20110928-1505,"org.eclipse.ui.navigate.backwardHistory",1352553571320
deactivated,workbench,org.eclipse.ui.workbench,3.7.1.v20120104-1859,"",1352553571628
activated,workbench,org.eclipse.ui.workbench,3.7.1.v20120104-1859,"",1352553581947
activated,view,org.eclipse.jdt.ui,3.7.2.v20120109-1427,"org.eclipse.jdt.ui.PackageExplorer",1352553592973
activated,editor,org.eclipse.jdt.ui,3.7.2.v20120109-1427,"org.eclipse.jdt.ui.CompilationUnitEditor",1352553595689
executed,command,org.eclipse.ui.workbench.texteditor,3.7.0.v20110928-1504,"org.eclipse.ui.edit.text.goto.lineEnd",1352553596609
executed,command,org.eclipse.ui,3.7.0.v20110928-1505,"org.eclipse.ui.edit.paste",1352553597481
executed,command,org.eclipse.ui,3.7.0.v20110928-1505,"org.eclipse.ui.edit.text.contentAssist.proposals",1352553616111
activated,editor,org.eclipse.jdt.ui,3.7.2.v20120109-1427,"org.eclipse.jdt.ui.CompilationUnitEditor",1352553632777
executed,command,org.eclipse.ui,3.7.0.v20110928-1505,"org.eclipse.ui.edit.copy",1352553637761
activated,view,org.eclipse.jdt.ui,3.7.2.v20120109-1427,"org.eclipse.jdt.ui.PackageExplorer",1352553646557
opened,editor,org.eclipse.jdt.ui,3.7.2.v20120109-1427,"org.eclipse.jdt.ui.CompilationUnitEditor",1352553646700
opened,editor,org.eclipse.jdt.ui,3.7.2.v20120109-1427,"org.eclipse.jdt.ui.CompilationUnitEditor",1352553686809
deactivated,workbench,org.eclipse.ui.workbench,3.7.1.v20120104-1859,"",1352553692055
executed,command,org.eclipse.ui,3.7.0.v20110928-1505,"org.eclipse.ui.edit.paste",1352553692346
activated,workbench,org.eclipse.ui.workbench,3.7.1.v20120104-1859,"",1352553695354
activated,editor,org.eclipse.jdt.ui,3.7.2.v20120109-1427,"org.eclipse.jdt.ui.CompilationUnitEditor",1352553695521
executed,command,org.eclipse.ui.ide,3.7.0.v20110928-1505,"org.eclipse.ui.navigate.openResource",1352553695546
opened,editor,org.eclipse.jdt.ui,3.7.2.v20120109-1427,"org.eclipse.jdt.ui.ClassFileEditor",1352553706288
activated,editor,org.eclipse.jdt.ui,3.7.2.v20120109-1427,"org.eclipse.jdt.ui.ClassFileEditor",1352553706411
activated,editor,org.eclipse.jdt.ui,3.7.2.v20120109-1427,"org.eclipse.jdt.ui.CompilationUnitEditor",1352553711562
executed,command,org.eclipse.ui,3.7.0.v20110928-1505,"org.eclipse.ui.navigate.backwardHistory",1352553711583
executed,command,org.eclipse.ui,3.7.0.v20110928-1505,"org.eclipse.ui.edit.text.contentAssist.proposals",1352553724940
activated,view,org.eclipse.jdt.ui,3.7.2.v20120109-1427,"org.eclipse.jdt.ui.PackageExplorer",1352553728487
activated,editor,org.eclipse.jdt.ui,3.7.2.v20120109-1427,"org.eclipse.jdt.ui.CompilationUnitEditor",1352553735505
executed,command,org.eclipse.ui,3.7.0.v20110928-1505,"org.eclipse.ui.edit.copy",1352553735934
activated,editor,org.eclipse.jdt.ui,3.7.2.v20120109-1427,"org.eclipse.jdt.ui.CompilationUnitEditor",1352553737336
executed,command,org.eclipse.ui.workbench.texteditor,3.7.0.v20110928-1504,"org.eclipse.ui.edit.text.select.lineStart",1352553738310
executed,command,org.eclipse.ui,3.7.0.v20110928-1505,"org.eclipse.ui.edit.paste",1352553738624
executed,command,org.eclipse.ui.workbench.texteditor,3.7.0.v20110928-1504,"org.eclipse.ui.edit.text.smartEnterInverse",1352553739368
executed,command,org.eclipse.ui.workbench.texteditor,3.7.0.v20110928-1504,"org.eclipse.ui.edit.text.goto.lineEnd",1352553740822
executed,command,org.eclipse.ui,3.7.0.v20110928-1505,"org.eclipse.ui.edit.paste",1352553741273
executed,command,org.eclipse.ui,3.7.0.v20110928-1505,"org.eclipse.ui.edit.undo",1352553742443
executed,command,org.eclipse.ui.workbench.texteditor,3.7.0.v20110928-1504,"org.eclipse.ui.edit.text.select.lineStart",1352553745178
executed,command,org.eclipse.ui,3.7.0.v20110928-1505,"org.eclipse.ui.edit.text.contentAssist.proposals",1352553747939
executed,command,org.eclipse.ui.workbench.texteditor,3.7.0.v20110928-1504,"org.eclipse.ui.edit.text.goto.lineStart",1352553750885
executed,command,org.eclipse.ui.workbench.texteditor,3.7.0.v20110928-1504,"org.eclipse.ui.edit.text.select.lineEnd",1352553751565
executed,command,org.eclipse.ui,3.7.0.v20110928-1505,"org.eclipse.ui.edit.paste",1352553751970
executed,command,org.eclipse.ui.workbench.texteditor,3.7.0.v20110928-1504,"org.eclipse.ui.edit.text.select.lineStart",1352553752957
executed,command,org.eclipse.ui,3.7.0.v20110928-1505,"org.eclipse.ui.edit.text.contentAssist.proposals",1352553754497
executed,command,org.eclipse.ui,3.7.0.v20110928-1505,"org.eclipse.ui.edit.text.contentAssist.proposals",1352553754971
executed,command,org.eclipse.ui,3.7.0.v20110928-1505,"org.eclipse.ui.edit.text.contentAssist.proposals",1352553756941
executed,command,org.eclipse.ui.workbench.texteditor,3.7.0.v20110928-1504,"org.eclipse.ui.edit.text.select.lineStart",1352553763013
executed,command,org.eclipse.ui,3.7.0.v20110928-1505,"org.eclipse.ui.edit.text.contentAssist.proposals",1352553768445
executed,command,org.eclipse.ui.workbench.texteditor,3.7.0.v20110928-1504,"org.eclipse.ui.edit.text.goto.lineStart",1352553772245
executed,command,org.eclipse.ui,3.7.0.v20110928-1505,"org.eclipse.ui.file.save",1352553776861
deactivated,workbench,org.eclipse.ui.workbench,3.7.1.v20120104-1859,"",1352553777218
activated,workbench,org.eclipse.ui.workbench,3.7.1.v20120104-1859,"",1352553779129
activated,editor,org.eclipse.jdt.ui,3.7.2.v20120109-1427,"org.eclipse.jdt.ui.CompilationUnitEditor",1352553779921
deactivated,workbench,org.eclipse.ui.workbench,3.7.1.v20120104-1859,"",1352553783527
activated,workbench,org.eclipse.ui.workbench,3.7.1.v20120104-1859,"",1352553786748
executed,command,org.eclipse.jdt.ui,3.7.2.v20120109-1427,"org.eclipse.jdt.ui.edit.text.java.organize.imports",1352553786941
deactivated,workbench,org.eclipse.ui.workbench,3.7.1.v20120104-1859,"",1352553792551
activated,workbench,org.eclipse.ui.workbench,3.7.1.v20120104-1859,"",1352553808568
executed,command,org.eclipse.ui,3.7.0.v20110928-1505,"org.eclipse.ui.edit.cut",1352553825642
deactivated,workbench,org.eclipse.ui.workbench,3.7.1.v20120104-1859,"",1352553826061
activated,workbench,org.eclipse.ui.workbench,3.7.1.v20120104-1859,"",1352553827059
executed,command,org.eclipse.ui,3.7.0.v20110928-1505,"org.eclipse.ui.edit.copy",1352553842774
deactivated,workbench,org.eclipse.ui.workbench,3.7.1.v20120104-1859,"",1352553844329
activated,workbench,org.eclipse.ui.workbench,3.7.1.v20120104-1859,"",1352553845836
executed,command,org.eclipse.ui,3.7.0.v20110928-1505,"org.eclipse.ui.edit.paste",1352553846794
executed,command,org.eclipse.ui,3.7.0.v20110928-1505,"org.eclipse.ui.edit.text.contentAssist.proposals",1352553851530
executed,command,org.eclipse.ui.workbench.texteditor,3.7.0.v20110928-1504,"org.eclipse.ui.edit.text.select.lineStart",1352553868058
executed,command,org.eclipse.ui,3.7.0.v20110928-1505,"org.eclipse.ui.edit.undo",1352553872215
executed,command,org.eclipse.ui,3.7.0.v20110928-1505,"org.eclipse.ui.edit.undo",1352553872598
executed,command,org.eclipse.ui,3.7.0.v20110928-1505,"org.eclipse.ui.edit.undo",1352553872928
executed,command,org.eclipse.ui,3.7.0.v20110928-1505,"org.eclipse.ui.edit.undo",1352553873223
executed,command,org.eclipse.ui,3.7.0.v20110928-1505,"org.eclipse.ui.edit.undo",1352553874320
executed,command,org.eclipse.ui,3.7.0.v20110928-1505,"org.eclipse.ui.edit.undo",1352553874646
executed,command,org.eclipse.ui,3.7.0.v20110928-1505,"org.eclipse.ui.edit.undo",1352553874927
executed,command,org.eclipse.ui,3.7.0.v20110928-1505,"org.eclipse.ui.edit.undo",1352553875255
executed,command,org.eclipse.ui,3.7.0.v20110928-1505,"org.eclipse.ui.edit.undo",1352553875546
executed,command,org.eclipse.ui,3.7.0.v20110928-1505,"org.eclipse.ui.edit.undo",1352553876033
executed,command,org.eclipse.ui,3.7.0.v20110928-1505,"org.eclipse.ui.edit.undo",1352553876344
executed,command,org.eclipse.ui,3.7.0.v20110928-1505,"org.eclipse.ui.edit.undo",1352553876623
executed,command,org.eclipse.ui,3.7.0.v20110928-1505,"org.eclipse.ui.edit.undo",1352553876904
executed,command,org.eclipse.ui,3.7.0.v20110928-1505,"org.eclipse.ui.edit.undo",1352553877119
executed,command,org.eclipse.ui,3.7.0.v20110928-1505,"org.eclipse.ui.edit.undo",1352553877423
executed,command,org.eclipse.ui,3.7.0.v20110928-1505,"org.eclipse.ui.edit.undo",1352553877647
executed,command,org.eclipse.ui,3.7.0.v20110928-1505,"org.eclipse.ui.edit.undo",1352553878360
executed,command,org.eclipse.ui,3.7.0.v20110928-1505,"org.eclipse.ui.edit.undo",1352553878567
executed,command,org.eclipse.ui,3.7.0.v20110928-1505,"org.eclipse.ui.edit.undo",1352553879453
executed,command,org.eclipse.ui,3.7.0.v20110928-1505,"org.eclipse.ui.edit.undo",1352553879724
executed,command,org.eclipse.ui,3.7.0.v20110928-1505,"org.eclipse.ui.edit.copy",1352553888003
executed,command,org.eclipse.ui,3.7.0.v20110928-1505,"org.eclipse.ui.edit.paste",1352553889449
executed,command,org.eclipse.ui,3.7.0.v20110928-1505,"org.eclipse.ui.edit.copy",1352553900518
executed,command,org.eclipse.ui,3.7.0.v20110928-1505,"org.eclipse.ui.edit.paste",1352553902701
executed,command,org.eclipse.ui,3.7.0.v20110928-1505,"org.eclipse.ui.edit.undo",1352553915465
executed,command,org.eclipse.ui,3.7.0.v20110928-1505,"org.eclipse.ui.edit.undo",1352553916905
executed,command,org.eclipse.ui,3.7.0.v20110928-1505,"org.eclipse.ui.edit.undo",1352553917631
executed,command,org.eclipse.ui,3.7.0.v20110928-1505,"org.eclipse.ui.edit.undo",1352553918029
executed,command,org.eclipse.ui,3.7.0.v20110928-1505,"org.eclipse.ui.edit.undo",1352553919367
executed,command,org.eclipse.ui,3.7.0.v20110928-1505,"org.eclipse.ui.edit.undo",1352553919812
executed,command,org.eclipse.ui,3.7.0.v20110928-1505,"org.eclipse.ui.edit.redo",1352553923550
executed,command,org.eclipse.ui,3.7.0.v20110928-1505,"org.eclipse.ui.edit.undo",1352553926798
deactivated,workbench,org.eclipse.ui.workbench,3.7.1.v20120104-1859,"",1352553929306
activated,workbench,org.eclipse.ui.workbench,3.7.1.v20120104-1859,"",1352553932219
executed,command,org.eclipse.ui.workbench.texteditor,3.7.0.v20110928-1504,"org.eclipse.ui.edit.text.select.lineStart",1352553935348
deactivated,workbench,org.eclipse.ui.workbench,3.7.1.v20120104-1859,"",1352553942174
activated,workbench,org.eclipse.ui.workbench,3.7.1.v20120104-1859,"",1352553943054
deactivated,workbench,org.eclipse.ui.workbench,3.7.1.v20120104-1859,"",1352553943419
activated,workbench,org.eclipse.ui.workbench,3.7.1.v20120104-1859,"",1352553946153
deactivated,workbench,org.eclipse.ui.workbench,3.7.1.v20120104-1859,"",1352553950770
activated,workbench,org.eclipse.ui.workbench,3.7.1.v20120104-1859,"",1352553951475
opened,editor,org.eclipse.jdt.ui,3.7.2.v20120109-1427,"org.eclipse.jdt.ui.ClassFileEditor",1352553953622
activated,editor,org.eclipse.jdt.ui,3.7.2.v20120109-1427,"org.eclipse.jdt.ui.ClassFileEditor",1352553953925
activated,editor,org.eclipse.jdt.ui,3.7.2.v20120109-1427,"org.eclipse.jdt.ui.CompilationUnitEditor",1352553957827
executed,command,org.eclipse.ui,3.7.0.v20110928-1505,"org.eclipse.ui.navigate.backwardHistory",1352553957844
executed,command,org.eclipse.ui,3.7.0.v20110928-1505,"org.eclipse.ui.edit.text.contentAssist.proposals",1352553963699
executed,command,org.eclipse.ui,3.7.0.v20110928-1505,"org.eclipse.ui.edit.text.contentAssist.proposals",1352553965727
activated,editor,org.eclipse.jdt.ui,3.7.2.v20120109-1427,"org.eclipse.jdt.ui.ClassFileEditor",1352553975842
opened,editor,org.eclipse.jdt.ui,3.7.2.v20120109-1427,"org.eclipse.jdt.ui.ClassFileEditor",1352553977524
activated,editor,org.eclipse.jdt.ui,3.7.2.v20120109-1427,"org.eclipse.jdt.ui.ClassFileEditor",1352553977611
executed,command,org.eclipse.ui,3.7.0.v20110928-1505,"org.eclipse.ui.edit.copy",1352553983774
deactivated,workbench,org.eclipse.ui.workbench,3.7.1.v20120104-1859,"",1352553986014
activated,workbench,org.eclipse.ui.workbench,3.7.1.v20120104-1859,"",1352553988542
opened,editor,org.eclipse.jdt.ui,3.7.2.v20120109-1427,"org.eclipse.jdt.ui.CompilationUnitEditor",1352553988669
activated,editor,org.eclipse.jdt.ui,3.7.2.v20120109-1427,"org.eclipse.jdt.ui.CompilationUnitEditor",1352553988778
