what,kind,bundleId,bundleVersion,description,time
activated,workbench,org.eclipse.ui.workbench,3.7.1.v20120104-1859,"",1367844688155
deactivated,workbench,org.eclipse.ui.workbench,3.7.1.v20120104-1859,"",1367844689556
activated,workbench,org.eclipse.ui.workbench,3.7.1.v20120104-1859,"",1367844690409
activated,editor,org.eclipse.jdt.ui,3.7.2.v20120109-1427,"org.eclipse.jdt.ui.ClassFileEditor",1367844691223
activated,view,org.eclipse.debug.ui,3.7.102.v20111129-1423_r372,"org.eclipse.debug.ui.DebugView",1367844692729
executed,command,org.eclipse.debug.ui,3.7.102.v20111129-1423_r372,"org.eclipse.debug.ui.commands.Resume",1367844692852
activated,editor,org.eclipse.jdt.ui,3.7.2.v20120109-1427,"org.eclipse.jdt.ui.CompilationUnitEditor",1367844694402
executed,command,org.eclipse.ui,3.7.0.v20110928-1505,"org.eclipse.ui.navigate.backwardHistory",1367844694429
executed,command,org.eclipse.ui,3.7.0.v20110928-1505,"org.eclipse.ui.edit.copy",1367844713049
executed,command,org.eclipse.ui,3.7.0.v20110928-1505,"org.eclipse.ui.edit.paste",1367844717529
executed,command,org.eclipse.ui,3.7.0.v20110928-1505,"org.eclipse.ui.edit.paste",1367844722616
executed,command,org.eclipse.ui,3.7.0.v20110928-1505,"org.eclipse.ui.file.save",1367844729174
deactivated,workbench,org.eclipse.ui.workbench,3.7.1.v20120104-1859,"",1367844732325
activated,workbench,org.eclipse.ui.workbench,3.7.1.v20120104-1859,"",1367844733020
activated,editor,org.eclipse.jdt.ui,3.7.2.v20120109-1427,"org.eclipse.jdt.ui.ClassFileEditor",1367844733620
activated,view,org.eclipse.debug.ui,3.7.102.v20111129-1423_r372,"org.eclipse.debug.ui.DebugView",1367844735254
executed,command,org.eclipse.debug.ui,3.7.102.v20111129-1423_r372,"org.eclipse.debug.ui.commands.Resume",1367844735374
activated,editor,org.eclipse.jdt.ui,3.7.2.v20120109-1427,"org.eclipse.jdt.ui.CompilationUnitEditor",1367844737780
executed,command,org.eclipse.ui,3.7.0.v20110928-1505,"org.eclipse.ui.navigate.backwardHistory",1367844737798
executed,command,org.eclipse.ui,3.7.0.v20110928-1505,"org.eclipse.ui.edit.cut",1367844740357
executed,command,org.eclipse.ui,3.7.0.v20110928-1505,"org.eclipse.ui.edit.paste",1367844751986
executed,command,org.eclipse.ui,3.7.0.v20110928-1505,"org.eclipse.ui.edit.undo",1367844754414
executed,command,org.eclipse.ui,3.7.0.v20110928-1505,"org.eclipse.ui.edit.undo",1367844755145
executed,command,org.eclipse.ui,3.7.0.v20110928-1505,"org.eclipse.ui.edit.cut",1367844758690
executed,command,org.eclipse.ui,3.7.0.v20110928-1505,"org.eclipse.ui.edit.paste",1367844763767
executed,command,org.eclipse.jdt.ui,3.7.2.v20120109-1427,"org.eclipse.jdt.ui.edit.text.java.toggle.comment",1367844770414
executed,command,org.eclipse.ui,3.7.0.v20110928-1505,"org.eclipse.ui.edit.text.contentAssist.proposals",1367844773559
executed,command,org.eclipse.ui,3.7.0.v20110928-1505,"org.eclipse.ui.file.save",1367844775262
deactivated,workbench,org.eclipse.ui.workbench,3.7.1.v20120104-1859,"",1367844777932
activated,workbench,org.eclipse.ui.workbench,3.7.1.v20120104-1859,"",1367844784184
deactivated,workbench,org.eclipse.ui.workbench,3.7.1.v20120104-1859,"",1367844803127
activated,workbench,org.eclipse.ui.workbench,3.7.1.v20120104-1859,"",1367844821990
deactivated,workbench,org.eclipse.ui.workbench,3.7.1.v20120104-1859,"",1367844825407
activated,workbench,org.eclipse.ui.workbench,3.7.1.v20120104-1859,"",1367844844749
deactivated,workbench,org.eclipse.ui.workbench,3.7.1.v20120104-1859,"",1367844847509
activated,workbench,org.eclipse.ui.workbench,3.7.1.v20120104-1859,"",1367844847893
executed,command,org.eclipse.ui.workbench.texteditor,3.7.0.v20110928-1504,"org.eclipse.ui.edit.text.select.lineStart",1367844862805
executed,command,org.eclipse.ui,3.7.0.v20110928-1505,"org.eclipse.ui.edit.cut",1367844863310
executed,command,org.eclipse.ui,3.7.0.v20110928-1505,"org.eclipse.ui.edit.paste",1367844864465
executed,command,org.eclipse.ui.workbench.texteditor,3.7.0.v20110928-1504,"org.eclipse.ui.edit.text.select.lineStart",1367844865821
executed,command,org.eclipse.ui,3.7.0.v20110928-1505,"org.eclipse.ui.edit.cut",1367844866186
executed,command,org.eclipse.ui,3.7.0.v20110928-1505,"org.eclipse.ui.edit.paste",1367844869441
executed,command,org.eclipse.ui,3.7.0.v20110928-1505,"org.eclipse.ui.edit.copy",1367844879484
executed,command,org.eclipse.ui,3.7.0.v20110928-1505,"org.eclipse.ui.edit.selectAll",1367844885694
executed,command,org.eclipse.jdt.ui,3.7.2.v20120109-1427,"org.eclipse.jdt.ui.edit.text.java.indent",1367844885996
executed,command,org.eclipse.ui.workbench.texteditor,3.7.0.v20110928-1504,"org.eclipse.ui.edit.text.goto.lineEnd",1367844891348
executed,command,org.eclipse.ui,3.7.0.v20110928-1505,"org.eclipse.ui.edit.paste",1367844892766
executed,command,org.eclipse.ui.workbench.texteditor,3.7.0.v20110928-1504,"org.eclipse.ui.edit.text.goto.lineEnd",1367844899020
executed,command,org.eclipse.ui.workbench.texteditor,3.7.0.v20110928-1504,"org.eclipse.ui.edit.text.select.lineStart",1367844899276
executed,command,org.eclipse.ui.workbench.texteditor,3.7.0.v20110928-1504,"org.eclipse.ui.edit.text.select.lineStart",1367844899428
executed,command,org.eclipse.jdt.ui,3.7.2.v20120109-1427,"org.eclipse.jdt.ui.edit.text.java.toggle.comment",1367844901479
executed,command,org.eclipse.ui,3.7.0.v20110928-1505,"org.eclipse.ui.file.save",1367844907081
deactivated,workbench,org.eclipse.ui.workbench,3.7.1.v20120104-1859,"",1367844907500
activated,workbench,org.eclipse.ui.workbench,3.7.1.v20120104-1859,"",1367844909956
deactivated,workbench,org.eclipse.ui.workbench,3.7.1.v20120104-1859,"",1367844911067
activated,workbench,org.eclipse.ui.workbench,3.7.1.v20120104-1859,"",1367844914442
activated,editor,org.eclipse.jdt.ui,3.7.2.v20120109-1427,"org.eclipse.jdt.ui.ClassFileEditor",1367844914944
activated,view,org.eclipse.debug.ui,3.7.102.v20111129-1423_r372,"org.eclipse.debug.ui.DebugView",1367844917122
executed,command,org.eclipse.debug.ui,3.7.102.v20111129-1423_r372,"org.eclipse.debug.ui.commands.Resume",1367844917278
activated,editor,org.eclipse.jdt.ui,3.7.2.v20120109-1427,"org.eclipse.jdt.ui.CompilationUnitEditor",1367844919289
executed,command,org.eclipse.ui,3.7.0.v20110928-1505,"org.eclipse.ui.navigate.backwardHistory",1367844919307
executed,command,,,"AUTOGEN:::org.eclipse.jdt.debug.CompilationUnitEditor.BreakpointRulerActions/org.eclipse.jdt.debug.ui.actions.ManageBreakpointRulerAction",1367844921083
error,log,,,"File not found: /Users/pky1030/Desktop/workspace/xxx/META-INF/MANIFEST.MF.",1367844922119
deactivated,workbench,org.eclipse.ui.workbench,3.7.1.v20120104-1859,"",1367844923677
activated,workbench,org.eclipse.ui.workbench,3.7.1.v20120104-1859,"",1367844926272
activated,view,org.eclipse.debug.ui,3.7.102.v20111129-1423_r372,"org.eclipse.debug.ui.VariableView",1367844932113
activated,view,org.eclipse.debug.ui,3.7.102.v20111129-1423_r372,"org.eclipse.debug.ui.DebugView",1367844945621
executed,command,org.eclipse.debug.ui,3.7.102.v20111129-1423_r372,"org.eclipse.debug.ui.commands.StepOver",1367844945797
executed,command,org.eclipse.debug.ui,3.7.102.v20111129-1423_r372,"org.eclipse.debug.ui.commands.Terminate",1367844948185
activated,editor,org.eclipse.jdt.ui,3.7.2.v20120109-1427,"org.eclipse.jdt.ui.CompilationUnitEditor",1367844949215
executed,command,org.eclipse.ui,3.7.0.v20110928-1505,"org.eclipse.ui.navigate.backwardHistory",1367844949271
deactivated,workbench,org.eclipse.ui.workbench,3.7.1.v20120104-1859,"",1367844953912
activated,workbench,org.eclipse.ui.workbench,3.7.1.v20120104-1859,"",1367844966292
deactivated,workbench,org.eclipse.ui.workbench,3.7.1.v20120104-1859,"",1367844981592
activated,workbench,org.eclipse.ui.workbench,3.7.1.v20120104-1859,"",1367845121912
executed,command,org.eclipse.ui,3.7.0.v20110928-1505,"org.eclipse.ui.file.save",1367845145630
deactivated,workbench,org.eclipse.ui.workbench,3.7.1.v20120104-1859,"",1367845147158
activated,workbench,org.eclipse.ui.workbench,3.7.1.v20120104-1859,"",1367845150057
deactivated,workbench,org.eclipse.ui.workbench,3.7.1.v20120104-1859,"",1367845151726
activated,workbench,org.eclipse.ui.workbench,3.7.1.v20120104-1859,"",1367845153572
deactivated,workbench,org.eclipse.ui.workbench,3.7.1.v20120104-1859,"",1367845157328
activated,workbench,org.eclipse.ui.workbench,3.7.1.v20120104-1859,"",1367845162336
executed,command,org.eclipse.ui,3.7.0.v20110928-1505,"org.eclipse.ui.edit.copy",1367845443660
executed,command,org.eclipse.ui,3.7.0.v20110928-1505,"org.eclipse.ui.edit.cut",1367845444118
executed,command,org.eclipse.ui,3.7.0.v20110928-1505,"org.eclipse.ui.file.save",1367845444874
error,log,,,"File not found: /Users/pky1030/Desktop/workspace/xxx/META-INF/MANIFEST.MF.",1367845445538
deactivated,workbench,org.eclipse.ui.workbench,3.7.1.v20120104-1859,"",1367845451991
activated,workbench,org.eclipse.ui.workbench,3.7.1.v20120104-1859,"",1367845755142
executed,command,org.eclipse.ui,3.7.0.v20110928-1505,"org.eclipse.ui.edit.copy",1367845759195
deactivated,workbench,org.eclipse.ui.workbench,3.7.1.v20120104-1859,"",1367845759514
activated,workbench,org.eclipse.ui.workbench,3.7.1.v20120104-1859,"",1367845791788
activated,perspective,org.eclipse.jdt.ui,3.7.2.v20120109-1427,"org.eclipse.jdt.ui.JavaPerspective",1367845793499
activated,view,org.eclipse.jdt.ui,3.7.2.v20120109-1427,"org.eclipse.jdt.ui.PackageExplorer",1367845817338
deactivated,workbench,org.eclipse.ui.workbench,3.7.1.v20120104-1859,"",1367845821606
executed,command,org.eclipse.ui,3.7.0.v20110928-1505,"org.eclipse.ui.edit.paste",1367845829163
opened,editor,org.eclipse.jdt.ui,3.7.2.v20120109-1427,"org.eclipse.jdt.ui.CompilationUnitEditor",1367845830604
activated,editor,org.eclipse.jdt.ui,3.7.2.v20120109-1427,"org.eclipse.jdt.ui.CompilationUnitEditor",1367845830728
activated,workbench,org.eclipse.ui.workbench,3.7.1.v20120104-1859,"",1367845832231
executed,command,org.eclipse.ui,3.7.0.v20110928-1505,"org.eclipse.ui.edit.paste",1367845834279
executed,command,org.eclipse.ui,3.7.0.v20110928-1505,"org.eclipse.ui.edit.delete",1367845849411
executed,command,org.eclipse.ui.workbench.texteditor,3.7.0.v20110928-1504,"org.eclipse.ui.edit.text.goto.textEnd",1367845850995
executed,command,org.eclipse.ui.workbench.texteditor,3.7.0.v20110928-1504,"org.eclipse.ui.edit.text.goto.textEnd",1367845851153
executed,command,org.eclipse.ui,3.7.0.v20110928-1505,"org.eclipse.ui.edit.selectAll",1367845853035
executed,command,org.eclipse.jdt.ui,3.7.2.v20120109-1427,"org.eclipse.jdt.ui.edit.text.java.indent",1367845853287
deactivated,workbench,org.eclipse.ui.workbench,3.7.1.v20120104-1859,"",1367845880662
activated,workbench,org.eclipse.ui.workbench,3.7.1.v20120104-1859,"",1367845885216
executed,command,org.eclipse.ui,3.7.0.v20110928-1505,"org.eclipse.ui.edit.selectAll",1367845885797
executed,command,org.eclipse.ui,3.7.0.v20110928-1505,"org.eclipse.ui.edit.paste",1367845886067
executed,command,org.eclipse.ui,3.7.0.v20110928-1505,"org.eclipse.ui.edit.undo",1367845889096
deactivated,workbench,org.eclipse.ui.workbench,3.7.1.v20120104-1859,"",1367845890236
activated,workbench,org.eclipse.ui.workbench,3.7.1.v20120104-1859,"",1367845901400
executed,command,org.eclipse.ui,3.7.0.v20110928-1505,"org.eclipse.ui.edit.selectAll",1367845901882
executed,command,org.eclipse.ui,3.7.0.v20110928-1505,"org.eclipse.ui.edit.paste",1367845902183
executed,command,,,"AUTOGEN:::org.eclipse.jdt.internal.ui.CompilationUnitEditor.ruler.actions/org.eclipse.jdt.internal.ui.javaeditor.JavaSelectRulerAction",1367845906074
deactivated,workbench,org.eclipse.ui.workbench,3.7.1.v20120104-1859,"",1367845906706
activated,workbench,org.eclipse.ui.workbench,3.7.1.v20120104-1859,"",1367845907040
executed,command,org.eclipse.ui.workbench.texteditor,3.7.0.v20110928-1504,"org.eclipse.ui.edit.text.select.lineStart",1367845912376
executed,command,org.eclipse.ui,3.7.0.v20110928-1505,"org.eclipse.ui.edit.cut",1367845912697
executed,command,org.eclipse.ui,3.7.0.v20110928-1505,"org.eclipse.ui.file.save",1367845913460
executed,command,org.eclipse.jdt.debug.ui,3.6.1.v20111006_r372,"org.eclipse.jdt.debug.ui.localJavaShortcut.run",1367845916741
deactivated,workbench,org.eclipse.ui.workbench,3.7.1.v20120104-1859,"",1367845917543
activated,workbench,org.eclipse.ui.workbench,3.7.1.v20120104-1859,"",1367845917828
executed,command,org.eclipse.ui,3.7.0.v20110928-1505,"org.eclipse.ui.edit.selectAll",1367845924746
executed,command,org.eclipse.jdt.ui,3.7.2.v20120109-1427,"org.eclipse.jdt.ui.edit.text.java.indent",1367845925056
deactivated,workbench,org.eclipse.ui.workbench,3.7.1.v20120104-1859,"",1367845938419
activated,workbench,org.eclipse.ui.workbench,3.7.1.v20120104-1859,"",1367845944223
deactivated,workbench,org.eclipse.ui.workbench,3.7.1.v20120104-1859,"",1367845967650
activated,view,org.eclipse.jdt.ui,3.7.2.v20120109-1427,"org.eclipse.jdt.ui.PackageExplorer",1367846040179
activated,workbench,org.eclipse.ui.workbench,3.7.1.v20120104-1859,"",1367846040289
executed,command,org.eclipse.ui,3.7.0.v20110928-1505,"org.eclipse.ui.edit.paste",1367846049713
deactivated,workbench,org.eclipse.ui.workbench,3.7.1.v20120104-1859,"",1367846052988
activated,workbench,org.eclipse.ui.workbench,3.7.1.v20120104-1859,"",1367846054063
deactivated,workbench,org.eclipse.ui.workbench,3.7.1.v20120104-1859,"",1367846054346
executed,command,org.eclipse.ui,3.7.0.v20110928-1505,"org.eclipse.ui.edit.copy",1367846055217
activated,workbench,org.eclipse.ui.workbench,3.7.1.v20120104-1859,"",1367846055271
executed,command,org.eclipse.ui,3.7.0.v20110928-1505,"org.eclipse.ui.edit.rename",1367846055358
activated,editor,org.eclipse.jdt.ui,3.7.2.v20120109-1427,"org.eclipse.jdt.ui.CompilationUnitEditor",1367846060290
executed,command,org.eclipse.ui,3.7.0.v20110928-1505,"org.eclipse.ui.edit.paste",1367846065621
executed,command,org.eclipse.ui,3.7.0.v20110928-1505,"org.eclipse.ui.edit.undo",1367846066256
executed,command,org.eclipse.ui,3.7.0.v20110928-1505,"org.eclipse.ui.edit.paste",1367846072382
executed,command,org.eclipse.ui.workbench.texteditor,3.7.0.v20110928-1504,"org.eclipse.ui.edit.text.goto.lineEnd",1367846078069
executed,command,org.eclipse.ui,3.7.0.v20110928-1505,"org.eclipse.ui.file.save",1367846079547
executed,command,org.eclipse.jdt.debug.ui,3.6.1.v20111006_r372,"org.eclipse.jdt.debug.ui.localJavaShortcut.run",1367846082901
deactivated,workbench,org.eclipse.ui.workbench,3.7.1.v20120104-1859,"",1367846083659
activated,workbench,org.eclipse.ui.workbench,3.7.1.v20120104-1859,"",1367846089585
opened,editor,org.eclipse.jdt.ui,3.7.2.v20120109-1427,"org.eclipse.jdt.ui.CompilationUnitEditor",1367846091179
activated,editor,org.eclipse.jdt.ui,3.7.2.v20120109-1427,"org.eclipse.jdt.ui.CompilationUnitEditor",1367846091285
deactivated,workbench,org.eclipse.ui.workbench,3.7.1.v20120104-1859,"",1367846094328
error,log,,,"File not found: /Users/pky1030/Desktop/workspace/xxx/META-INF/MANIFEST.MF.",1367846130141
activated,workbench,org.eclipse.ui.workbench,3.7.1.v20120104-1859,"",1367846189625
deactivated,workbench,org.eclipse.ui.workbench,3.7.1.v20120104-1859,"",1367846191462
activated,workbench,org.eclipse.ui.workbench,3.7.1.v20120104-1859,"",1367846194684
activated,view,org.eclipse.jdt.ui,3.7.2.v20120109-1427,"org.eclipse.jdt.ui.PackageExplorer",1367846195390
deactivated,workbench,org.eclipse.ui.workbench,3.7.1.v20120104-1859,"",1367846198212
executed,command,org.eclipse.ui,3.7.0.v20110928-1505,"org.eclipse.ui.edit.paste",1367846198426
opened,editor,org.eclipse.jdt.ui,3.7.2.v20120109-1427,"org.eclipse.jdt.ui.CompilationUnitEditor",1367846201669
activated,editor,org.eclipse.jdt.ui,3.7.2.v20120109-1427,"org.eclipse.jdt.ui.CompilationUnitEditor",1367846201778
activated,workbench,org.eclipse.ui.workbench,3.7.1.v20120104-1859,"",1367846206249
executed,command,org.eclipse.ui,3.7.0.v20110928-1505,"org.eclipse.ui.edit.paste",1367846207985
executed,command,org.eclipse.ui,3.7.0.v20110928-1505,"org.eclipse.ui.file.save",1367846209219
executed,command,org.eclipse.jdt.debug.ui,3.6.1.v20111006_r372,"org.eclipse.jdt.debug.ui.localJavaShortcut.run",1367846212368
deactivated,workbench,org.eclipse.ui.workbench,3.7.1.v20120104-1859,"",1367846213057
activated,workbench,org.eclipse.ui.workbench,3.7.1.v20120104-1859,"",1367846216067
executed,command,org.eclipse.ui.workbench.texteditor,3.7.0.v20110928-1504,"org.eclipse.ui.edit.text.goto.lineStart",1367846223673
executed,command,org.eclipse.ui.workbench.texteditor,3.7.0.v20110928-1504,"org.eclipse.ui.edit.text.select.lineEnd",1367846224145
executed,command,org.eclipse.ui,3.7.0.v20110928-1505,"org.eclipse.ui.edit.copy",1367846224650
deactivated,workbench,org.eclipse.ui.workbench,3.7.1.v20120104-1859,"",1367846237084
activated,workbench,org.eclipse.ui.workbench,3.7.1.v20120104-1859,"",1367846244132
activated,view,org.eclipse.jdt.ui,3.7.2.v20120109-1427,"org.eclipse.jdt.ui.PackageExplorer",1367846244959
activated,editor,org.eclipse.jdt.ui,3.7.2.v20120109-1427,"org.eclipse.jdt.ui.CompilationUnitEditor",1367846246468
executed,command,org.eclipse.ui,3.7.0.v20110928-1505,"org.eclipse.ui.edit.selectAll",1367846246705
executed,command,org.eclipse.jdt.ui,3.7.2.v20120109-1427,"org.eclipse.jdt.ui.edit.text.java.indent",1367846247084
executed,command,org.eclipse.ui.workbench.texteditor,3.7.0.v20110928-1504,"org.eclipse.ui.edit.text.select.lineEnd",1367846249015
executed,command,org.eclipse.ui,3.7.0.v20110928-1505,"org.eclipse.ui.edit.paste",1367846251328
executed,command,org.eclipse.ui,3.7.0.v20110928-1505,"org.eclipse.ui.edit.undo",1367846252118
deactivated,workbench,org.eclipse.ui.workbench,3.7.1.v20120104-1859,"",1367846272313
activated,workbench,org.eclipse.ui.workbench,3.7.1.v20120104-1859,"",1367846273155
deactivated,workbench,org.eclipse.ui.workbench,3.7.1.v20120104-1859,"",1367846280994
activated,workbench,org.eclipse.ui.workbench,3.7.1.v20120104-1859,"",1367846281510
executed,command,org.eclipse.jdt.ui,3.7.2.v20120109-1427,"org.eclipse.jdt.ui.edit.text.java.toggle.comment",1367846291986
executed,command,org.eclipse.jdt.ui,3.7.2.v20120109-1427,"org.eclipse.jdt.ui.edit.text.java.toggle.comment",1367846306530
executed,command,org.eclipse.ui,3.7.0.v20110928-1505,"org.eclipse.ui.file.save",1367846331601
executed,command,org.eclipse.jdt.debug.ui,3.6.1.v20111006_r372,"org.eclipse.jdt.debug.ui.localJavaShortcut.run",1367846335977
deactivated,workbench,org.eclipse.ui.workbench,3.7.1.v20120104-1859,"",1367846336707
activated,workbench,org.eclipse.ui.workbench,3.7.1.v20120104-1859,"",1367846342301
executed,command,org.eclipse.ui,3.7.0.v20110928-1505,"org.eclipse.ui.edit.copy",1367846346302
executed,command,org.eclipse.jdt.ui,3.7.2.v20120109-1427,"org.eclipse.jdt.ui.edit.text.java.toggle.comment",1367846353338
executed,command,org.eclipse.ui.workbench.texteditor,3.7.0.v20110928-1504,"org.eclipse.ui.edit.text.goto.lineEnd",1367846354313
executed,command,org.eclipse.ui,3.7.0.v20110928-1505,"org.eclipse.ui.edit.paste",1367846354975
executed,command,org.eclipse.ui,3.7.0.v20110928-1505,"org.eclipse.ui.file.save",1367846364251
executed,command,org.eclipse.jdt.debug.ui,3.6.1.v20111006_r372,"org.eclipse.jdt.debug.ui.localJavaShortcut.run",1367846367818
deactivated,workbench,org.eclipse.ui.workbench,3.7.1.v20120104-1859,"",1367846368695
activated,workbench,org.eclipse.ui.workbench,3.7.1.v20120104-1859,"",1367846371073
executed,command,org.eclipse.ui,3.7.0.v20110928-1505,"org.eclipse.ui.edit.text.contentAssist.proposals",1367846374368
executed,command,org.eclipse.ui,3.7.0.v20110928-1505,"org.eclipse.ui.file.save",1367846382269
activated,view,org.eclipse.ui.console,3.5.100.v20111007_r372,"org.eclipse.ui.console.ConsoleView",1367846383220
activated,editor,org.eclipse.jdt.ui,3.7.2.v20120109-1427,"org.eclipse.jdt.ui.CompilationUnitEditor",1367846384410
executed,command,org.eclipse.jdt.debug.ui,3.6.1.v20111006_r372,"org.eclipse.jdt.debug.ui.localJavaShortcut.run",1367846386693
deactivated,workbench,org.eclipse.ui.workbench,3.7.1.v20120104-1859,"",1367846387464
activated,workbench,org.eclipse.ui.workbench,3.7.1.v20120104-1859,"",1367846391827
deactivated,workbench,org.eclipse.ui.workbench,3.7.1.v20120104-1859,"",1367846392323
activated,workbench,org.eclipse.ui.workbench,3.7.1.v20120104-1859,"",1367846392796
deactivated,workbench,org.eclipse.ui.workbench,3.7.1.v20120104-1859,"",1367846393709
activated,workbench,org.eclipse.ui.workbench,3.7.1.v20120104-1859,"",1367846396899
deactivated,workbench,org.eclipse.ui.workbench,3.7.1.v20120104-1859,"",1367846400166
activated,workbench,org.eclipse.ui.workbench,3.7.1.v20120104-1859,"",1367846400778
deactivated,workbench,org.eclipse.ui.workbench,3.7.1.v20120104-1859,"",1367846405182
activated,workbench,org.eclipse.ui.workbench,3.7.1.v20120104-1859,"",1367846405988
executed,command,org.eclipse.ui,3.7.0.v20110928-1505,"org.eclipse.ui.file.save",1367846413292
activated,view,org.eclipse.ui.console,3.5.100.v20111007_r372,"org.eclipse.ui.console.ConsoleView",1367846414067
activated,editor,org.eclipse.jdt.ui,3.7.2.v20120109-1427,"org.eclipse.jdt.ui.CompilationUnitEditor",1367846415273
executed,command,org.eclipse.jdt.debug.ui,3.6.1.v20111006_r372,"org.eclipse.jdt.debug.ui.localJavaShortcut.run",1367846417422
deactivated,workbench,org.eclipse.ui.workbench,3.7.1.v20120104-1859,"",1367846418137
activated,workbench,org.eclipse.ui.workbench,3.7.1.v20120104-1859,"",1367846421982
executed,command,org.eclipse.ui,3.7.0.v20110928-1505,"org.eclipse.ui.file.save",1367846449296
activated,view,org.eclipse.ui.console,3.5.100.v20111007_r372,"org.eclipse.ui.console.ConsoleView",1367846450008
activated,editor,org.eclipse.jdt.ui,3.7.2.v20120109-1427,"org.eclipse.jdt.ui.CompilationUnitEditor",1367846462021
executed,command,org.eclipse.jdt.debug.ui,3.6.1.v20111006_r372,"org.eclipse.jdt.debug.ui.localJavaShortcut.run",1367846464647
deactivated,workbench,org.eclipse.ui.workbench,3.7.1.v20120104-1859,"",1367846465396
activated,workbench,org.eclipse.ui.workbench,3.7.1.v20120104-1859,"",1367846469324
deactivated,workbench,org.eclipse.ui.workbench,3.7.1.v20120104-1859,"",1367846469929
activated,workbench,org.eclipse.ui.workbench,3.7.1.v20120104-1859,"",1367846470443
deactivated,workbench,org.eclipse.ui.workbench,3.7.1.v20120104-1859,"",1367846471310
activated,workbench,org.eclipse.ui.workbench,3.7.1.v20120104-1859,"",1367846473320
deactivated,workbench,org.eclipse.ui.workbench,3.7.1.v20120104-1859,"",1367846475225
activated,workbench,org.eclipse.ui.workbench,3.7.1.v20120104-1859,"",1367846478192
deactivated,workbench,org.eclipse.ui.workbench,3.7.1.v20120104-1859,"",1367846479410
activated,workbench,org.eclipse.ui.workbench,3.7.1.v20120104-1859,"",1367846480195
error,log,,,"File not found: /Users/pky1030/Desktop/workspace/xxx/META-INF/MANIFEST.MF.",1367846501181
executed,command,org.eclipse.ui,3.7.0.v20110928-1505,"org.eclipse.ui.edit.undo",1367846511519
executed,command,org.eclipse.ui,3.7.0.v20110928-1505,"org.eclipse.ui.edit.undo",1367846511841
executed,command,org.eclipse.ui,3.7.0.v20110928-1505,"org.eclipse.ui.file.save",1367846520125
activated,view,org.eclipse.ui.console,3.5.100.v20111007_r372,"org.eclipse.ui.console.ConsoleView",1367846521119
activated,editor,org.eclipse.jdt.ui,3.7.2.v20120109-1427,"org.eclipse.jdt.ui.CompilationUnitEditor",1367846522401
executed,command,org.eclipse.jdt.debug.ui,3.6.1.v20111006_r372,"org.eclipse.jdt.debug.ui.localJavaShortcut.run",1367846525204
deactivated,workbench,org.eclipse.ui.workbench,3.7.1.v20120104-1859,"",1367846525944
activated,workbench,org.eclipse.ui.workbench,3.7.1.v20120104-1859,"",1367846529735
executed,command,org.eclipse.ui.workbench.texteditor,3.7.0.v20110928-1504,"org.eclipse.ui.edit.text.select.lineStart",1367846532217
executed,command,org.eclipse.ui,3.7.0.v20110928-1505,"org.eclipse.ui.edit.copy",1367846532490
deactivated,workbench,org.eclipse.ui.workbench,3.7.1.v20120104-1859,"",1367846534240
activated,workbench,org.eclipse.ui.workbench,3.7.1.v20120104-1859,"",1367846534974
deactivated,workbench,org.eclipse.ui.workbench,3.7.1.v20120104-1859,"",1367846539888
activated,workbench,org.eclipse.ui.workbench,3.7.1.v20120104-1859,"",1367846540552
executed,command,org.eclipse.jdt.ui,3.7.2.v20120109-1427,"org.eclipse.jdt.ui.edit.text.java.toggle.comment",1367846543488
executed,command,org.eclipse.ui,3.7.0.v20110928-1505,"org.eclipse.ui.edit.paste",1367846544734
executed,command,org.eclipse.ui,3.7.0.v20110928-1505,"org.eclipse.ui.edit.copy",1367846546358
executed,command,org.eclipse.ui,3.7.0.v20110928-1505,"org.eclipse.ui.edit.paste",1367846547356
executed,command,org.eclipse.ui,3.7.0.v20110928-1505,"org.eclipse.ui.edit.paste",1367846548501
executed,command,org.eclipse.ui,3.7.0.v20110928-1505,"org.eclipse.ui.file.save",1367846557444
activated,view,org.eclipse.ui.console,3.5.100.v20111007_r372,"org.eclipse.ui.console.ConsoleView",1367846558443
activated,editor,org.eclipse.jdt.ui,3.7.2.v20120109-1427,"org.eclipse.jdt.ui.CompilationUnitEditor",1367846559969
executed,command,org.eclipse.jdt.debug.ui,3.6.1.v20111006_r372,"org.eclipse.jdt.debug.ui.localJavaShortcut.run",1367846561770
deactivated,workbench,org.eclipse.ui.workbench,3.7.1.v20120104-1859,"",1367846562527
activated,workbench,org.eclipse.ui.workbench,3.7.1.v20120104-1859,"",1367846565724
executed,command,org.eclipse.ui.workbench.texteditor,3.7.0.v20110928-1504,"org.eclipse.ui.edit.text.goto.lineEnd",1367846571664
executed,command,org.eclipse.ui.workbench.texteditor,3.7.0.v20110928-1504,"org.eclipse.ui.edit.text.select.lineStart",1367846572485
executed,command,org.eclipse.ui,3.7.0.v20110928-1505,"org.eclipse.ui.edit.copy",1367846572737
executed,command,org.eclipse.ui.workbench.texteditor,3.7.0.v20110928-1504,"org.eclipse.ui.edit.text.select.lineEnd",1367846575272
executed,command,org.eclipse.ui,3.7.0.v20110928-1505,"org.eclipse.ui.edit.paste",1367846575695
executed,command,org.eclipse.ui,3.7.0.v20110928-1505,"org.eclipse.ui.edit.copy",1367846577319
executed,command,org.eclipse.ui,3.7.0.v20110928-1505,"org.eclipse.ui.edit.paste",1367846578417
executed,command,org.eclipse.ui,3.7.0.v20110928-1505,"org.eclipse.ui.edit.paste",1367846580140
executed,command,org.eclipse.ui,3.7.0.v20110928-1505,"org.eclipse.ui.file.save",1367846588334
activated,view,org.eclipse.ui.console,3.5.100.v20111007_r372,"org.eclipse.ui.console.ConsoleView",1367846593434
activated,editor,org.eclipse.jdt.ui,3.7.2.v20120109-1427,"org.eclipse.jdt.ui.CompilationUnitEditor",1367846594495
executed,command,org.eclipse.jdt.debug.ui,3.6.1.v20111006_r372,"org.eclipse.jdt.debug.ui.localJavaShortcut.run",1367846596270
deactivated,workbench,org.eclipse.ui.workbench,3.7.1.v20120104-1859,"",1367846596999
activated,workbench,org.eclipse.ui.workbench,3.7.1.v20120104-1859,"",1367846599779
executed,command,org.eclipse.ui,3.7.0.v20110928-1505,"org.eclipse.ui.file.save",1367846603895
activated,view,org.eclipse.ui.console,3.5.100.v20111007_r372,"org.eclipse.ui.console.ConsoleView",1367846604915
activated,editor,org.eclipse.jdt.ui,3.7.2.v20120109-1427,"org.eclipse.jdt.ui.CompilationUnitEditor",1367846606119
executed,command,org.eclipse.jdt.debug.ui,3.6.1.v20111006_r372,"org.eclipse.jdt.debug.ui.localJavaShortcut.run",1367846608375
deactivated,workbench,org.eclipse.ui.workbench,3.7.1.v20120104-1859,"",1367846609123
activated,workbench,org.eclipse.ui.workbench,3.7.1.v20120104-1859,"",1367846611605
executed,command,org.eclipse.ui,3.7.0.v20110928-1505,"org.eclipse.ui.edit.copy",1367846615610
