<?xml version="1.0" encoding="UTF-8"?>
<session version="1.0">
<refactoring comment="Copy 2 elements to &apos;uml/src/org.pky.uml.descriptor&apos;&#x0A;- Original project: &apos;uuu&apos;&#x0A;- Destination element: &apos;uml/src/org.pky.uml.descriptor&apos;&#x0A;- Original elements:&#x0A;     kr.co.n3soft.n3com.model.comm.descriptor.FileDialogPropertyDescriptor.java&#x0A;     kr.co.n3soft.n3com.model.comm.descriptor.FileDialogPropertyCellEditor.java" description="Copy compilation units" destination="=uml/src&lt;org.pky.uml.descriptor" element1="/src&lt;kr.co.n3soft.n3com.model.comm.descriptor{FileDialogPropertyDescriptor.java" element2="/src&lt;kr.co.n3soft.n3com.model.comm.descriptor{FileDialogPropertyCellEditor.java" files="0" flags="589830" folders="0" id="org.eclipse.jdt.ui.copy" policy="org.eclipse.jdt.ui.copyResources" stamp="1359963010901" units="2" version="1.0"/>
</session>